0.000000000000000000e+00 0.000000000000000000e+00 -2.220446049250313081e-16
1.004184100418409997e+00 5.781219670966830258e-04 5.653881768367283135e-04
2.008368200836819994e+00 2.644082037220230660e-03 2.629933518450170479e-03
3.012552301255229992e+00 7.393196463446525396e-03 7.375924165101536457e-03
4.016736401673639989e+00 1.649171735008679238e-02 1.647351827037395536e-02
5.020920502092049986e+00 3.195859029119305778e-02 3.194869645010729037e-02
6.025104602510459983e+00 5.604300498887264392e-02 5.604061517317947966e-02
7.029288702928869981e+00 9.091047914870030444e-02 9.091937742315792104e-02
8.033472803347279978e+00 1.382132652086887625e-01 1.382256079513991542e-01
9.037656903765689975e+00 1.986936603415049851e-01 1.987136312504787505e-01
1.004184100418409997e+01 2.719834824686369057e-01 2.720019825956298543e-01
1.104602510460250997e+01 3.565239739474577729e-01 3.565393211914988925e-01
1.205020920502091997e+01 4.496927352029615466e-01 4.497046165716696020e-01
1.305439330543932996e+01 5.480065723527269839e-01 5.480178416672898400e-01
1.405857740585773996e+01 6.474478167201221934e-01 6.474572954374724354e-01
1.506276150627614996e+01 7.437690903225013805e-01 7.437782463353925788e-01
1.606694560669455996e+01 8.328703872026469446e-01 8.328775210286203379e-01
1.707112970711296995e+01 9.110707316568166236e-01 9.110778008339699419e-01
1.807531380753137995e+01 9.753916541063155643e-01 9.753988543306122416e-01
1.907949790794978995e+01 1.023728598839856119e+00 1.023739105697936136e+00
2.008368200836819994e+01 1.054989368466332067e+00 1.055000382845345586e+00
2.108786610878660994e+01 1.069116717103721692e+00 1.069131965995238742e+00
2.209205020920501994e+01 1.067094714366234820e+00 1.067113339728188448e+00
2.309623430962342994e+01 1.050849631667198247e+00 1.050872138487370488e+00
2.410041841004183993e+01 1.023135228514072015e+00 1.023162759703493574e+00
2.510460251046024993e+01 9.873788504490109696e-01 9.874117204664947245e-01
2.610878661087865993e+01 9.475095364667575071e-01 9.475447426358268865e-01
2.711297071129706993e+01 9.077653888847656560e-01 9.077996532307783806e-01
2.811715481171547992e+01 8.724586708115841249e-01 8.724875197624226697e-01
2.912133891213388992e+01 8.456331215295104231e-01 8.456524340670921180e-01
3.012552301255229992e+01 8.304652568566645021e-01 8.304730708509019399e-01
3.112970711297070991e+01 8.284280452132525285e-01 8.284289048515820486e-01
3.213389121338911991e+01 8.387259459935734185e-01 8.387225952042232091e-01
3.313807531380753346e+01 8.586910745068754292e-01 8.586887529678139952e-01
3.414225941422593991e+01 8.849289744469113206e-01 8.849300409201903417e-01
3.514644351464434635e+01 9.142912847481642347e-01 9.142945210690154312e-01
3.615062761506275990e+01 9.442699683052967474e-01 9.442751158358615449e-01
3.715481171548117345e+01 9.730429433486124102e-01 9.730484572088741180e-01
3.815899581589957990e+01 9.993384101833858724e-01 9.993444695871509520e-01
3.916317991631798634e+01 1.022301695559348911e+00 1.022309607012877652e+00
4.016736401673639989e+01 1.041371757319762947e+00 1.041384097476548032e+00
4.117154811715481344e+01 1.056201201266614209e+00 1.056217512847577034e+00
4.217573221757321988e+01 1.066584493462761074e+00 1.066607141942976789e+00
4.317991631799162633e+01 1.072446617841206207e+00 1.072476121169205987e+00
4.418410041841003988e+01 1.073816474640264973e+00 1.073854356893999329e+00
4.518828451882845343e+01 1.070832737654855205e+00 1.070881006423490378e+00
4.619246861924685987e+01 1.063747023068643882e+00 1.063805066704719415e+00
4.719665271966526632e+01 1.052927078397821514e+00 1.052990426489538223e+00
4.820083682008367987e+01 1.038842305580069736e+00 1.038909854033780444e+00
4.920502092050209342e+01 1.022062363466787138e+00 1.022136126108253107e+00
5.020920502092049986e+01 1.003247755792803675e+00 1.003324037534665036e+00
5.121338912133890631e+01 9.831118220159522636e-01 9.831845999122972302e-01
5.221757322175731986e+01 9.623882777109807884e-01 9.624555237312686362e-01
5.322175732217573341e+01 9.418038975199797269e-01 9.418654815948959147e-01
5.422594142259413985e+01 9.220393162664666242e-01 9.220979385470500223e-01
5.523012552301254630e+01 9.037015542931069456e-01 9.037549354133996848e-01
5.623430962343095985e+01 8.872813768846673499e-01 8.873265544881092648e-01
5.723849372384937340e+01 8.731258616935934080e-01 8.731641708978832295e-01
5.824267782426777984e+01 8.614336816971359667e-01 8.614672110782077841e-01
5.924686192468618628e+01 8.522501918222479267e-01 8.522825178238414567e-01
6.025104602510459983e+01 8.454857227761113370e-01 8.455155758179753178e-01
6.125523012552301338e+01 8.409279267818662307e-01 8.409543163821047163e-01
6.225941422594141983e+01 8.382788856882884554e-01 8.383028316022431703e-01
6.326359832635982627e+01 8.371880378694296354e-01 8.372134618740476597e-01
6.426778242677823982e+01 8.372937879409937389e-01 8.373189733012766922e-01
6.527196652719665337e+01 8.382385511158417790e-01 8.382624161117997463e-01
6.627615062761506692e+01 8.396971766992474828e-01 8.397181709474210720e-01
6.728033472803346626e+01 8.413872042938647100e-01 8.414051580653960638e-01
6.828451882845187981e+01 8.430807267934261606e-01 8.430975608459227999e-01
6.928870292887029336e+01 8.446145500950238416e-01 8.446296816642013816e-01
7.029288702928869270e+01 8.458823044802253888e-01 8.458927289561432028e-01
7.129707112970710625e+01 8.468283185678823211e-01 8.468338408125422045e-01
7.230125523012551980e+01 8.474481110653990790e-01 8.474498173252269506e-01
7.330543933054393335e+01 8.477805385885588407e-01 8.477806711158561992e-01
7.430962343096234690e+01 8.479017971238292928e-01 8.478985240491068165e-01
7.531380753138074624e+01 8.479106052947021910e-01 8.479032591722175383e-01
7.631799163179915979e+01 8.479172588293485413e-01 8.479068538890586204e-01
7.732217573221757334e+01 8.480396862833927685e-01 8.480271895125808257e-01
7.832635983263597268e+01 8.483881473726118116e-01 8.483736671224573200e-01
7.933054393305438623e+01 8.490564671496562132e-01 8.490413406266036356e-01
8.033472803347279978e+01 8.501126513648681327e-01 8.500950568001963692e-01
8.133891213389121333e+01 8.515875572753690559e-01 8.515688486535191171e-01
8.234309623430962688e+01 8.534745294230178247e-01 8.534573813866264125e-01
8.334728033472802622e+01 8.557339329374530346e-01 8.557189782070885320e-01
8.435146443514643977e+01 8.582882260600178670e-01 8.582748036300966721e-01
8.535564853556485332e+01 8.610321663395289482e-01 8.610214265885438589e-01
8.635983263598325266e+01 8.638430395159423236e-01 8.638363370196496804e-01
8.736401673640166621e+01 8.665898451435268823e-01 8.665903512208678050e-01
8.836820083682007976e+01 8.691508351888900252e-01 8.691576539704451987e-01
8.937238493723849331e+01 8.714150832121428936e-01 8.714269728864785236e-01
9.037656903765690686e+01 8.732895465763416132e-01 8.733065370461197130e-01
9.138075313807530620e+01 8.747069546860340994e-01 8.747299640302088619e-01
9.238493723849371975e+01 8.756288984948962240e-01 8.756593541629991151e-01
9.338912133891213330e+01 8.760460353820519463e-01 8.760827309902041726e-01
9.439330543933053264e+01 8.759737551012317658e-01 8.760131630837777461e-01
9.539748953974894619e+01 8.754431146249667117e-01 8.754843069598858829e-01
9.640167364016735974e+01 8.744999835888149775e-01 8.745452737006005339e-01
9.740585774058577329e+01 8.732055896345726209e-01 8.732528576627600625e-01
9.841004184100418684e+01 8.716204486519348871e-01 8.716695128130695913e-01
9.941422594142258617e+01 8.698082558303216194e-01 8.698540473477062163e-01
1.004184100418409997e+02 8.678164820560260173e-01 8.678589561673049069e-01
1.014225941422594133e+02 8.656838795230755723e-01 8.657269559195680531e-01
1.024267782426778126e+02 8.634480494693770325e-01 8.634913303954842023e-01
1.034309623430962262e+02 8.611336996811324029e-01 8.611719568654059298e-01
1.044351464435146397e+02 8.587482513389913530e-01 8.587811714370336968e-01
1.054393305439330533e+02 8.562948223711951412e-01 8.563243512265725776e-01
1.064435146443514668e+02 8.537725331522781902e-01 8.538033734650156692e-01
1.074476987447698662e+02 8.511898721710662308e-01 8.512191553377340680e-01
1.084518828451882797e+02 8.485534458460500806e-01 8.485775966114923463e-01
1.094560669456066933e+02 8.458679239099672342e-01 8.458880427742758723e-01
1.104602510460250926e+02 8.431481575033860087e-01 8.431669549003091291e-01
1.114644351464435061e+02 8.404183716747001265e-01 8.404378044386378033e-01
1.124686192468619197e+02 8.377112664005020859e-01 8.377295366238435292e-01
1.134728033472803332e+02 8.350604178654545962e-01 8.350729813893441600e-01
1.144769874476987468e+02 8.324935037816062477e-01 8.325008280986336828e-01
1.154811715481171461e+02 8.300342910206534031e-01 8.300412522353335376e-01
1.164853556485355597e+02 8.277095943905916631e-01 8.277142476504029123e-01
1.174895397489539732e+02 8.255299539416798282e-01 8.255298393208391206e-01
1.184937238493723726e+02 8.234931429569747330e-01 8.234853660648679963e-01
1.194979079497907861e+02 8.215778249306774361e-01 8.215634582588451362e-01
1.205020920502091997e+02 8.197496037893565735e-01 8.197345133292062158e-01
1.215062761506276132e+02 8.179769164362313827e-01 8.179606081057613221e-01
1.225104602510460268e+02 8.162199179411692151e-01 8.161970781606018299e-01
1.235146443514644261e+02 8.144296139940579993e-01 8.144009897650726915e-01
1.245188284518828397e+02 8.125669053037786194e-01 8.125355389330373157e-01
1.255230125523012532e+02 8.106064631248476315e-01 8.105767498078110256e-01
1.265271966527196525e+02 8.085470830000612841e-01 8.085157264711122505e-01
1.275313807531380661e+02 8.064026968466276868e-01 8.063664079116594774e-01
1.285355648535564796e+02 8.042017715845041215e-01 8.041615705688516247e-01
1.295397489539748790e+02 8.019965246216956833e-01 8.019558261854184966e-01
1.305439330543933067e+02 7.998660022897264854e-01 7.998203134833485883e-01
1.315481171548117061e+02 7.978828753539758400e-01 7.978393323112764612e-01
1.325523012552301338e+02 7.961514600153068999e-01 7.961014141687710044e-01
1.335564853556485332e+02 7.947513454887821238e-01 7.946949777109976187e-01
1.345606694560669325e+02 7.937627941730748260e-01 7.936985060678700687e-01
1.355648535564853603e+02 7.932469636915321365e-01 7.931755644192985955e-01
1.365690376569037596e+02 7.932446651856980280e-01 7.931713751639488663e-01
1.375732217573221590e+02 7.937887115954854744e-01 7.937097674070177078e-01
1.385774058577405867e+02 7.948825690835193969e-01 7.947948378495860444e-01
1.395815899581589861e+02 7.965090497333472408e-01 7.964144724824346877e-01
1.405857740585773854e+02 7.986421650310175924e-01 7.985450660655466493e-01
1.415899581589958132e+02 8.012528569485615204e-01 8.011544240302777009e-01
1.425941422594142125e+02 8.043112321744995130e-01 8.042098823347055836e-01
1.435983263598326403e+02 8.077849222549277064e-01 8.076778568038796013e-01
1.446025104602510396e+02 8.116379871599864737e-01 8.115268574974581206e-01
1.456066945606694389e+02 8.158351202331333152e-01 8.157262318450337890e-01
1.466108786610878667e+02 8.203532265551204405e-01 8.202460916857017281e-01
1.476150627615062660e+02 8.251600173321930187e-01 8.250502738893290555e-01
1.486192468619246938e+02 8.302114561797525605e-01 8.300969661702135571e-01
1.496234309623430931e+02 8.354510401453628665e-01 8.353332163452641401e-01
1.506276150627614925e+02 8.408079958690842792e-01 8.406925990226736811e-01
1.516317991631799202e+02 8.462112235031795660e-01 8.460930492395490887e-01
1.526359832635983196e+02 8.515655230727227076e-01 8.514392403920720831e-01
1.536401673640167189e+02 8.567544007447748244e-01 8.566208397842167699e-01
1.546443514644351467e+02 8.616574913673588076e-01 8.615178393263865919e-01
1.556485355648535460e+02 8.661503651204645049e-01 8.660045604521209306e-01
1.566527196652719454e+02 8.700994500264415121e-01 8.699549206358199172e-01
1.576569037656903731e+02 8.733986494293589642e-01 8.732476652013867469e-01
1.586610878661087725e+02 8.759264232476853262e-01 8.757733355531274189e-01
1.596652719665272002e+02 8.775969786319951504e-01 8.774386098983419924e-01
1.606694560669455996e+02 8.783335177284242734e-01 8.781722629864461283e-01
1.616736401673639989e+02 8.780869978449887814e-01 8.779289005939908686e-01
1.626778242677824267e+02 8.768472439375933902e-01 8.766923671803416029e-01
1.636820083682008260e+02 8.746353592985421921e-01 8.744779265565090220e-01
1.646861924686192538e+02 8.714926150706975294e-01 8.713341857748122532e-01
1.656903765690376531e+02 8.674993900623070298e-01 8.673420924412401645e-01
1.666945606694560524e+02 8.627662116270109482e-01 8.626122039481252113e-01
1.676987447698744802e+02 8.574396518238681653e-01 8.572812792083108757e-01
1.687029288702928795e+02 8.516661729985853801e-01 8.515052697530566261e-01
1.697071129707112789e+02 8.456141081612452703e-01 8.454524251410417968e-01
1.707112970711297066e+02 8.394617806213801048e-01 8.392952067538002048e-01
1.717154811715481060e+02 8.333716663093038157e-01 8.332050370038324161e-01
1.727196652719665053e+02 8.275214647926215639e-01 8.273478785814230019e-01
1.737238493723849331e+02 8.220634770589303475e-01 8.218854288969337230e-01
1.747280334728033324e+02 8.171603327420090546e-01 8.169778029720091705e-01
1.757322175732217602e+02 8.129814639292436418e-01 8.127919882302735433e-01
1.767364016736401595e+02 8.096999867270766593e-01 8.095071198981593774e-01
1.777405857740585589e+02 8.075128045218128436e-01 8.073215197905501128e-01
1.787447698744769866e+02 8.066395265239739709e-01 8.064520651544331287e-01
1.797489539748953860e+02 8.073083878756733833e-01 8.071254052433227688e-01
1.807531380753138137e+02 8.097387075698662118e-01 8.095590324124513071e-01
1.817573221757322131e+02 8.141117280336517270e-01 8.139375158225932161e-01
1.827615062761506124e+02 8.205430279672231153e-01 8.203799353587306609e-01
1.837656903765690402e+02 8.290640589297159080e-01 8.289098879550641508e-01
1.847698744769874395e+02 8.395897584469075303e-01 8.394383189594170069e-01
1.857740585774058388e+02 8.519056287835528041e-01 8.517523933939520342e-01
1.867782426778242666e+02 8.656793095366093205e-01 8.655222825568764655e-01
1.877824267782426659e+02 8.804815541262974721e-01 8.803207956082321761e-01
1.887866108786610653e+02 8.958203170868900278e-01 8.956536756299479096e-01
1.897907949790794930e+02 9.111685192098395447e-01 9.109872678578547767e-01
1.907949790794978924e+02 9.259815250888322469e-01 9.257866930984730569e-01
1.917991631799163201e+02 9.397484522754920855e-01 9.395418887468616198e-01
1.928033472803347195e+02 9.520089903662493080e-01 9.517933411587009562e-01
1.938075313807531188e+02 9.623740164988646706e-01 9.621484095487219390e-01
1.948117154811715466e+02 9.705314342637471059e-01 9.702956777234312824e-01
1.958158995815899459e+02 9.762508130584837129e-01 9.760078527275473093e-01
1.968200836820083737e+02 9.793908118164356136e-01 9.791459838124598747e-01
1.978242677824267730e+02 9.799029119299185187e-01 9.796567461262080112e-01
1.988284518828451723e+02 9.778176204751852785e-01 9.775699811117301019e-01
1.998326359832636001e+02 9.732453529259462721e-01 9.729945645038275970e-01
2.008368200836819994e+02 9.663648307731137477e-01 9.661119337426105069e-01
2.018410041841003988e+02 9.574209083052901414e-01 9.571696820316888399e-01
2.028451882845188265e+02 9.467246408838322358e-01 9.464737156901557036e-01
2.038493723849372259e+02 9.346292272798044642e-01 9.343747833203643882e-01
2.048535564853556252e+02 9.215149786178075120e-01 9.212562167394696688e-01
2.058577405857740530e+02 9.077789356635952434e-01 9.075179838152565015e-01
2.068619246861924523e+02 8.938244569862453526e-01 8.935626294292933203e-01
2.078661087866108801e+02 8.800469825556870296e-01 8.797808152998225495e-01
2.088702928870292794e+02 8.668165486510001072e-01 8.665481066335903870e-01
2.098744769874476788e+02 8.544944754514706142e-01 8.542272790117479975e-01
2.108786610878661065e+02 8.434474611198005123e-01 8.431830195509499859e-01
2.118828451882845059e+02 8.340626015729806220e-01 8.338045920187522331e-01
2.128870292887029336e+02 8.267857620890765036e-01 8.265334674216643362e-01
2.138912133891213330e+02 8.221199703025038330e-01 8.218809398801891763e-01
2.148953974895397323e+02 8.206462877010524126e-01 8.204245119241493356e-01
2.158995815899581601e+02 8.229673114980444737e-01 8.227667201698555255e-01
2.169037656903765594e+02 8.296203069354629589e-01 8.294454635068685411e-01
2.179079497907949587e+02 8.409628097932301261e-01 8.408149403360146712e-01
2.189121338912133865e+02 8.570477449320936802e-01 8.569250955394638325e-01
2.199163179916317858e+02 8.775488593525599956e-01 8.774434064087768270e-01
2.209205020920501852e+02 9.017387586777413366e-01 9.016385089866602032e-01
2.219246861924686129e+02 9.285490576706442178e-01 9.284452705600837463e-01
2.229288702928870123e+02 9.566712857478231191e-01 9.565592750417382106e-01
2.239330543933054400e+02 9.846870951842968678e-01 9.845580226494224929e-01
2.249372384937238394e+02 1.011177642044618574e+00 1.011023473609558243e+00
2.259414225941422387e+02 1.034829281938339784e+00 1.034649597759867312e+00
2.269456066945606665e+02 1.054530986106712698e+00 1.054327212222333943e+00
2.279497907949790658e+02 1.069436882899250207e+00 1.069214240037174690e+00
2.289539748953974936e+02 1.079018810210140344e+00 1.078777793671519492e+00
2.299581589958158929e+02 1.083065731970740853e+00 1.082809993492039657e+00
2.309623430962342923e+02 1.081688056755821359e+00 1.081422469036805056e+00
2.319665271966527200e+02 1.075286102148144352e+00 1.075018102808469767e+00
2.329707112970711194e+02 1.064515630970168214e+00 1.064243181068062816e+00
2.339748953974895187e+02 1.050204532555830683e+00 1.049928913031787481e+00
2.349790794979079465e+02 1.033297307861984260e+00 1.033019467051467633e+00
2.359832635983263458e+02 1.014779187566366536e+00 1.014500867490809588e+00
2.369874476987447451e+02 9.956102998896870782e-01 9.953307661245278659e-01
2.379916317991631729e+02 9.766600613860086932e-01 9.763792489006639652e-01
2.389958158995815722e+02 9.586620834861580009e-01 9.583752478220770588e-01
2.400000000000000000e+02 9.421790793448584500e-01 9.418862929506768289e-01
