%!PS-Adobe-2.0 EPSF-2.0
%%Title: fig1.tex
%%Creator: gnuplot 5.0 patchlevel 3
%%CreationDate: Sun Apr 15 16:53:35 2018
%%DocumentFonts: 
%%BoundingBox: 50 50 316 244
%%EndComments
%%BeginProlog
/gnudict 256 dict def
gnudict begin
%
% The following true/false flags may be edited by hand if desired.
% The unit line width and grayscale image gamma correction may also be changed.
%
/Color true def
/Blacktext false def
/Solid false def
/Dashlength 2.5 def
/Landscape false def
/Level1 false def
/Level3 false def
/Rounded false def
/ClipToBoundingBox false def
/SuppressPDFMark false def
/TransparentPatterns false def
/gnulinewidth 5.000 def
/userlinewidth gnulinewidth def
/Gamma 1.0 def
/BackgroundColor {-1.000 -1.000 -1.000} def
%
/vshift -73 def
/dl1 {
  10.0 Dashlength userlinewidth gnulinewidth div mul mul mul
  Rounded { currentlinewidth 0.75 mul sub dup 0 le { pop 0.01 } if } if
} def
/dl2 {
  10.0 Dashlength userlinewidth gnulinewidth div mul mul mul
  Rounded { currentlinewidth 0.75 mul add } if
} def
/hpt_ 31.5 def
/vpt_ 31.5 def
/hpt hpt_ def
/vpt vpt_ def
/doclip {
  ClipToBoundingBox {
    newpath 50 50 moveto 316 50 lineto 316 244 lineto 50 244 lineto closepath
    clip
  } if
} def
%
% Gnuplot Prolog Version 5.1 (Oct 2015)
%
%/SuppressPDFMark true def
%
/M {moveto} bind def
/L {lineto} bind def
/R {rmoveto} bind def
/V {rlineto} bind def
/N {newpath moveto} bind def
/Z {closepath} bind def
/C {setrgbcolor} bind def
/f {rlineto fill} bind def
/g {setgray} bind def
/Gshow {show} def   % May be redefined later in the file to support UTF-8
/vpt2 vpt 2 mul def
/hpt2 hpt 2 mul def
/Lshow {currentpoint stroke M 0 vshift R 
	Blacktext {gsave 0 setgray textshow grestore} {textshow} ifelse} def
/Rshow {currentpoint stroke M dup stringwidth pop neg vshift R
	Blacktext {gsave 0 setgray textshow grestore} {textshow} ifelse} def
/Cshow {currentpoint stroke M dup stringwidth pop -2 div vshift R 
	Blacktext {gsave 0 setgray textshow grestore} {textshow} ifelse} def
/UP {dup vpt_ mul /vpt exch def hpt_ mul /hpt exch def
  /hpt2 hpt 2 mul def /vpt2 vpt 2 mul def} def
/DL {Color {setrgbcolor Solid {pop []} if 0 setdash}
 {pop pop pop 0 setgray Solid {pop []} if 0 setdash} ifelse} def
/BL {stroke userlinewidth 2 mul setlinewidth
	Rounded {1 setlinejoin 1 setlinecap} if} def
/AL {stroke userlinewidth 2 div setlinewidth
	Rounded {1 setlinejoin 1 setlinecap} if} def
/UL {dup gnulinewidth mul /userlinewidth exch def
	dup 1 lt {pop 1} if 10 mul /udl exch def} def
/PL {stroke userlinewidth setlinewidth
	Rounded {1 setlinejoin 1 setlinecap} if} def
3.8 setmiterlimit
% Classic Line colors (version 5.0)
/LCw {1 1 1} def
/LCb {0 0 0} def
/LCa {0 0 0} def
/LC0 {1 0 0} def
/LC1 {0 1 0} def
/LC2 {0 0 1} def
/LC3 {1 0 1} def
/LC4 {0 1 1} def
/LC5 {1 1 0} def
/LC6 {0 0 0} def
/LC7 {1 0.3 0} def
/LC8 {0.5 0.5 0.5} def
% Default dash patterns (version 5.0)
/LTB {BL [] LCb DL} def
/LTw {PL [] 1 setgray} def
/LTb {PL [] LCb DL} def
/LTa {AL [1 udl mul 2 udl mul] 0 setdash LCa setrgbcolor} def
/LT0 {PL [] LC0 DL} def
/LT1 {PL [2 dl1 3 dl2] LC1 DL} def
/LT2 {PL [1 dl1 1.5 dl2] LC2 DL} def
/LT3 {PL [6 dl1 2 dl2 1 dl1 2 dl2] LC3 DL} def
/LT4 {PL [1 dl1 2 dl2 6 dl1 2 dl2 1 dl1 2 dl2] LC4 DL} def
/LT5 {PL [4 dl1 2 dl2] LC5 DL} def
/LT6 {PL [1.5 dl1 1.5 dl2 1.5 dl1 1.5 dl2 1.5 dl1 6 dl2] LC6 DL} def
/LT7 {PL [3 dl1 3 dl2 1 dl1 3 dl2] LC7 DL} def
/LT8 {PL [2 dl1 2 dl2 2 dl1 6 dl2] LC8 DL} def
/SL {[] 0 setdash} def
/Pnt {stroke [] 0 setdash gsave 1 setlinecap M 0 0 V stroke grestore} def
/Dia {stroke [] 0 setdash 2 copy vpt add M
  hpt neg vpt neg V hpt vpt neg V
  hpt vpt V hpt neg vpt V closepath stroke
  Pnt} def
/Pls {stroke [] 0 setdash vpt sub M 0 vpt2 V
  currentpoint stroke M
  hpt neg vpt neg R hpt2 0 V stroke
 } def
/Box {stroke [] 0 setdash 2 copy exch hpt sub exch vpt add M
  0 vpt2 neg V hpt2 0 V 0 vpt2 V
  hpt2 neg 0 V closepath stroke
  Pnt} def
/Crs {stroke [] 0 setdash exch hpt sub exch vpt add M
  hpt2 vpt2 neg V currentpoint stroke M
  hpt2 neg 0 R hpt2 vpt2 V stroke} def
/TriU {stroke [] 0 setdash 2 copy vpt 1.12 mul add M
  hpt neg vpt -1.62 mul V
  hpt 2 mul 0 V
  hpt neg vpt 1.62 mul V closepath stroke
  Pnt} def
/Star {2 copy Pls Crs} def
/BoxF {stroke [] 0 setdash exch hpt sub exch vpt add M
  0 vpt2 neg V hpt2 0 V 0 vpt2 V
  hpt2 neg 0 V closepath fill} def
/TriUF {stroke [] 0 setdash vpt 1.12 mul add M
  hpt neg vpt -1.62 mul V
  hpt 2 mul 0 V
  hpt neg vpt 1.62 mul V closepath fill} def
/TriD {stroke [] 0 setdash 2 copy vpt 1.12 mul sub M
  hpt neg vpt 1.62 mul V
  hpt 2 mul 0 V
  hpt neg vpt -1.62 mul V closepath stroke
  Pnt} def
/TriDF {stroke [] 0 setdash vpt 1.12 mul sub M
  hpt neg vpt 1.62 mul V
  hpt 2 mul 0 V
  hpt neg vpt -1.62 mul V closepath fill} def
/DiaF {stroke [] 0 setdash vpt add M
  hpt neg vpt neg V hpt vpt neg V
  hpt vpt V hpt neg vpt V closepath fill} def
/Pent {stroke [] 0 setdash 2 copy gsave
  translate 0 hpt M 4 {72 rotate 0 hpt L} repeat
  closepath stroke grestore Pnt} def
/PentF {stroke [] 0 setdash gsave
  translate 0 hpt M 4 {72 rotate 0 hpt L} repeat
  closepath fill grestore} def
/Circle {stroke [] 0 setdash 2 copy
  hpt 0 360 arc stroke Pnt} def
/CircleF {stroke [] 0 setdash hpt 0 360 arc fill} def
/C0 {BL [] 0 setdash 2 copy moveto vpt 90 450 arc} bind def
/C1 {BL [] 0 setdash 2 copy moveto
	2 copy vpt 0 90 arc closepath fill
	vpt 0 360 arc closepath} bind def
/C2 {BL [] 0 setdash 2 copy moveto
	2 copy vpt 90 180 arc closepath fill
	vpt 0 360 arc closepath} bind def
/C3 {BL [] 0 setdash 2 copy moveto
	2 copy vpt 0 180 arc closepath fill
	vpt 0 360 arc closepath} bind def
/C4 {BL [] 0 setdash 2 copy moveto
	2 copy vpt 180 270 arc closepath fill
	vpt 0 360 arc closepath} bind def
/C5 {BL [] 0 setdash 2 copy moveto
	2 copy vpt 0 90 arc
	2 copy moveto
	2 copy vpt 180 270 arc closepath fill
	vpt 0 360 arc} bind def
/C6 {BL [] 0 setdash 2 copy moveto
	2 copy vpt 90 270 arc closepath fill
	vpt 0 360 arc closepath} bind def
/C7 {BL [] 0 setdash 2 copy moveto
	2 copy vpt 0 270 arc closepath fill
	vpt 0 360 arc closepath} bind def
/C8 {BL [] 0 setdash 2 copy moveto
	2 copy vpt 270 360 arc closepath fill
	vpt 0 360 arc closepath} bind def
/C9 {BL [] 0 setdash 2 copy moveto
	2 copy vpt 270 450 arc closepath fill
	vpt 0 360 arc closepath} bind def
/C10 {BL [] 0 setdash 2 copy 2 copy moveto vpt 270 360 arc closepath fill
	2 copy moveto
	2 copy vpt 90 180 arc closepath fill
	vpt 0 360 arc closepath} bind def
/C11 {BL [] 0 setdash 2 copy moveto
	2 copy vpt 0 180 arc closepath fill
	2 copy moveto
	2 copy vpt 270 360 arc closepath fill
	vpt 0 360 arc closepath} bind def
/C12 {BL [] 0 setdash 2 copy moveto
	2 copy vpt 180 360 arc closepath fill
	vpt 0 360 arc closepath} bind def
/C13 {BL [] 0 setdash 2 copy moveto
	2 copy vpt 0 90 arc closepath fill
	2 copy moveto
	2 copy vpt 180 360 arc closepath fill
	vpt 0 360 arc closepath} bind def
/C14 {BL [] 0 setdash 2 copy moveto
	2 copy vpt 90 360 arc closepath fill
	vpt 0 360 arc} bind def
/C15 {BL [] 0 setdash 2 copy vpt 0 360 arc closepath fill
	vpt 0 360 arc closepath} bind def
/Rec {newpath 4 2 roll moveto 1 index 0 rlineto 0 exch rlineto
	neg 0 rlineto closepath} bind def
/Square {dup Rec} bind def
/Bsquare {vpt sub exch vpt sub exch vpt2 Square} bind def
/S0 {BL [] 0 setdash 2 copy moveto 0 vpt rlineto BL Bsquare} bind def
/S1 {BL [] 0 setdash 2 copy vpt Square fill Bsquare} bind def
/S2 {BL [] 0 setdash 2 copy exch vpt sub exch vpt Square fill Bsquare} bind def
/S3 {BL [] 0 setdash 2 copy exch vpt sub exch vpt2 vpt Rec fill Bsquare} bind def
/S4 {BL [] 0 setdash 2 copy exch vpt sub exch vpt sub vpt Square fill Bsquare} bind def
/S5 {BL [] 0 setdash 2 copy 2 copy vpt Square fill
	exch vpt sub exch vpt sub vpt Square fill Bsquare} bind def
/S6 {BL [] 0 setdash 2 copy exch vpt sub exch vpt sub vpt vpt2 Rec fill Bsquare} bind def
/S7 {BL [] 0 setdash 2 copy exch vpt sub exch vpt sub vpt vpt2 Rec fill
	2 copy vpt Square fill Bsquare} bind def
/S8 {BL [] 0 setdash 2 copy vpt sub vpt Square fill Bsquare} bind def
/S9 {BL [] 0 setdash 2 copy vpt sub vpt vpt2 Rec fill Bsquare} bind def
/S10 {BL [] 0 setdash 2 copy vpt sub vpt Square fill 2 copy exch vpt sub exch vpt Square fill
	Bsquare} bind def
/S11 {BL [] 0 setdash 2 copy vpt sub vpt Square fill 2 copy exch vpt sub exch vpt2 vpt Rec fill
	Bsquare} bind def
/S12 {BL [] 0 setdash 2 copy exch vpt sub exch vpt sub vpt2 vpt Rec fill Bsquare} bind def
/S13 {BL [] 0 setdash 2 copy exch vpt sub exch vpt sub vpt2 vpt Rec fill
	2 copy vpt Square fill Bsquare} bind def
/S14 {BL [] 0 setdash 2 copy exch vpt sub exch vpt sub vpt2 vpt Rec fill
	2 copy exch vpt sub exch vpt Square fill Bsquare} bind def
/S15 {BL [] 0 setdash 2 copy Bsquare fill Bsquare} bind def
/D0 {gsave translate 45 rotate 0 0 S0 stroke grestore} bind def
/D1 {gsave translate 45 rotate 0 0 S1 stroke grestore} bind def
/D2 {gsave translate 45 rotate 0 0 S2 stroke grestore} bind def
/D3 {gsave translate 45 rotate 0 0 S3 stroke grestore} bind def
/D4 {gsave translate 45 rotate 0 0 S4 stroke grestore} bind def
/D5 {gsave translate 45 rotate 0 0 S5 stroke grestore} bind def
/D6 {gsave translate 45 rotate 0 0 S6 stroke grestore} bind def
/D7 {gsave translate 45 rotate 0 0 S7 stroke grestore} bind def
/D8 {gsave translate 45 rotate 0 0 S8 stroke grestore} bind def
/D9 {gsave translate 45 rotate 0 0 S9 stroke grestore} bind def
/D10 {gsave translate 45 rotate 0 0 S10 stroke grestore} bind def
/D11 {gsave translate 45 rotate 0 0 S11 stroke grestore} bind def
/D12 {gsave translate 45 rotate 0 0 S12 stroke grestore} bind def
/D13 {gsave translate 45 rotate 0 0 S13 stroke grestore} bind def
/D14 {gsave translate 45 rotate 0 0 S14 stroke grestore} bind def
/D15 {gsave translate 45 rotate 0 0 S15 stroke grestore} bind def
/DiaE {stroke [] 0 setdash vpt add M
  hpt neg vpt neg V hpt vpt neg V
  hpt vpt V hpt neg vpt V closepath stroke} def
/BoxE {stroke [] 0 setdash exch hpt sub exch vpt add M
  0 vpt2 neg V hpt2 0 V 0 vpt2 V
  hpt2 neg 0 V closepath stroke} def
/TriUE {stroke [] 0 setdash vpt 1.12 mul add M
  hpt neg vpt -1.62 mul V
  hpt 2 mul 0 V
  hpt neg vpt 1.62 mul V closepath stroke} def
/TriDE {stroke [] 0 setdash vpt 1.12 mul sub M
  hpt neg vpt 1.62 mul V
  hpt 2 mul 0 V
  hpt neg vpt -1.62 mul V closepath stroke} def
/PentE {stroke [] 0 setdash gsave
  translate 0 hpt M 4 {72 rotate 0 hpt L} repeat
  closepath stroke grestore} def
/CircE {stroke [] 0 setdash 
  hpt 0 360 arc stroke} def
/Opaque {gsave closepath 1 setgray fill grestore 0 setgray closepath} def
/DiaW {stroke [] 0 setdash vpt add M
  hpt neg vpt neg V hpt vpt neg V
  hpt vpt V hpt neg vpt V Opaque stroke} def
/BoxW {stroke [] 0 setdash exch hpt sub exch vpt add M
  0 vpt2 neg V hpt2 0 V 0 vpt2 V
  hpt2 neg 0 V Opaque stroke} def
/TriUW {stroke [] 0 setdash vpt 1.12 mul add M
  hpt neg vpt -1.62 mul V
  hpt 2 mul 0 V
  hpt neg vpt 1.62 mul V Opaque stroke} def
/TriDW {stroke [] 0 setdash vpt 1.12 mul sub M
  hpt neg vpt 1.62 mul V
  hpt 2 mul 0 V
  hpt neg vpt -1.62 mul V Opaque stroke} def
/PentW {stroke [] 0 setdash gsave
  translate 0 hpt M 4 {72 rotate 0 hpt L} repeat
  Opaque stroke grestore} def
/CircW {stroke [] 0 setdash 
  hpt 0 360 arc Opaque stroke} def
/BoxFill {gsave Rec 1 setgray fill grestore} def
/Density {
  /Fillden exch def
  currentrgbcolor
  /ColB exch def /ColG exch def /ColR exch def
  /ColR ColR Fillden mul Fillden sub 1 add def
  /ColG ColG Fillden mul Fillden sub 1 add def
  /ColB ColB Fillden mul Fillden sub 1 add def
  ColR ColG ColB setrgbcolor} def
/BoxColFill {gsave Rec PolyFill} def
/PolyFill {gsave Density fill grestore grestore} def
/h {rlineto rlineto rlineto gsave closepath fill grestore} bind def
%
% PostScript Level 1 Pattern Fill routine for rectangles
% Usage: x y w h s a XX PatternFill
%	x,y = lower left corner of box to be filled
%	w,h = width and height of box
%	  a = angle in degrees between lines and x-axis
%	 XX = 0/1 for no/yes cross-hatch
%
/PatternFill {gsave /PFa [ 9 2 roll ] def
  PFa 0 get PFa 2 get 2 div add PFa 1 get PFa 3 get 2 div add translate
  PFa 2 get -2 div PFa 3 get -2 div PFa 2 get PFa 3 get Rec
  TransparentPatterns {} {gsave 1 setgray fill grestore} ifelse
  clip
  currentlinewidth 0.5 mul setlinewidth
  /PFs PFa 2 get dup mul PFa 3 get dup mul add sqrt def
  0 0 M PFa 5 get rotate PFs -2 div dup translate
  0 1 PFs PFa 4 get div 1 add floor cvi
	{PFa 4 get mul 0 M 0 PFs V} for
  0 PFa 6 get ne {
	0 1 PFs PFa 4 get div 1 add floor cvi
	{PFa 4 get mul 0 2 1 roll M PFs 0 V} for
 } if
  stroke grestore} def
%
/languagelevel where
 {pop languagelevel} {1} ifelse
dup 2 lt
	{/InterpretLevel1 true def
	 /InterpretLevel3 false def}
	{/InterpretLevel1 Level1 def
	 2 gt
	    {/InterpretLevel3 Level3 def}
	    {/InterpretLevel3 false def}
	 ifelse }
 ifelse
%
% PostScript level 2 pattern fill definitions
%
/Level2PatternFill {
/Tile8x8 {/PaintType 2 /PatternType 1 /TilingType 1 /BBox [0 0 8 8] /XStep 8 /YStep 8}
	bind def
/KeepColor {currentrgbcolor [/Pattern /DeviceRGB] setcolorspace} bind def
<< Tile8x8
 /PaintProc {0.5 setlinewidth pop 0 0 M 8 8 L 0 8 M 8 0 L stroke} 
>> matrix makepattern
/Pat1 exch def
<< Tile8x8
 /PaintProc {0.5 setlinewidth pop 0 0 M 8 8 L 0 8 M 8 0 L stroke
	0 4 M 4 8 L 8 4 L 4 0 L 0 4 L stroke}
>> matrix makepattern
/Pat2 exch def
<< Tile8x8
 /PaintProc {0.5 setlinewidth pop 0 0 M 0 8 L
	8 8 L 8 0 L 0 0 L fill}
>> matrix makepattern
/Pat3 exch def
<< Tile8x8
 /PaintProc {0.5 setlinewidth pop -4 8 M 8 -4 L
	0 12 M 12 0 L stroke}
>> matrix makepattern
/Pat4 exch def
<< Tile8x8
 /PaintProc {0.5 setlinewidth pop -4 0 M 8 12 L
	0 -4 M 12 8 L stroke}
>> matrix makepattern
/Pat5 exch def
<< Tile8x8
 /PaintProc {0.5 setlinewidth pop -2 8 M 4 -4 L
	0 12 M 8 -4 L 4 12 M 10 0 L stroke}
>> matrix makepattern
/Pat6 exch def
<< Tile8x8
 /PaintProc {0.5 setlinewidth pop -2 0 M 4 12 L
	0 -4 M 8 12 L 4 -4 M 10 8 L stroke}
>> matrix makepattern
/Pat7 exch def
<< Tile8x8
 /PaintProc {0.5 setlinewidth pop 8 -2 M -4 4 L
	12 0 M -4 8 L 12 4 M 0 10 L stroke}
>> matrix makepattern
/Pat8 exch def
<< Tile8x8
 /PaintProc {0.5 setlinewidth pop 0 -2 M 12 4 L
	-4 0 M 12 8 L -4 4 M 8 10 L stroke}
>> matrix makepattern
/Pat9 exch def
/Pattern1 {PatternBgnd KeepColor Pat1 setpattern} bind def
/Pattern2 {PatternBgnd KeepColor Pat2 setpattern} bind def
/Pattern3 {PatternBgnd KeepColor Pat3 setpattern} bind def
/Pattern4 {PatternBgnd KeepColor Landscape {Pat5} {Pat4} ifelse setpattern} bind def
/Pattern5 {PatternBgnd KeepColor Landscape {Pat4} {Pat5} ifelse setpattern} bind def
/Pattern6 {PatternBgnd KeepColor Landscape {Pat9} {Pat6} ifelse setpattern} bind def
/Pattern7 {PatternBgnd KeepColor Landscape {Pat8} {Pat7} ifelse setpattern} bind def
} def
%
%
%End of PostScript Level 2 code
%
/PatternBgnd {
  TransparentPatterns {} {gsave 1 setgray fill grestore} ifelse
} def
%
% Substitute for Level 2 pattern fill codes with
% grayscale if Level 2 support is not selected.
%
/Level1PatternFill {
/Pattern1 {0.250 Density} bind def
/Pattern2 {0.500 Density} bind def
/Pattern3 {0.750 Density} bind def
/Pattern4 {0.125 Density} bind def
/Pattern5 {0.375 Density} bind def
/Pattern6 {0.625 Density} bind def
/Pattern7 {0.875 Density} bind def
} def
%
% Now test for support of Level 2 code
%
Level1 {Level1PatternFill} {Level2PatternFill} ifelse
%
/Symbol-Oblique /Symbol findfont [1 0 .167 1 0 0] makefont
dup length dict begin {1 index /FID eq {pop pop} {def} ifelse} forall
currentdict end definefont pop
%
Level1 SuppressPDFMark or 
{} {
/SDict 10 dict def
systemdict /pdfmark known not {
  userdict /pdfmark systemdict /cleartomark get put
} if
SDict begin [
  /Title (fig1.tex)
  /Subject (gnuplot plot)
  /Creator (gnuplot 5.0 patchlevel 3)
  /Author (daniela)
%  /Producer (gnuplot)
%  /Keywords ()
  /CreationDate (Sun Apr 15 16:53:35 2018)
  /DOCINFO pdfmark
end
} ifelse
%
% Support for boxed text - Ethan A Merritt May 2005
%
/InitTextBox { userdict /TBy2 3 -1 roll put userdict /TBx2 3 -1 roll put
           userdict /TBy1 3 -1 roll put userdict /TBx1 3 -1 roll put
	   /Boxing true def } def
/ExtendTextBox { Boxing
    { gsave dup false charpath pathbbox
      dup TBy2 gt {userdict /TBy2 3 -1 roll put} {pop} ifelse
      dup TBx2 gt {userdict /TBx2 3 -1 roll put} {pop} ifelse
      dup TBy1 lt {userdict /TBy1 3 -1 roll put} {pop} ifelse
      dup TBx1 lt {userdict /TBx1 3 -1 roll put} {pop} ifelse
      grestore } if } def
/PopTextBox { newpath TBx1 TBxmargin sub TBy1 TBymargin sub M
               TBx1 TBxmargin sub TBy2 TBymargin add L
	       TBx2 TBxmargin add TBy2 TBymargin add L
	       TBx2 TBxmargin add TBy1 TBymargin sub L closepath } def
/DrawTextBox { PopTextBox stroke /Boxing false def} def
/FillTextBox { gsave PopTextBox 1 1 1 setrgbcolor fill grestore /Boxing false def} def
0 0 0 0 InitTextBox
/TBxmargin 20 def
/TBymargin 20 def
/Boxing false def
/textshow { ExtendTextBox Gshow } def
%
% redundant definitions for compatibility with prologue.ps older than 5.0.2
/LTB {BL [] LCb DL} def
/LTb {PL [] LCb DL} def
end
%%EndProlog
%%Page: 1 1
gnudict begin
gsave
doclip
50 50 translate
0.050 0.050 scale
0 setgray
newpath
1.500 UL
LTb
LCb setrgbcolor
[] 0 setdash
1078 1513 M
47 0 V
3806 0 R
-47 0 V
stroke
LTb
1078 2392 M
47 0 V
3806 0 R
-47 0 V
stroke
1078 3271 M
47 0 V
3806 0 R
-47 0 V
stroke
1078 704 M
0 47 V
0 2872 R
0 -47 V
stroke
2041 704 M
0 47 V
0 2872 R
0 -47 V
stroke
3005 704 M
0 47 V
0 2872 R
0 -47 V
stroke
3968 704 M
0 47 V
0 2872 R
0 -47 V
stroke
4931 704 M
0 47 V
0 2872 R
0 -47 V
stroke
1.500 UL
LTb
1078 3623 N
0 -2919 V
3853 0 V
0 2919 V
-3853 0 V
Z stroke
1.000 UP
1.500 UL
LTb
0.200 UP
1.000 UL
LTb
LC0 setrgbcolor
1078 1513 M
16 -3 V
16 -10 V
16 -15 V
16 -22 V
17 -26 V
16 -32 V
16 -36 V
16 -39 V
16 -43 V
16 -44 V
16 -46 V
16 -46 V
17 -46 V
16 -44 V
16 -43 V
16 -40 V
16 -37 V
16 -33 V
16 -30 V
16 -25 V
17 -22 V
16 -18 V
16 -13 V
16 -10 V
16 -7 V
16 -3 V
16 -2 V
16 2 V
17 2 V
16 3 V
16 4 V
16 5 V
16 4 V
16 4 V
16 5 V
16 6 V
16 7 V
17 9 V
16 10 V
16 9 V
16 9 V
16 6 V
16 4 V
16 2 V
16 -1 V
17 -3 V
16 -4 V
16 -6 V
16 -7 V
16 -7 V
16 -7 V
16 -7 V
16 -6 V
17 -5 V
16 -4 V
16 -2 V
16 0 V
16 3 V
16 5 V
16 7 V
16 10 V
17 13 V
16 15 V
16 18 V
16 21 V
16 24 V
16 25 V
16 27 V
16 29 V
16 29 V
17 31 V
16 30 V
16 30 V
16 30 V
16 28 V
16 27 V
16 26 V
16 22 V
17 21 V
16 17 V
16 15 V
16 13 V
16 9 V
16 7 V
16 4 V
16 1 V
17 -2 V
16 -5 V
16 -8 V
16 -10 V
16 -12 V
16 -14 V
16 -16 V
16 -16 V
17 -17 V
16 -16 V
16 -16 V
16 -17 V
16 -19 V
16 -20 V
16 -23 V
16 -25 V
16 -27 V
17 -28 V
stroke 2755 1056 M
16 -30 V
16 -30 V
16 -30 V
16 -29 V
16 -28 V
16 -26 V
16 -24 V
17 -21 V
16 -18 V
16 -15 V
16 -13 V
16 -9 V
16 -6 V
16 -3 V
16 0 V
17 2 V
16 6 V
16 9 V
16 11 V
16 15 V
16 16 V
16 17 V
16 17 V
17 16 V
16 15 V
16 13 V
16 10 V
16 8 V
16 4 V
16 0 V
16 -3 V
17 -7 V
16 -10 V
16 -13 V
16 -14 V
16 -15 V
16 -15 V
16 -12 V
16 -9 V
16 -5 V
17 -2 V
16 1 V
16 3 V
16 4 V
16 6 V
16 7 V
16 8 V
16 9 V
17 9 V
16 11 V
16 11 V
16 13 V
16 14 V
16 15 V
16 17 V
16 18 V
17 21 V
16 22 V
16 24 V
16 27 V
16 28 V
16 30 V
16 31 V
16 32 V
17 33 V
16 33 V
16 31 V
16 30 V
16 28 V
16 24 V
16 20 V
16 15 V
16 11 V
17 5 V
16 0 V
16 -5 V
16 -11 V
16 -16 V
16 -22 V
16 -26 V
16 -31 V
17 -34 V
16 -38 V
16 -41 V
16 -42 V
16 -42 V
16 -42 V
16 -41 V
16 -38 V
17 -35 V
16 -33 V
16 -29 V
16 -26 V
16 -22 V
16 -19 V
16 -14 V
16 -11 V
17 -7 V
16 -3 V
16 0 V
16 3 V
16 6 V
16 8 V
16 10 V
stroke 4431 818 M
16 11 V
16 13 V
17 12 V
16 12 V
16 11 V
16 11 V
16 10 V
16 9 V
16 10 V
16 11 V
17 10 V
16 7 V
16 5 V
16 0 V
16 -3 V
16 -7 V
16 -11 V
16 -14 V
17 -16 V
16 -19 V
16 -19 V
16 -21 V
16 -20 V
16 -18 V
16 -17 V
16 -14 V
17 -11 V
16 -8 V
16 -3 V
16 2 V
16 6 V
1078 1513 CircleF
1094 1510 CircleF
1110 1500 CircleF
1126 1485 CircleF
1142 1463 CircleF
1159 1437 CircleF
1175 1405 CircleF
1191 1369 CircleF
1207 1330 CircleF
1223 1287 CircleF
1239 1243 CircleF
1255 1197 CircleF
1271 1151 CircleF
1288 1105 CircleF
1304 1061 CircleF
1320 1018 CircleF
1336 978 CircleF
1352 941 CircleF
1368 908 CircleF
1384 878 CircleF
1400 853 CircleF
1417 831 CircleF
1433 813 CircleF
1449 800 CircleF
1465 790 CircleF
1481 783 CircleF
1497 780 CircleF
1513 778 CircleF
1529 780 CircleF
1546 782 CircleF
1562 785 CircleF
1578 789 CircleF
1594 794 CircleF
1610 798 CircleF
1626 802 CircleF
1642 807 CircleF
1658 813 CircleF
1674 820 CircleF
1691 829 CircleF
1707 839 CircleF
1723 848 CircleF
1739 857 CircleF
1755 863 CircleF
1771 867 CircleF
1787 869 CircleF
1803 868 CircleF
1820 865 CircleF
1836 861 CircleF
1852 855 CircleF
1868 848 CircleF
1884 841 CircleF
1900 834 CircleF
1916 827 CircleF
1932 821 CircleF
1949 816 CircleF
1965 812 CircleF
1981 810 CircleF
1997 810 CircleF
2013 813 CircleF
2029 818 CircleF
2045 825 CircleF
2061 835 CircleF
2078 848 CircleF
2094 863 CircleF
2110 881 CircleF
2126 902 CircleF
2142 926 CircleF
2158 951 CircleF
2174 978 CircleF
2190 1007 CircleF
2206 1036 CircleF
2223 1067 CircleF
2239 1097 CircleF
2255 1127 CircleF
2271 1157 CircleF
2287 1185 CircleF
2303 1212 CircleF
2319 1238 CircleF
2335 1260 CircleF
2352 1281 CircleF
2368 1298 CircleF
2384 1313 CircleF
2400 1326 CircleF
2416 1335 CircleF
2432 1342 CircleF
2448 1346 CircleF
2464 1347 CircleF
2481 1345 CircleF
2497 1340 CircleF
2513 1332 CircleF
2529 1322 CircleF
2545 1310 CircleF
2561 1296 CircleF
2577 1280 CircleF
2593 1264 CircleF
2610 1247 CircleF
2626 1231 CircleF
2642 1215 CircleF
2658 1198 CircleF
2674 1179 CircleF
2690 1159 CircleF
2706 1136 CircleF
2722 1111 CircleF
2738 1084 CircleF
2755 1056 CircleF
2771 1026 CircleF
2787 996 CircleF
2803 966 CircleF
2819 937 CircleF
2835 909 CircleF
2851 883 CircleF
2867 859 CircleF
2884 838 CircleF
2900 820 CircleF
2916 805 CircleF
2932 792 CircleF
2948 783 CircleF
2964 777 CircleF
2980 774 CircleF
2996 774 CircleF
3013 776 CircleF
3029 782 CircleF
3045 791 CircleF
3061 802 CircleF
3077 817 CircleF
3093 833 CircleF
3109 850 CircleF
3125 867 CircleF
3142 883 CircleF
3158 898 CircleF
3174 911 CircleF
3190 921 CircleF
3206 929 CircleF
3222 933 CircleF
3238 933 CircleF
3254 930 CircleF
3271 923 CircleF
3287 913 CircleF
3303 900 CircleF
3319 886 CircleF
3335 871 CircleF
3351 856 CircleF
3367 844 CircleF
3383 835 CircleF
3399 830 CircleF
3416 828 CircleF
3432 829 CircleF
3448 832 CircleF
3464 836 CircleF
3480 842 CircleF
3496 849 CircleF
3512 857 CircleF
3528 866 CircleF
3545 875 CircleF
3561 886 CircleF
3577 897 CircleF
3593 910 CircleF
3609 924 CircleF
3625 939 CircleF
3641 956 CircleF
3657 974 CircleF
3674 995 CircleF
3690 1017 CircleF
3706 1041 CircleF
3722 1068 CircleF
3738 1096 CircleF
3754 1126 CircleF
3770 1157 CircleF
3786 1189 CircleF
3803 1222 CircleF
3819 1255 CircleF
3835 1286 CircleF
3851 1316 CircleF
3867 1344 CircleF
3883 1368 CircleF
3899 1388 CircleF
3915 1403 CircleF
3931 1414 CircleF
3948 1419 CircleF
3964 1419 CircleF
3980 1414 CircleF
3996 1403 CircleF
4012 1387 CircleF
4028 1365 CircleF
4044 1339 CircleF
4060 1308 CircleF
4077 1274 CircleF
4093 1236 CircleF
4109 1195 CircleF
4125 1153 CircleF
4141 1111 CircleF
4157 1069 CircleF
4173 1028 CircleF
4189 990 CircleF
4206 955 CircleF
4222 922 CircleF
4238 893 CircleF
4254 867 CircleF
4270 845 CircleF
4286 826 CircleF
4302 812 CircleF
4318 801 CircleF
4335 794 CircleF
4351 791 CircleF
4367 791 CircleF
4383 794 CircleF
4399 800 CircleF
4415 808 CircleF
4431 818 CircleF
4447 829 CircleF
4463 842 CircleF
4480 854 CircleF
4496 866 CircleF
4512 877 CircleF
4528 888 CircleF
4544 898 CircleF
4560 907 CircleF
4576 917 CircleF
4592 928 CircleF
4609 938 CircleF
4625 945 CircleF
4641 950 CircleF
4657 950 CircleF
4673 947 CircleF
4689 940 CircleF
4705 929 CircleF
4721 915 CircleF
4738 899 CircleF
4754 880 CircleF
4770 861 CircleF
4786 840 CircleF
4802 820 CircleF
4818 802 CircleF
4834 785 CircleF
4850 771 CircleF
4867 760 CircleF
4883 752 CircleF
4899 749 CircleF
4915 751 CircleF
4931 757 CircleF
0.200 UP
1.000 UL
LTb
LCb setrgbcolor
[] 0 setdash
LC2 setrgbcolor
1078 1513 M
16 15 V
16 36 V
16 50 V
16 63 V
17 71 V
16 79 V
16 84 V
16 89 V
16 93 V
16 94 V
16 96 V
16 95 V
17 95 V
16 93 V
16 91 V
16 88 V
16 84 V
16 80 V
16 74 V
16 69 V
17 62 V
16 56 V
16 49 V
16 42 V
16 34 V
16 27 V
16 19 V
16 13 V
17 5 V
16 -1 V
16 -6 V
16 -12 V
16 -15 V
16 -19 V
16 -20 V
16 -20 V
16 -20 V
17 -17 V
16 -14 V
16 -10 V
16 -4 V
16 1 V
16 6 V
16 10 V
16 13 V
17 14 V
16 15 V
16 14 V
16 11 V
16 9 V
16 6 V
16 1 V
16 -3 V
17 -8 V
16 -13 V
16 -18 V
16 -23 V
16 -28 V
16 -33 V
16 -38 V
16 -42 V
17 -46 V
16 -50 V
16 -52 V
16 -56 V
16 -57 V
16 -60 V
16 -60 V
16 -61 V
16 -61 V
17 -60 V
16 -58 V
16 -57 V
16 -54 V
16 -50 V
16 -47 V
16 -42 V
16 -38 V
17 -32 V
16 -26 V
16 -21 V
16 -16 V
16 -9 V
16 -4 V
16 2 V
16 8 V
17 14 V
16 19 V
16 26 V
16 30 V
16 35 V
16 40 V
16 44 V
16 47 V
17 49 V
16 53 V
16 53 V
16 55 V
16 56 V
16 56 V
16 55 V
16 55 V
16 53 V
17 53 V
stroke 2755 2881 M
16 50 V
16 48 V
16 46 V
16 44 V
16 41 V
16 37 V
16 35 V
17 31 V
16 27 V
16 24 V
16 20 V
16 15 V
16 12 V
16 8 V
16 4 V
17 0 V
16 -5 V
16 -8 V
16 -11 V
16 -15 V
16 -17 V
16 -20 V
16 -22 V
17 -24 V
16 -24 V
16 -24 V
16 -23 V
16 -21 V
16 -19 V
16 -16 V
16 -12 V
17 -9 V
16 -4 V
16 -1 V
16 2 V
16 5 V
16 6 V
16 6 V
16 7 V
16 7 V
17 4 V
16 3 V
16 0 V
16 -2 V
16 -6 V
16 -9 V
16 -13 V
16 -17 V
17 -19 V
16 -23 V
16 -26 V
16 -29 V
16 -31 V
16 -33 V
16 -35 V
16 -36 V
17 -37 V
16 -38 V
16 -39 V
16 -40 V
16 -40 V
16 -40 V
16 -42 V
16 -42 V
17 -43 V
16 -43 V
16 -42 V
16 -42 V
16 -40 V
16 -37 V
16 -33 V
16 -27 V
16 -18 V
17 -8 V
16 3 V
16 16 V
16 27 V
16 36 V
16 44 V
16 49 V
16 52 V
17 55 V
16 57 V
16 56 V
16 56 V
16 55 V
16 54 V
16 52 V
16 50 V
17 48 V
16 45 V
16 44 V
16 41 V
16 38 V
16 36 V
16 32 V
16 28 V
17 23 V
16 19 V
16 14 V
16 8 V
16 2 V
16 -4 V
16 -10 V
stroke 4431 3184 M
16 -16 V
16 -22 V
17 -26 V
16 -31 V
16 -34 V
16 -35 V
16 -36 V
16 -34 V
16 -29 V
16 -23 V
17 -13 V
16 1 V
16 16 V
16 27 V
16 37 V
16 41 V
16 45 V
16 45 V
17 44 V
16 41 V
16 38 V
16 33 V
16 28 V
16 22 V
16 16 V
16 9 V
17 4 V
16 -3 V
16 -9 V
16 -15 V
16 -20 V
1078 1513 CircleF
1094 1528 CircleF
1110 1564 CircleF
1126 1614 CircleF
1142 1677 CircleF
1159 1748 CircleF
1175 1827 CircleF
1191 1911 CircleF
1207 2000 CircleF
1223 2093 CircleF
1239 2187 CircleF
1255 2283 CircleF
1271 2378 CircleF
1288 2473 CircleF
1304 2566 CircleF
1320 2657 CircleF
1336 2745 CircleF
1352 2829 CircleF
1368 2909 CircleF
1384 2983 CircleF
1400 3052 CircleF
1417 3114 CircleF
1433 3170 CircleF
1449 3219 CircleF
1465 3261 CircleF
1481 3295 CircleF
1497 3322 CircleF
1513 3341 CircleF
1529 3354 CircleF
1546 3359 CircleF
1562 3358 CircleF
1578 3352 CircleF
1594 3340 CircleF
1610 3325 CircleF
1626 3306 CircleF
1642 3286 CircleF
1658 3266 CircleF
1674 3246 CircleF
1691 3229 CircleF
1707 3215 CircleF
1723 3205 CircleF
1739 3201 CircleF
1755 3202 CircleF
1771 3208 CircleF
1787 3218 CircleF
1803 3231 CircleF
1820 3245 CircleF
1836 3260 CircleF
1852 3274 CircleF
1868 3285 CircleF
1884 3294 CircleF
1900 3300 CircleF
1916 3301 CircleF
1932 3298 CircleF
1949 3290 CircleF
1965 3277 CircleF
1981 3259 CircleF
1997 3236 CircleF
2013 3208 CircleF
2029 3175 CircleF
2045 3137 CircleF
2061 3095 CircleF
2078 3049 CircleF
2094 2999 CircleF
2110 2947 CircleF
2126 2891 CircleF
2142 2834 CircleF
2158 2774 CircleF
2174 2714 CircleF
2190 2653 CircleF
2206 2592 CircleF
2223 2532 CircleF
2239 2474 CircleF
2255 2417 CircleF
2271 2363 CircleF
2287 2313 CircleF
2303 2266 CircleF
2319 2224 CircleF
2335 2186 CircleF
2352 2154 CircleF
2368 2128 CircleF
2384 2107 CircleF
2400 2091 CircleF
2416 2082 CircleF
2432 2078 CircleF
2448 2080 CircleF
2464 2088 CircleF
2481 2102 CircleF
2497 2121 CircleF
2513 2147 CircleF
2529 2177 CircleF
2545 2212 CircleF
2561 2252 CircleF
2577 2296 CircleF
2593 2343 CircleF
2610 2392 CircleF
2626 2445 CircleF
2642 2498 CircleF
2658 2553 CircleF
2674 2609 CircleF
2690 2665 CircleF
2706 2720 CircleF
2722 2775 CircleF
2738 2828 CircleF
2755 2881 CircleF
2771 2931 CircleF
2787 2979 CircleF
2803 3025 CircleF
2819 3069 CircleF
2835 3110 CircleF
2851 3147 CircleF
2867 3182 CircleF
2884 3213 CircleF
2900 3240 CircleF
2916 3264 CircleF
2932 3284 CircleF
2948 3299 CircleF
2964 3311 CircleF
2980 3319 CircleF
2996 3323 CircleF
3013 3323 CircleF
3029 3318 CircleF
3045 3310 CircleF
3061 3299 CircleF
3077 3284 CircleF
3093 3267 CircleF
3109 3247 CircleF
3125 3225 CircleF
3142 3201 CircleF
3158 3177 CircleF
3174 3153 CircleF
3190 3130 CircleF
3206 3109 CircleF
3222 3090 CircleF
3238 3074 CircleF
3254 3062 CircleF
3271 3053 CircleF
3287 3049 CircleF
3303 3048 CircleF
3319 3050 CircleF
3335 3055 CircleF
3351 3061 CircleF
3367 3067 CircleF
3383 3074 CircleF
3399 3081 CircleF
3416 3085 CircleF
3432 3088 CircleF
3448 3088 CircleF
3464 3086 CircleF
3480 3080 CircleF
3496 3071 CircleF
3512 3058 CircleF
3528 3041 CircleF
3545 3022 CircleF
3561 2999 CircleF
3577 2973 CircleF
3593 2944 CircleF
3609 2913 CircleF
3625 2880 CircleF
3641 2845 CircleF
3657 2809 CircleF
3674 2772 CircleF
3690 2734 CircleF
3706 2695 CircleF
3722 2655 CircleF
3738 2615 CircleF
3754 2575 CircleF
3770 2533 CircleF
3786 2491 CircleF
3803 2448 CircleF
3819 2405 CircleF
3835 2363 CircleF
3851 2321 CircleF
3867 2281 CircleF
3883 2244 CircleF
3899 2211 CircleF
3915 2184 CircleF
3931 2166 CircleF
3948 2158 CircleF
3964 2161 CircleF
3980 2177 CircleF
3996 2204 CircleF
4012 2240 CircleF
4028 2284 CircleF
4044 2333 CircleF
4060 2385 CircleF
4077 2440 CircleF
4093 2497 CircleF
4109 2553 CircleF
4125 2609 CircleF
4141 2664 CircleF
4157 2718 CircleF
4173 2770 CircleF
4189 2820 CircleF
4206 2868 CircleF
4222 2913 CircleF
4238 2957 CircleF
4254 2998 CircleF
4270 3036 CircleF
4286 3072 CircleF
4302 3104 CircleF
4318 3132 CircleF
4335 3155 CircleF
4351 3174 CircleF
4367 3188 CircleF
4383 3196 CircleF
4399 3198 CircleF
4415 3194 CircleF
4431 3184 CircleF
4447 3168 CircleF
4463 3146 CircleF
4480 3120 CircleF
4496 3089 CircleF
4512 3055 CircleF
4528 3020 CircleF
4544 2984 CircleF
4560 2950 CircleF
4576 2921 CircleF
4592 2898 CircleF
4609 2885 CircleF
4625 2886 CircleF
4641 2902 CircleF
4657 2929 CircleF
4673 2966 CircleF
4689 3007 CircleF
4705 3052 CircleF
4721 3097 CircleF
4738 3141 CircleF
4754 3182 CircleF
4770 3220 CircleF
4786 3253 CircleF
4802 3281 CircleF
4818 3303 CircleF
4834 3319 CircleF
4850 3328 CircleF
4867 3332 CircleF
4883 3329 CircleF
4899 3320 CircleF
4915 3305 CircleF
4931 3285 CircleF
0.200 UP
1.000 UL
LTb
LCb setrgbcolor
[] 0 setdash
LC3 setrgbcolor
1078 1513 M
16 12 V
16 26 V
16 35 V
16 41 V
17 45 V
16 47 V
16 49 V
16 49 V
16 50 V
16 50 V
16 50 V
16 49 V
17 49 V
16 49 V
16 49 V
16 47 V
16 47 V
16 46 V
16 45 V
16 43 V
17 41 V
16 39 V
16 35 V
16 32 V
16 27 V
16 24 V
16 18 V
16 13 V
17 8 V
16 3 V
16 -3 V
16 -7 V
16 -11 V
16 -14 V
16 -15 V
16 -15 V
16 -13 V
17 -8 V
16 -4 V
16 0 V
16 4 V
16 7 V
16 10 V
16 12 V
16 12 V
17 12 V
16 10 V
16 8 V
16 5 V
16 1 V
16 -1 V
16 -6 V
16 -9 V
17 -13 V
16 -17 V
16 -20 V
16 -23 V
16 -25 V
16 -29 V
16 -30 V
16 -32 V
17 -33 V
16 -34 V
16 -35 V
16 -34 V
16 -35 V
16 -34 V
16 -33 V
16 -32 V
16 -31 V
17 -30 V
16 -28 V
16 -26 V
16 -25 V
16 -22 V
16 -19 V
16 -18 V
16 -14 V
17 -12 V
16 -9 V
16 -6 V
16 -3 V
16 0 V
16 3 V
16 6 V
16 9 V
17 12 V
16 14 V
16 18 V
16 20 V
16 23 V
16 26 V
16 28 V
16 31 V
17 33 V
16 36 V
16 37 V
16 38 V
16 37 V
16 36 V
16 32 V
16 30 V
16 27 V
17 24 V
stroke 2755 2424 M
16 20 V
16 18 V
16 16 V
16 15 V
16 13 V
16 11 V
16 11 V
17 10 V
16 9 V
16 8 V
16 8 V
16 7 V
16 5 V
16 5 V
16 4 V
17 2 V
16 1 V
16 1 V
16 0 V
16 0 V
16 -1 V
16 -4 V
16 -5 V
17 -7 V
16 -9 V
16 -11 V
16 -13 V
16 -14 V
16 -14 V
16 -16 V
16 -16 V
17 -15 V
16 -14 V
16 -14 V
16 -12 V
16 -11 V
16 -8 V
16 -5 V
16 -2 V
16 0 V
17 3 V
16 4 V
16 3 V
16 2 V
16 0 V
16 -2 V
16 -5 V
16 -8 V
17 -10 V
16 -12 V
16 -15 V
16 -16 V
16 -17 V
16 -18 V
16 -18 V
16 -17 V
17 -17 V
16 -16 V
16 -14 V
16 -14 V
16 -12 V
16 -11 V
16 -10 V
16 -10 V
17 -10 V
16 -10 V
16 -11 V
16 -11 V
16 -13 V
16 -13 V
16 -13 V
16 -11 V
16 -8 V
17 -3 V
16 4 V
16 10 V
16 16 V
16 20 V
16 22 V
16 23 V
16 22 V
17 20 V
16 19 V
16 16 V
16 14 V
16 12 V
16 12 V
16 11 V
16 12 V
17 12 V
16 14 V
16 14 V
16 15 V
16 16 V
16 17 V
16 17 V
16 18 V
17 16 V
16 16 V
16 14 V
16 11 V
16 8 V
16 4 V
16 0 V
stroke 4431 2489 M
16 -5 V
16 -9 V
17 -14 V
16 -19 V
16 -22 V
16 -25 V
16 -26 V
16 -24 V
16 -20 V
16 -12 V
17 -3 V
16 9 V
16 20 V
16 28 V
16 33 V
16 34 V
16 34 V
16 31 V
17 28 V
16 23 V
16 18 V
16 12 V
16 8 V
16 4 V
16 -1 V
16 -5 V
17 -8 V
16 -10 V
16 -12 V
16 -13 V
16 -13 V
1078 1513 CircleF
1094 1525 CircleF
1110 1551 CircleF
1126 1586 CircleF
1142 1627 CircleF
1159 1672 CircleF
1175 1719 CircleF
1191 1768 CircleF
1207 1817 CircleF
1223 1867 CircleF
1239 1917 CircleF
1255 1967 CircleF
1271 2016 CircleF
1288 2065 CircleF
1304 2114 CircleF
1320 2163 CircleF
1336 2210 CircleF
1352 2257 CircleF
1368 2303 CircleF
1384 2348 CircleF
1400 2391 CircleF
1417 2432 CircleF
1433 2471 CircleF
1449 2506 CircleF
1465 2538 CircleF
1481 2565 CircleF
1497 2589 CircleF
1513 2607 CircleF
1529 2620 CircleF
1546 2628 CircleF
1562 2631 CircleF
1578 2628 CircleF
1594 2621 CircleF
1610 2610 CircleF
1626 2596 CircleF
1642 2581 CircleF
1658 2566 CircleF
1674 2553 CircleF
1691 2545 CircleF
1707 2541 CircleF
1723 2541 CircleF
1739 2545 CircleF
1755 2552 CircleF
1771 2562 CircleF
1787 2574 CircleF
1803 2586 CircleF
1820 2598 CircleF
1836 2608 CircleF
1852 2616 CircleF
1868 2621 CircleF
1884 2622 CircleF
1900 2621 CircleF
1916 2615 CircleF
1932 2606 CircleF
1949 2593 CircleF
1965 2576 CircleF
1981 2556 CircleF
1997 2533 CircleF
2013 2508 CircleF
2029 2479 CircleF
2045 2449 CircleF
2061 2417 CircleF
2078 2384 CircleF
2094 2350 CircleF
2110 2315 CircleF
2126 2281 CircleF
2142 2246 CircleF
2158 2212 CircleF
2174 2179 CircleF
2190 2147 CircleF
2206 2116 CircleF
2223 2086 CircleF
2239 2058 CircleF
2255 2032 CircleF
2271 2007 CircleF
2287 1985 CircleF
2303 1966 CircleF
2319 1948 CircleF
2335 1934 CircleF
2352 1922 CircleF
2368 1913 CircleF
2384 1907 CircleF
2400 1904 CircleF
2416 1904 CircleF
2432 1907 CircleF
2448 1913 CircleF
2464 1922 CircleF
2481 1934 CircleF
2497 1948 CircleF
2513 1966 CircleF
2529 1986 CircleF
2545 2009 CircleF
2561 2035 CircleF
2577 2063 CircleF
2593 2094 CircleF
2610 2127 CircleF
2626 2163 CircleF
2642 2200 CircleF
2658 2238 CircleF
2674 2275 CircleF
2690 2311 CircleF
2706 2343 CircleF
2722 2373 CircleF
2738 2400 CircleF
2755 2424 CircleF
2771 2444 CircleF
2787 2462 CircleF
2803 2478 CircleF
2819 2493 CircleF
2835 2506 CircleF
2851 2517 CircleF
2867 2528 CircleF
2884 2538 CircleF
2900 2547 CircleF
2916 2555 CircleF
2932 2563 CircleF
2948 2570 CircleF
2964 2575 CircleF
2980 2580 CircleF
2996 2584 CircleF
3013 2586 CircleF
3029 2587 CircleF
3045 2588 CircleF
3061 2588 CircleF
3077 2588 CircleF
3093 2587 CircleF
3109 2583 CircleF
3125 2578 CircleF
3142 2571 CircleF
3158 2562 CircleF
3174 2551 CircleF
3190 2538 CircleF
3206 2524 CircleF
3222 2510 CircleF
3238 2494 CircleF
3254 2478 CircleF
3271 2463 CircleF
3287 2449 CircleF
3303 2435 CircleF
3319 2423 CircleF
3335 2412 CircleF
3351 2404 CircleF
3367 2399 CircleF
3383 2397 CircleF
3399 2397 CircleF
3416 2400 CircleF
3432 2404 CircleF
3448 2407 CircleF
3464 2409 CircleF
3480 2409 CircleF
3496 2407 CircleF
3512 2402 CircleF
3528 2394 CircleF
3545 2384 CircleF
3561 2372 CircleF
3577 2357 CircleF
3593 2341 CircleF
3609 2324 CircleF
3625 2306 CircleF
3641 2288 CircleF
3657 2271 CircleF
3674 2254 CircleF
3690 2238 CircleF
3706 2224 CircleF
3722 2210 CircleF
3738 2198 CircleF
3754 2187 CircleF
3770 2177 CircleF
3786 2167 CircleF
3803 2157 CircleF
3819 2147 CircleF
3835 2136 CircleF
3851 2125 CircleF
3867 2112 CircleF
3883 2099 CircleF
3899 2086 CircleF
3915 2075 CircleF
3931 2067 CircleF
3948 2064 CircleF
3964 2068 CircleF
3980 2078 CircleF
3996 2094 CircleF
4012 2114 CircleF
4028 2136 CircleF
4044 2159 CircleF
4060 2181 CircleF
4077 2201 CircleF
4093 2220 CircleF
4109 2236 CircleF
4125 2250 CircleF
4141 2262 CircleF
4157 2274 CircleF
4173 2285 CircleF
4189 2297 CircleF
4206 2309 CircleF
4222 2323 CircleF
4238 2337 CircleF
4254 2352 CircleF
4270 2368 CircleF
4286 2385 CircleF
4302 2402 CircleF
4318 2420 CircleF
4335 2436 CircleF
4351 2452 CircleF
4367 2466 CircleF
4383 2477 CircleF
4399 2485 CircleF
4415 2489 CircleF
4431 2489 CircleF
4447 2484 CircleF
4463 2475 CircleF
4480 2461 CircleF
4496 2442 CircleF
4512 2420 CircleF
4528 2395 CircleF
4544 2369 CircleF
4560 2345 CircleF
4576 2325 CircleF
4592 2313 CircleF
4609 2310 CircleF
4625 2319 CircleF
4641 2339 CircleF
4657 2367 CircleF
4673 2400 CircleF
4689 2434 CircleF
4705 2468 CircleF
4721 2499 CircleF
4738 2527 CircleF
4754 2550 CircleF
4770 2568 CircleF
4786 2580 CircleF
4802 2588 CircleF
4818 2592 CircleF
4834 2591 CircleF
4850 2586 CircleF
4867 2578 CircleF
4883 2568 CircleF
4899 2556 CircleF
4915 2543 CircleF
4931 2530 CircleF
2.000 UL
LTb
LCb setrgbcolor
[] 0 setdash
1.500 UL
LTb
1078 3623 N
0 -2919 V
3853 0 V
0 2919 V
-3853 0 V
Z stroke
1.000 UP
1.500 UL
LTb
stroke
grestore
end
showpage
%%Trailer
