%!PS-Adobe-2.0 EPSF-2.0
%%Title: fig2.tex
%%Creator: gnuplot 5.0 patchlevel 3
%%CreationDate: Sat Apr 14 23:41:00 2018
%%DocumentFonts: 
%%BoundingBox: 50 50 316 244
%%EndComments
%%BeginProlog
/gnudict 256 dict def
gnudict begin
%
% The following true/false flags may be edited by hand if desired.
% The unit line width and grayscale image gamma correction may also be changed.
%
/Color true def
/Blacktext false def
/Solid false def
/Dashlength 2.5 def
/Landscape false def
/Level1 false def
/Level3 false def
/Rounded false def
/ClipToBoundingBox false def
/SuppressPDFMark false def
/TransparentPatterns false def
/gnulinewidth 5.000 def
/userlinewidth gnulinewidth def
/Gamma 1.0 def
/BackgroundColor {-1.000 -1.000 -1.000} def
%
/vshift -73 def
/dl1 {
  10.0 Dashlength userlinewidth gnulinewidth div mul mul mul
  Rounded { currentlinewidth 0.75 mul sub dup 0 le { pop 0.01 } if } if
} def
/dl2 {
  10.0 Dashlength userlinewidth gnulinewidth div mul mul mul
  Rounded { currentlinewidth 0.75 mul add } if
} def
/hpt_ 31.5 def
/vpt_ 31.5 def
/hpt hpt_ def
/vpt vpt_ def
/doclip {
  ClipToBoundingBox {
    newpath 50 50 moveto 316 50 lineto 316 244 lineto 50 244 lineto closepath
    clip
  } if
} def
%
% Gnuplot Prolog Version 5.1 (Oct 2015)
%
%/SuppressPDFMark true def
%
/M {moveto} bind def
/L {lineto} bind def
/R {rmoveto} bind def
/V {rlineto} bind def
/N {newpath moveto} bind def
/Z {closepath} bind def
/C {setrgbcolor} bind def
/f {rlineto fill} bind def
/g {setgray} bind def
/Gshow {show} def   % May be redefined later in the file to support UTF-8
/vpt2 vpt 2 mul def
/hpt2 hpt 2 mul def
/Lshow {currentpoint stroke M 0 vshift R 
	Blacktext {gsave 0 setgray textshow grestore} {textshow} ifelse} def
/Rshow {currentpoint stroke M dup stringwidth pop neg vshift R
	Blacktext {gsave 0 setgray textshow grestore} {textshow} ifelse} def
/Cshow {currentpoint stroke M dup stringwidth pop -2 div vshift R 
	Blacktext {gsave 0 setgray textshow grestore} {textshow} ifelse} def
/UP {dup vpt_ mul /vpt exch def hpt_ mul /hpt exch def
  /hpt2 hpt 2 mul def /vpt2 vpt 2 mul def} def
/DL {Color {setrgbcolor Solid {pop []} if 0 setdash}
 {pop pop pop 0 setgray Solid {pop []} if 0 setdash} ifelse} def
/BL {stroke userlinewidth 2 mul setlinewidth
	Rounded {1 setlinejoin 1 setlinecap} if} def
/AL {stroke userlinewidth 2 div setlinewidth
	Rounded {1 setlinejoin 1 setlinecap} if} def
/UL {dup gnulinewidth mul /userlinewidth exch def
	dup 1 lt {pop 1} if 10 mul /udl exch def} def
/PL {stroke userlinewidth setlinewidth
	Rounded {1 setlinejoin 1 setlinecap} if} def
3.8 setmiterlimit
% Classic Line colors (version 5.0)
/LCw {1 1 1} def
/LCb {0 0 0} def
/LCa {0 0 0} def
/LC0 {1 0 0} def
/LC1 {0 1 0} def
/LC2 {0 0 1} def
/LC3 {1 0 1} def
/LC4 {0 1 1} def
/LC5 {1 1 0} def
/LC6 {0 0 0} def
/LC7 {1 0.3 0} def
/LC8 {0.5 0.5 0.5} def
% Default dash patterns (version 5.0)
/LTB {BL [] LCb DL} def
/LTw {PL [] 1 setgray} def
/LTb {PL [] LCb DL} def
/LTa {AL [1 udl mul 2 udl mul] 0 setdash LCa setrgbcolor} def
/LT0 {PL [] LC0 DL} def
/LT1 {PL [2 dl1 3 dl2] LC1 DL} def
/LT2 {PL [1 dl1 1.5 dl2] LC2 DL} def
/LT3 {PL [6 dl1 2 dl2 1 dl1 2 dl2] LC3 DL} def
/LT4 {PL [1 dl1 2 dl2 6 dl1 2 dl2 1 dl1 2 dl2] LC4 DL} def
/LT5 {PL [4 dl1 2 dl2] LC5 DL} def
/LT6 {PL [1.5 dl1 1.5 dl2 1.5 dl1 1.5 dl2 1.5 dl1 6 dl2] LC6 DL} def
/LT7 {PL [3 dl1 3 dl2 1 dl1 3 dl2] LC7 DL} def
/LT8 {PL [2 dl1 2 dl2 2 dl1 6 dl2] LC8 DL} def
/SL {[] 0 setdash} def
/Pnt {stroke [] 0 setdash gsave 1 setlinecap M 0 0 V stroke grestore} def
/Dia {stroke [] 0 setdash 2 copy vpt add M
  hpt neg vpt neg V hpt vpt neg V
  hpt vpt V hpt neg vpt V closepath stroke
  Pnt} def
/Pls {stroke [] 0 setdash vpt sub M 0 vpt2 V
  currentpoint stroke M
  hpt neg vpt neg R hpt2 0 V stroke
 } def
/Box {stroke [] 0 setdash 2 copy exch hpt sub exch vpt add M
  0 vpt2 neg V hpt2 0 V 0 vpt2 V
  hpt2 neg 0 V closepath stroke
  Pnt} def
/Crs {stroke [] 0 setdash exch hpt sub exch vpt add M
  hpt2 vpt2 neg V currentpoint stroke M
  hpt2 neg 0 R hpt2 vpt2 V stroke} def
/TriU {stroke [] 0 setdash 2 copy vpt 1.12 mul add M
  hpt neg vpt -1.62 mul V
  hpt 2 mul 0 V
  hpt neg vpt 1.62 mul V closepath stroke
  Pnt} def
/Star {2 copy Pls Crs} def
/BoxF {stroke [] 0 setdash exch hpt sub exch vpt add M
  0 vpt2 neg V hpt2 0 V 0 vpt2 V
  hpt2 neg 0 V closepath fill} def
/TriUF {stroke [] 0 setdash vpt 1.12 mul add M
  hpt neg vpt -1.62 mul V
  hpt 2 mul 0 V
  hpt neg vpt 1.62 mul V closepath fill} def
/TriD {stroke [] 0 setdash 2 copy vpt 1.12 mul sub M
  hpt neg vpt 1.62 mul V
  hpt 2 mul 0 V
  hpt neg vpt -1.62 mul V closepath stroke
  Pnt} def
/TriDF {stroke [] 0 setdash vpt 1.12 mul sub M
  hpt neg vpt 1.62 mul V
  hpt 2 mul 0 V
  hpt neg vpt -1.62 mul V closepath fill} def
/DiaF {stroke [] 0 setdash vpt add M
  hpt neg vpt neg V hpt vpt neg V
  hpt vpt V hpt neg vpt V closepath fill} def
/Pent {stroke [] 0 setdash 2 copy gsave
  translate 0 hpt M 4 {72 rotate 0 hpt L} repeat
  closepath stroke grestore Pnt} def
/PentF {stroke [] 0 setdash gsave
  translate 0 hpt M 4 {72 rotate 0 hpt L} repeat
  closepath fill grestore} def
/Circle {stroke [] 0 setdash 2 copy
  hpt 0 360 arc stroke Pnt} def
/CircleF {stroke [] 0 setdash hpt 0 360 arc fill} def
/C0 {BL [] 0 setdash 2 copy moveto vpt 90 450 arc} bind def
/C1 {BL [] 0 setdash 2 copy moveto
	2 copy vpt 0 90 arc closepath fill
	vpt 0 360 arc closepath} bind def
/C2 {BL [] 0 setdash 2 copy moveto
	2 copy vpt 90 180 arc closepath fill
	vpt 0 360 arc closepath} bind def
/C3 {BL [] 0 setdash 2 copy moveto
	2 copy vpt 0 180 arc closepath fill
	vpt 0 360 arc closepath} bind def
/C4 {BL [] 0 setdash 2 copy moveto
	2 copy vpt 180 270 arc closepath fill
	vpt 0 360 arc closepath} bind def
/C5 {BL [] 0 setdash 2 copy moveto
	2 copy vpt 0 90 arc
	2 copy moveto
	2 copy vpt 180 270 arc closepath fill
	vpt 0 360 arc} bind def
/C6 {BL [] 0 setdash 2 copy moveto
	2 copy vpt 90 270 arc closepath fill
	vpt 0 360 arc closepath} bind def
/C7 {BL [] 0 setdash 2 copy moveto
	2 copy vpt 0 270 arc closepath fill
	vpt 0 360 arc closepath} bind def
/C8 {BL [] 0 setdash 2 copy moveto
	2 copy vpt 270 360 arc closepath fill
	vpt 0 360 arc closepath} bind def
/C9 {BL [] 0 setdash 2 copy moveto
	2 copy vpt 270 450 arc closepath fill
	vpt 0 360 arc closepath} bind def
/C10 {BL [] 0 setdash 2 copy 2 copy moveto vpt 270 360 arc closepath fill
	2 copy moveto
	2 copy vpt 90 180 arc closepath fill
	vpt 0 360 arc closepath} bind def
/C11 {BL [] 0 setdash 2 copy moveto
	2 copy vpt 0 180 arc closepath fill
	2 copy moveto
	2 copy vpt 270 360 arc closepath fill
	vpt 0 360 arc closepath} bind def
/C12 {BL [] 0 setdash 2 copy moveto
	2 copy vpt 180 360 arc closepath fill
	vpt 0 360 arc closepath} bind def
/C13 {BL [] 0 setdash 2 copy moveto
	2 copy vpt 0 90 arc closepath fill
	2 copy moveto
	2 copy vpt 180 360 arc closepath fill
	vpt 0 360 arc closepath} bind def
/C14 {BL [] 0 setdash 2 copy moveto
	2 copy vpt 90 360 arc closepath fill
	vpt 0 360 arc} bind def
/C15 {BL [] 0 setdash 2 copy vpt 0 360 arc closepath fill
	vpt 0 360 arc closepath} bind def
/Rec {newpath 4 2 roll moveto 1 index 0 rlineto 0 exch rlineto
	neg 0 rlineto closepath} bind def
/Square {dup Rec} bind def
/Bsquare {vpt sub exch vpt sub exch vpt2 Square} bind def
/S0 {BL [] 0 setdash 2 copy moveto 0 vpt rlineto BL Bsquare} bind def
/S1 {BL [] 0 setdash 2 copy vpt Square fill Bsquare} bind def
/S2 {BL [] 0 setdash 2 copy exch vpt sub exch vpt Square fill Bsquare} bind def
/S3 {BL [] 0 setdash 2 copy exch vpt sub exch vpt2 vpt Rec fill Bsquare} bind def
/S4 {BL [] 0 setdash 2 copy exch vpt sub exch vpt sub vpt Square fill Bsquare} bind def
/S5 {BL [] 0 setdash 2 copy 2 copy vpt Square fill
	exch vpt sub exch vpt sub vpt Square fill Bsquare} bind def
/S6 {BL [] 0 setdash 2 copy exch vpt sub exch vpt sub vpt vpt2 Rec fill Bsquare} bind def
/S7 {BL [] 0 setdash 2 copy exch vpt sub exch vpt sub vpt vpt2 Rec fill
	2 copy vpt Square fill Bsquare} bind def
/S8 {BL [] 0 setdash 2 copy vpt sub vpt Square fill Bsquare} bind def
/S9 {BL [] 0 setdash 2 copy vpt sub vpt vpt2 Rec fill Bsquare} bind def
/S10 {BL [] 0 setdash 2 copy vpt sub vpt Square fill 2 copy exch vpt sub exch vpt Square fill
	Bsquare} bind def
/S11 {BL [] 0 setdash 2 copy vpt sub vpt Square fill 2 copy exch vpt sub exch vpt2 vpt Rec fill
	Bsquare} bind def
/S12 {BL [] 0 setdash 2 copy exch vpt sub exch vpt sub vpt2 vpt Rec fill Bsquare} bind def
/S13 {BL [] 0 setdash 2 copy exch vpt sub exch vpt sub vpt2 vpt Rec fill
	2 copy vpt Square fill Bsquare} bind def
/S14 {BL [] 0 setdash 2 copy exch vpt sub exch vpt sub vpt2 vpt Rec fill
	2 copy exch vpt sub exch vpt Square fill Bsquare} bind def
/S15 {BL [] 0 setdash 2 copy Bsquare fill Bsquare} bind def
/D0 {gsave translate 45 rotate 0 0 S0 stroke grestore} bind def
/D1 {gsave translate 45 rotate 0 0 S1 stroke grestore} bind def
/D2 {gsave translate 45 rotate 0 0 S2 stroke grestore} bind def
/D3 {gsave translate 45 rotate 0 0 S3 stroke grestore} bind def
/D4 {gsave translate 45 rotate 0 0 S4 stroke grestore} bind def
/D5 {gsave translate 45 rotate 0 0 S5 stroke grestore} bind def
/D6 {gsave translate 45 rotate 0 0 S6 stroke grestore} bind def
/D7 {gsave translate 45 rotate 0 0 S7 stroke grestore} bind def
/D8 {gsave translate 45 rotate 0 0 S8 stroke grestore} bind def
/D9 {gsave translate 45 rotate 0 0 S9 stroke grestore} bind def
/D10 {gsave translate 45 rotate 0 0 S10 stroke grestore} bind def
/D11 {gsave translate 45 rotate 0 0 S11 stroke grestore} bind def
/D12 {gsave translate 45 rotate 0 0 S12 stroke grestore} bind def
/D13 {gsave translate 45 rotate 0 0 S13 stroke grestore} bind def
/D14 {gsave translate 45 rotate 0 0 S14 stroke grestore} bind def
/D15 {gsave translate 45 rotate 0 0 S15 stroke grestore} bind def
/DiaE {stroke [] 0 setdash vpt add M
  hpt neg vpt neg V hpt vpt neg V
  hpt vpt V hpt neg vpt V closepath stroke} def
/BoxE {stroke [] 0 setdash exch hpt sub exch vpt add M
  0 vpt2 neg V hpt2 0 V 0 vpt2 V
  hpt2 neg 0 V closepath stroke} def
/TriUE {stroke [] 0 setdash vpt 1.12 mul add M
  hpt neg vpt -1.62 mul V
  hpt 2 mul 0 V
  hpt neg vpt 1.62 mul V closepath stroke} def
/TriDE {stroke [] 0 setdash vpt 1.12 mul sub M
  hpt neg vpt 1.62 mul V
  hpt 2 mul 0 V
  hpt neg vpt -1.62 mul V closepath stroke} def
/PentE {stroke [] 0 setdash gsave
  translate 0 hpt M 4 {72 rotate 0 hpt L} repeat
  closepath stroke grestore} def
/CircE {stroke [] 0 setdash 
  hpt 0 360 arc stroke} def
/Opaque {gsave closepath 1 setgray fill grestore 0 setgray closepath} def
/DiaW {stroke [] 0 setdash vpt add M
  hpt neg vpt neg V hpt vpt neg V
  hpt vpt V hpt neg vpt V Opaque stroke} def
/BoxW {stroke [] 0 setdash exch hpt sub exch vpt add M
  0 vpt2 neg V hpt2 0 V 0 vpt2 V
  hpt2 neg 0 V Opaque stroke} def
/TriUW {stroke [] 0 setdash vpt 1.12 mul add M
  hpt neg vpt -1.62 mul V
  hpt 2 mul 0 V
  hpt neg vpt 1.62 mul V Opaque stroke} def
/TriDW {stroke [] 0 setdash vpt 1.12 mul sub M
  hpt neg vpt 1.62 mul V
  hpt 2 mul 0 V
  hpt neg vpt -1.62 mul V Opaque stroke} def
/PentW {stroke [] 0 setdash gsave
  translate 0 hpt M 4 {72 rotate 0 hpt L} repeat
  Opaque stroke grestore} def
/CircW {stroke [] 0 setdash 
  hpt 0 360 arc Opaque stroke} def
/BoxFill {gsave Rec 1 setgray fill grestore} def
/Density {
  /Fillden exch def
  currentrgbcolor
  /ColB exch def /ColG exch def /ColR exch def
  /ColR ColR Fillden mul Fillden sub 1 add def
  /ColG ColG Fillden mul Fillden sub 1 add def
  /ColB ColB Fillden mul Fillden sub 1 add def
  ColR ColG ColB setrgbcolor} def
/BoxColFill {gsave Rec PolyFill} def
/PolyFill {gsave Density fill grestore grestore} def
/h {rlineto rlineto rlineto gsave closepath fill grestore} bind def
%
% PostScript Level 1 Pattern Fill routine for rectangles
% Usage: x y w h s a XX PatternFill
%	x,y = lower left corner of box to be filled
%	w,h = width and height of box
%	  a = angle in degrees between lines and x-axis
%	 XX = 0/1 for no/yes cross-hatch
%
/PatternFill {gsave /PFa [ 9 2 roll ] def
  PFa 0 get PFa 2 get 2 div add PFa 1 get PFa 3 get 2 div add translate
  PFa 2 get -2 div PFa 3 get -2 div PFa 2 get PFa 3 get Rec
  TransparentPatterns {} {gsave 1 setgray fill grestore} ifelse
  clip
  currentlinewidth 0.5 mul setlinewidth
  /PFs PFa 2 get dup mul PFa 3 get dup mul add sqrt def
  0 0 M PFa 5 get rotate PFs -2 div dup translate
  0 1 PFs PFa 4 get div 1 add floor cvi
	{PFa 4 get mul 0 M 0 PFs V} for
  0 PFa 6 get ne {
	0 1 PFs PFa 4 get div 1 add floor cvi
	{PFa 4 get mul 0 2 1 roll M PFs 0 V} for
 } if
  stroke grestore} def
%
/languagelevel where
 {pop languagelevel} {1} ifelse
dup 2 lt
	{/InterpretLevel1 true def
	 /InterpretLevel3 false def}
	{/InterpretLevel1 Level1 def
	 2 gt
	    {/InterpretLevel3 Level3 def}
	    {/InterpretLevel3 false def}
	 ifelse }
 ifelse
%
% PostScript level 2 pattern fill definitions
%
/Level2PatternFill {
/Tile8x8 {/PaintType 2 /PatternType 1 /TilingType 1 /BBox [0 0 8 8] /XStep 8 /YStep 8}
	bind def
/KeepColor {currentrgbcolor [/Pattern /DeviceRGB] setcolorspace} bind def
<< Tile8x8
 /PaintProc {0.5 setlinewidth pop 0 0 M 8 8 L 0 8 M 8 0 L stroke} 
>> matrix makepattern
/Pat1 exch def
<< Tile8x8
 /PaintProc {0.5 setlinewidth pop 0 0 M 8 8 L 0 8 M 8 0 L stroke
	0 4 M 4 8 L 8 4 L 4 0 L 0 4 L stroke}
>> matrix makepattern
/Pat2 exch def
<< Tile8x8
 /PaintProc {0.5 setlinewidth pop 0 0 M 0 8 L
	8 8 L 8 0 L 0 0 L fill}
>> matrix makepattern
/Pat3 exch def
<< Tile8x8
 /PaintProc {0.5 setlinewidth pop -4 8 M 8 -4 L
	0 12 M 12 0 L stroke}
>> matrix makepattern
/Pat4 exch def
<< Tile8x8
 /PaintProc {0.5 setlinewidth pop -4 0 M 8 12 L
	0 -4 M 12 8 L stroke}
>> matrix makepattern
/Pat5 exch def
<< Tile8x8
 /PaintProc {0.5 setlinewidth pop -2 8 M 4 -4 L
	0 12 M 8 -4 L 4 12 M 10 0 L stroke}
>> matrix makepattern
/Pat6 exch def
<< Tile8x8
 /PaintProc {0.5 setlinewidth pop -2 0 M 4 12 L
	0 -4 M 8 12 L 4 -4 M 10 8 L stroke}
>> matrix makepattern
/Pat7 exch def
<< Tile8x8
 /PaintProc {0.5 setlinewidth pop 8 -2 M -4 4 L
	12 0 M -4 8 L 12 4 M 0 10 L stroke}
>> matrix makepattern
/Pat8 exch def
<< Tile8x8
 /PaintProc {0.5 setlinewidth pop 0 -2 M 12 4 L
	-4 0 M 12 8 L -4 4 M 8 10 L stroke}
>> matrix makepattern
/Pat9 exch def
/Pattern1 {PatternBgnd KeepColor Pat1 setpattern} bind def
/Pattern2 {PatternBgnd KeepColor Pat2 setpattern} bind def
/Pattern3 {PatternBgnd KeepColor Pat3 setpattern} bind def
/Pattern4 {PatternBgnd KeepColor Landscape {Pat5} {Pat4} ifelse setpattern} bind def
/Pattern5 {PatternBgnd KeepColor Landscape {Pat4} {Pat5} ifelse setpattern} bind def
/Pattern6 {PatternBgnd KeepColor Landscape {Pat9} {Pat6} ifelse setpattern} bind def
/Pattern7 {PatternBgnd KeepColor Landscape {Pat8} {Pat7} ifelse setpattern} bind def
} def
%
%
%End of PostScript Level 2 code
%
/PatternBgnd {
  TransparentPatterns {} {gsave 1 setgray fill grestore} ifelse
} def
%
% Substitute for Level 2 pattern fill codes with
% grayscale if Level 2 support is not selected.
%
/Level1PatternFill {
/Pattern1 {0.250 Density} bind def
/Pattern2 {0.500 Density} bind def
/Pattern3 {0.750 Density} bind def
/Pattern4 {0.125 Density} bind def
/Pattern5 {0.375 Density} bind def
/Pattern6 {0.625 Density} bind def
/Pattern7 {0.875 Density} bind def
} def
%
% Now test for support of Level 2 code
%
Level1 {Level1PatternFill} {Level2PatternFill} ifelse
%
/Symbol-Oblique /Symbol findfont [1 0 .167 1 0 0] makefont
dup length dict begin {1 index /FID eq {pop pop} {def} ifelse} forall
currentdict end definefont pop
%
Level1 SuppressPDFMark or 
{} {
/SDict 10 dict def
systemdict /pdfmark known not {
  userdict /pdfmark systemdict /cleartomark get put
} if
SDict begin [
  /Title (fig2.tex)
  /Subject (gnuplot plot)
  /Creator (gnuplot 5.0 patchlevel 3)
  /Author (daniela)
%  /Producer (gnuplot)
%  /Keywords ()
  /CreationDate (Sat Apr 14 23:41:00 2018)
  /DOCINFO pdfmark
end
} ifelse
%
% Support for boxed text - Ethan A Merritt May 2005
%
/InitTextBox { userdict /TBy2 3 -1 roll put userdict /TBx2 3 -1 roll put
           userdict /TBy1 3 -1 roll put userdict /TBx1 3 -1 roll put
	   /Boxing true def } def
/ExtendTextBox { Boxing
    { gsave dup false charpath pathbbox
      dup TBy2 gt {userdict /TBy2 3 -1 roll put} {pop} ifelse
      dup TBx2 gt {userdict /TBx2 3 -1 roll put} {pop} ifelse
      dup TBy1 lt {userdict /TBy1 3 -1 roll put} {pop} ifelse
      dup TBx1 lt {userdict /TBx1 3 -1 roll put} {pop} ifelse
      grestore } if } def
/PopTextBox { newpath TBx1 TBxmargin sub TBy1 TBymargin sub M
               TBx1 TBxmargin sub TBy2 TBymargin add L
	       TBx2 TBxmargin add TBy2 TBymargin add L
	       TBx2 TBxmargin add TBy1 TBymargin sub L closepath } def
/DrawTextBox { PopTextBox stroke /Boxing false def} def
/FillTextBox { gsave PopTextBox 1 1 1 setrgbcolor fill grestore /Boxing false def} def
0 0 0 0 InitTextBox
/TBxmargin 20 def
/TBymargin 20 def
/Boxing false def
/textshow { ExtendTextBox Gshow } def
%
% redundant definitions for compatibility with prologue.ps older than 5.0.2
/LTB {BL [] LCb DL} def
/LTb {PL [] LCb DL} def
end
%%EndProlog
%%Page: 1 1
gnudict begin
gsave
doclip
50 50 translate
0.050 0.050 scale
0 setgray
newpath
gsave % colour palette begin
/maxcolors 0 def
/HSV2RGB {  exch dup 0.0 eq {pop exch pop dup dup} % achromatic gray
  { /HSVs exch def /HSVv exch def 6.0 mul dup floor dup 3 1 roll sub
     /HSVf exch def /HSVi exch cvi def /HSVp HSVv 1.0 HSVs sub mul def
	 /HSVq HSVv 1.0 HSVs HSVf mul sub mul def 
	 /HSVt HSVv 1.0 HSVs 1.0 HSVf sub mul sub mul def
	 /HSVi HSVi 6 mod def 0 HSVi eq {HSVv HSVt HSVp}
	 {1 HSVi eq {HSVq HSVv HSVp}{2 HSVi eq {HSVp HSVv HSVt}
	 {3 HSVi eq {HSVp HSVq HSVv}{4 HSVi eq {HSVt HSVp HSVv}
	 {HSVv HSVp HSVq} ifelse} ifelse} ifelse} ifelse} ifelse
  } ifelse} def
/Constrain {
  dup 0 lt {0 exch pop}{dup 1 gt {1 exch pop} if} ifelse} def
/YIQ2RGB {
  3 copy -1.702 mul exch -1.105 mul add add Constrain 4 1 roll
  3 copy -0.647 mul exch -0.272 mul add add Constrain 5 1 roll
  0.621 mul exch -0.956 mul add add Constrain 3 1 roll } def
/CMY2RGB {  1 exch sub exch 1 exch sub 3 2 roll 1 exch sub 3 1 roll exch } def
/XYZ2RGB {  3 copy -0.9017 mul exch -0.1187 mul add exch 0.0585 mul exch add
  Constrain 4 1 roll 3 copy -0.0279 mul exch 1.999 mul add exch
  -0.9844 mul add Constrain 5 1 roll -0.2891 mul exch -0.5338 mul add
  exch 1.91 mul exch add Constrain 3 1 roll} def
/SelectSpace {ColorSpace (HSV) eq {HSV2RGB}{ColorSpace (XYZ) eq {
  XYZ2RGB}{ColorSpace (CMY) eq {CMY2RGB}{ColorSpace (YIQ) eq {YIQ2RGB}
  if} ifelse} ifelse} ifelse} def
/InterpolatedColor true def
/grayindex {/gidx 0 def
  {GrayA gidx get grayv ge {exit} if /gidx gidx 1 add def} loop} def
/dgdx {grayv GrayA gidx get sub GrayA gidx 1 sub get
  GrayA gidx get sub div} def 
/redvalue {RedA gidx get RedA gidx 1 sub get
  RedA gidx get sub dgdxval mul add} def
/greenvalue {GreenA gidx get GreenA gidx 1 sub get
  GreenA gidx get sub dgdxval mul add} def
/bluevalue {BlueA gidx get BlueA gidx 1 sub get
  BlueA gidx get sub dgdxval mul add} def
/interpolate {
  grayindex grayv GrayA gidx get sub abs 1e-5 le
    {RedA gidx get GreenA gidx get BlueA gidx get}
    {/dgdxval dgdx def redvalue greenvalue bluevalue} ifelse} def
/GrayA [0 .125 .25 .375 .5 .625 .75 .875 1 ] def
/RedA [.2078 .0118 .0784 .0235 .2196 .5725 .851 .9882 .9765 ] def
/GreenA [.1647 .3882 .5216 .6549 .7255 .749 .7294 .8078 .9843 ] def
/BlueA [.5294 .8824 .8314 .7765 .6196 .451 .3373 .1804 .0549 ] def
/pm3dround {maxcolors 0 gt {dup 1 ge
	{pop 1} {maxcolors mul floor maxcolors 1 sub div} ifelse} if} def
/pm3dGamma 1.0 1.5 Gamma mul div def
/ColorSpace (RGB) def
Color InterpolatedColor or { % COLOUR vs. GRAY map
  InterpolatedColor { %% Interpolation vs. RGB-Formula
    /g {stroke pm3dround /grayv exch def interpolate
        SelectSpace setrgbcolor} bind def
  }{
  /g {stroke pm3dround dup cF7 Constrain exch dup cF5 Constrain exch cF15 Constrain 
       SelectSpace setrgbcolor} bind def
  } ifelse
}{
  /g {stroke pm3dround pm3dGamma exp setgray} bind def
} ifelse
1.500 UL
LTb
LCb setrgbcolor
[] 0 setdash
1078 704 M
47 0 V
3011 0 R
-47 0 V
stroke
LTb
1078 1646 M
47 0 V
3011 0 R
-47 0 V
stroke
1078 2587 M
47 0 V
3011 0 R
-47 0 V
stroke
1078 3529 M
47 0 V
3011 0 R
-47 0 V
stroke
1758 704 M
0 47 V
0 2872 R
0 -47 V
stroke
2607 704 M
0 47 V
0 2872 R
0 -47 V
stroke
3456 704 M
0 47 V
0 2872 R
0 -47 V
stroke
1.500 UL
LTb
1078 3623 N
0 -2919 V
3058 0 V
0 2919 V
-3058 0 V
Z stroke
1.000 UP
1.500 UL
LTb
1.000 UP
1.000 UL
LTb
.5 g .397 g 3040 2277 CircleF
.2326 g 2137 2863 CircleF
.421 g 3592 2751 CircleF
.2437 g 2529 3375 CircleF
.6152 g 2761 1333 CircleF
.2808 g 2622 2646 CircleF
.0907 g 2220 3240 CircleF
.3331 g 2016 2549 CircleF
.4751 g 3339 3322 CircleF
.2735 g 2387 2682 CircleF
.2375 g 2080 2859 CircleF
.4608 g 2416 1959 CircleF
.1672 g 2856 3486 CircleF
.3067 g 2257 2571 CircleF
.4182 g 2580 2117 CircleF
.3752 g 3007 2339 CircleF
.3601 g 1499 2917 CircleF
.6343 g 2585 1009 CircleF
.5017 g 2523 1813 CircleF
.6291 g 2448 1204 CircleF
.3469 g 2486 2386 CircleF
.251 g 2604 2759 CircleF
.2823 g 2164 2686 CircleF
.3092 g 2067 2618 CircleF
.168 g 2844 3503 CircleF
.2367 g 3063 3232 CircleF
.4752 g 2859 1914 CircleF
.6364 g 2622 789 CircleF
.5547 g 2349 1667 CircleF
.4515 g 3256 2166 CircleF
.2614 g 1648 3016 CircleF
.5401 g 3100 1789 CircleF
.5077 g 3171 1939 CircleF
.272 g 2195 2717 CircleF
.2224 g 1827 2993 CircleF
.4594 g 2563 1953 CircleF
.354 g 3058 2430 CircleF
.3872 g 3348 2478 CircleF
.3317 g 2401 2451 CircleF
.3634 g 3773 3378 CircleF
.3388 g 2335 2433 CircleF
.3353 g 1969 2564 CircleF
.1291 g 2527 3336 CircleF
.633 g 2776 1065 CircleF
.312 g 2223 2557 CircleF
.3007 g 2106 2636 CircleF
.1187 g 2113 3180 CircleF
.4037 g 3752 3400 CircleF
.2559 g 2811 2756 CircleF
.5171 g 3820 3043 CircleF
.3756 g 2402 2289 CircleF
.058 g 2147 3296 CircleF
.2061 g 2359 2926 CircleF
.1574 g 2767 3116 CircleF
.3639 g 2448 2327 CircleF
.2749 g 2559 2668 CircleF
.4542 g 1846 2225 CircleF
.1084 g 2332 3500 CircleF
.5118 g 2467 1787 CircleF
.1706 g 1927 3356 CircleF
.1575 g 2393 3074 CircleF
.1968 g 3050 3465 CircleF
.2391 g 2415 2808 CircleF
.5614 g 2446 1631 CircleF
.4439 g 3584 2624 CircleF
.2405 g 2227 2824 CircleF
.3188 g 3223 3247 CircleF
.5027 g 3248 2012 CircleF
.3926 g 3921 3290 CircleF
.6267 g 2351 1202 CircleF
.4581 g 2599 1957 CircleF
.1644 g 2845 3483 CircleF
.2123 g 2646 2902 CircleF
.5168 g 3821 3078 CircleF
.11 g 1931 3308 CircleF
.3093 g 2503 2530 CircleF
.3515 g 3851 3439 CircleF
.3374 g 2145 2483 CircleF
.39 g 2906 2256 CircleF
.1938 g 1840 3073 CircleF
.25 g 3200 3022 CircleF
.3493 g 3151 3385 CircleF
.404 g 3514 2639 CircleF
.4466 g 2845 2014 CircleF
.6313 g 2792 1091 CircleF
.5031 g 3040 1874 CircleF
.5867 g 3085 1656 CircleF
.2759 g 1847 2817 CircleF
.1128 g 2476 3492 CircleF
.3051 g 1768 2771 CircleF
.6155 g 2845 1355 CircleF
.2552 g 2823 2760 CircleF
.3787 g 3512 3162 CircleF
.3422 g 1478 3333 CircleF
.5128 g 2095 1876 CircleF
.4397 g 3543 3233 CircleF
.1664 g 1904 3121 CircleF
.6293 g 2820 1218 CircleF
.095 g 2538 3250 CircleF
.434 g 2585 2051 CircleF
.1372 g 2507 3121 CircleF
.4163 g 2505 2127 CircleF
.3272 g 2299 2483 CircleF
.1808 g 2885 3452 CircleF
.5954 g 2362 1490 CircleF
.048 g 2028 3425 CircleF
.3176 g 2742 2503 CircleF
.0534 g 2201 3431 CircleF
.1118 g 2101 3511 CircleF
.5192 g 3837 3123 CircleF
.1235 g 2388 3157 CircleF
.192 g 1757 3156 CircleF
.4167 g 1950 2274 CircleF
.2913 g 2311 2622 CircleF
.358 g 3974 3469 CircleF
.4591 g 2830 1965 CircleF
.1834 g 2987 3521 CircleF
.5925 g 2575 1479 CircleF
.4394 g 2151 2093 CircleF
.3824 g 1478 2907 CircleF
.1737 g 1900 3104 CircleF
.6145 g 2789 1347 CircleF
.3355 g 3420 2838 CircleF
.324 g 2924 2508 CircleF
.187 g 2612 2991 CircleF
.5973 g 2951 1530 CircleF
.5266 g 3115 3338 CircleF
.5343 g 3052 3349 CircleF
.5248 g 2883 1766 CircleF
.1527 g 1913 3152 CircleF
.6043 g 2583 1421 CircleF
.164 g 2431 3357 CircleF
.468 g 3260 3305 CircleF
.4892 g 3776 3109 CircleF
.2703 g 1722 2911 CircleF
.2921 g 2535 2598 CircleF
.2255 g 2702 2859 CircleF
.3888 g 2982 2284 CircleF
.5494 g 2445 1667 CircleF
.1528 g 1974 3131 CircleF
.6132 g 2943 1412 CircleF
.4106 g 2196 2200 CircleF
.5036 g 3175 1953 CircleF
.3782 g 3002 3317 CircleF
.0264 g 2260 3363 CircleF
.4474 g 2783 2003 CircleF
.5838 g 2866 1593 CircleF
.2637 g 3428 3458 CircleF
.3115 g 2258 2552 CircleF
.2209 g 3275 3500 CircleF
.1657 g 2508 3048 CircleF
.3925 g 3598 3052 CircleF
.2011 g 2882 3273 CircleF
.1441 g 2083 3370 CircleF
.4242 g 2713 2097 CircleF
.3763 g 2237 2318 CircleF
.3221 g 2827 2496 CircleF
.5374 g 3170 1860 CircleF
.1672 g 2292 3050 CircleF
.022 g 2132 3386 CircleF
.5941 g 2240 1545 CircleF
.2745 g 3271 2962 CircleF
.2875 g 3172 2723 CircleF
.5892 g 2915 1558 CircleF
.265 g 2316 2722 CircleF
.4478 g 2751 1999 CircleF
.4371 g 3640 2797 CircleF
.4437 g 3295 2214 CircleF
.1026 g 2394 3488 CircleF
.3269 g 1468 3193 CircleF
.1935 g 2999 3455 CircleF
.2682 g 3206 3188 CircleF
.1733 g 1985 3073 CircleF
.3878 g 1349 3315 CircleF
.1932 g 2869 2998 CircleF
.2255 g 2010 2915 CircleF
.6291 g 2491 1175 CircleF
.6248 g 2884 1260 CircleF
.3509 g 1841 2588 CircleF
.2538 g 1362 3389 CircleF
.4722 g 3612 3245 CircleF
.3858 g 1878 2437 CircleF
.4707 g 3717 3166 CircleF
.4178 g 3266 2283 CircleF
.2895 g 3237 2774 CircleF
.4011 g 1983 2320 CircleF
.5253 g 2239 1788 CircleF
.3345 g 3322 3399 CircleF
.2674 g 3195 3196 CircleF
.3797 g 2956 2308 CircleF
.4776 g 3744 2951 CircleF
.2842 g 2818 2648 CircleF
.1896 g 2919 3042 CircleF
.0983 g 2574 3259 CircleF
.3409 g 3319 3397 CircleF
.6285 g 2437 1172 CircleF
.4703 g 2688 1916 CircleF
.5231 g 2311 1776 CircleF
.1298 g 2694 3190 CircleF
.1158 g 2603 3455 CircleF
.4713 g 2491 1916 CircleF
.3275 g 2816 2473 CircleF
.3407 g 3407 2774 CircleF
.1959 g 2049 2998 CircleF
.3195 g 2853 2511 CircleF
.3373 g 2940 2460 CircleF
.1255 g 1903 3243 CircleF
.3163 g 3729 3462 CircleF
.3071 g 3362 3116 CircleF
.4536 g 2037 2086 CircleF
.2866 g 1541 3248 CircleF
.6336 g 2517 1011 CircleF
.3279 g 1442 3359 CircleF
.1812 g 2807 3028 CircleF
.6311 g 2515 1082 CircleF
.432 g 3593 3197 CircleF
.2056 g 2386 2926 CircleF
.3392 g 2811 2426 CircleF
.5372 g 2548 1698 CircleF
.3686 g 2194 2356 CircleF
.3276 g 1963 2596 CircleF
.4656 g 2739 1933 CircleF
.421 g 3655 3042 CircleF
.5617 g 2560 1622 CircleF
.3249 g 2684 2468 CircleF
.0742 g 2141 3464 CircleF
.62 g 2391 1289 CircleF
.6113 g 2552 1347 CircleF
.6151 g 2909 1384 CircleF
.6079 g 2379 1419 CircleF
.5854 g 2192 1634 CircleF
.3659 g 2870 3373 CircleF
.3471 g 3036 2449 CircleF
.4475 g 1953 2160 CircleF
.3407 g 1996 2531 CircleF
.15 g 2776 3154 CircleF
.3788 g 1857 2479 CircleF
.3617 g 2237 2369 CircleF
.075 g 2315 3260 CircleF
.466 g 1952 2098 CircleF
.2068 g 1372 3476 CircleF
.4646 g 2856 1949 CircleF
.4784 g 2725 1891 CircleF
.6343 g 2680 1024 CircleF
.2028 g 3024 3148 CircleF
.2447 g 2600 2783 CircleF
.4986 g 2699 1824 CircleF
.2192 g 2436 2879 CircleF
.5801 g 2750 1580 CircleF
.4542 g 2056 2075 CircleF
.5344 g 3143 1844 CircleF
.35 g 3897 3461 CircleF
.63 g 2576 1128 CircleF
.4735 g 3602 3274 CircleF
.3564 g 2336 2368 CircleF
.3425 g 4013 3513 CircleF
.4887 g 3083 1937 CircleF
.6338 g 2520 973 CircleF
.2815 g 3120 2722 CircleF
.3151 g 3098 2593 CircleF
.4442 g 2718 2011 CircleF
.1346 g 1675 3515 CircleF
.1705 g 1914 3107 CircleF
.418 g 1282 3303 CircleF
.4371 g 1981 2179 CircleF
.47 g 3512 3268 CircleF
.2983 g 3099 2656 CircleF
.3131 g 3225 3399 CircleF
.4718 g 1885 2139 CircleF
.437 g 3676 2920 CircleF
.3344 g 3326 2648 CircleF
.4297 g 2984 2115 CircleF
.3942 g 3572 3132 CircleF
.6049 g 2716 1418 CircleF
.2861 g 2675 2626 CircleF
.1106 g 2615 3230 CircleF
.6326 g 2480 1019 CircleF
.3094 g 3409 3417 CircleF
.5935 g 2417 1490 CircleF
.2721 g 3151 2779 CircleF
.34 g 3437 2848 CircleF
.5823 g 2596 1529 CircleF
.4415 g 2941 2053 CircleF
.437 g 3275 3294 CircleF
.3947 g 1811 2446 CircleF
.2121 g 1829 3024 CircleF
.1859 g 2869 3030 CircleF
.3642 g 3515 2895 CircleF
.3977 g 1791 2451 CircleF
.2006 g 2131 2966 CircleF
.3123 g 2657 2518 CircleF
.3234 g 2202 2519 CircleF
.2985 g 2515 2573 CircleF
.3898 g 3558 3138 CircleF
.6011 g 2472 1440 CircleF
.3036 g 1969 2675 CircleF
.1511 g 2732 3286 CircleF
.63 g 2573 1127 CircleF
.4272 g 2639 3353 CircleF
.3213 g 1675 2791 CircleF
.2428 g 1702 3011 CircleF
.1682 g 2479 3380 CircleF
.395 g 1424 3001 CircleF
.623 g 2748 1269 CircleF
.1658 g 2441 3049 CircleF
.2574 g 2732 2741 CircleF
.0777 g 2450 3270 CircleF
.1774 g 2918 3129 CircleF
.271 g 2307 2700 CircleF
.2013 g 2856 2954 CircleF
.4625 g 2984 1984 CircleF
.6298 g 2544 1195 CircleF
.3022 g 1913 2701 CircleF
.2154 g 3047 3190 CircleF
.4426 g 1333 3180 CircleF
.1622 g 2021 3093 CircleF
.2305 g 3110 3002 CircleF
.3314 g 2442 2448 CircleF
.25 g 1662 3311 CircleF
.2517 g 3210 3042 CircleF
.2407 g 3002 3265 CircleF
.3869 g 2855 2255 CircleF
.4062 g 3233 2311 CircleF
.5984 g 2758 1456 CircleF
.2495 g 1597 3218 CircleF
.2759 g 3191 3212 CircleF
.3436 g 3482 3026 CircleF
.358 g 3486 2848 CircleF
.2742 g 1827 2834 CircleF
.1632 g 2598 3057 CircleF
.416 g 3409 2412 CircleF
.3806 g 2500 2261 CircleF
.619 g 2809 1312 CircleF
.3462 g 2042 2490 CircleF
.464 g 2248 1975 CircleF
.263 g 3067 2776 CircleF
.4745 g 1905 2113 CircleF
.4859 g 2160 1929 CircleF
.142 g 1649 3523 CircleF
.4737 g 3721 3248 CircleF
.2595 g 2345 2739 CircleF
.2533 g 3215 3067 CircleF
.2192 g 2174 2900 CircleF
.6027 g 2272 1477 CircleF
.4852 g 3767 3119 CircleF
.066 g 2135 3284 CircleF
.1059 g 2439 3197 CircleF
.0782 g 1920 3454 CircleF
.5315 g 3064 1801 CircleF
.4096 g 3614 3118 CircleF
.6236 g 2763 1267 CircleF
.5266 g 2591 1733 CircleF
.2142 g 2993 3237 CircleF
.2977 g 3341 3103 CircleF
.4965 g 2650 1828 CircleF
.2932 g 1523 3214 CircleF
.1179 g 1958 3224 CircleF
.1867 g 2220 2996 CircleF
.1826 g 2848 3037 CircleF
.4025 g 3480 2546 CircleF
.4923 g 3769 2974 CircleF
.2689 g 1161 3512 CircleF
.2973 g 3237 2729 CircleF
.2703 g 2825 2702 CircleF
.3786 g 3808 3401 CircleF
.0713 g 2052 3300 CircleF
.3575 g 3520 3015 CircleF
.4534 g 3549 3244 CircleF
.246 g 3115 3214 CircleF
.3096 g 3335 2826 CircleF
.4176 g 1909 2298 CircleF
.3566 g 2816 2361 CircleF
.2792 g 2506 2652 CircleF
.2964 g 3086 2659 CircleF
.3315 g 3055 3297 CircleF
.253 g 2607 2751 CircleF
.6286 g 2539 1212 CircleF
.3511 g 1518 2892 CircleF
.3958 g 2366 2221 CircleF
.4094 g 3609 2861 CircleF
.4403 g 1907 2218 CircleF
.212 g 1713 3139 CircleF
.1991 g 2948 3010 CircleF
.4263 g 3609 2766 CircleF
.4434 g 2111 2092 CircleF
.6343 g 2735 1021 CircleF
.2244 g 3263 3474 CircleF
.2418 g 3041 2855 CircleF
.4399 g 2594 2027 CircleF
.1819 g 1818 3119 CircleF
.4396 g 3273 3367 CircleF
.4275 g 3405 2371 CircleF
.2672 g 3598 3513 CircleF
.2489 g 3038 2823 CircleF
.1089 g 2472 3191 CircleF
.1217 g 2631 3450 CircleF
.5811 g 2433 1558 CircleF
.2108 g 2106 2938 CircleF
.6313 g 2516 1080 CircleF
.3117 g 3877 3515 CircleF
.2696 g 2939 2724 CircleF
.3703 g 2834 2313 CircleF
.5709 g 3086 1696 CircleF
.2021 g 1891 3024 CircleF
.274 g 1998 2762 CircleF
.3012 g 2866 2588 CircleF
.4313 g 3204 2207 CircleF
.314 g 3861 3505 CircleF
.6187 g 2808 1314 CircleF
.3325 g 3450 3408 CircleF
.6353 g 2579 887 CircleF
.2612 g 2545 2720 CircleF
.3978 g 3728 3400 CircleF
.2566 g 2695 2742 CircleF
.4763 g 2463 1901 CircleF
.3047 g 2417 2555 CircleF
.1073 g 2570 3219 CircleF
.2986 g 3342 3107 CircleF
.2613 g 2520 2720 CircleF
.6287 g 2467 1157 CircleF
.4637 g 2523 1940 CircleF
.4034 g 1682 2534 CircleF
.3314 g 2344 2460 CircleF
.2649 g 2208 2741 CircleF
.4076 g 3331 3272 CircleF
.6143 g 2896 1392 CircleF
.5149 g 2065 1884 CircleF
.2908 g 3312 2921 CircleF
.1564 g 2739 3289 CircleF
.3671 g 1882 2509 CircleF
.2829 g 1598 3006 CircleF
.5915 g 2885 1534 CircleF
.2531 g 1753 3374 CircleF
.3837 g 3841 3314 CircleF
.1801 g 2680 3019 CircleF
.4973 g 2533 1827 CircleF
.341 g 2691 2406 CircleF
.1229 g 1698 3492 CircleF
.2452 g 2339 2792 CircleF
.4241 g 3389 2367 CircleF
.4648 g 3672 2771 CircleF
.3557 g 3416 2694 CircleF
.3526 g 3417 2715 CircleF
.4363 g 3675 2923 CircleF
.2467 g 3053 2839 CircleF
.4006 g 1653 2570 CircleF
.4046 g 1860 2376 CircleF
.54 g 2783 1702 CircleF
.3208 g 2509 2484 CircleF
.2714 g 3273 3033 CircleF
.6246 g 2884 1263 CircleF
.2775 g 1588 3068 CircleF
.6145 g 2584 1317 CircleF
.4294 g 3446 2407 CircleF
.089 g 2352 3473 CircleF
.1675 g 2871 3198 CircleF
.5013 g 2355 1835 CircleF
.2493 g 2201 2798 CircleF
.2894 g 3289 3157 CircleF
.2669 g 2945 2735 CircleF
.2171 g 3047 3004 CircleF
.1345 g 2414 3129 CircleF
.4935 g 3066 1914 CircleF
.4904 g 1963 2012 CircleF
.5007 g 1964 1977 CircleF
.351 g 2313 2392 CircleF
.5724 g 2194 1665 CircleF
.5192 g 3826 3069 CircleF
.4471 g 2578 1998 CircleF
.3706 g 1753 2579 CircleF
.4737 g 3086 1989 CircleF
.1841 g 2929 3204 CircleF
.2358 g 3067 3229 CircleF
.6063 g 2877 1449 CircleF
.3385 g 3412 3403 CircleF
.3068 g 2208 2582 CircleF
.1183 g 1918 3254 CircleF
.5835 g 2754 1546 CircleF
.5947 g 3006 1557 CircleF
.0932 g 2233 3231 CircleF
.4549 g 3085 2060 CircleF
.6321 g 2482 1050 CircleF
.3274 g 3001 2514 CircleF
.5032 g 1958 1972 CircleF
.3127 g 3273 3219 CircleF
.2916 g 1571 3025 CircleF
.3838 g 3171 2373 CircleF
.3189 g 1827 2691 CircleF
.3164 g 1555 2935 CircleF
.3864 g 1273 3321 CircleF
.5129 g 2471 1783 CircleF
.2558 g 3182 2926 CircleF
.6014 g 2483 1438 CircleF
.2191 g 1355 3442 CircleF
.1169 g 2651 3223 CircleF
.3597 g 2554 2336 CircleF
.0372 g 2068 3407 CircleF
.3228 g 1905 2640 CircleF
.6061 g 2614 1399 CircleF
.3898 g 3315 3267 CircleF
.3855 g 3565 3109 CircleF
.3746 g 2237 2324 CircleF
.419 g 3242 3293 CircleF
.2524 g 2307 2769 CircleF
.4916 g 1995 1987 CircleF
.2937 g 3213 2726 CircleF
.1793 g 2863 3254 CircleF
.4327 g 3402 3269 CircleF
.3632 g 1749 2610 CircleF
.2886 g 2799 2629 CircleF
.2005 g 2095 2973 CircleF
.4817 g 3728 3216 CircleF
.5329 g 3160 1863 CircleF
.3391 g 3463 2982 CircleF
.6332 g 2579 1055 CircleF
.4861 g 3091 1950 CircleF
.1972 g 2971 3212 CircleF
.2562 g 1200 3497 CircleF
.3751 g 1407 3249 CircleF
.0971 g 1965 3285 CircleF
.5183 g 3076 1847 CircleF
.354 g 1433 3135 CircleF
.3722 g 2354 2309 CircleF
.119 g 2489 3500 CircleF
.4647 g 3300 2155 CircleF
.1803 g 2885 3238 CircleF
.4291 g 3045 2142 CircleF
.3574 g 2792 2354 CircleF
.4709 g 2615 1913 CircleF
.1483 g 2699 3295 CircleF
.4255 g 1952 2240 CircleF
.3815 g 2134 2331 CircleF
.5193 g 3218 1945 CircleF
.3004 g 3288 2792 CircleF
.1061 g 1767 3457 CircleF
.2895 g 3293 2888 CircleF
.6195 g 2415 1291 CircleF
.5387 g 2567 1693 CircleF
.2262 g 2686 2856 CircleF
.3022 g 2492 3365 CircleF
.4826 g 3368 2166 CircleF
.2385 g 1251 3457 CircleF
.5655 g 2178 1688 CircleF
.1562 g 2657 3075 CircleF
.5337 g 2099 1813 CircleF
.3052 g 1545 3029 CircleF
.348 g 2904 2410 CircleF
.2352 g 2971 2854 CircleF
.4695 g 2312 1944 CircleF
.4583 g 3654 3281 CircleF
.4223 g 3360 2347 CircleF
.2493 g 1832 2910 CircleF
.2507 g 2309 2776 CircleF
.4959 g 2906 1858 CircleF
.1294 g 2134 3155 CircleF
.2434 g 2350 2798 CircleF
.6379 g 2606 826 CircleF
.4082 g 3337 2379 CircleF
.4251 g 3329 2310 CircleF
.3758 g 1275 3328 CircleF
.153 g 1694 3429 CircleF
.4974 g 3769 2944 CircleF
.4497 g 3359 2258 CircleF
.0807 g 2196 3253 CircleF
.2665 g 2152 2747 CircleF
.2597 g 3081 2795 CircleF
.24 g 1824 2942 CircleF
.6335 g 2543 1029 CircleF
.2043 g 3024 3074 CircleF
.0358 g 2323 3333 CircleF
.2411 g 2086 2846 CircleF
.3744 g 2547 2281 CircleF
.1699 g 2526 3383 CircleF
.3775 g 3533 2842 CircleF
.1648 g 1997 3092 CircleF
.4591 g 1811 2237 CircleF
.3156 g 1944 2646 CircleF
.3869 g 3532 2777 CircleF
.3298 g 2154 2508 CircleF
.2968 g 3134 3261 CircleF
.096 g 2143 3490 CircleF
.2321 g 3127 3152 CircleF
.1978 g 2778 2956 CircleF
.4077 g 3618 2903 CircleF
.5844 g 2858 1580 CircleF
.3752 g 2702 2278 CircleF
.3045 g 2270 2577 CircleF
.3359 g 2300 2450 CircleF
.3904 g 2873 2246 CircleF
.2321 g 3053 3421 CircleF
.2816 g 3340 3427 CircleF
.1983 g 2652 2951 CircleF
.4569 g 3559 3298 CircleF
.3885 g 3476 2632 CircleF
.6331 g 2607 757 CircleF
.2071 g 2358 2922 CircleF
.1605 g 2816 3138 CircleF
.2445 g 2638 2785 CircleF
.2021 g 2692 2939 CircleF
.5889 g 2766 1514 CircleF
.453 g 3456 3314 CircleF
.4745 g 2901 1924 CircleF
.2212 g 1759 3334 CircleF
.5221 g 2414 1761 CircleF
.4404 g 3565 3224 CircleF
.5868 g 2931 1583 CircleF
.6345 g 2611 777 CircleF
.1765 g 2037 3369 CircleF
.155 g 1911 3148 CircleF
.3836 g 2503 2249 CircleF
.1537 g 2020 3115 CircleF
.0621 g 2199 3288 CircleF
.379 g 1779 2530 CircleF
.4662 g 3296 2148 CircleF
.2442 g 3182 3092 CircleF
.1148 g 2225 3187 CircleF
.3907 g 2326 2247 CircleF
.2357 g 2853 2833 CircleF
.1046 g 2449 3483 CircleF
.151 g 1582 3513 CircleF
.3315 g 3447 3021 CircleF
.2699 g 3225 3173 CircleF
.6324 g 2682 1080 CircleF
.2338 g 2661 3382 CircleF
.4225 g 3386 3267 CircleF
.5796 g 2484 1560 CircleF
.3183 g 2288 2519 CircleF
.2068 g 3003 3018 CircleF
.3972 g 2776 2203 CircleF
.3782 g 3742 3332 CircleF
.5543 g 2629 1644 CircleF
.3832 g 3638 3379 CircleF
.6049 g 2771 1425 CircleF
.3032 g 1570 3357 CircleF
.4519 g 3338 2229 CircleF
.4134 g 2096 2217 CircleF
.3164 g 2679 2502 CircleF
.2601 g 2594 2724 CircleF
.2432 g 3148 3178 CircleF
.3281 g 2087 2538 CircleF
.0995 g 2507 3416 CircleF
.5888 g 3022 1589 CircleF
.4182 g 1989 2246 CircleF
.5366 g 2819 1718 CircleF
.4134 g 3623 2880 CircleF
.3288 g 2808 2467 CircleF
.0941 g 1827 3453 CircleF
.3077 g 2414 2543 CircleF
.4999 g 1965 1979 CircleF
.3943 g 3248 2363 CircleF
.2398 g 2799 2814 CircleF
.0986 g 1852 3478 CircleF
.2458 g 2490 2779 CircleF
.6049 g 2365 1443 CircleF
.3722 g 1665 2641 CircleF
.3755 g 1621 2671 CircleF
.1844 g 2459 2995 CircleF
.1506 g 2731 3437 CircleF
.3143 g 3400 3000 CircleF
.5649 g 2606 1614 CircleF
.358 g 3370 3394 CircleF
.2552 g 3170 2908 CircleF
.5492 g 2340 1686 CircleF
.4221 g 3359 2348 CircleF
.3427 g 1617 2779 CircleF
.2663 g 2929 3393 CircleF
.253 g 2700 2756 CircleF
.1565 g 1852 3184 CircleF
.1615 g 1550 3465 CircleF
.472 g 2924 1936 CircleF
.2623 g 1840 2866 CircleF
.2075 g 2987 2994 CircleF
.2238 g 3092 3163 CircleF
.2746 g 2226 2701 CircleF
.2424 g 3164 3148 CircleF
.2625 g 3479 3481 CircleF
.3896 g 3905 3422 CircleF
.3815 g 3557 2894 CircleF
.3825 g 3558 3347 CircleF
.4692 g 2192 1973 CircleF
.2345 g 1267 3494 CircleF
.6003 g 2238 1503 CircleF
.2159 g 1833 3010 CircleF
.2754 g 2795 2679 CircleF
.4547 g 2113 2049 CircleF
.0708 g 1990 3459 CircleF
.1045 g 1951 3296 CircleF
.1859 g 2836 3018 CircleF
.4547 g 3597 2609 CircleF
.4538 g 2240 2014 CircleF
.2749 g 3666 3528 CircleF
.4535 g 3187 2120 CircleF
.2905 g 3258 2807 CircleF
.2822 g 3307 3013 CircleF
.2455 g 2339 2791 CircleF
.2444 g 1647 3121 CircleF
.2603 g 1479 3379 CircleF
.0915 g 2474 3444 CircleF
.6252 g 2863 1262 CircleF
.5872 g 2801 1534 CircleF
.367 g 2072 2405 CircleF
.4193 g 1378 3072 CircleF
.4283 g 2989 2124 CircleF
.444 g 3698 2991 CircleF
.2322 g 2555 2829 CircleF
.1924 g 1387 3506 CircleF
.3407 g 1469 3337 CircleF
.2378 g 1272 3427 CircleF
.5203 g 1987 1903 CircleF
.6158 g 2931 1373 CircleF
.5613 g 2432 1633 CircleF
.4085 g 3473 2505 CircleF
.2264 g 1771 3340 CircleF
.4547 g 2278 2002 CircleF
.3323 g 3073 2516 CircleF
.5918 g 2307 1529 CircleF
.4379 g 2997 2086 CircleF
.1921 g 2969 3450 CircleF
.2305 g 1267 3511 CircleF
.2226 g 2507 2866 CircleF
.2627 g 1907 2831 CircleF
.6341 g 2714 983 CircleF
.4265 g 3620 2796 CircleF
.4197 g 3244 2267 CircleF
.3875 g 1958 2388 CircleF
.2371 g 3151 3132 CircleF
.35 g 2699 2373 CircleF
.451 g 2113 2062 CircleF
.3378 g 3453 2926 CircleF
.4019 g 3097 2287 CircleF
.3681 g 3716 3355 CircleF
.6283 g 2550 1215 CircleF
.4376 g 2635 2036 CircleF
.0991 g 2494 3219 CircleF
.3971 g 2687 2196 CircleF
.3364 g 3267 2590 CircleF
.4667 g 3397 2249 CircleF
.4739 g 2800 1911 CircleF
.5993 g 2215 1520 CircleF
.3676 g 2175 2365 CircleF
.3269 g 2524 2460 CircleF
.24 g 1235 3498 CircleF
.3609 g 3230 2473 CircleF
.3319 g 3208 2572 CircleF
.4402 g 2755 2029 CircleF
.2436 g 2815 2802 CircleF
.3699 g 3518 2854 CircleF
.5535 g 3102 1752 CircleF
.2449 g 2683 2786 CircleF
.3241 g 3288 2656 CircleF
.3061 g 2923 2580 CircleF
.1106 g 1759 3455 CircleF
.2939 g 2516 2591 CircleF
.3928 g 3257 2367 CircleF
.4891 g 2797 1862 CircleF
.1601 g 2735 3420 CircleF
.3195 g 3380 2857 CircleF
.502 g 2666 1811 CircleF
.6342 g 2640 1026 CircleF
.5281 g 2319 1758 CircleF
.352 g 2186 2417 CircleF
.6062 g 2533 1402 CircleF
.6149 g 2624 1314 CircleF
.2164 g 2010 2944 CircleF
.3466 g 1935 2544 CircleF
.3655 g 3468 2752 CircleF
.416 g 2506 2128 CircleF
.2964 g 1527 3102 CircleF
.0819 g 2135 3253 CircleF
.2761 g 3287 3001 CircleF
.3722 g 3378 2551 CircleF
.5452 g 2138 1760 CircleF
.2706 g 1287 3388 CircleF
.1806 g 2533 3009 CircleF
.5576 g 2270 1678 CircleF
.5423 g 2966 1729 CircleF
.4313 g 3069 3367 CircleF
.4663 g 3313 2161 CircleF
.4422 g 3391 3369 CircleF
.1692 g 2864 3223 CircleF
.0614 g 2205 3437 CircleF
.2156 g 2741 3391 CircleF
.191 g 1581 3422 CircleF
.5879 g 3010 1596 CircleF
.5682 g 3014 1672 CircleF
.4229 g 3626 3146 CircleF
.4246 g 3030 2156 CircleF
.4961 g 2660 1830 CircleF
.3999 g 2355 2208 CircleF
.6209 g 2332 1278 CircleF
.2671 g 1607 3079 CircleF
.2962 g 1517 3139 CircleF
.5927 g 3015 1568 CircleF
.0896 g 2317 3477 CircleF
.1433 g 2202 3120 CircleF
.173 g 1583 3444 CircleF
.2656 g 1689 2951 CircleF
.2071 g 3039 3157 CircleF
.1898 g 2963 3179 CircleF
.3889 g 3357 2475 CircleF
.3072 g 3094 2622 CircleF
.3824 g 3416 3386 CircleF
.4125 g 3125 2246 CircleF
.0898 g 2325 3477 CircleF
.4223 g 2030 2208 CircleF
.2561 g 2397 2746 CircleF
.3306 g 3197 2572 CircleF
.4734 g 3687 3209 CircleF
.5509 g 3052 1737 CircleF
.3657 g 1898 2503 CircleF
.2227 g 3017 2933 CircleF
.4896 g 1989 1996 CircleF
.5122 g 3271 2004 CircleF
.6044 g 2218 1479 CircleF
.4074 g 2141 2229 CircleF
.4064 g 3431 2469 CircleF
.12 g 2540 3408 CircleF
.4044 g 2628 2168 CircleF
.082 g 2046 3272 CircleF
.4966 g 2239 1875 CircleF
.1777 g 1449 3510 CircleF
.1729 g 2580 3031 CircleF
.6174 g 2719 1308 CircleF
.4631 g 2148 2007 CircleF
.1438 g 2616 3106 CircleF
.1531 g 2818 3194 CircleF
.2375 g 2737 2818 CircleF
.1804 g 1823 3120 CircleF
.2631 g 1608 3095 CircleF
.1827 g 2807 3021 CircleF
.2628 g 1660 2988 CircleF
.4438 g 3481 2406 CircleF
.1448 g 1853 3253 CircleF
.6199 g 2326 1288 CircleF
.2129 g 1978 2965 CircleF
.3698 g 1751 2584 CircleF
.4147 g 2623 2130 CircleF
.4599 g 3384 2254 CircleF
.2381 g 1690 3049 CircleF
.3459 g 1711 2689 CircleF
.2119 g 1936 2980 CircleF
.5136 g 3838 3143 CircleF
.1163 g 2043 3518 CircleF
.2639 g 1634 3032 CircleF
.2294 g 2661 2843 CircleF
.6028 g 2618 1426 CircleF
.5557 g 2791 1657 CircleF
.2137 g 2990 3238 CircleF
.634 g 2637 1042 CircleF
.4911 g 2220 1896 CircleF
.4168 g 3649 2990 CircleF
.2748 g 3163 2775 CircleF
.2643 g 2792 2721 CircleF
.1438 g 2295 3121 CircleF
.2533 g 2819 2767 CircleF
.1872 g 1910 3059 CircleF
.4877 g 3236 2045 CircleF
.4417 g 2070 2114 CircleF
.1047 g 1970 3257 CircleF
.6359 g 2574 847 CircleF
.0718 g 2389 3432 CircleF
.3605 g 3845 3351 CircleF
.4287 g 3662 2920 CircleF
.2219 g 2614 2869 CircleF
.3463 g 3361 3215 CircleF
.2132 g 1839 3015 CircleF
.2098 g 3005 3217 CircleF
.0578 g 2395 3336 CircleF
.612 g 2497 1347 CircleF
.1893 g 1739 3212 CircleF
.4257 g 3032 2152 CircleF
.3255 g 3176 3267 CircleF
.082 g 2029 3348 CircleF
.2891 g 2520 2611 CircleF
.0677 g 2334 3444 CircleF
.3436 g 3112 2487 CircleF
.2777 g 2932 2691 CircleF
.3609 g 3931 3348 CircleF
.1813 g 2835 3038 CircleF
.3665 g 2062 2411 CircleF
.314 g 1488 3228 CircleF
.4766 g 2327 1918 CircleF
.3011 g 2150 2621 CircleF
.577 g 2133 1675 CircleF
.4966 g 2993 1878 CircleF
.5869 g 2296 1568 CircleF
.2897 g 2365 2621 CircleF
.2677 g 2920 3392 CircleF
.3367 g 2744 2427 CircleF
.3574 g 1573 2783 CircleF
.2515 g 1597 3231 CircleF
.354 g 1550 2817 CircleF
.4032 g 3640 3319 CircleF
.0839 g 2453 3413 CircleF
.3163 g 3357 3409 CircleF
.4736 g 2175 1964 CircleF
.2305 g 2622 2837 CircleF
.2659 g 1639 3012 CircleF
.2499 g 1630 3117 CircleF
.2218 g 2255 2882 CircleF
.2154 g 2283 2900 CircleF
.2906 g 1687 2876 CircleF
.3542 g 2672 2356 CircleF
.5673 g 2087 1710 CircleF
.3694 g 3107 2394 CircleF
.5593 g 2957 1678 CircleF
.271 g 3075 2747 CircleF
.4472 g 2918 2025 CircleF
.5068 g 2859 1815 CircleF
.4804 g 2230 1926 CircleF
.1658 g 2003 3365 CircleF
.3306 g 1482 3268 CircleF
.2118 g 3063 3130 CircleF
.3446 g 2440 2399 CircleF
.1291 g 2205 3153 CircleF
.1936 g 1637 3423 CircleF
.1734 g 1791 3192 CircleF
.0252 g 2145 3350 CircleF
.4101 g 3395 2421 CircleF
.3222 g 1938 2626 CircleF
.3008 g 1510 3132 CircleF
.2116 g 1353 3430 CircleF
.2219 g 1810 3005 CircleF
.2408 g 2176 2830 CircleF
.5132 g 3183 1933 CircleF
.4403 g 1906 2219 CircleF
.584 g 2655 1524 CircleF
.3709 g 3720 3381 CircleF
.5335 g 3077 1800 CircleF
.2048 g 1729 3143 CircleF
.1479 g 2249 3109 CircleF
.6018 g 2802 1449 CircleF
.3625 g 3312 3250 CircleF
.5959 g 2325 1501 CircleF
.3017 g 1507 3203 CircleF
.2325 g 2856 2845 CircleF
.6303 g 2721 1142 CircleF
.4659 g 2553 1931 CircleF
.3831 g 2675 2248 CircleF
.3393 g 3445 3130 CircleF
.4079 g 2114 2234 CircleF
.4213 g 3078 2191 CircleF
.3158 g 1968 2634 CircleF
.2914 g 2513 2602 CircleF
.1945 g 2309 2965 CircleF
.5101 g 3808 3056 CircleF
.2063 g 2335 2926 CircleF
.5884 g 3031 1591 CircleF
.4346 g 3611 2733 CircleF
.5192 g 2390 1774 CircleF
.2039 g 1804 3378 CircleF
.6268 g 2879 1232 CircleF
.5817 g 2721 1553 CircleF
.4152 g 2380 2145 CircleF
.3314 g 2356 2458 CircleF
.4449 g 2553 2008 CircleF
.1954 g 2521 2959 CircleF
.2646 g 3248 3104 CircleF
.1439 g 2418 3106 CircleF
.2269 g 3110 3039 CircleF
.2358 g 2328 2828 CircleF
.103 g 2526 3215 CircleF
.5783 g 3069 1669 CircleF
.3265 g 3108 2553 CircleF
.4222 g 2114 2173 CircleF
.6096 g 2270 1418 CircleF
.2195 g 1876 2979 CircleF
.3025 g 3158 2657 CircleF
.0941 g 2360 3480 CircleF
.2658 g 3255 3011 CircleF
.4022 g 3616 3065 CircleF
.6139 g 2853 1378 CircleF
.6381 g 2655 826 CircleF
.4035 g 1924 2341 CircleF
.1579 g 1854 3178 CircleF
.3212 g 2043 2581 CircleF
.1574 g 2615 3072 CircleF
.4968 g 3027 1887 CircleF
.3662 g 2691 2312 CircleF
.4639 g 2149 2004 CircleF
.3145 g 2503 2510 CircleF
.6297 g 2795 1176 CircleF
.6061 g 2632 1399 CircleF
.4546 g 3639 3204 CircleF
.6098 g 2940 1438 CircleF
.3822 g 3910 3309 CircleF
.1572 g 2217 3084 CircleF
.0467 g 2228 3420 CircleF
.4126 g 1772 2416 CircleF
.4811 g 3137 1996 CircleF
.2964 g 1784 2788 CircleF
.2814 g 2570 2642 CircleF
.5868 g 2516 1510 CircleF
.4517 g 2175 2039 CircleF
.4368 g 2553 2040 CircleF
.3847 g 1928 2414 CircleF
.2928 g 2264 2625 CircleF
.2652 g 2831 2722 CircleF
.2173 g 3049 3197 CircleF
.2989 g 2435 2576 CircleF
.4446 g 2610 2007 CircleF
.3059 g 3377 3001 CircleF
.4623 g 2915 1968 CircleF
.4487 g 3758 3264 CircleF
.1917 g 2282 2976 CircleF
.6169 g 2589 1298 CircleF
.3382 g 1463 3254 CircleF
.4459 g 3004 2056 CircleF
.0827 g 2360 3248 CircleF
.2437 g 2211 2816 CircleF
.2268 g 2323 2860 CircleF
.1986 g 1388 3522 CircleF
.6122 g 2530 1339 CircleF
.1548 g 1598 3454 CircleF
.6247 g 2530 1243 CircleF
.5341 g 2682 1711 CircleF
.3721 g 1414 3256 CircleF
.4997 g 2425 1829 CircleF
.3631 g 3225 2464 CircleF
.1721 g 2392 3035 CircleF
.3552 g 2959 2397 CircleF
.4302 g 2346 2087 CircleF
.2168 g 3266 3515 CircleF
.2793 g 2155 2700 CircleF
.2598 g 2672 2728 CircleF
.0823 g 1882 3440 CircleF
.2254 g 1369 3407 CircleF
.2694 g 3267 3022 CircleF
.4483 g 1290 3267 CircleF
.3675 g 3827 3340 CircleF
.2567 g 2093 2793 CircleF
.6034 g 2943 1487 CircleF
.2166 g 2071 2928 CircleF
.4359 g 3034 2110 CircleF
.4074 g 2627 3367 CircleF
.4755 g 2084 1991 CircleF
.3528 g 3499 3084 CircleF
.0957 g 2402 3220 CircleF
.1319 g 2602 3501 CircleF
.3628 g 2335 2346 CircleF
.4573 g 3092 2054 CircleF
.589 g 2239 1591 CircleF
.4184 g 2698 2119 CircleF
.334 g 2774 2442 CircleF
.247 g 2971 2810 CircleF
.3993 g 2944 2235 CircleF
.3667 g 3709 3369 CircleF
.2346 g 3236 3451 CircleF
.3131 g 1564 2928 CircleF
.3686 g 3320 3252 CircleF
.1769 g 2726 3023 CircleF
.1573 g 2125 3089 CircleF
.3466 g 2436 2392 CircleF
.1988 g 1536 3397 CircleF
.2959 g 2800 2599 CircleF
.3097 g 2775 2539 CircleF
.3505 g 2043 2475 CircleF
.0588 g 2244 3438 CircleF
.2423 g 1921 2892 CircleF
.2471 g 3189 3115 CircleF
.3953 g 1696 2542 CircleF
.3469 g 1716 2682 CircleF
.1052 g 2559 3221 CircleF
.1286 g 1808 3528 CircleF
.2514 g 2077 2814 CircleF
.2699 g 3012 3282 CircleF
.2888 g 1652 2911 CircleF
.1491 g 2167 3106 CircleF
.1745 g 1588 3409 CircleF
.6112 g 2510 1353 CircleF
.2904 g 3285 2862 CircleF
.6089 g 2704 1377 CircleF
.2746 g 3283 3013 CircleF
.5497 g 3184 1823 CircleF
.3856 g 3150 2358 CircleF
.4343 g 2840 2064 CircleF
.0913 g 1957 3486 CircleF
.3811 g 2459 2263 CircleF
.4603 g 2416 1961 CircleF
.2801 g 1654 2937 CircleF
.5084 g 2434 1801 CircleF
.4519 g 2577 1980 CircleF
.3644 g 2434 2327 CircleF
.1829 g 2584 3005 CircleF
.1914 g 2878 3009 CircleF
.272 g 2195 2717 CircleF
.4429 g 3186 2157 CircleF
.3586 g 3454 2763 CircleF
.4521 g 2042 2089 CircleF
.1632 g 2758 3092 CircleF
.4714 g 2207 1961 CircleF
.2109 g 2022 2958 CircleF
.2032 g 2643 2934 CircleF
.2567 g 2791 3322 CircleF
.3089 g 2902 2564 CircleF
.3191 g 3336 3190 CircleF
.1038 g 2584 3243 CircleF
.0695 g 2123 3456 CircleF
.4213 g 2340 2125 CircleF
.3345 g 2388 2442 CircleF
.5235 g 2951 1786 CircleF
.3587 g 2435 2348 CircleF
.62 g 2321 1286 CircleF
.2413 g 3079 3418 CircleF
.2067 g 1616 3387 CircleF
.1289 g 2716 3211 CircleF
.5146 g 2830 3362 CircleF
.1723 g 2823 3076 CircleF
.369 g 2968 2349 CircleF
.3746 g 2061 2384 CircleF
.2934 g 3643 3480 CircleF
.2086 g 2355 2918 CircleF
.2562 g 3083 2811 CircleF
.2698 g 2074 2754 CircleF
.2976 g 2658 2577 CircleF
.4511 g 3709 2988 CircleF
.6311 g 2447 1057 CircleF
.6355 g 2781 3358 CircleF
.2852 g 3710 3525 CircleF
.4805 g 2168 1943 CircleF
.4581 g 3313 3295 CircleF
.2632 g 2659 2714 CircleF
.4965 g 2911 1857 CircleF
.2137 g 1687 3381 CircleF
.3946 g 1889 2395 CircleF
.3414 g 2109 2481 CircleF
.1573 g 1918 3139 CircleF
.019 g 2165 3365 CircleF
.2691 g 2776 3382 CircleF
.3077 g 2469 2538 CircleF
.6046 g 2620 1418 CircleF
.4437 g 2797 2020 CircleF
.2802 g 1686 3356 CircleF
.5943 g 2586 1467 CircleF
.2937 g 2610 2592 CircleF
.3814 g 1790 2512 CircleF
.1475 g 2350 3103 CircleF
.496 g 3764 2932 CircleF
.4873 g 2599 1858 CircleF
.3672 g 1383 3330 CircleF
.0714 g 2309 3453 CircleF
.5547 g 2250 1692 CircleF
.2997 g 3451 3430 CircleF
.2663 g 3226 2933 CircleF
.3614 g 2577 2329 CircleF
.5506 g 2441 1664 CircleF
.2057 g 2794 2931 CircleF
.2722 g 1981 2773 CircleF
.4188 g 2506 2118 CircleF
.5764 g 2435 1591 CircleF
.2239 g 2977 2905 CircleF
.2394 g 2302 2818 CircleF
.33 g 2028 2555 CircleF
.4456 g 2518 2007 CircleF
.427 g 3273 2255 CircleF
.2197 g 1412 3445 CircleF
.4241 g 2032 2200 CircleF
.2719 g 3229 2889 CircleF
.4352 g 3684 3066 CircleF
.3346 g 1969 2567 CircleF
.2479 g 1190 3458 CircleF
.2566 g 3050 3261 CircleF
.6064 g 2996 1468 CircleF
.6334 g 2534 1036 CircleF
.2455 g 3080 2858 CircleF
.414 g 2883 2158 CircleF
.3994 g 2802 2198 CircleF
.2387 g 3069 2887 CircleF
.1229 g 1703 3493 CircleF
.5866 g 3027 1602 CircleF
.3919 g 3586 2910 CircleF
.6024 g 2950 1495 CircleF
.607 g 2675 1393 CircleF
.2866 g 3029 3285 CircleF
.5118 g 3820 3125 CircleF
.5146 g 2975 1820 CircleF
.1723 g 2843 3255 CircleF
.3498 g 2018 2489 CircleF
.3428 g 3457 2887 CircleF
.3152 g 2920 2542 CircleF
.1294 g 1789 3423 CircleF
.5572 g 2094 1741 CircleF
.1902 g 1811 3097 CircleF
.08 g 2138 3257 CircleF
.3565 g 3911 3384 CircleF
.4584 g 3179 2098 CircleF
.433 g 2383 2070 CircleF
.304 g 3319 2832 CircleF
.5414 g 2089 1793 CircleF
.4804 g 3265 2087 CircleF
.2952 g 2117 2652 CircleF
.6084 g 2821 1411 CircleF
.2348 g 3081 2922 CircleF
.605 g 2213 1475 CircleF
.2852 g 3379 3430 CircleF
.3858 g 2199 2295 CircleF
.1586 g 2758 3431 CircleF
.4327 g 3706 3288 CircleF
.281 g 1974 2747 CircleF
.3851 g 1855 2453 CircleF
.4835 g 3224 2048 CircleF
.5542 g 3057 1729 CircleF
.3974 g 3806 3303 CircleF
.634 g 2593 1025 CircleF
.2114 g 1831 3026 CircleF
.3643 g 2358 2337 CircleF
.6174 g 2488 1303 CircleF
.2024 g 1697 3231 CircleF
.302 g 3681 3473 CircleF
.3319 g 2472 2444 CircleF
.4083 g 2161 2220 CircleF
.1214 g 2307 3168 CircleF
.4021 g 2264 2218 CircleF
.3698 g 3472 2735 CircleF
.3804 g 3189 2391 CircleF
.412 g 3628 3098 CircleF
.4867 g 3213 2031 CircleF
.1916 g 2881 3009 CircleF
.2756 g 2416 2672 CircleF
.3504 g 1685 2697 CircleF
.0957 g 2192 3486 CircleF
.1733 g 2906 3164 CircleF
.319 g 3275 2666 CircleF
.5374 g 3092 1794 CircleF
.2701 g 1842 2839 CircleF
.4019 g 3123 2296 CircleF
.4731 g 3626 3242 CircleF
.5887 g 2827 1532 CircleF
.6347 g 2529 911 CircleF
.1224 g 2041 3187 CircleF
.4495 g 3173 3364 CircleF
.4126 g 3641 3035 CircleF
.2621 g 2492 3372 CircleF
.469 g 2989 1963 CircleF
.619 g 2396 1298 CircleF
.4434 g 3894 3224 CircleF
.3206 g 3415 3048 CircleF
.2792 g 3667 3520 CircleF
.5908 g 2506 1492 CircleF
.2178 g 2739 2887 CircleF
.1232 g 2673 3207 CircleF
.3791 g 2262 2301 CircleF
.5181 g 2363 1782 CircleF
.0886 g 2153 3481 CircleF
.2277 g 2995 2897 CircleF
.4406 g 3340 3335 CircleF
.4601 g 2536 1952 CircleF
.3354 g 3806 3451 CircleF
.4776 g 3115 1994 CircleF
.4543 g 3609 2646 CircleF
.3543 g 3425 2722 CircleF
.4347 g 2753 2053 CircleF
.2721 g 2623 2679 CircleF
.6051 g 2775 1424 CircleF
.2088 g 3202 3499 CircleF
.4621 g 3723 2960 CircleF
.3606 g 2480 2337 CircleF
.4133 g 3476 2492 CircleF
.6347 g 2535 922 CircleF
.1813 g 1769 3382 CircleF
.5981 g 2748 1456 CircleF
.429 g 2966 2112 CircleF
.1932 g 1750 3306 CircleF
.6099 g 2388 1398 CircleF
.3927 g 2295 2247 CircleF
.0998 g 2546 3307 CircleF
.5939 g 2768 1487 CircleF
.3058 g 3190 2658 CircleF
.0591 g 2057 3324 CircleF
.1485 g 1570 3478 CircleF
.3883 g 3824 3311 CircleF
.0492 g 2013 3412 CircleF
.3025 g 3361 2956 CircleF
.2581 g 2349 2743 CircleF
.3899 g 3596 3016 CircleF
.2702 g 2212 2720 CircleF
.6311 g 2583 1094 CircleF
.2676 g 2703 2700 CircleF
.2502 g 3086 2839 CircleF
.3069 g 2668 2540 CircleF
.4015 g 3469 2529 CircleF
.3225 g 2853 2499 CircleF
.1197 g 2005 3204 CircleF
.3352 g 2376 2441 CircleF
.0561 g 1983 3422 CircleF
.3063 g 3290 3407 CircleF
.4819 g 3221 3313 CircleF
.3371 g 1889 2603 CircleF
.5015 g 3294 2052 CircleF
.6113 g 2689 1353 CircleF
.1653 g 1799 3299 CircleF
.3424 g 2215 2444 CircleF
.3166 g 2837 2520 CircleF
.6008 g 2229 1502 CircleF
.6347 g 2649 989 CircleF
.3059 g 2477 2545 CircleF
.5132 g 2356 1798 CircleF
.1975 g 1760 3126 CircleF
.3808 g 3548 3121 CircleF
.5326 g 2393 1728 CircleF
.2958 g 2780 2596 CircleF
.2526 g 3100 2837 CircleF
.5281 g 2988 1783 CircleF
.2517 g 1592 3206 CircleF
.4872 g 1905 2069 CircleF
.3833 g 1975 2397 CircleF
.0181 g 2243 3365 CircleF
.2049 g 1934 3001 CircleF
.1627 g 1823 3316 CircleF
.4053 g 3607 2880 CircleF
.2899 g 3228 2758 CircleF
.2029 g 2355 2936 CircleF
.203 g 3002 3045 CircleF
.4421 g 2897 2041 CircleF
.398 g 2445 2201 CircleF
.1387 g 2641 3505 CircleF
.3779 g 2437 2276 CircleF
.2583 g 3225 3002 CircleF
.5693 g 2917 3357 CircleF
.4338 g 3272 2232 CircleF
.5886 g 2250 1584 CircleF
.0793 g 2039 3285 CircleF
.4181 g 3417 2413 CircleF
.6346 g 2680 976 CircleF
.5771 g 2820 1607 CircleF
.1046 g 1833 3496 CircleF
.4132 g 3495 2523 CircleF
.4814 g 2987 1921 CircleF
.3098 g 2626 2526 CircleF
.2904 g 2420 2612 CircleF
.2532 g 2875 2774 CircleF
.0742 g 2069 3464 CircleF
.2541 g 2969 2785 CircleF
.402 g 1772 2451 CircleF
.6182 g 2699 1297 CircleF
.2308 g 2087 2879 CircleF
.1295 g 2664 3447 CircleF
.4805 g 2723 1884 CircleF
.3973 g 1793 2451 CircleF
.3821 g 2532 2253 CircleF
.4466 g 3037 2068 CircleF
.2568 g 2320 2751 CircleF
.46 g 2851 1965 CircleF
.061 g 2375 3347 CircleF
.2962 g 3313 2882 CircleF
.2718 g 2288 2700 CircleF
.2015 g 2896 2971 CircleF
.2784 g 2390 2663 CircleF
.2586 g 2204 2764 CircleF
.5848 g 2735 3359 CircleF
.2858 g 1908 2755 CircleF
.5625 g 2292 1659 CircleF
.3988 g 2607 2188 CircleF
.4659 g 3266 2129 CircleF
.6225 g 2580 1257 CircleF
.3796 g 3903 3425 CircleF
.4172 g 3437 2438 CircleF
.1858 g 2713 3399 CircleF
.1979 g 1783 3094 CircleF
.0605 g 2251 3284 CircleF
.2354 g 2689 2823 CircleF
.167 g 2779 3089 CircleF
.3273 g 2001 2578 CircleF
.4355 g 2494 2049 CircleF
.0974 g 1813 3473 CircleF
.6122 g 2638 1338 CircleF
.26 g 3435 3466 CircleF
.2673 g 3260 3087 CircleF
.3776 g 3160 3293 CircleF
.6331 g 2604 1060 CircleF
.2989 g 2148 2630 CircleF
.4172 g 2055 2216 CircleF
.2165 g 2332 2893 CircleF
.3055 g 2484 2546 CircleF
.1982 g 2551 2949 CircleF
.432 g 3427 2377 CircleF
.2275 g 2434 2850 CircleF
.3373 g 2702 2421 CircleF
.3224 g 2564 2476 CircleF
.4592 g 2977 1994 CircleF
.1726 g 2747 3057 CircleF
.6208 g 2722 1281 CircleF
.2137 g 2776 2903 CircleF
.2834 g 1606 2987 CircleF
.57 g 3097 1702 CircleF
.5851 g 2306 1587 CircleF
.3557 g 3210 2485 CircleF
.6138 g 2724 1336 CircleF
.6359 g 2640 861 CircleF
.2238 g 3002 2918 CircleF
.3813 g 3553 3362 CircleF
.281 g 2121 2702 CircleF
.468 g 2174 1982 CircleF
.494 g 2606 1836 CircleF
.3061 g 1586 3349 CircleF
.3812 g 3598 3345 CircleF
.2013 g 3070 3458 CircleF
.3706 g 3667 3365 CircleF
.2278 g 3086 2981 CircleF
.574 g 3025 1661 CircleF
.5326 g 2410 1725 CircleF
.3517 g 2141 2431 CircleF
.4296 g 2835 2084 CircleF
.3609 g 3437 2707 CircleF
.4803 g 3336 2145 CircleF
.2327 g 3114 2990 CircleF
.5067 g 3801 3043 CircleF
.0649 g 2382 3287 CircleF
.3266 g 2550 2460 CircleF
.3984 g 1855 2402 CircleF
.2575 g 2781 2746 CircleF
.3266 g 2258 2493 CircleF
.3932 g 1419 3019 CircleF
.2182 g 2692 3329 CircleF
.0942 g 2546 3258 CircleF
.2586 g 2084 2789 CircleF
.352 g 1473 3297 CircleF
.1873 g 2140 3005 CircleF
.5346 g 3080 1797 CircleF
.5969 g 2568 1453 CircleF
.4629 g 2688 1941 CircleF
.4464 g 2278 2033 CircleF
.4242 g 2613 3364 CircleF
.5469 g 3146 1801 CircleF
.5248 g 2064 1859 CircleF
.3679 g 1632 2684 CircleF
.3672 g 2793 2318 CircleF
.4586 g 2228 1999 CircleF
.143 g 2663 3124 CircleF
.0824 g 1893 3457 CircleF
.4264 g 1340 3261 CircleF
.5113 g 2403 1796 CircleF
.4008 g 2593 2181 CircleF
.5189 g 2556 1759 CircleF
.3326 g 1987 2565 CircleF
.1569 g 2821 3162 CircleF
.4102 g 3629 2927 CircleF
.3945 g 2894 2236 CircleF
.5224 g 3107 1853 CircleF
.37 g 1634 2676 CircleF
.3621 g 3511 2905 CircleF
.3053 g 2546 2544 CircleF
.3302 g 2668 2447 CircleF
.1804 g 2927 3467 CircleF
.411 g 2769 2153 CircleF
.5986 g 2236 1521 CircleF
.2749 g 3497 3462 CircleF
.3212 g 1926 2636 CircleF
.1629 g 2138 3074 CircleF
.2574 g 2898 2762 CircleF
.4682 g 2649 3359 CircleF
.0898 g 2417 3233 CircleF
.5353 g 2965 1751 CircleF
.4223 g 2041 2203 CircleF
.2509 g 2523 2759 CircleF
.6137 g 2423 1349 CircleF
.1566 g 2736 3104 CircleF
.291 g 1701 2863 CircleF
.335 g 3449 2942 CircleF
.1769 g 2191 3029 CircleF
.4901 g 2310 1879 CircleF
.3786 g 3512 2776 CircleF
.3838 g 2517 2247 CircleF
.4776 g 3534 3273 CircleF
.3888 g 2899 2258 CircleF
.3257 g 3136 2567 CircleF
.2724 g 2276 2700 CircleF
.4455 g 1942 2175 CircleF
.6346 g 2542 934 CircleF
.1222 g 2482 3159 CircleF
.3256 g 3430 3050 CircleF
.6261 g 2442 1235 CircleF
.4223 g 2958 2139 CircleF
.1844 g 2999 3514 CircleF
.3779 g 3367 2522 CircleF
.2001 g 2050 2985 CircleF
.1742 g 2755 3045 CircleF
.2139 g 2978 2953 CircleF
.4745 g 2964 1937 CircleF
.3968 g 3186 2340 CircleF
.2731 g 2024 2757 CircleF
.2479 g 2656 2772 CircleF
.1747 g 2880 3225 CircleF
.2108 g 2716 2910 CircleF
.4215 g 2579 2105 CircleF
.2862 g 1619 2948 CircleF
.029 g 2262 3396 CircleF
.2665 g 1998 2786 CircleF
.2944 g 2150 2646 CircleF
.2871 g 3178 2730 CircleF
.414 g 3438 2450 CircleF
.4996 g 3304 3312 CircleF
.4503 g 3875 3224 CircleF
.1566 g 2822 3165 CircleF
.4755 g 2854 1913 CircleF
.6294 g 2587 1167 CircleF
.4323 g 2270 2091 CircleF
.4244 g 2263 2125 CircleF
.4675 g 3730 2957 CircleF
.6281 g 2388 1208 CircleF
.4062 g 2210 2217 CircleF
.3967 g 2229 2248 CircleF
.6269 g 2365 1223 CircleF
.5705 g 2681 1606 CircleF
.1546 g 2574 3078 CircleF
.3076 g 1811 2736 CircleF
.3019 g 2719 2564 CircleF
.4232 g 2053 2193 CircleF
.385 g 2654 2240 CircleF
.2334 g 3027 2886 CircleF
.3318 g 3667 3430 CircleF
.2768 g 2479 2663 CircleF
.1976 g 1861 3351 CircleF
.1759 g 2878 3525 CircleF
.4387 g 2904 2056 CircleF
.2211 g 3277 3493 CircleF
.3598 g 3930 3410 CircleF
.3366 g 2698 2424 CircleF
.151 g 2293 3100 CircleF
.4657 g 2429 1940 CircleF
.4689 g 3377 2222 CircleF
.5002 g 2113 1905 CircleF
.6024 g 3015 1504 CircleF
.3824 g 3804 3320 CircleF
.6294 g 2654 1210 CircleF
.3723 g 2349 2309 CircleF
.2734 g 3252 2933 CircleF
.1902 g 1502 3451 CircleF
.5332 g 3115 1823 CircleF
.366 g 3787 3421 CircleF
.1268 g 2519 3148 CircleF
.1879 g 3019 3522 CircleF
.1629 g 2820 3253 CircleF
.5202 g 2032 1887 CircleF
.225 g 1935 2943 CircleF
.4353 g 2088 2130 CircleF
.2971 g 2646 2579 CircleF
.2409 g 3004 2843 CircleF
.4417 g 2013 2141 CircleF
.5145 g 2828 1788 CircleF
.4917 g 3772 3162 CircleF
.1256 g 2450 3385 CircleF
.1382 g 1869 3236 CircleF
.2374 g 1641 3147 CircleF
.3073 g 2255 2569 CircleF
.4483 g 2022 2112 CircleF
.3425 g 3098 2486 CircleF
.2915 g 1820 2781 CircleF
.4254 g 2856 2103 CircleF
.2044 g 2845 3409 CircleF
.4088 g 2792 2164 CircleF
.1989 g 3096 3482 CircleF
.364 g 2811 2333 CircleF
.3594 g 3866 3375 CircleF
.1963 g 2647 2958 CircleF
.1793 g 2935 3473 CircleF
.4803 g 3745 3223 CircleF
.1248 g 1770 3513 CircleF
.3268 g 2044 2560 CircleF
.3191 g 2248 2524 CircleF
.4944 g 2576 1835 CircleF
.4749 g 2699 1901 CircleF
.4415 g 1891 2226 CircleF
.2307 g 2688 3384 CircleF
.3959 g 3582 3331 CircleF
.509 g 2544 1790 CircleF
.0173 g 2215 3350 CircleF
.2349 g 2769 2829 CircleF
.5303 g 3007 1782 CircleF
.3458 g 1873 2584 CircleF
.5753 g 2680 1591 CircleF
.435 g 3851 3252 CircleF
.2589 g 3079 2798 CircleF
.5379 g 2703 1700 CircleF
.0944 g 2025 3252 CircleF
.3486 g 1984 2510 CircleF
.4169 g 2725 2126 CircleF
.2046 g 2502 2927 CircleF
.5523 g 3032 1724 CircleF
.3138 g 3394 3066 CircleF
.2929 g 2234 2631 CircleF
.2886 g 3011 2668 CircleF
.4891 g 3131 3353 CircleF
.2779 g 2597 2656 CircleF
.3659 g 3767 3346 CircleF
.1571 g 2809 3148 CircleF
.2968 g 2366 2592 CircleF
.1307 g 2640 3490 CircleF
.2659 g 1492 3377 CircleF
.4388 g 3566 3221 CircleF
.1432 g 2115 3124 CircleF
.3316 g 3424 2879 CircleF
.5848 g 2214 1627 CircleF
.4569 g 2022 2083 CircleF
.4249 g 3628 2827 CircleF
.3082 g 3659 3456 CircleF
.4848 g 3123 1975 CircleF
.5922 g 2751 1494 CircleF
.3428 g 1366 3353 CircleF
.3654 g 1916 2492 CircleF
.1774 g 2906 3110 CircleF
.6339 g 2522 956 CircleF
.1723 g 2243 3038 CircleF
.3858 g 3846 3414 CircleF
.6298 g 2644 1204 CircleF
.606 g 2229 1467 CircleF
.3534 g 2882 2385 CircleF
.2186 g 2927 2908 CircleF
.2504 g 2045 2825 CircleF
.1856 g 2883 3039 CircleF
.2035 g 1931 3006 CircleF
.0472 g 2299 3415 CircleF
.3184 g 2841 2513 CircleF
.4849 g 3794 3211 CircleF
.4058 g 2025 2278 CircleF
.3163 g 3061 3291 CircleF
.4491 g 1957 2151 CircleF
.1303 g 2473 3518 CircleF
.2653 g 2803 2719 CircleF
.1528 g 2288 3094 CircleF
.1772 g 2085 3043 CircleF
.0685 g 2222 3274 CircleF
.288 g 2945 2654 CircleF
.3974 g 1963 2344 CircleF
.2449 g 1229 3468 CircleF
.4375 g 2800 2046 CircleF
.1849 g 2876 3254 CircleF
.4158 g 1949 2279 CircleF
.6285 g 2456 1214 CircleF
.1513 g 1890 3166 CircleF
.0907 g 2265 3230 CircleF
.5041 g 2424 1815 CircleF
.2628 g 3089 2785 CircleF
.2857 g 3137 3402 CircleF
.1676 g 2013 3081 CircleF
.463 g 2099 2026 CircleF
.3437 g 2416 2404 CircleF
.3442 g 1773 2651 CircleF
.226 g 2492 2853 CircleF
.2017 g 3093 3469 CircleF
.0227 g 2184 3345 CircleF
.4615 g 3718 2938 CircleF
.4954 g 3099 1926 CircleF
.4925 g 1979 1995 CircleF
.5426 g 2603 1681 CircleF
.4162 g 2299 2154 CircleF
.2504 g 1195 3476 CircleF
.217 g 1542 3433 CircleF
.2932 g 1949 2716 CircleF
.6116 g 2602 1342 CircleF
.2785 g 2904 2683 CircleF
.5603 g 2570 1626 CircleF
.5544 g 2383 1661 CircleF
.536 g 2911 1735 CircleF
.3876 g 1390 3153 CircleF
.3803 g 2212 2310 CircleF
.6354 g 2676 900 CircleF
.3223 g 1522 3006 CircleF
.4278 g 2982 2123 CircleF
.3762 g 3441 2614 CircleF
.3729 g 2660 2285 CircleF
.2754 g 1660 2945 CircleF
.2662 g 1608 3293 CircleF
.4416 g 2797 2028 CircleF
.3659 g 1412 3178 CircleF
.4936 g 2671 1838 CircleF
.6154 g 2534 1312 CircleF
.5949 g 2338 1502 CircleF
.2744 g 3131 3406 CircleF
.3813 g 1494 2848 CircleF
.5352 g 3084 1797 CircleF
.5052 g 2750 1807 CircleF
.6225 g 2684 1264 CircleF
.3896 g 3521 2734 CircleF
.2401 g 3012 2849 CircleF
.5937 g 2425 1487 CircleF
.6217 g 2525 1264 CircleF
.2501 g 2690 2766 CircleF
.3256 g 3275 2639 CircleF
.2427 g 2686 2794 CircleF
.2258 g 2494 2854 CircleF
.4065 g 1365 3242 CircleF
.1631 g 2826 3132 CircleF
.2496 g 1701 2990 CircleF
.195 g 3082 3509 CircleF
.3201 g 3409 2942 CircleF
.3873 g 1681 2580 CircleF
.4259 g 3856 3261 CircleF
.3764 g 3908 3428 CircleF
.4696 g 2721 1919 CircleF
.2032 g 1727 3166 CircleF
.1154 g 2561 3186 CircleF
.0994 g 2341 3489 CircleF
.1902 g 2848 3002 CircleF
.6292 g 2826 1178 CircleF
.5177 g 2456 1770 CircleF
.5274 g 2480 1735 CircleF
.6175 g 2818 1328 CircleF
.2463 g 2854 3308 CircleF
.1401 g 1707 3435 CircleF
.6221 g 2377 1269 CircleF
.1215 g 2671 3259 CircleF
.2719 g 1291 3387 CircleF
.2609 g 3003 2767 CircleF
.2802 g 2309 2666 CircleF
.2277 g 2723 2852 CircleF
.4445 g 2229 2052 CircleF
.1872 g 1606 3419 CircleF
.2814 g 2602 2643 CircleF
.2007 g 3146 3512 CircleF
.1305 g 2559 3139 CircleF
.149 g 2636 3093 CircleF
.1011 g 1806 3441 CircleF
.2738 g 3250 2923 CircleF
.4062 g 3617 3094 CircleF
.6348 g 2624 960 CircleF
.1429 g 2028 3140 CircleF
.6297 g 2517 1119 CircleF
.3687 g 1780 2569 CircleF
.4907 g 3014 1901 CircleF
.3906 g 3593 2954 CircleF
.5919 g 2612 1482 CircleF
.1866 g 2776 2990 CircleF
.247 g 1644 3106 CircleF
.2922 g 2946 2638 CircleF
.2233 g 1813 3377 CircleF
.3714 g 3960 3418 CircleF
.4554 g 3722 3032 CircleF
.3753 g 2425 2287 CircleF
.436 g 3141 2159 CircleF
.0815 g 2415 3252 CircleF
.3994 g 2909 2223 CircleF
.2936 g 3106 2674 CircleF
.2887 g 2291 2636 CircleF
.1249 g 2401 3153 CircleF
.637 g 2627 838 CircleF
.6294 g 2565 1151 CircleF
.2512 g 3417 3482 CircleF
.3073 g 2145 2598 CircleF
.1862 g 2552 2992 CircleF
.2109 g 2446 2907 CircleF
.1087 g 2130 3200 CircleF
.4002 g 2222 2237 CircleF
.4146 g 3515 2570 CircleF
.2314 g 1712 3044 CircleF
.1281 g 2277 3158 CircleF
.2546 g 2507 2745 CircleF
.1949 g 2989 3447 CircleF
.1811 g 2938 3129 CircleF
.2651 g 2816 2721 CircleF
.4107 g 3129 2256 CircleF
.5747 g 2639 1591 CircleF
.2398 g 2613 2801 CircleF
.3852 g 1608 2659 CircleF
.4633 g 3171 2077 CircleF
.2221 g 1326 3424 CircleF
.4075 g 3064 2247 CircleF
.1399 g 2690 3436 CircleF
.2443 g 1619 3150 CircleF
.4314 g 3547 2575 CircleF
.1835 g 1765 3300 CircleF
.2044 g 2145 2952 CircleF
.3862 g 2547 2236 CircleF
.2714 g 2810 2696 CircleF
.2716 g 2841 2699 CircleF
.3769 g 1648 2642 CircleF
.4696 g 3856 3210 CircleF
.1954 g 1911 3036 CircleF
.2631 g 1630 3306 CircleF
.31 g 2691 2529 CircleF
.0634 g 2082 3446 CircleF
.4045 g 2345 2192 CircleF
.3289 g 3557 3420 CircleF
.5394 g 2924 1728 CircleF
.4245 g 2043 2192 CircleF
.3055 g 2882 2574 CircleF
.1599 g 1804 3253 CircleF
.3018 g 1905 2706 CircleF
.2209 g 2829 3399 CircleF
.2094 g 2756 2916 CircleF
.403 g 1258 3304 CircleF
.0944 g 2518 3241 CircleF
.1976 g 2800 2958 CircleF
.2593 g 2002 2808 CircleF
.4062 g 1365 3289 CircleF
.3454 g 2764 2396 CircleF
.4567 g 2883 1982 CircleF
.1758 g 2856 3075 CircleF
.6299 g 2609 1192 CircleF
.3093 g 3374 3101 CircleF
.1639 g 2780 3280 CircleF
.5237 g 2491 1748 CircleF
.1128 g 2541 3327 CircleF
.2522 g 3508 3528 CircleF
.2931 g 2470 2597 CircleF
.4934 g 2186 1898 CircleF
.2761 g 1158 3507 CircleF
.2396 g 2355 2811 CircleF
.4548 g 3042 2037 CircleF
.3475 g 2609 2380 CircleF
.3833 g 2560 2247 CircleF
.5324 g 2924 1749 CircleF
.5871 g 2860 1554 CircleF
.5899 g 2168 1627 CircleF
.1133 g 2555 3475 CircleF
.0652 g 2069 3307 CircleF
.0646 g 2131 3450 CircleF
.5859 g 2922 1595 CircleF
.2606 g 2229 2752 CircleF
.3168 g 3375 2864 CircleF
.3479 g 3437 2794 CircleF
.2101 g 2153 2933 CircleF
.2093 g 2713 2915 CircleF
.4741 g 3238 2086 CircleF
.0956 g 1932 3491 CircleF
.58 g 2487 1553 CircleF
.619 g 2334 1299 CircleF
.5115 g 3181 1936 CircleF
.0881 g 2406 3350 CircleF
.3826 g 3316 2470 CircleF
.6355 g 2586 919 CircleF
.4392 g 2459 2036 CircleF
.4376 g 3635 3173 CircleF
.3171 g 1486 3239 CircleF
.1559 g 2392 3078 CircleF
.4267 g 2869 2099 CircleF
.4213 g 2255 2139 CircleF
.2416 g 1823 2937 CircleF
.3347 g 2013 2545 CircleF
.3855 g 1781 2503 CircleF
.6347 g 2536 853 CircleF
.588 g 2360 1532 CircleF
.5472 g 3118 3334 CircleF
.1744 g 2922 3494 CircleF
.4176 g 2367 2138 CircleF
.4021 g 1647 2574 CircleF
.4513 g 2512 1985 CircleF
.4432 g 3111 2116 CircleF
.3494 g 2316 2397 CircleF
.2639 g 3027 3274 CircleF
.5582 g 2422 1643 CircleF
.3167 g 1578 2890 CircleF
.5053 g 3120 3344 CircleF
.1109 g 1963 3246 CircleF
.5847 g 2417 1534 CircleF
.3459 g 3424 2781 CircleF
.3914 g 2426 2228 CircleF
.2558 g 2335 2754 CircleF
.464 g 3778 3246 CircleF
.5928 g 2601 1476 CircleF
.5922 g 2908 1538 CircleF
.1428 g 2723 3450 CircleF
.3051 g 3361 3105 CircleF
.3747 g 1516 2819 CircleF
.1579 g 2388 3073 CircleF
.2349 g 1738 3009 CircleF
.5309 g 2592 1718 CircleF
.3337 g 3235 2580 CircleF
.372 g 2517 2291 CircleF
.303 g 2877 2583 CircleF
.2253 g 3108 3056 CircleF
.4112 g 2542 2145 CircleF
.4604 g 2029 2067 CircleF
.6325 g 2675 1076 CircleF
.52 g 2000 1901 CircleF
.376 g 1402 3313 CircleF
.2057 g 3188 3515 CircleF
.2038 g 1768 3087 CircleF
.458 g 3633 2692 CircleF
.1582 g 2582 3069 CircleF
.3059 g 3329 2840 CircleF
.6064 g 2652 1397 CircleF
.3784 g 2482 2270 CircleF
.4668 g 3671 2756 CircleF
.1782 g 2896 3220 CircleF
.3981 g 3334 2418 CircleF
.2172 g 1492 3395 CircleF
.2922 g 1603 3364 CircleF
.1124 g 2550 3474 CircleF
.203 g 2329 2937 CircleF
.3469 g 1803 2623 CircleF
.3972 g 1818 2432 CircleF
.341 g 2003 2527 CircleF
.1192 g 2630 3199 CircleF
.4338 g 2253 2088 CircleF
.3607 g 3095 2419 CircleF
.4025 g 2717 2179 CircleF
.125 g 1977 3526 CircleF
.0877 g 2531 3277 CircleF
.2784 g 3599 3496 CircleF
.3486 g 3142 2481 CircleF
.4497 g 3376 2275 CircleF
.226 g 2051 2903 CircleF
.3346 g 2914 3378 CircleF
.3596 g 2713 2338 CircleF
.3646 g 3962 3342 CircleF
.2662 g 3184 2853 CircleF
.5154 g 1993 1917 CircleF
.1635 g 1711 3420 CircleF
.3251 g 1741 2730 CircleF
.4108 g 3281 2318 CircleF
.1626 g 2379 3062 CircleF
.6183 g 2681 1293 CircleF
.4909 g 3157 3359 CircleF
.2822 g 1930 2758 CircleF
.4534 g 3717 3019 CircleF
.463 g 2994 1985 CircleF
.1695 g 2300 3043 CircleF
.249 g 3387 3470 CircleF
.3121 g 1496 3111 CircleF
.58 g 2658 1558 CircleF
.0428 g 2277 3324 CircleF
.5953 g 2189 1551 CircleF
.3051 g 3375 3000 CircleF
.2193 g 2590 2878 CircleF
.2253 g 3115 3072 CircleF
.4657 g 3666 3206 CircleF
.1289 g 2018 3178 CircleF
.3937 g 2993 2271 CircleF
.0501 g 2046 3426 CircleF
.4265 g 3794 3276 CircleF
.2772 g 3271 2939 CircleF
.3834 g 3048 2325 CircleF
.0687 g 2429 3333 CircleF
.63 g 2530 1112 CircleF
.2279 g 2754 2853 CircleF
.308 g 2713 2539 CircleF
.3413 g 3459 2909 CircleF
.618 g 2304 1304 CircleF
.3328 g 3418 2852 CircleF
.4109 g 2300 2176 CircleF
.2354 g 2954 2848 CircleF
.122 g 2674 3213 CircleF
.476 g 2925 1924 CircleF
.2346 g 2886 2841 CircleF
.0237 g 2245 3350 CircleF
.3569 g 2282 2376 CircleF
.3508 g 2006 2491 CircleF
.3613 g 2520 2332 CircleF
.5627 g 2698 1626 CircleF
.5542 g 2983 1697 CircleF
.4568 g 3645 3203 CircleF
.2585 g 3560 3528 CircleF
.0779 g 2409 3438 CircleF
.1124 g 2283 3505 CircleF
.2786 g 3510 3461 CircleF
.1552 g 2670 3309 CircleF
.3617 g 1432 3091 CircleF
.4194 g 3652 3043 CircleF
.2616 g 3183 2883 CircleF
.3232 g 1903 2640 CircleF
.3912 g 1802 2466 CircleF
.1452 g 2061 3127 CircleF
.4495 g 2307 2015 CircleF
.3804 g 2972 2311 CircleF
.599 g 2555 1443 CircleF
.3921 g 4003 3440 CircleF
.3414 g 3378 2699 CircleF
.367 g 2113 2387 CircleF
.5234 g 2807 1759 CircleF
.2317 g 1672 3135 CircleF
.3784 g 3478 2697 CircleF
.2102 g 2622 2909 CircleF
.543 g 3156 1825 CircleF
.5984 g 2461 1454 CircleF
.3741 g 3360 2529 CircleF
.4734 g 3335 2162 CircleF
.3336 g 1443 3355 CircleF
.384 g 2734 2248 CircleF
.1357 g 1864 3271 CircleF
.4871 g 2424 1870 CircleF
.587 g 2895 1567 CircleF
.281 g 2836 2663 CircleF
.375 g 2792 2288 CircleF
.3708 g 2548 2294 CircleF
.4556 g 3710 2942 CircleF
.5848 g 2879 1594 CircleF
.393 g 3380 2476 CircleF
.3968 g 3641 3386 CircleF
.6174 g 2340 1318 CircleF
.6063 g 2723 1405 CircleF
.4243 g 1806 2351 CircleF
.1829 g 2584 3005 CircleF
.4821 g 2522 1878 CircleF
.5869 g 2749 1523 CircleF
.3741 g 2604 2281 CircleF
.0745 g 2230 3456 CircleF
.5751 g 2209 1655 CircleF
.3988 g 3792 3303 CircleF
.3842 g 2352 2266 CircleF
.2102 g 2539 2908 CircleF
.427 g 2645 3355 CircleF
.2887 g 2059 2694 CircleF
.3236 g 2683 2473 CircleF
.4386 g 1343 3139 CircleF
.0898 g 1862 3467 CircleF
.206 g 1959 2990 CircleF
.304 g 2629 2550 CircleF
.4165 g 2081 2209 CircleF
.2963 g 1663 2880 CircleF
.6303 g 2572 1113 CircleF
.2662 g 3032 2754 CircleF
.2624 g 3203 2914 CircleF
.0787 g 2060 3275 CircleF
.5327 g 2995 1770 CircleF
.4107 g 3592 3155 CircleF
.4811 g 2697 1880 CircleF
.5888 g 2612 1496 CircleF
.4215 g 2218 2147 CircleF
.4263 g 3022 2145 CircleF
.3668 g 2383 2324 CircleF
.4468 g 2724 2001 CircleF
.4773 g 1869 2131 CircleF
.4001 g 2316 2215 CircleF
.6294 g 2818 1157 CircleF
.323 g 1663 2795 CircleF
.5553 g 2592 1640 CircleF
.2453 g 3126 2911 CircleF
.5109 g 2808 1796 CircleF
.2803 g 1877 2787 CircleF
.2259 g 2869 2869 CircleF
.55 g 2408 1670 CircleF
.1888 g 2943 3450 CircleF
.2366 g 2657 2816 CircleF
.6102 g 2854 1410 CircleF
.4768 g 2273 1927 CircleF
.3377 g 2457 2423 CircleF
.2047 g 1846 3038 CircleF
.6068 g 2258 1455 CircleF
.145 g 1908 3344 CircleF
.2854 g 1312 3378 CircleF
.3351 g 1762 2685 CircleF
.1095 g 2099 3508 CircleF
.2229 g 1658 3192 CircleF
.204 g 1389 3474 CircleF
.3972 g 2829 2211 CircleF
.3543 g 2112 2433 CircleF
.1835 g 1524 3411 CircleF
.5269 g 2961 1779 CircleF
.0826 g 2086 3265 CircleF
.3932 g 2221 2263 CircleF
.0919 g 2282 3227 CircleF
.3827 g 2887 2278 CircleF
.3285 g 3438 3024 CircleF
.1175 g 2608 3466 CircleF
.6025 g 3001 1504 CircleF
.5521 g 2710 1657 CircleF
.4506 g 2735 1987 CircleF
.4942 g 2789 1845 CircleF
.3198 g 2120 2557 CircleF
.1898 g 2694 2982 CircleF
.3066 g 2999 2595 CircleF
.4435 g 3323 2241 CircleF
.4935 g 2171 1902 CircleF
.1973 g 1364 3512 CircleF
.4195 g 2525 2114 CircleF
.2791 g 3121 2732 CircleF
.0015 g 2197 3370 CircleF
.1625 g 1900 3132 CircleF
.4474 g 2675 1997 CircleF
.3005 g 3808 3515 CircleF
.4552 g 3170 2104 CircleF
.2873 g 3222 3212 CircleF
.6385 g 2649 802 CircleF
.4318 g 3457 2412 CircleF
.3326 g 2117 2510 CircleF
.398 g 1985 2331 CircleF
.4547 g 3713 2969 CircleF
.2733 g 2935 2708 CircleF
.3268 g 2864 2484 CircleF
.2134 g 3166 3472 CircleF
.3694 g 1813 2547 CircleF
.4084 g 3163 2279 CircleF
.4874 g 2382 1875 CircleF
.2531 g 3215 3040 CircleF
.2439 g 1856 2916 CircleF
.3815 g 1421 3047 CircleF
.3447 g 2309 2416 CircleF
.4427 g 2571 2016 CircleF
.4356 g 3294 2239 CircleF
.3649 g 2259 2353 CircleF
.6267 g 2356 1221 CircleF
.6343 g 2718 1036 CircleF
.4755 g 2446 1905 CircleF
.3829 g 2602 2247 CircleF
.2415 g 1894 2907 CircleF
.35 g 1292 3344 CircleF
.3344 g 1501 3003 CircleF
.5798 g 2251 1633 CircleF
.5788 g 2412 1583 CircleF
.1214 g 1910 3282 CircleF
.4041 g 2504 2174 CircleF
.5336 g 2213 1768 CircleF
.4674 g 2530 1927 CircleF
.6214 g 2413 1274 CircleF
.313 g 2256 2546 CircleF
.1542 g 1696 3431 CircleF
.1311 g 1671 3462 CircleF
.4229 g 2029 2206 CircleF
.2545 g 1631 3089 CircleF
.3848 g 3561 3114 CircleF
.1918 g 2716 2975 CircleF
.3302 g 2202 2493 CircleF
.4357 g 2735 2047 CircleF
.3425 g 1448 3233 CircleF
.3508 g 2045 2473 CircleF
.3406 g 2840 2426 CircleF
.3398 g 3221 2551 CircleF
.5068 g 3819 3154 CircleF
.5217 g 3253 1964 CircleF
.6337 g 2514 969 CircleF
.0659 g 2127 3368 CircleF
.3161 g 1569 2906 CircleF
.3607 g 2227 2375 CircleF
.4531 g 2155 2041 CircleF
.3954 g 3853 3299 CircleF
.4351 g 2968 2087 CircleF
.326 g 2584 2462 CircleF
.2642 g 1370 3383 CircleF
.2662 g 1618 3050 CircleF
.3833 g 1417 3302 CircleF
.1337 g 1759 3429 CircleF
.444 g 1980 2154 CircleF
.3862 g 3221 2389 CircleF
.2485 g 2438 2771 CircleF
.4657 g 3364 2216 CircleF
.4665 g 2128 2003 CircleF
.4078 g 2160 2223 CircleF
.2697 g 2038 2764 CircleF
.2018 g 2672 3329 CircleF
.2586 g 2178 2770 CircleF
.3597 g 3153 2444 CircleF
.3395 g 3342 2642 CircleF
.2618 g 2389 2725 CircleF
.3917 g 2503 2218 CircleF
.4179 g 3581 3180 CircleF
.5283 g 2830 1746 CircleF
.3327 g 3381 2766 CircleF
.3539 g 3306 3245 CircleF
.1524 g 2343 3092 CircleF
.1047 g 2120 3210 CircleF
.2661 g 2911 2732 CircleF
.6286 g 2436 1130 CircleF
.2368 g 2516 2812 CircleF
.3412 g 2084 2491 CircleF
.5894 g 2674 1495 CircleF
.2467 g 1674 3316 CircleF
.3549 g 2876 2378 CircleF
.5331 g 2928 1748 CircleF
.3926 g 3366 3254 CircleF
.3237 g 2843 3377 CircleF
.3689 g 2252 2341 CircleF
.3317 g 2496 2443 CircleF
.5128 g 2321 1806 CircleF
.3959 g 1828 2430 CircleF
.2379 g 1647 3139 CircleF
.2404 g 3030 2856 CircleF
.1147 g 1962 3232 CircleF
.5138 g 2875 1798 CircleF
.1223 g 2628 3185 CircleF
.1979 g 2642 2952 CircleF
.4058 g 1642 2566 CircleF
.5845 g 2861 1582 CircleF
.38 g 3517 2780 CircleF
.2156 g 3153 3462 CircleF
.061 g 2168 3287 CircleF
.4435 g 2614 2012 CircleF
.3599 g 2292 2364 CircleF
.075 g 1914 3426 CircleF
.5242 g 3088 1835 CircleF
.3445 g 3484 3002 CircleF
.408 g 3365 3376 CircleF
.3631 g 3874 3432 CircleF
.3367 g 2620 2420 CircleF
.3352 g 1900 2602 CircleF
.4134 g 3584 2771 CircleF
.6349 g 2684 941 CircleF
.2005 g 2450 2942 CircleF
.5111 g 2907 1812 CircleF
.3039 g 2788 2564 CircleF
.5013 g 2264 1855 CircleF
.2429 g 3165 3012 CircleF
.3807 g 1708 2577 CircleF
.1056 g 2565 3293 CircleF
.2476 g 1390 3390 CircleF
.2847 g 2853 2651 CircleF
.2764 g 1238 3395 CircleF
.2324 g 2580 2829 CircleF
.1716 g 1775 3277 CircleF
.571 g 3006 3348 CircleF
.0883 g 2248 3237 CircleF
.1959 g 2992 3169 CircleF
.5672 g 2899 1647 CircleF
.428 g 2693 2079 CircleF
.2117 g 3010 3429 CircleF
.283 g 3307 2985 CircleF
.4847 g 2559 1867 CircleF
.1877 g 2403 2984 CircleF
.0824 g 2017 3288 CircleF
.5939 g 2485 1477 CircleF
.3154 g 2199 2550 CircleF
.2487 g 2909 2794 CircleF
.2212 g 2011 2929 CircleF
.3628 g 2673 2324 CircleF
.2901 g 1827 2782 CircleF
.3316 g 3417 3142 CircleF
.3264 g 2744 2468 CircleF
.2409 g 2872 2817 CircleF
.549 g 2396 1676 CircleF
.3608 g 2588 2331 CircleF
.1888 g 2936 3064 CircleF
.5545 g 2482 1647 CircleF
.2952 g 3329 2924 CircleF
.4607 g 3089 2039 CircleF
.6012 g 2605 1432 CircleF
.2637 g 3236 3131 CircleF
.0388 g 2142 3328 CircleF
.4556 g 3165 2100 CircleF
.5342 g 2751 1716 CircleF
.1869 g 2696 2992 CircleF
.6268 g 2425 1229 CircleF
.4606 g 3239 2128 CircleF
.1705 g 2087 3060 CircleF
.273 g 3244 3161 CircleF
.4407 g 2191 2076 CircleF
.2256 g 1293 3500 CircleF
.3918 g 2096 2308 CircleF
.1245 g 2463 3387 CircleF
.2037 g 3030 3127 CircleF
.2586 g 2896 3303 CircleF
.3484 g 4022 3507 CircleF
.2071 g 1845 3031 CircleF
.3047 g 1551 3298 CircleF
.3833 g 1345 3323 CircleF
.4656 g 3737 3011 CircleF
.413 g 2449 2145 CircleF
.2963 g 3289 2825 CircleF
.602 g 2951 1498 CircleF
.2732 g 1212 3403 CircleF
.0905 g 2178 3234 CircleF
.0617 g 2180 3286 CircleF
.2913 g 3258 3194 CircleF
.6065 g 2251 1462 CircleF
.4969 g 3222 2007 CircleF
.4395 g 2730 2031 CircleF
.2512 g 1792 2925 CircleF
.389 g 2103 2317 CircleF
.6246 g 2867 1269 CircleF
.4975 g 2256 1868 CircleF
.5048 g 3258 3316 CircleF
.3265 g 1953 2604 CircleF
.4477 g 1883 2213 CircleF
.311 g 2294 2547 CircleF
.1568 g 2007 3110 CircleF
.6066 g 2965 1470 CircleF
.3745 g 3556 2958 CircleF
.2271 g 2453 2851 CircleF
.4748 g 2297 1929 CircleF
.156 g 2803 3148 CircleF
.3553 g 3244 2508 CircleF
.1421 g 2671 3298 CircleF
.629 g 2502 1209 CircleF
.2681 g 2511 2694 CircleF
.5258 g 2285 1774 CircleF
.4865 g 2302 1891 CircleF
.0894 g 2142 3482 CircleF
.5548 g 2464 1648 CircleF
.4123 g 1391 3050 CircleF
.2985 g 3250 2738 CircleF
.4531 g 3712 3093 CircleF
.4083 g 2059 2252 CircleF
.629 g 2630 1212 CircleF
.6103 g 2306 1410 CircleF
.2849 g 3155 2724 CircleF
.385 g 3762 3321 CircleF
.2431 g 3002 3408 CircleF
.5253 g 2315 1768 CircleF
.2598 g 2365 2735 CircleF
.3928 g 4038 3454 CircleF
.4286 g 3091 2165 CircleF
.1964 g 3000 3103 CircleF
.3693 g 2744 2304 CircleF
.0559 g 2004 3408 CircleF
.2613 g 1726 2938 CircleF
.377 g 3236 3278 CircleF
.3759 g 3138 2383 CircleF
.6164 g 2376 1328 CircleF
.6287 g 2456 1210 CircleF
.4615 g 1950 2114 CircleF
.1625 g 2738 3525 CircleF
.3589 g 3128 2437 CircleF
.4254 g 3150 2204 CircleF
.3406 g 3394 3186 CircleF
.3138 g 2819 2528 CircleF
.2296 g 3057 2928 CircleF
.63 g 2737 1159 CircleF
.5571 g 2183 1708 CircleF
.2723 g 3103 2752 CircleF
.4732 g 3737 3140 CircleF
.3932 g 3500 2667 CircleF
.2741 g 3010 2721 CircleF
.1879 g 2727 2988 CircleF
.1123 g 2104 3196 CircleF
.0835 g 2451 3436 CircleF
.4308 g 3047 2137 CircleF
.1757 g 2922 3480 CircleF
.3823 g 1765 2529 CircleF
.3716 g 2921 2328 CircleF
.6206 g 2483 1276 CircleF
.4263 g 3400 2369 CircleF
.5148 g 3860 3129 CircleF
.6407 g 2613 812 CircleF
.1402 g 2543 3114 CircleF
.2422 g 2008 2862 CircleF
.3439 g 1715 2691 CircleF
.2797 g 1712 2889 CircleF
.3471 g 1850 2594 CircleF
.1837 g 2750 3000 CircleF
.4257 g 2098 2164 CircleF
.0711 g 2107 3283 CircleF
.4166 g 3391 2394 CircleF
.1754 g 2072 3050 CircleF
.6087 g 2363 1417 CircleF
.1598 g 1582 3455 CircleF
.2804 g 1551 3122 CircleF
.5942 g 2536 1470 CircleF
.1006 g 1980 3342 CircleF
.1259 g 2705 3218 CircleF
.0697 g 1937 3440 CircleF
.3704 g 3079 3304 CircleF
.3325 g 2571 2437 CircleF
.4683 g 3730 2948 CircleF
.2836 g 2784 2646 CircleF
.189 g 2588 2983 CircleF
.0611 g 2360 3291 CircleF
.1855 g 2897 3241 CircleF
.3961 g 2508 2202 CircleF
.2207 g 2202 2892 CircleF
.4495 g 3383 2282 CircleF
.3541 g 1887 2547 CircleF
.2707 g 2890 2710 CircleF
.1549 g 1948 3137 CircleF
.3118 g 2924 2557 CircleF
.4095 g 3575 2766 CircleF
.3686 g 3682 3365 CircleF
.5107 g 1967 1941 CircleF
.5292 g 2983 1777 CircleF
.393 g 1916 2386 CircleF
.4681 g 2868 1939 CircleF
.2021 g 2944 2991 CircleF
.3239 g 3581 3426 CircleF
.3701 g 1600 2710 CircleF
.2032 g 2940 3249 CircleF
.5905 g 2220 1587 CircleF
.2824 g 2539 2638 CircleF
.4103 g 2947 2193 CircleF
.6004 g 2969 1514 CircleF
.1788 g 2135 3031 CircleF
.3744 g 2510 2283 CircleF
.0734 g 2093 3279 CircleF
.6349 g 2704 920 CircleF
.1805 g 2078 3035 CircleF
.3703 g 3819 3337 CircleF
.114 g 2496 3491 CircleF
.0471 g 2050 3395 CircleF
.2679 g 2152 2742 CircleF
.5013 g 2380 1830 CircleF
.4429 g 3313 2234 CircleF
.281 g 2182 2687 CircleF
.4938 g 2814 1849 CircleF
.2999 g 1262 3373 CircleF
.2574 g 3553 3526 CircleF
.3312 g 3288 2627 CircleF
.4182 g 3583 2740 CircleF
.1783 g 1762 3242 CircleF
.3129 g 3909 3526 CircleF
.4033 g 2049 2277 CircleF
.6336 g 2577 1045 CircleF
.5614 g 3025 1694 CircleF
.201 g 3049 3452 CircleF
.5004 g 2003 1957 CircleF
.5311 g 2867 1743 CircleF
.1164 g 2572 3186 CircleF
.2794 g 1556 3258 CircleF
.4084 g 1661 2541 CircleF
.5885 g 2963 1581 CircleF
.378 g 1418 3072 CircleF
.3434 g 2059 2493 CircleF
.1826 g 1554 3404 CircleF
.581 g 2929 1618 CircleF
.63 g 2718 1178 CircleF
.1936 g 2296 2969 CircleF
.3221 g 2410 2487 CircleF
.2188 g 2190 2900 CircleF
.4854 g 3271 2077 CircleF
.6287 g 2818 1228 CircleF
.1365 g 2611 3410 CircleF
.5868 g 2841 1549 CircleF
.3545 g 3359 2599 CircleF
.3279 g 2203 2501 CircleF
.2603 g 3010 3401 CircleF
.2581 g 3231 3038 CircleF
.3603 g 3866 3396 CircleF
.324 g 3957 3522 CircleF
.3489 g 3321 2587 CircleF
.3193 g 1752 2739 CircleF
.6366 g 2553 826 CircleF
.3269 g 1483 3076 CircleF
.2545 g 2134 2792 CircleF
.3534 g 3002 2415 CircleF
.2929 g 2185 2643 CircleF
.2403 g 3319 3463 CircleF
.3627 g 2183 2379 CircleF
.4846 g 3436 3293 CircleF
.2248 g 2981 2903 CircleF
.5814 g 2600 1535 CircleF
.3236 g 1513 3346 CircleF
.4862 g 3420 3296 CircleF
.4241 g 2920 2121 CircleF
.238 g 3095 3422 CircleF
.5913 g 2260 1556 CircleF
.5371 g 2346 1722 CircleF
.3935 g 3571 2847 CircleF
.3226 g 2444 2482 CircleF
.2413 g 2437 2799 CircleF
.1616 g 2451 3060 CircleF
.5045 g 2572 1803 CircleF
.4444 g 2362 2026 CircleF
.6258 g 2522 1235 CircleF
.229 g 2880 2860 CircleF
.3563 g 3889 3392 CircleF
.3443 g 2991 2446 CircleF
.1746 g 2816 3061 CircleF
.3761 g 3545 2897 CircleF
.1513 g 2108 3106 CircleF
.1039 g 2486 3204 CircleF
.2765 g 2276 2685 CircleF
.1533 g 2034 3112 CircleF
.4715 g 2910 1936 CircleF
.3031 g 3842 3521 CircleF
.5409 g 3200 1873 CircleF
.3371 g 1509 3334 CircleF
.4197 g 2394 2126 CircleF
.3879 g 2424 2241 CircleF
.5045 g 2444 1811 CircleF
.3932 g 3231 2378 CircleF
.1829 g 1445 3504 CircleF
.1665 g 1805 3205 CircleF
.5754 g 2678 1590 CircleF
.2991 g 3335 2906 CircleF
.3297 g 3245 2600 CircleF
.5672 g 2102 1707 CircleF
.3345 g 3139 2535 CircleF
.2437 g 2815 2802 CircleF
.3054 g 3277 2735 CircleF
.3567 g 2996 2402 CircleF
.3173 g 3361 2832 CircleF
.2716 g 2314 2697 CircleF
.4183 g 2120 2187 CircleF
.4209 g 2510 2110 CircleF
.5046 g 2026 1932 CircleF
.5236 g 2776 1754 CircleF
.1345 g 1695 3517 CircleF
.2439 g 2338 2797 CircleF
.352 g 2897 2394 CircleF
.0993 g 1807 3476 CircleF
.4841 g 3808 3214 CircleF
.2687 g 3227 2914 CircleF
.2838 g 3234 3196 CircleF
.3323 g 3301 2634 CircleF
.348 g 3104 2467 CircleF
.4359 g 2537 2045 CircleF
.3938 g 3045 2290 CircleF
.4685 g 1848 2178 CircleF
.4364 g 3512 2465 CircleF
.4118 g 2236 2186 CircleF
.4476 g 2750 2000 CircleF
.3067 g 1386 3366 CircleF
.3569 g 3470 2811 CircleF
.3773 g 2195 2326 CircleF
.1789 g 2920 3467 CircleF
.1981 g 3058 3473 CircleF
.1949 g 1415 3478 CircleF
.6115 g 2919 1421 CircleF
.2694 g 2647 2690 CircleF
.6304 g 2681 1133 CircleF
.3631 g 2366 2340 CircleF
.3026 g 1731 2806 CircleF
.3013 g 2535 2561 CircleF
.109 g 2532 3414 CircleF
.249 g 3178 2981 CircleF
.4469 g 2113 2078 CircleF
.2696 g 2567 2688 CircleF
.2243 g 3116 3439 CircleF
.6137 g 2935 1407 CircleF
.6293 g 2517 1144 CircleF
.0897 g 2507 3253 CircleF
.6189 g 2360 1300 CircleF
.6145 g 2525 1320 CircleF
.3002 g 1507 3191 CircleF
.4971 g 3321 2081 CircleF
.2508 g 3183 2975 CircleF
.1272 g 2266 3520 CircleF
.2376 g 1885 2923 CircleF
.4433 g 2803 2022 CircleF
.3869 g 2065 2340 CircleF
.4711 g 3628 3237 CircleF
.3097 g 2233 2564 CircleF
.2534 g 2026 2821 CircleF
.2521 g 3169 3424 CircleF
.6366 g 2620 791 CircleF
.4131 g 2938 2178 CircleF
.3959 g 2033 2319 CircleF
.6148 g 2765 1338 CircleF
.6305 g 2571 1104 CircleF
.4127 g 3508 2559 CircleF
.4077 g 1945 2313 CircleF
.2067 g 1691 3216 CircleF
.1045 g 1963 3386 CircleF
.4771 g 2081 1987 CircleF
.3246 g 3201 2594 CircleF
.2398 g 2920 2828 CircleF
.216 g 2506 2889 CircleF
.3891 g 1834 2451 CircleF
.1264 g 1931 3525 CircleF
.2085 g 3207 3522 CircleF
.2892 g 1783 2812 CircleF
.4831 g 2168 1935 CircleF
.6295 g 2821 1127 CircleF
.6351 g 2615 947 CircleF
.4006 g 2752 2188 CircleF
.4642 g 3680 3190 CircleF
.1687 g 1784 3255 CircleF
.4392 g 2320 2054 CircleF
.2362 g 3017 2869 CircleF
.3214 g 2987 2534 CircleF
.3139 g 2443 2516 CircleF
.3522 g 3486 2901 CircleF
.065 g 2055 3336 CircleF
.4412 g 2717 2023 CircleF
.1074 g 2617 3249 CircleF
.2371 g 3337 3475 CircleF
.5679 g 2185 1679 CircleF
.3442 g 3484 3042 CircleF
.3531 g 3155 2470 CircleF
.3351 g 3194 2554 CircleF
.5644 g 2997 1673 CircleF
.3105 g 2041 2622 CircleF
.4625 g 3005 1991 CircleF
.3123 g 2915 2553 CircleF
.53 g 3082 1814 CircleF
.4123 g 3372 2394 CircleF
.2157 g 1679 3188 CircleF
.6392 g 2660 818 CircleF
.262 g 3193 2898 CircleF
.5581 g 2691 1638 CircleF
.4981 g 2319 1852 CircleF
.3426 g 3383 2705 CircleF
.4139 g 2693 2136 CircleF
.6086 g 2912 1442 CircleF
.2742 g 2032 2751 CircleF
.1685 g 1620 3404 CircleF
.4161 g 2043 2226 CircleF
.4425 g 3226 2179 CircleF
.4351 g 3199 2190 CircleF
.4408 g 2305 2050 CircleF
.4201 g 2328 2132 CircleF
.5065 g 2008 1937 CircleF
.3692 g 2276 2334 CircleF
.5413 g 2990 1741 CircleF
.445 g 1897 2210 CircleF
.1 g 1798 3455 CircleF
.3597 g 2714 2338 CircleF
.4567 g 2639 1962 CircleF
.6289 g 2473 1151 CircleF
.1996 g 3138 3507 CircleF
.225 g 1987 2924 CircleF
.533 g 2944 1752 CircleF
.6311 g 2672 1104 CircleF
.1013 g 1955 3316 CircleF
.436 g 2828 2056 CircleF
.4015 g 3255 2336 CircleF
.1115 g 1941 3331 CircleF
.4299 g 2189 2119 CircleF
.3552 g 3255 2518 CircleF
.4858 g 2015 1992 CircleF
.2087 g 3051 3098 CircleF
.4344 g 1280 3285 CircleF
.4144 g 3515 2570 CircleF
.3245 g 3420 3096 CircleF
.1894 g 2017 3022 CircleF
.1346 g 2356 3529 CircleF
.3844 g 3584 3014 CircleF
.2055 g 2228 2937 CircleF
.4365 g 3534 3311 CircleF
.2608 g 2227 2751 CircleF
.4701 g 2466 1922 CircleF
.454 g 2947 2005 CircleF
.6125 g 2409 1368 CircleF
.1989 g 1658 3418 CircleF
.3769 g 2986 2327 CircleF
.2653 g 3228 2948 CircleF
.1621 g 2430 3059 CircleF
.6295 g 2832 1211 CircleF
.418 g 2342 2140 CircleF
.6136 g 2506 1330 CircleF
.4054 g 3060 2256 CircleF
.0687 g 2042 3307 CircleF
.4054 g 3259 2323 CircleF
.2101 g 3222 3515 CircleF
.5549 g 2578 1641 CircleF
.5719 g 2874 1632 CircleF
.1929 g 2920 3243 CircleF
.1899 g 1487 3413 CircleF
.3184 g 1674 2801 CircleF
.5973 g 2242 1526 CircleF
.3326 g 2302 2462 CircleF
.5274 g 2787 1743 CircleF
.447 g 3572 2578 CircleF
.3382 g 2422 2424 CircleF
.3734 g 3019 2349 CircleF
.6347 g 2612 989 CircleF
.4984 g 2363 1842 CircleF
.3694 g 2786 2308 CircleF
.1824 g 2181 3014 CircleF
.373 g 1417 3094 CircleF
.6196 g 2313 1287 CircleF
.4281 g 2640 2078 CircleF
.4622 g 2843 1956 CircleF
.1248 g 2552 3499 CircleF
.212 g 2896 2924 CircleF
.4237 g 2779 2103 CircleF
.3639 g 2075 2414 CircleF
.2581 g 3142 2848 CircleF
.3839 g 3566 2903 CircleF
.1751 g 2432 3026 CircleF
.1901 g 2974 3112 CircleF
.4128 g 2190 2192 CircleF
.4332 g 3602 2713 CircleF
.1782 g 2906 3209 CircleF
.6286 g 2445 1170 CircleF
.4339 g 3073 2135 CircleF
.382 g 3914 3309 CircleF
.2745 g 1808 2844 CircleF
.6149 g 2929 1393 CircleF
.0369 g 2165 3330 CircleF
.5867 g 2669 1510 CircleF
.1342 g 1897 3329 CircleF
.3597 g 3987 3470 CircleF
.5861 g 2687 1516 CircleF
.3066 g 1627 2875 CircleF
.6133 g 2545 1328 CircleF
.4639 g 2839 1949 CircleF
.0877 g 2009 3280 CircleF
.2008 g 2358 2943 CircleF
.443 g 2945 2047 CircleF
.5486 g 2741 1671 CircleF
.3043 g 3331 2860 CircleF
.2187 g 2579 2880 CircleF
.3193 g 2817 2505 CircleF
.2149 g 2354 2897 CircleF
.2931 g 2578 2594 CircleF
.4679 g 2190 1978 CircleF
.2907 g 3093 2681 CircleF
.2142 g 3046 3188 CircleF
.1481 g 2715 3125 CircleF
.5133 g 3818 3098 CircleF
.3794 g 3542 2861 CircleF
.5807 g 2387 1581 CircleF
.291 g 3308 3417 CircleF
.06 g 2311 3383 CircleF
.6331 g 2736 952 CircleF
.466 g 3414 2266 CircleF
.3888 g 3566 2866 CircleF
.4703 g 3238 2097 CircleF
.4363 g 2681 2042 CircleF
.2015 g 2642 2940 CircleF
.3528 g 2881 2387 CircleF
.1836 g 2282 3001 CircleF
.1335 g 2674 3162 CircleF
.3426 g 2141 2465 CircleF
.4886 g 1951 2028 CircleF
.2813 g 1720 2878 CircleF
.3889 g 2543 2226 CircleF
.4679 g 3656 3274 CircleF
.3018 g 2177 2610 CircleF
.244 g 3180 3033 CircleF
.343 g 3035 2464 CircleF
.4421 g 3678 2893 CircleF
.3589 g 3705 3416 CircleF
.5195 g 2859 1778 CircleF
.3074 g 1689 2824 CircleF
.21 g 3005 2998 CircleF
.4559 g 3012 2019 CircleF
.6086 g 2480 1384 CircleF
.618 g 2799 1319 CircleF
.2772 g 2048 2737 CircleF
.3394 g 1473 3047 CircleF
.5209 g 2704 1756 CircleF
.6011 g 2594 1433 CircleF
.2245 g 3104 3053 CircleF
.0251 g 2282 3354 CircleF
.1679 g 2813 3095 CircleF
.4105 g 2369 2165 CircleF
.4423 g 2256 2054 CircleF
.6229 g 2687 1261 CircleF
.544 g 2407 1690 CircleF
.3334 g 2642 2434 CircleF
.4672 g 2162 1989 CircleF
.1958 g 2878 2989 CircleF
.13 g 2260 3157 CircleF
.3428 g 3216 2535 CircleF
.5373 g 2361 1718 CircleF
.382 g 2797 2262 CircleF
.5886 g 2320 1544 CircleF
.4553 g 2091 2056 CircleF
.2795 g 2067 2724 CircleF
.248 g 1982 2851 CircleF
.1592 g 2803 3134 CircleF
.2914 g 3330 2965 CircleF
.5911 g 2417 1500 CircleF
.2233 g 3052 2964 CircleF
.2904 g 2386 2616 CircleF
.2427 g 1626 3265 CircleF
.2192 g 3075 3034 CircleF
.09 g 2147 3236 CircleF
.3541 g 2703 2358 CircleF
.4298 g 2443 2078 CircleF
.5997 g 2283 1494 CircleF
.1246 g 2337 3159 CircleF
.4821 g 2208 1926 CircleF
.5374 g 2330 1724 CircleF
.1537 g 1902 3395 CircleF
.0423 g 2069 3423 CircleF
.2507 g 2613 2760 CircleF
.2189 g 3084 3063 CircleF
.6178 g 2673 1297 CircleF
.5819 g 2594 1532 CircleF
.526 g 2909 1767 CircleF
.1919 g 1907 3047 CircleF
.1247 g 2361 3519 CircleF
.4644 g 2722 1937 CircleF
.4553 g 3059 2044 CircleF
.2736 g 3010 2723 CircleF
.4207 g 2258 2141 CircleF
.6319 g 2709 1090 CircleF
.2791 g 2998 2701 CircleF
.2925 g 1844 2764 CircleF
.6042 g 2718 1425 CircleF
.6248 g 2888 1257 CircleF
.2037 g 2939 2981 CircleF
.2908 g 2439 2609 CircleF
.3062 g 1595 2905 CircleF
.2953 g 3256 3203 CircleF
.2076 g 2311 2924 CircleF
.2821 g 3257 2867 CircleF
.4543 g 2948 2004 CircleF
.3059 g 3093 2626 CircleF
.3625 g 1993 2458 CircleF
.2315 g 3270 3463 CircleF
.2939 g 3172 2696 CircleF
.4482 g 3073 3321 CircleF
.3021 g 2251 2590 CircleF
.2949 g 2805 2604 CircleF
.3251 g 3421 2934 CircleF
.3348 g 3432 2878 CircleF
.5378 g 2099 1799 CircleF
.6146 g 2387 1347 CircleF
.6322 g 2784 1077 CircleF
.2397 g 1242 3490 CircleF
.4358 g 3603 2705 CircleF
.6285 g 2657 1218 CircleF
.1499 g 1841 3228 CircleF
.6276 g 2843 1238 CircleF
.3731 g 3173 2407 CircleF
.2828 g 3692 3522 CircleF
.6062 g 2792 1420 CircleF
.1286 g 2227 3155 CircleF
.122 g 2498 3159 CircleF
.2022 g 3020 3087 CircleF
.3218 g 3320 3204 CircleF
.3331 g 2015 2550 CircleF
.172 g 2262 3037 CircleF
.2381 g 3158 3110 CircleF
.3034 g 2319 2572 CircleF
.3081 g 2816 2551 CircleF
.3478 g 1813 2614 CircleF
.3492 g 3197 3275 CircleF
.4715 g 3257 2106 CircleF
.2626 g 1928 2823 CircleF
.1791 g 1759 3248 CircleF
.4293 g 2759 2078 CircleF
.5514 g 2571 1652 CircleF
.2778 g 3618 3504 CircleF
.6153 g 2372 1342 CircleF
.2459 g 1640 3292 CircleF
.3712 g 3026 2359 CircleF
.229 g 1638 3202 CircleF
.3568 g 2464 2352 CircleF
.6328 g 2718 1075 CircleF
.2467 g 3165 2971 CircleF
.0863 g 2492 3258 CircleF
.1662 g 2341 3053 CircleF
.3411 g 3151 2514 CircleF
.3941 g 3557 2804 CircleF
.3863 g 3800 3316 CircleF
.3161 g 1557 2932 CircleF
.3728 g 1443 3010 CircleF
.3118 g 2011 2629 CircleF
.1092 g 1754 3459 CircleF
.4609 g 2741 1950 CircleF
.4715 g 2157 1976 CircleF
.0977 g 2436 3474 CircleF
.293 g 2400 2603 CircleF
.6343 g 2670 1025 CircleF
.4243 g 3041 2162 CircleF
.2784 g 1695 3356 CircleF
.4187 g 2746 2121 CircleF
.3222 g 2999 2534 CircleF
.5586 g 2305 1666 CircleF
.1538 g 1897 3156 CircleF
.3622 g 2968 2374 CircleF
.59 g 2671 1492 CircleF
.4315 g 2735 2066 CircleF
.3976 g 3596 2901 CircleF
.084 g 1869 3439 CircleF
.6284 g 2841 1153 CircleF
.6027 g 2791 1443 CircleF
.4565 g 1926 2150 CircleF
.3448 g 1943 2545 CircleF
.5702 g 2920 1645 CircleF
.418 g 3579 2732 CircleF
.2684 g 2515 2693 CircleF
.101 g 1793 3449 CircleF
.045 g 2233 3310 CircleF
.3214 g 1730 2749 CircleF
.324 g 3379 3164 CircleF
.3659 g 2598 2311 CircleF
.2184 g 2959 2922 CircleF
.3125 g 2899 2548 CircleF
.3964 g 3435 3233 CircleF
.5806 g 2310 1607 CircleF
.3503 g 4050 3519 CircleF
.0823 g 2198 3251 CircleF
.2988 g 3135 3262 CircleF
.3712 g 3544 3081 CircleF
.631 g 2684 1109 CircleF
.4149 g 1372 3113 CircleF
.3483 g 2543 2378 CircleF
.5155 g 2343 1794 CircleF
.1396 g 1648 3517 CircleF
.3597 g 3873 3351 CircleF
.5871 g 2296 1566 CircleF
.2384 g 2238 2830 CircleF
.257 g 1172 3528 CircleF
.3628 g 1628 2705 CircleF
.2798 g 2798 2662 CircleF
.3232 g 3392 3144 CircleF
.4543 g 2212 2019 CircleF
.2043 g 3022 3173 CircleF
.3495 g 2462 2378 CircleF
.2205 g 1925 2959 CircleF
.3091 g 2534 2529 CircleF
.4378 g 3608 2710 CircleF
.308 g 2921 2571 CircleF
.1433 g 2689 3132 CircleF
.3828 g 2677 2249 CircleF
.4389 g 3542 2525 CircleF
.3067 g 2406 2548 CircleF
.3737 g 2340 2305 CircleF
.6361 g 2606 852 CircleF
.607 g 2417 1416 CircleF
.2908 g 2573 2603 CircleF
.3848 g 3152 2361 CircleF
.3904 g 3111 2327 CircleF
.1908 g 2981 3129 CircleF
.2772 g 2334 2674 CircleF
.2391 g 2433 2807 CircleF
.6192 g 2653 1283 CircleF
.4929 g 2280 1876 CircleF
.6276 g 2662 1226 CircleF
.5771 g 2675 1581 CircleF
.474 g 3589 3256 CircleF
.4228 g 1884 2296 CircleF
.4924 g 2952 1880 CircleF
.2399 g 3108 3423 CircleF
.163 g 2001 3096 CircleF
.2994 g 3356 2981 CircleF
.4723 g 3391 3316 CircleF
.3162 g 2798 2515 CircleF
.168 g 1699 3407 CircleF
.323 g 2510 2476 CircleF
.5034 g 2166 1876 CircleF
.4064 g 3361 2406 CircleF
.1605 g 1977 3109 CircleF
.2579 g 3067 2797 CircleF
.4672 g 3710 3262 CircleF
.4337 g 3119 2157 CircleF
.4914 g 3789 3190 CircleF
.2901 g 2576 2606 CircleF
.3715 g 1842 2519 CircleF
.201 g 1382 3487 CircleF
.4736 g 3610 3271 CircleF
.5061 g 2332 1824 CircleF
.1387 g 2263 3134 CircleF
.3406 g 2765 2415 CircleF
.1781 g 2857 3063 CircleF
.3503 g 2773 2378 CircleF
.137 g 2459 3527 CircleF
.3683 g 3684 3363 CircleF
.584 g 2798 1556 CircleF
.222 g 2030 2921 CircleF
.2618 g 3239 3105 CircleF
.2889 g 2397 2620 CircleF
.249 g 2435 2770 CircleF
.2714 g 1158 3515 CircleF
.2604 g 2935 3296 CircleF
.3672 g 1418 3319 CircleF
.3778 g 2689 2268 CircleF
.0675 g 2068 3450 CircleF
.1728 g 2906 3491 CircleF
.495 g 2003 1972 CircleF
.1657 g 2507 3349 CircleF
.5503 g 2723 1664 CircleF
.3682 g 1284 3334 CircleF
.2271 g 3117 3436 CircleF
.3742 g 3044 2355 CircleF
.2477 g 3191 3115 CircleF
.4327 g 3620 2763 CircleF
.2198 g 1337 3477 CircleF
.4429 g 2993 2064 CircleF
.1755 g 1911 3093 CircleF
.0484 g 2088 3329 CircleF
.6356 g 2666 906 CircleF
.385 g 1942 2406 CircleF
.2731 g 2060 2747 CircleF
.2353 g 2216 2843 CircleF
.1003 g 2570 3280 CircleF
.4855 g 2222 1912 CircleF
.5198 g 2100 1854 CircleF
.2912 g 2424 2608 CircleF
.2948 g 2741 2596 CircleF
.1336 g 2506 3519 CircleF
.4486 g 2787 1999 CircleF
.2338 g 2993 2869 CircleF
.4761 g 3581 3264 CircleF
.2573 g 2000 2815 CircleF
.3393 g 2413 2421 CircleF
.4017 g 2094 2268 CircleF
.4316 g 2443 2070 CircleF
.2906 g 3329 2971 CircleF
.1989 g 1743 3145 CircleF
.3956 g 2762 2207 CircleF
.3028 g 1539 3045 CircleF
.5864 g 3091 1642 CircleF
.3976 g 3899 3287 CircleF
.4017 g 2193 2238 CircleF
.2997 g 1796 2770 CircleF
.343 g 3799 3441 CircleF
.4264 g 3343 3341 CircleF
.3928 g 3579 3378 CircleF
.3336 g 1907 2604 CircleF
.4761 g 1877 2130 CircleF
.3903 g 1939 2385 CircleF
.3196 g 1529 3003 CircleF
.3801 g 3568 2955 CircleF
.2577 g 2490 2734 CircleF
.5039 g 2762 1812 CircleF
.2724 g 3236 2901 CircleF
.4476 g 3056 2073 CircleF
.2975 g 2627 2577 CircleF
.2583 g 2552 2731 CircleF
.2378 g 2090 2856 CircleF
.3752 g 3542 2897 CircleF
.2836 g 1756 2848 CircleF
.4526 g 2202 2028 CircleF
.3478 g 2451 2386 CircleF
.6264 g 2518 1231 CircleF
.215 g 3152 3463 CircleF
.5262 g 3042 1809 CircleF
.4381 g 2031 2145 CircleF
.4512 g 2522 1985 CircleF
.3057 g 2244 2578 CircleF
.611 g 2724 1364 CircleF
.6293 g 2530 1205 CircleF
.2921 g 2930 2636 CircleF
.2423 g 3176 3039 CircleF
.301 g 2083 2642 CircleF
.4887 g 2474 1859 CircleF
.2945 g 2585 2588 CircleF
.4141 g 2470 2138 CircleF
.4824 g 3066 1949 CircleF
.2165 g 1992 2950 CircleF
.1335 g 2739 3214 CircleF
.2605 g 3524 3501 CircleF
.2269 g 1691 3102 CircleF
.4299 g 3051 2142 CircleF
.194 g 2684 3393 CircleF
.3457 g 3348 3396 CircleF
.0422 g 2291 3331 CircleF
2.000 UL
LTb
LCb setrgbcolor
[] 0 setdash
1.500 UL
LTb
1078 3623 N
0 -2919 V
3058 0 V
0 2919 V
-3058 0 V
Z stroke
stroke gsave	%% draw gray scale smooth box
maxcolors 0 gt {/imax maxcolors def} {/imax 1024 def} ifelse
4212 704 translate 152 2919 scale 0 setlinewidth
/ystep 1 imax div def /y0 0 def /ii 0 def
{ y0 g 0 y0 N 1 0 V 0 ystep V -1 0 f
/y0 y0 ystep add def /ii ii 1 add def
ii imax ge {exit} if } loop
grestore 0 setgray
1.500 UL
LTb
4212 704 N
152 0 V
0 2919 V
-152 0 V
0 -2919 V
Z stroke
1.500 UL
LTb
1.500 UL
LTb
4364 704 M
-47 0 V
stroke
4212 704 M
47 0 V
105 729 R
-47 0 V
stroke
4212 1433 M
47 0 V
105 730 R
-47 0 V
stroke
4212 2163 M
47 0 V
105 730 R
-47 0 V
stroke
4212 2893 M
47 0 V
105 730 R
-47 0 V
stroke
4212 3623 M
47 0 V
1.000 UP
stroke
grestore % colour palette end
stroke
grestore
end
showpage
%%Trailer
