%!PS-Adobe-2.0 EPSF-2.0
%%Title: fig3.tex
%%Creator: gnuplot 5.0 patchlevel 3
%%CreationDate: Sun Apr 15 17:38:50 2018
%%DocumentFonts: 
%%BoundingBox: 50 50 316 244
%%EndComments
%%BeginProlog
/gnudict 256 dict def
gnudict begin
%
% The following true/false flags may be edited by hand if desired.
% The unit line width and grayscale image gamma correction may also be changed.
%
/Color true def
/Blacktext false def
/Solid false def
/Dashlength 2.5 def
/Landscape false def
/Level1 false def
/Level3 false def
/Rounded false def
/ClipToBoundingBox false def
/SuppressPDFMark false def
/TransparentPatterns false def
/gnulinewidth 5.000 def
/userlinewidth gnulinewidth def
/Gamma 1.0 def
/BackgroundColor {-1.000 -1.000 -1.000} def
%
/vshift -73 def
/dl1 {
  10.0 Dashlength userlinewidth gnulinewidth div mul mul mul
  Rounded { currentlinewidth 0.75 mul sub dup 0 le { pop 0.01 } if } if
} def
/dl2 {
  10.0 Dashlength userlinewidth gnulinewidth div mul mul mul
  Rounded { currentlinewidth 0.75 mul add } if
} def
/hpt_ 31.5 def
/vpt_ 31.5 def
/hpt hpt_ def
/vpt vpt_ def
/doclip {
  ClipToBoundingBox {
    newpath 50 50 moveto 316 50 lineto 316 244 lineto 50 244 lineto closepath
    clip
  } if
} def
%
% Gnuplot Prolog Version 5.1 (Oct 2015)
%
%/SuppressPDFMark true def
%
/M {moveto} bind def
/L {lineto} bind def
/R {rmoveto} bind def
/V {rlineto} bind def
/N {newpath moveto} bind def
/Z {closepath} bind def
/C {setrgbcolor} bind def
/f {rlineto fill} bind def
/g {setgray} bind def
/Gshow {show} def   % May be redefined later in the file to support UTF-8
/vpt2 vpt 2 mul def
/hpt2 hpt 2 mul def
/Lshow {currentpoint stroke M 0 vshift R 
	Blacktext {gsave 0 setgray textshow grestore} {textshow} ifelse} def
/Rshow {currentpoint stroke M dup stringwidth pop neg vshift R
	Blacktext {gsave 0 setgray textshow grestore} {textshow} ifelse} def
/Cshow {currentpoint stroke M dup stringwidth pop -2 div vshift R 
	Blacktext {gsave 0 setgray textshow grestore} {textshow} ifelse} def
/UP {dup vpt_ mul /vpt exch def hpt_ mul /hpt exch def
  /hpt2 hpt 2 mul def /vpt2 vpt 2 mul def} def
/DL {Color {setrgbcolor Solid {pop []} if 0 setdash}
 {pop pop pop 0 setgray Solid {pop []} if 0 setdash} ifelse} def
/BL {stroke userlinewidth 2 mul setlinewidth
	Rounded {1 setlinejoin 1 setlinecap} if} def
/AL {stroke userlinewidth 2 div setlinewidth
	Rounded {1 setlinejoin 1 setlinecap} if} def
/UL {dup gnulinewidth mul /userlinewidth exch def
	dup 1 lt {pop 1} if 10 mul /udl exch def} def
/PL {stroke userlinewidth setlinewidth
	Rounded {1 setlinejoin 1 setlinecap} if} def
3.8 setmiterlimit
% Classic Line colors (version 5.0)
/LCw {1 1 1} def
/LCb {0 0 0} def
/LCa {0 0 0} def
/LC0 {1 0 0} def
/LC1 {0 1 0} def
/LC2 {0 0 1} def
/LC3 {1 0 1} def
/LC4 {0 1 1} def
/LC5 {1 1 0} def
/LC6 {0 0 0} def
/LC7 {1 0.3 0} def
/LC8 {0.5 0.5 0.5} def
% Default dash patterns (version 5.0)
/LTB {BL [] LCb DL} def
/LTw {PL [] 1 setgray} def
/LTb {PL [] LCb DL} def
/LTa {AL [1 udl mul 2 udl mul] 0 setdash LCa setrgbcolor} def
/LT0 {PL [] LC0 DL} def
/LT1 {PL [2 dl1 3 dl2] LC1 DL} def
/LT2 {PL [1 dl1 1.5 dl2] LC2 DL} def
/LT3 {PL [6 dl1 2 dl2 1 dl1 2 dl2] LC3 DL} def
/LT4 {PL [1 dl1 2 dl2 6 dl1 2 dl2 1 dl1 2 dl2] LC4 DL} def
/LT5 {PL [4 dl1 2 dl2] LC5 DL} def
/LT6 {PL [1.5 dl1 1.5 dl2 1.5 dl1 1.5 dl2 1.5 dl1 6 dl2] LC6 DL} def
/LT7 {PL [3 dl1 3 dl2 1 dl1 3 dl2] LC7 DL} def
/LT8 {PL [2 dl1 2 dl2 2 dl1 6 dl2] LC8 DL} def
/SL {[] 0 setdash} def
/Pnt {stroke [] 0 setdash gsave 1 setlinecap M 0 0 V stroke grestore} def
/Dia {stroke [] 0 setdash 2 copy vpt add M
  hpt neg vpt neg V hpt vpt neg V
  hpt vpt V hpt neg vpt V closepath stroke
  Pnt} def
/Pls {stroke [] 0 setdash vpt sub M 0 vpt2 V
  currentpoint stroke M
  hpt neg vpt neg R hpt2 0 V stroke
 } def
/Box {stroke [] 0 setdash 2 copy exch hpt sub exch vpt add M
  0 vpt2 neg V hpt2 0 V 0 vpt2 V
  hpt2 neg 0 V closepath stroke
  Pnt} def
/Crs {stroke [] 0 setdash exch hpt sub exch vpt add M
  hpt2 vpt2 neg V currentpoint stroke M
  hpt2 neg 0 R hpt2 vpt2 V stroke} def
/TriU {stroke [] 0 setdash 2 copy vpt 1.12 mul add M
  hpt neg vpt -1.62 mul V
  hpt 2 mul 0 V
  hpt neg vpt 1.62 mul V closepath stroke
  Pnt} def
/Star {2 copy Pls Crs} def
/BoxF {stroke [] 0 setdash exch hpt sub exch vpt add M
  0 vpt2 neg V hpt2 0 V 0 vpt2 V
  hpt2 neg 0 V closepath fill} def
/TriUF {stroke [] 0 setdash vpt 1.12 mul add M
  hpt neg vpt -1.62 mul V
  hpt 2 mul 0 V
  hpt neg vpt 1.62 mul V closepath fill} def
/TriD {stroke [] 0 setdash 2 copy vpt 1.12 mul sub M
  hpt neg vpt 1.62 mul V
  hpt 2 mul 0 V
  hpt neg vpt -1.62 mul V closepath stroke
  Pnt} def
/TriDF {stroke [] 0 setdash vpt 1.12 mul sub M
  hpt neg vpt 1.62 mul V
  hpt 2 mul 0 V
  hpt neg vpt -1.62 mul V closepath fill} def
/DiaF {stroke [] 0 setdash vpt add M
  hpt neg vpt neg V hpt vpt neg V
  hpt vpt V hpt neg vpt V closepath fill} def
/Pent {stroke [] 0 setdash 2 copy gsave
  translate 0 hpt M 4 {72 rotate 0 hpt L} repeat
  closepath stroke grestore Pnt} def
/PentF {stroke [] 0 setdash gsave
  translate 0 hpt M 4 {72 rotate 0 hpt L} repeat
  closepath fill grestore} def
/Circle {stroke [] 0 setdash 2 copy
  hpt 0 360 arc stroke Pnt} def
/CircleF {stroke [] 0 setdash hpt 0 360 arc fill} def
/C0 {BL [] 0 setdash 2 copy moveto vpt 90 450 arc} bind def
/C1 {BL [] 0 setdash 2 copy moveto
	2 copy vpt 0 90 arc closepath fill
	vpt 0 360 arc closepath} bind def
/C2 {BL [] 0 setdash 2 copy moveto
	2 copy vpt 90 180 arc closepath fill
	vpt 0 360 arc closepath} bind def
/C3 {BL [] 0 setdash 2 copy moveto
	2 copy vpt 0 180 arc closepath fill
	vpt 0 360 arc closepath} bind def
/C4 {BL [] 0 setdash 2 copy moveto
	2 copy vpt 180 270 arc closepath fill
	vpt 0 360 arc closepath} bind def
/C5 {BL [] 0 setdash 2 copy moveto
	2 copy vpt 0 90 arc
	2 copy moveto
	2 copy vpt 180 270 arc closepath fill
	vpt 0 360 arc} bind def
/C6 {BL [] 0 setdash 2 copy moveto
	2 copy vpt 90 270 arc closepath fill
	vpt 0 360 arc closepath} bind def
/C7 {BL [] 0 setdash 2 copy moveto
	2 copy vpt 0 270 arc closepath fill
	vpt 0 360 arc closepath} bind def
/C8 {BL [] 0 setdash 2 copy moveto
	2 copy vpt 270 360 arc closepath fill
	vpt 0 360 arc closepath} bind def
/C9 {BL [] 0 setdash 2 copy moveto
	2 copy vpt 270 450 arc closepath fill
	vpt 0 360 arc closepath} bind def
/C10 {BL [] 0 setdash 2 copy 2 copy moveto vpt 270 360 arc closepath fill
	2 copy moveto
	2 copy vpt 90 180 arc closepath fill
	vpt 0 360 arc closepath} bind def
/C11 {BL [] 0 setdash 2 copy moveto
	2 copy vpt 0 180 arc closepath fill
	2 copy moveto
	2 copy vpt 270 360 arc closepath fill
	vpt 0 360 arc closepath} bind def
/C12 {BL [] 0 setdash 2 copy moveto
	2 copy vpt 180 360 arc closepath fill
	vpt 0 360 arc closepath} bind def
/C13 {BL [] 0 setdash 2 copy moveto
	2 copy vpt 0 90 arc closepath fill
	2 copy moveto
	2 copy vpt 180 360 arc closepath fill
	vpt 0 360 arc closepath} bind def
/C14 {BL [] 0 setdash 2 copy moveto
	2 copy vpt 90 360 arc closepath fill
	vpt 0 360 arc} bind def
/C15 {BL [] 0 setdash 2 copy vpt 0 360 arc closepath fill
	vpt 0 360 arc closepath} bind def
/Rec {newpath 4 2 roll moveto 1 index 0 rlineto 0 exch rlineto
	neg 0 rlineto closepath} bind def
/Square {dup Rec} bind def
/Bsquare {vpt sub exch vpt sub exch vpt2 Square} bind def
/S0 {BL [] 0 setdash 2 copy moveto 0 vpt rlineto BL Bsquare} bind def
/S1 {BL [] 0 setdash 2 copy vpt Square fill Bsquare} bind def
/S2 {BL [] 0 setdash 2 copy exch vpt sub exch vpt Square fill Bsquare} bind def
/S3 {BL [] 0 setdash 2 copy exch vpt sub exch vpt2 vpt Rec fill Bsquare} bind def
/S4 {BL [] 0 setdash 2 copy exch vpt sub exch vpt sub vpt Square fill Bsquare} bind def
/S5 {BL [] 0 setdash 2 copy 2 copy vpt Square fill
	exch vpt sub exch vpt sub vpt Square fill Bsquare} bind def
/S6 {BL [] 0 setdash 2 copy exch vpt sub exch vpt sub vpt vpt2 Rec fill Bsquare} bind def
/S7 {BL [] 0 setdash 2 copy exch vpt sub exch vpt sub vpt vpt2 Rec fill
	2 copy vpt Square fill Bsquare} bind def
/S8 {BL [] 0 setdash 2 copy vpt sub vpt Square fill Bsquare} bind def
/S9 {BL [] 0 setdash 2 copy vpt sub vpt vpt2 Rec fill Bsquare} bind def
/S10 {BL [] 0 setdash 2 copy vpt sub vpt Square fill 2 copy exch vpt sub exch vpt Square fill
	Bsquare} bind def
/S11 {BL [] 0 setdash 2 copy vpt sub vpt Square fill 2 copy exch vpt sub exch vpt2 vpt Rec fill
	Bsquare} bind def
/S12 {BL [] 0 setdash 2 copy exch vpt sub exch vpt sub vpt2 vpt Rec fill Bsquare} bind def
/S13 {BL [] 0 setdash 2 copy exch vpt sub exch vpt sub vpt2 vpt Rec fill
	2 copy vpt Square fill Bsquare} bind def
/S14 {BL [] 0 setdash 2 copy exch vpt sub exch vpt sub vpt2 vpt Rec fill
	2 copy exch vpt sub exch vpt Square fill Bsquare} bind def
/S15 {BL [] 0 setdash 2 copy Bsquare fill Bsquare} bind def
/D0 {gsave translate 45 rotate 0 0 S0 stroke grestore} bind def
/D1 {gsave translate 45 rotate 0 0 S1 stroke grestore} bind def
/D2 {gsave translate 45 rotate 0 0 S2 stroke grestore} bind def
/D3 {gsave translate 45 rotate 0 0 S3 stroke grestore} bind def
/D4 {gsave translate 45 rotate 0 0 S4 stroke grestore} bind def
/D5 {gsave translate 45 rotate 0 0 S5 stroke grestore} bind def
/D6 {gsave translate 45 rotate 0 0 S6 stroke grestore} bind def
/D7 {gsave translate 45 rotate 0 0 S7 stroke grestore} bind def
/D8 {gsave translate 45 rotate 0 0 S8 stroke grestore} bind def
/D9 {gsave translate 45 rotate 0 0 S9 stroke grestore} bind def
/D10 {gsave translate 45 rotate 0 0 S10 stroke grestore} bind def
/D11 {gsave translate 45 rotate 0 0 S11 stroke grestore} bind def
/D12 {gsave translate 45 rotate 0 0 S12 stroke grestore} bind def
/D13 {gsave translate 45 rotate 0 0 S13 stroke grestore} bind def
/D14 {gsave translate 45 rotate 0 0 S14 stroke grestore} bind def
/D15 {gsave translate 45 rotate 0 0 S15 stroke grestore} bind def
/DiaE {stroke [] 0 setdash vpt add M
  hpt neg vpt neg V hpt vpt neg V
  hpt vpt V hpt neg vpt V closepath stroke} def
/BoxE {stroke [] 0 setdash exch hpt sub exch vpt add M
  0 vpt2 neg V hpt2 0 V 0 vpt2 V
  hpt2 neg 0 V closepath stroke} def
/TriUE {stroke [] 0 setdash vpt 1.12 mul add M
  hpt neg vpt -1.62 mul V
  hpt 2 mul 0 V
  hpt neg vpt 1.62 mul V closepath stroke} def
/TriDE {stroke [] 0 setdash vpt 1.12 mul sub M
  hpt neg vpt 1.62 mul V
  hpt 2 mul 0 V
  hpt neg vpt -1.62 mul V closepath stroke} def
/PentE {stroke [] 0 setdash gsave
  translate 0 hpt M 4 {72 rotate 0 hpt L} repeat
  closepath stroke grestore} def
/CircE {stroke [] 0 setdash 
  hpt 0 360 arc stroke} def
/Opaque {gsave closepath 1 setgray fill grestore 0 setgray closepath} def
/DiaW {stroke [] 0 setdash vpt add M
  hpt neg vpt neg V hpt vpt neg V
  hpt vpt V hpt neg vpt V Opaque stroke} def
/BoxW {stroke [] 0 setdash exch hpt sub exch vpt add M
  0 vpt2 neg V hpt2 0 V 0 vpt2 V
  hpt2 neg 0 V Opaque stroke} def
/TriUW {stroke [] 0 setdash vpt 1.12 mul add M
  hpt neg vpt -1.62 mul V
  hpt 2 mul 0 V
  hpt neg vpt 1.62 mul V Opaque stroke} def
/TriDW {stroke [] 0 setdash vpt 1.12 mul sub M
  hpt neg vpt 1.62 mul V
  hpt 2 mul 0 V
  hpt neg vpt -1.62 mul V Opaque stroke} def
/PentW {stroke [] 0 setdash gsave
  translate 0 hpt M 4 {72 rotate 0 hpt L} repeat
  Opaque stroke grestore} def
/CircW {stroke [] 0 setdash 
  hpt 0 360 arc Opaque stroke} def
/BoxFill {gsave Rec 1 setgray fill grestore} def
/Density {
  /Fillden exch def
  currentrgbcolor
  /ColB exch def /ColG exch def /ColR exch def
  /ColR ColR Fillden mul Fillden sub 1 add def
  /ColG ColG Fillden mul Fillden sub 1 add def
  /ColB ColB Fillden mul Fillden sub 1 add def
  ColR ColG ColB setrgbcolor} def
/BoxColFill {gsave Rec PolyFill} def
/PolyFill {gsave Density fill grestore grestore} def
/h {rlineto rlineto rlineto gsave closepath fill grestore} bind def
%
% PostScript Level 1 Pattern Fill routine for rectangles
% Usage: x y w h s a XX PatternFill
%	x,y = lower left corner of box to be filled
%	w,h = width and height of box
%	  a = angle in degrees between lines and x-axis
%	 XX = 0/1 for no/yes cross-hatch
%
/PatternFill {gsave /PFa [ 9 2 roll ] def
  PFa 0 get PFa 2 get 2 div add PFa 1 get PFa 3 get 2 div add translate
  PFa 2 get -2 div PFa 3 get -2 div PFa 2 get PFa 3 get Rec
  TransparentPatterns {} {gsave 1 setgray fill grestore} ifelse
  clip
  currentlinewidth 0.5 mul setlinewidth
  /PFs PFa 2 get dup mul PFa 3 get dup mul add sqrt def
  0 0 M PFa 5 get rotate PFs -2 div dup translate
  0 1 PFs PFa 4 get div 1 add floor cvi
	{PFa 4 get mul 0 M 0 PFs V} for
  0 PFa 6 get ne {
	0 1 PFs PFa 4 get div 1 add floor cvi
	{PFa 4 get mul 0 2 1 roll M PFs 0 V} for
 } if
  stroke grestore} def
%
/languagelevel where
 {pop languagelevel} {1} ifelse
dup 2 lt
	{/InterpretLevel1 true def
	 /InterpretLevel3 false def}
	{/InterpretLevel1 Level1 def
	 2 gt
	    {/InterpretLevel3 Level3 def}
	    {/InterpretLevel3 false def}
	 ifelse }
 ifelse
%
% PostScript level 2 pattern fill definitions
%
/Level2PatternFill {
/Tile8x8 {/PaintType 2 /PatternType 1 /TilingType 1 /BBox [0 0 8 8] /XStep 8 /YStep 8}
	bind def
/KeepColor {currentrgbcolor [/Pattern /DeviceRGB] setcolorspace} bind def
<< Tile8x8
 /PaintProc {0.5 setlinewidth pop 0 0 M 8 8 L 0 8 M 8 0 L stroke} 
>> matrix makepattern
/Pat1 exch def
<< Tile8x8
 /PaintProc {0.5 setlinewidth pop 0 0 M 8 8 L 0 8 M 8 0 L stroke
	0 4 M 4 8 L 8 4 L 4 0 L 0 4 L stroke}
>> matrix makepattern
/Pat2 exch def
<< Tile8x8
 /PaintProc {0.5 setlinewidth pop 0 0 M 0 8 L
	8 8 L 8 0 L 0 0 L fill}
>> matrix makepattern
/Pat3 exch def
<< Tile8x8
 /PaintProc {0.5 setlinewidth pop -4 8 M 8 -4 L
	0 12 M 12 0 L stroke}
>> matrix makepattern
/Pat4 exch def
<< Tile8x8
 /PaintProc {0.5 setlinewidth pop -4 0 M 8 12 L
	0 -4 M 12 8 L stroke}
>> matrix makepattern
/Pat5 exch def
<< Tile8x8
 /PaintProc {0.5 setlinewidth pop -2 8 M 4 -4 L
	0 12 M 8 -4 L 4 12 M 10 0 L stroke}
>> matrix makepattern
/Pat6 exch def
<< Tile8x8
 /PaintProc {0.5 setlinewidth pop -2 0 M 4 12 L
	0 -4 M 8 12 L 4 -4 M 10 8 L stroke}
>> matrix makepattern
/Pat7 exch def
<< Tile8x8
 /PaintProc {0.5 setlinewidth pop 8 -2 M -4 4 L
	12 0 M -4 8 L 12 4 M 0 10 L stroke}
>> matrix makepattern
/Pat8 exch def
<< Tile8x8
 /PaintProc {0.5 setlinewidth pop 0 -2 M 12 4 L
	-4 0 M 12 8 L -4 4 M 8 10 L stroke}
>> matrix makepattern
/Pat9 exch def
/Pattern1 {PatternBgnd KeepColor Pat1 setpattern} bind def
/Pattern2 {PatternBgnd KeepColor Pat2 setpattern} bind def
/Pattern3 {PatternBgnd KeepColor Pat3 setpattern} bind def
/Pattern4 {PatternBgnd KeepColor Landscape {Pat5} {Pat4} ifelse setpattern} bind def
/Pattern5 {PatternBgnd KeepColor Landscape {Pat4} {Pat5} ifelse setpattern} bind def
/Pattern6 {PatternBgnd KeepColor Landscape {Pat9} {Pat6} ifelse setpattern} bind def
/Pattern7 {PatternBgnd KeepColor Landscape {Pat8} {Pat7} ifelse setpattern} bind def
} def
%
%
%End of PostScript Level 2 code
%
/PatternBgnd {
  TransparentPatterns {} {gsave 1 setgray fill grestore} ifelse
} def
%
% Substitute for Level 2 pattern fill codes with
% grayscale if Level 2 support is not selected.
%
/Level1PatternFill {
/Pattern1 {0.250 Density} bind def
/Pattern2 {0.500 Density} bind def
/Pattern3 {0.750 Density} bind def
/Pattern4 {0.125 Density} bind def
/Pattern5 {0.375 Density} bind def
/Pattern6 {0.625 Density} bind def
/Pattern7 {0.875 Density} bind def
} def
%
% Now test for support of Level 2 code
%
Level1 {Level1PatternFill} {Level2PatternFill} ifelse
%
/Symbol-Oblique /Symbol findfont [1 0 .167 1 0 0] makefont
dup length dict begin {1 index /FID eq {pop pop} {def} ifelse} forall
currentdict end definefont pop
%
Level1 SuppressPDFMark or 
{} {
/SDict 10 dict def
systemdict /pdfmark known not {
  userdict /pdfmark systemdict /cleartomark get put
} if
SDict begin [
  /Title (fig3.tex)
  /Subject (gnuplot plot)
  /Creator (gnuplot 5.0 patchlevel 3)
  /Author (daniela)
%  /Producer (gnuplot)
%  /Keywords ()
  /CreationDate (Sun Apr 15 17:38:50 2018)
  /DOCINFO pdfmark
end
} ifelse
%
% Support for boxed text - Ethan A Merritt May 2005
%
/InitTextBox { userdict /TBy2 3 -1 roll put userdict /TBx2 3 -1 roll put
           userdict /TBy1 3 -1 roll put userdict /TBx1 3 -1 roll put
	   /Boxing true def } def
/ExtendTextBox { Boxing
    { gsave dup false charpath pathbbox
      dup TBy2 gt {userdict /TBy2 3 -1 roll put} {pop} ifelse
      dup TBx2 gt {userdict /TBx2 3 -1 roll put} {pop} ifelse
      dup TBy1 lt {userdict /TBy1 3 -1 roll put} {pop} ifelse
      dup TBx1 lt {userdict /TBx1 3 -1 roll put} {pop} ifelse
      grestore } if } def
/PopTextBox { newpath TBx1 TBxmargin sub TBy1 TBymargin sub M
               TBx1 TBxmargin sub TBy2 TBymargin add L
	       TBx2 TBxmargin add TBy2 TBymargin add L
	       TBx2 TBxmargin add TBy1 TBymargin sub L closepath } def
/DrawTextBox { PopTextBox stroke /Boxing false def} def
/FillTextBox { gsave PopTextBox 1 1 1 setrgbcolor fill grestore /Boxing false def} def
0 0 0 0 InitTextBox
/TBxmargin 20 def
/TBymargin 20 def
/Boxing false def
/textshow { ExtendTextBox Gshow } def
%
% redundant definitions for compatibility with prologue.ps older than 5.0.2
/LTB {BL [] LCb DL} def
/LTb {PL [] LCb DL} def
end
%%EndProlog
%%Page: 1 1
gnudict begin
gsave
doclip
50 50 translate
0.050 0.050 scale
0 setgray
newpath
1.500 UL
LTb
LCb setrgbcolor
[] 0 setdash
1078 704 M
47 0 V
3806 0 R
-47 0 V
stroke
LTb
1078 1193 M
47 0 V
3806 0 R
-47 0 V
stroke
1078 1682 M
47 0 V
3806 0 R
-47 0 V
stroke
1078 2172 M
47 0 V
3806 0 R
-47 0 V
stroke
1078 2661 M
47 0 V
3806 0 R
-47 0 V
stroke
1078 3150 M
47 0 V
3806 0 R
-47 0 V
stroke
1078 704 M
0 47 V
0 2872 R
0 -47 V
stroke
2041 704 M
0 47 V
0 2872 R
0 -47 V
stroke
3005 704 M
0 47 V
0 2872 R
0 -47 V
stroke
3968 704 M
0 47 V
0 2872 R
0 -47 V
stroke
4931 704 M
0 47 V
0 2872 R
0 -47 V
stroke
1.500 UL
LTb
1078 3623 N
0 -2919 V
3853 0 V
0 2919 V
-3853 0 V
Z stroke
1.000 UP
1.500 UL
LTb
0.200 UP
1.000 UL
LTb
LC0 setrgbcolor
1078 2172 M
16 -8 V
16 -22 V
16 -36 V
16 -50 V
17 -62 V
16 -72 V
16 -82 V
16 -89 V
16 -94 V
16 -98 V
16 -98 V
16 -98 V
17 -94 V
16 -89 V
16 -81 V
16 -73 V
16 -63 V
16 -51 V
16 -39 V
16 -26 V
17 -13 V
16 1 V
16 13 V
16 25 V
16 37 V
16 46 V
16 56 V
16 62 V
17 68 V
16 72 V
16 74 V
16 75 V
16 72 V
16 70 V
16 65 V
16 60 V
16 52 V
17 44 V
16 35 V
16 25 V
16 16 V
16 5 V
16 -4 V
16 -14 V
16 -22 V
17 -31 V
16 -38 V
16 -45 V
16 -50 V
16 -54 V
16 -57 V
16 -58 V
16 -59 V
17 -58 V
16 -55 V
16 -53 V
16 -48 V
16 -43 V
16 -37 V
16 -30 V
16 -23 V
17 -16 V
16 -7 V
16 0 V
16 8 V
16 16 V
16 23 V
16 30 V
16 36 V
16 42 V
17 47 V
16 51 V
16 55 V
16 57 V
16 58 V
16 58 V
16 58 V
16 56 V
17 54 V
16 51 V
16 46 V
16 42 V
16 36 V
16 30 V
16 24 V
16 17 V
17 9 V
16 2 V
16 -5 V
16 -12 V
16 -19 V
16 -26 V
16 -33 V
16 -38 V
17 -44 V
16 -48 V
16 -52 V
16 -54 V
16 -57 V
16 -58 V
16 -59 V
16 -58 V
16 -56 V
17 -53 V
stroke 2755 1239 M
16 -50 V
16 -46 V
16 -41 V
16 -36 V
16 -29 V
16 -22 V
16 -16 V
17 -7 V
16 -1 V
16 7 V
16 15 V
16 21 V
16 29 V
16 35 V
16 40 V
17 45 V
16 49 V
16 53 V
16 55 V
16 55 V
16 56 V
16 55 V
16 53 V
17 50 V
16 45 V
16 41 V
16 34 V
16 28 V
16 21 V
16 13 V
16 4 V
17 -4 V
16 -12 V
16 -21 V
16 -29 V
16 -36 V
16 -44 V
16 -49 V
16 -55 V
16 -59 V
17 -62 V
16 -64 V
16 -64 V
16 -64 V
16 -61 V
16 -57 V
16 -53 V
16 -46 V
17 -39 V
16 -31 V
16 -21 V
16 -11 V
16 -1 V
16 10 V
16 21 V
16 31 V
17 42 V
16 51 V
16 61 V
16 68 V
16 75 V
16 80 V
16 84 V
16 86 V
17 86 V
16 85 V
16 81 V
16 77 V
16 69 V
16 62 V
16 52 V
16 40 V
16 29 V
17 16 V
16 2 V
16 -11 V
16 -25 V
16 -39 V
16 -51 V
16 -63 V
16 -73 V
17 -83 V
16 -90 V
16 -96 V
16 -99 V
16 -101 V
16 -100 V
16 -98 V
16 -92 V
17 -85 V
16 -77 V
16 -66 V
16 -53 V
16 -40 V
16 -26 V
16 -11 V
16 5 V
17 19 V
16 35 V
16 48 V
16 61 V
16 73 V
16 82 V
16 90 V
stroke 4431 1154 M
16 95 V
16 99 V
17 99 V
16 98 V
16 95 V
16 88 V
16 80 V
16 70 V
16 58 V
16 45 V
17 30 V
16 16 V
16 0 V
16 -16 V
16 -30 V
16 -44 V
16 -58 V
16 -69 V
17 -79 V
16 -87 V
16 -93 V
16 -96 V
16 -97 V
16 -96 V
16 -93 V
16 -87 V
17 -79 V
16 -69 V
16 -59 V
16 -46 V
16 -32 V
1078 2172 CircleF
1094 2164 CircleF
1110 2142 CircleF
1126 2106 CircleF
1142 2056 CircleF
1159 1994 CircleF
1175 1922 CircleF
1191 1840 CircleF
1207 1751 CircleF
1223 1657 CircleF
1239 1559 CircleF
1255 1461 CircleF
1271 1363 CircleF
1288 1269 CircleF
1304 1180 CircleF
1320 1099 CircleF
1336 1026 CircleF
1352 963 CircleF
1368 912 CircleF
1384 873 CircleF
1400 847 CircleF
1417 834 CircleF
1433 835 CircleF
1449 848 CircleF
1465 873 CircleF
1481 910 CircleF
1497 956 CircleF
1513 1012 CircleF
1529 1074 CircleF
1546 1142 CircleF
1562 1214 CircleF
1578 1288 CircleF
1594 1363 CircleF
1610 1435 CircleF
1626 1505 CircleF
1642 1570 CircleF
1658 1630 CircleF
1674 1682 CircleF
1691 1726 CircleF
1707 1761 CircleF
1723 1786 CircleF
1739 1802 CircleF
1755 1807 CircleF
1771 1803 CircleF
1787 1789 CircleF
1803 1767 CircleF
1820 1736 CircleF
1836 1698 CircleF
1852 1653 CircleF
1868 1603 CircleF
1884 1549 CircleF
1900 1492 CircleF
1916 1434 CircleF
1932 1375 CircleF
1949 1317 CircleF
1965 1262 CircleF
1981 1209 CircleF
1997 1161 CircleF
2013 1118 CircleF
2029 1081 CircleF
2045 1051 CircleF
2061 1028 CircleF
2078 1012 CircleF
2094 1005 CircleF
2110 1005 CircleF
2126 1013 CircleF
2142 1029 CircleF
2158 1052 CircleF
2174 1082 CircleF
2190 1118 CircleF
2206 1160 CircleF
2223 1207 CircleF
2239 1258 CircleF
2255 1313 CircleF
2271 1370 CircleF
2287 1428 CircleF
2303 1486 CircleF
2319 1544 CircleF
2335 1600 CircleF
2352 1654 CircleF
2368 1705 CircleF
2384 1751 CircleF
2400 1793 CircleF
2416 1829 CircleF
2432 1859 CircleF
2448 1883 CircleF
2464 1900 CircleF
2481 1909 CircleF
2497 1911 CircleF
2513 1906 CircleF
2529 1894 CircleF
2545 1875 CircleF
2561 1849 CircleF
2577 1816 CircleF
2593 1778 CircleF
2610 1734 CircleF
2626 1686 CircleF
2642 1634 CircleF
2658 1580 CircleF
2674 1523 CircleF
2690 1465 CircleF
2706 1406 CircleF
2722 1348 CircleF
2738 1292 CircleF
2755 1239 CircleF
2771 1189 CircleF
2787 1143 CircleF
2803 1102 CircleF
2819 1066 CircleF
2835 1037 CircleF
2851 1015 CircleF
2867 999 CircleF
2884 992 CircleF
2900 991 CircleF
2916 998 CircleF
2932 1013 CircleF
2948 1034 CircleF
2964 1063 CircleF
2980 1098 CircleF
2996 1138 CircleF
3013 1183 CircleF
3029 1232 CircleF
3045 1285 CircleF
3061 1340 CircleF
3077 1395 CircleF
3093 1451 CircleF
3109 1506 CircleF
3125 1559 CircleF
3142 1609 CircleF
3158 1654 CircleF
3174 1695 CircleF
3190 1729 CircleF
3206 1757 CircleF
3222 1778 CircleF
3238 1791 CircleF
3254 1795 CircleF
3271 1791 CircleF
3287 1779 CircleF
3303 1758 CircleF
3319 1729 CircleF
3335 1693 CircleF
3351 1649 CircleF
3367 1600 CircleF
3383 1545 CircleF
3399 1486 CircleF
3416 1424 CircleF
3432 1360 CircleF
3448 1296 CircleF
3464 1232 CircleF
3480 1171 CircleF
3496 1114 CircleF
3512 1061 CircleF
3528 1015 CircleF
3545 976 CircleF
3561 945 CircleF
3577 924 CircleF
3593 913 CircleF
3609 912 CircleF
3625 922 CircleF
3641 943 CircleF
3657 974 CircleF
3674 1016 CircleF
3690 1067 CircleF
3706 1128 CircleF
3722 1196 CircleF
3738 1271 CircleF
3754 1351 CircleF
3770 1435 CircleF
3786 1521 CircleF
3803 1607 CircleF
3819 1692 CircleF
3835 1773 CircleF
3851 1850 CircleF
3867 1919 CircleF
3883 1981 CircleF
3899 2033 CircleF
3915 2073 CircleF
3931 2102 CircleF
3948 2118 CircleF
3964 2120 CircleF
3980 2109 CircleF
3996 2084 CircleF
4012 2045 CircleF
4028 1994 CircleF
4044 1931 CircleF
4060 1858 CircleF
4077 1775 CircleF
4093 1685 CircleF
4109 1589 CircleF
4125 1490 CircleF
4141 1389 CircleF
4157 1289 CircleF
4173 1191 CircleF
4189 1099 CircleF
4206 1014 CircleF
4222 937 CircleF
4238 871 CircleF
4254 818 CircleF
4270 778 CircleF
4286 752 CircleF
4302 741 CircleF
4318 746 CircleF
4335 765 CircleF
4351 800 CircleF
4367 848 CircleF
4383 909 CircleF
4399 982 CircleF
4415 1064 CircleF
4431 1154 CircleF
4447 1249 CircleF
4463 1348 CircleF
4480 1447 CircleF
4496 1545 CircleF
4512 1640 CircleF
4528 1728 CircleF
4544 1808 CircleF
4560 1878 CircleF
4576 1936 CircleF
4592 1981 CircleF
4609 2011 CircleF
4625 2027 CircleF
4641 2027 CircleF
4657 2011 CircleF
4673 1981 CircleF
4689 1937 CircleF
4705 1879 CircleF
4721 1810 CircleF
4738 1731 CircleF
4754 1644 CircleF
4770 1551 CircleF
4786 1455 CircleF
4802 1358 CircleF
4818 1262 CircleF
4834 1169 CircleF
4850 1082 CircleF
4867 1003 CircleF
4883 934 CircleF
4899 875 CircleF
4915 829 CircleF
4931 797 CircleF
0.200 UP
1.000 UL
LTb
LCb setrgbcolor
[] 0 setdash
LC2 setrgbcolor
1078 2172 M
16 7 V
16 22 V
16 37 V
16 49 V
17 62 V
16 73 V
16 82 V
16 89 V
16 95 V
16 97 V
16 99 V
16 98 V
17 94 V
16 89 V
16 82 V
16 73 V
16 62 V
16 52 V
16 38 V
16 26 V
17 13 V
16 0 V
16 -13 V
16 -26 V
16 -36 V
16 -47 V
16 -55 V
16 -62 V
17 -69 V
16 -72 V
16 -74 V
16 -74 V
16 -73 V
16 -70 V
16 -65 V
16 -60 V
16 -52 V
17 -44 V
16 -35 V
16 -25 V
16 -16 V
16 -6 V
16 4 V
16 14 V
16 23 V
17 31 V
16 38 V
16 45 V
16 50 V
16 54 V
16 57 V
16 58 V
16 59 V
17 58 V
16 56 V
16 52 V
16 48 V
16 43 V
16 37 V
16 30 V
16 23 V
17 16 V
16 8 V
16 -1 V
16 -8 V
16 -16 V
16 -23 V
16 -30 V
16 -36 V
16 -42 V
17 -47 V
16 -51 V
16 -55 V
16 -57 V
16 -58 V
16 -58 V
16 -58 V
16 -56 V
17 -54 V
16 -51 V
16 -47 V
16 -42 V
16 -36 V
16 -30 V
16 -24 V
16 -17 V
17 -9 V
16 -2 V
16 5 V
16 12 V
16 20 V
16 26 V
16 32 V
16 39 V
17 43 V
16 48 V
16 52 V
16 55 V
16 57 V
16 59 V
16 58 V
16 58 V
16 56 V
17 54 V
stroke 2755 3107 M
16 50 V
16 46 V
16 41 V
16 35 V
16 29 V
16 23 V
16 15 V
17 8 V
16 0 V
16 -7 V
16 -14 V
16 -22 V
16 -28 V
16 -35 V
16 -40 V
17 -46 V
16 -49 V
16 -52 V
16 -55 V
16 -56 V
16 -56 V
16 -55 V
16 -53 V
17 -50 V
16 -46 V
16 -40 V
16 -35 V
16 -28 V
16 -20 V
16 -13 V
16 -5 V
17 4 V
16 13 V
16 21 V
16 29 V
16 36 V
16 44 V
16 49 V
16 55 V
16 59 V
17 62 V
16 64 V
16 65 V
16 63 V
16 61 V
16 58 V
16 52 V
16 46 V
17 39 V
16 31 V
16 21 V
16 11 V
16 1 V
16 -9 V
16 -21 V
16 -32 V
17 -41 V
16 -52 V
16 -60 V
16 -69 V
16 -75 V
16 -80 V
16 -84 V
16 -86 V
17 -86 V
16 -85 V
16 -82 V
16 -76 V
16 -70 V
16 -62 V
16 -52 V
16 -41 V
16 -28 V
17 -16 V
16 -2 V
16 11 V
16 25 V
16 39 V
16 51 V
16 63 V
16 73 V
17 83 V
16 91 V
16 95 V
16 100 V
16 101 V
16 100 V
16 98 V
16 92 V
17 86 V
16 76 V
16 66 V
16 54 V
16 40 V
16 26 V
16 10 V
16 -4 V
17 -20 V
16 -34 V
16 -48 V
16 -62 V
16 -72 V
16 -82 V
16 -90 V
stroke 4431 3192 M
16 -96 V
16 -98 V
17 -100 V
16 -98 V
16 -95 V
16 -88 V
16 -81 V
16 -70 V
16 -58 V
16 -45 V
17 -30 V
16 -16 V
16 0 V
16 16 V
16 30 V
16 44 V
16 58 V
16 69 V
17 80 V
16 87 V
16 93 V
16 96 V
16 98 V
16 96 V
16 92 V
16 87 V
17 80 V
16 69 V
16 58 V
16 46 V
16 33 V
1078 2172 CircleF
1094 2179 CircleF
1110 2201 CircleF
1126 2238 CircleF
1142 2287 CircleF
1159 2349 CircleF
1175 2422 CircleF
1191 2504 CircleF
1207 2593 CircleF
1223 2688 CircleF
1239 2785 CircleF
1255 2884 CircleF
1271 2982 CircleF
1288 3076 CircleF
1304 3165 CircleF
1320 3247 CircleF
1336 3320 CircleF
1352 3382 CircleF
1368 3434 CircleF
1384 3472 CircleF
1400 3498 CircleF
1417 3511 CircleF
1433 3511 CircleF
1449 3498 CircleF
1465 3472 CircleF
1481 3436 CircleF
1497 3389 CircleF
1513 3334 CircleF
1529 3272 CircleF
1546 3203 CircleF
1562 3131 CircleF
1578 3057 CircleF
1594 2983 CircleF
1610 2910 CircleF
1626 2840 CircleF
1642 2775 CircleF
1658 2715 CircleF
1674 2663 CircleF
1691 2619 CircleF
1707 2584 CircleF
1723 2559 CircleF
1739 2543 CircleF
1755 2537 CircleF
1771 2541 CircleF
1787 2555 CircleF
1803 2578 CircleF
1820 2609 CircleF
1836 2647 CircleF
1852 2692 CircleF
1868 2742 CircleF
1884 2796 CircleF
1900 2853 CircleF
1916 2911 CircleF
1932 2970 CircleF
1949 3028 CircleF
1965 3084 CircleF
1981 3136 CircleF
1997 3184 CircleF
2013 3227 CircleF
2029 3264 CircleF
2045 3294 CircleF
2061 3317 CircleF
2078 3333 CircleF
2094 3341 CircleF
2110 3340 CircleF
2126 3332 CircleF
2142 3316 CircleF
2158 3293 CircleF
2174 3263 CircleF
2190 3227 CircleF
2206 3185 CircleF
2223 3138 CircleF
2239 3087 CircleF
2255 3032 CircleF
2271 2975 CircleF
2287 2917 CircleF
2303 2859 CircleF
2319 2801 CircleF
2335 2745 CircleF
2352 2691 CircleF
2368 2640 CircleF
2384 2593 CircleF
2400 2551 CircleF
2416 2515 CircleF
2432 2485 CircleF
2448 2461 CircleF
2464 2444 CircleF
2481 2435 CircleF
2497 2433 CircleF
2513 2438 CircleF
2529 2450 CircleF
2545 2470 CircleF
2561 2496 CircleF
2577 2528 CircleF
2593 2567 CircleF
2610 2610 CircleF
2626 2658 CircleF
2642 2710 CircleF
2658 2765 CircleF
2674 2822 CircleF
2690 2881 CircleF
2706 2939 CircleF
2722 2997 CircleF
2738 3053 CircleF
2755 3107 CircleF
2771 3157 CircleF
2787 3203 CircleF
2803 3244 CircleF
2819 3279 CircleF
2835 3308 CircleF
2851 3331 CircleF
2867 3346 CircleF
2884 3354 CircleF
2900 3354 CircleF
2916 3347 CircleF
2932 3333 CircleF
2948 3311 CircleF
2964 3283 CircleF
2980 3248 CircleF
2996 3208 CircleF
3013 3162 CircleF
3029 3113 CircleF
3045 3061 CircleF
3061 3006 CircleF
3077 2950 CircleF
3093 2894 CircleF
3109 2839 CircleF
3125 2786 CircleF
3142 2736 CircleF
3158 2690 CircleF
3174 2650 CircleF
3190 2615 CircleF
3206 2587 CircleF
3222 2567 CircleF
3238 2554 CircleF
3254 2549 CircleF
3271 2553 CircleF
3287 2566 CircleF
3303 2587 CircleF
3319 2616 CircleF
3335 2652 CircleF
3351 2696 CircleF
3367 2745 CircleF
3383 2800 CircleF
3399 2859 CircleF
3416 2921 CircleF
3432 2985 CircleF
3448 3050 CircleF
3464 3113 CircleF
3480 3174 CircleF
3496 3232 CircleF
3512 3284 CircleF
3528 3330 CircleF
3545 3369 CircleF
3561 3400 CircleF
3577 3421 CircleF
3593 3432 CircleF
3609 3433 CircleF
3625 3424 CircleF
3641 3403 CircleF
3657 3371 CircleF
3674 3330 CircleF
3690 3278 CircleF
3706 3218 CircleF
3722 3149 CircleF
3738 3074 CircleF
3754 2994 CircleF
3770 2910 CircleF
3786 2824 CircleF
3803 2738 CircleF
3819 2653 CircleF
3835 2571 CircleF
3851 2495 CircleF
3867 2425 CircleF
3883 2363 CircleF
3899 2311 CircleF
3915 2270 CircleF
3931 2242 CircleF
3948 2226 CircleF
3964 2224 CircleF
3980 2235 CircleF
3996 2260 CircleF
4012 2299 CircleF
4028 2350 CircleF
4044 2413 CircleF
4060 2486 CircleF
4077 2569 CircleF
4093 2660 CircleF
4109 2755 CircleF
4125 2855 CircleF
4141 2956 CircleF
4157 3056 CircleF
4173 3154 CircleF
4189 3246 CircleF
4206 3332 CircleF
4222 3408 CircleF
4238 3474 CircleF
4254 3528 CircleF
4270 3568 CircleF
4286 3594 CircleF
4302 3604 CircleF
4318 3600 CircleF
4335 3580 CircleF
4351 3546 CircleF
4367 3498 CircleF
4383 3436 CircleF
4399 3364 CircleF
4415 3282 CircleF
4431 3192 CircleF
4447 3096 CircleF
4463 2998 CircleF
4480 2898 CircleF
4496 2800 CircleF
4512 2705 CircleF
4528 2617 CircleF
4544 2536 CircleF
4560 2466 CircleF
4576 2408 CircleF
4592 2363 CircleF
4609 2333 CircleF
4625 2317 CircleF
4641 2317 CircleF
4657 2333 CircleF
4673 2363 CircleF
4689 2407 CircleF
4705 2465 CircleF
4721 2534 CircleF
4738 2614 CircleF
4754 2701 CircleF
4770 2794 CircleF
4786 2890 CircleF
4802 2988 CircleF
4818 3084 CircleF
4834 3176 CircleF
4850 3263 CircleF
4867 3343 CircleF
4883 3412 CircleF
4899 3470 CircleF
4915 3516 CircleF
4931 3549 CircleF
0.200 UP
1.000 UL
LTb
LCb setrgbcolor
[] 0 setdash
LC3 setrgbcolor
1078 2172 M
16 0 V
16 0 V
16 0 V
16 0 V
17 0 V
16 0 V
16 1 V
16 0 V
16 0 V
16 0 V
16 0 V
16 0 V
17 1 V
16 0 V
16 0 V
16 0 V
16 0 V
16 0 V
16 0 V
16 0 V
17 0 V
16 0 V
16 0 V
16 0 V
16 0 V
16 0 V
16 0 V
16 0 V
17 0 V
16 0 V
16 0 V
16 0 V
16 0 V
16 0 V
16 -1 V
16 0 V
16 0 V
17 0 V
16 0 V
16 0 V
16 0 V
16 0 V
16 0 V
16 0 V
16 0 V
17 0 V
16 0 V
16 0 V
16 0 V
16 0 V
16 1 V
16 0 V
16 0 V
17 0 V
16 0 V
16 0 V
16 0 V
16 0 V
16 0 V
16 0 V
16 0 V
17 0 V
16 0 V
16 0 V
16 0 V
16 0 V
16 0 V
16 -1 V
16 0 V
16 0 V
17 0 V
16 0 V
16 0 V
16 0 V
16 0 V
16 0 V
16 0 V
16 0 V
17 0 V
16 0 V
16 0 V
16 0 V
16 0 V
16 0 V
16 -1 V
16 0 V
17 0 V
16 0 V
16 0 V
16 0 V
16 0 V
16 1 V
16 0 V
16 0 V
17 0 V
16 0 V
16 0 V
16 0 V
16 0 V
16 0 V
16 1 V
16 0 V
16 0 V
17 0 V
stroke 2755 2174 M
16 0 V
16 0 V
16 0 V
16 0 V
16 0 V
16 0 V
16 0 V
17 0 V
16 0 V
16 0 V
16 0 V
16 0 V
16 0 V
16 0 V
16 0 V
17 0 V
16 0 V
16 0 V
16 0 V
16 0 V
16 0 V
16 -1 V
16 0 V
17 0 V
16 0 V
16 0 V
16 0 V
16 0 V
16 0 V
16 0 V
16 0 V
17 0 V
16 0 V
16 0 V
16 0 V
16 0 V
16 0 V
16 0 V
16 0 V
16 0 V
17 0 V
16 1 V
16 0 V
16 0 V
16 0 V
16 0 V
16 0 V
16 0 V
17 0 V
16 0 V
16 0 V
16 0 V
16 0 V
16 0 V
16 0 V
16 0 V
17 0 V
16 0 V
16 0 V
16 0 V
16 0 V
16 0 V
16 -1 V
16 0 V
17 0 V
16 0 V
16 0 V
16 0 V
16 -1 V
16 0 V
16 0 V
16 0 V
16 0 V
17 0 V
16 0 V
16 0 V
16 0 V
16 0 V
16 0 V
16 1 V
16 0 V
17 0 V
16 0 V
16 0 V
16 0 V
16 1 V
16 0 V
16 0 V
16 0 V
17 0 V
16 0 V
16 0 V
16 0 V
16 0 V
16 0 V
16 0 V
16 0 V
17 0 V
16 0 V
16 0 V
16 0 V
16 0 V
16 0 V
16 0 V
stroke 4431 2174 M
16 0 V
16 0 V
17 0 V
16 -1 V
16 0 V
16 0 V
16 0 V
16 0 V
16 -1 V
16 0 V
17 0 V
16 0 V
16 0 V
16 0 V
16 0 V
16 1 V
16 0 V
16 0 V
17 0 V
16 0 V
16 0 V
16 1 V
16 0 V
16 0 V
16 0 V
16 0 V
17 0 V
16 0 V
16 0 V
16 0 V
16 0 V
1078 2172 CircleF
1094 2172 CircleF
1110 2172 CircleF
1126 2172 CircleF
1142 2172 CircleF
1159 2172 CircleF
1175 2172 CircleF
1191 2173 CircleF
1207 2173 CircleF
1223 2173 CircleF
1239 2173 CircleF
1255 2173 CircleF
1271 2173 CircleF
1288 2174 CircleF
1304 2174 CircleF
1320 2174 CircleF
1336 2174 CircleF
1352 2174 CircleF
1368 2174 CircleF
1384 2174 CircleF
1400 2174 CircleF
1417 2174 CircleF
1433 2174 CircleF
1449 2174 CircleF
1465 2174 CircleF
1481 2174 CircleF
1497 2174 CircleF
1513 2174 CircleF
1529 2174 CircleF
1546 2174 CircleF
1562 2174 CircleF
1578 2174 CircleF
1594 2174 CircleF
1610 2174 CircleF
1626 2174 CircleF
1642 2173 CircleF
1658 2173 CircleF
1674 2173 CircleF
1691 2173 CircleF
1707 2173 CircleF
1723 2173 CircleF
1739 2173 CircleF
1755 2173 CircleF
1771 2173 CircleF
1787 2173 CircleF
1803 2173 CircleF
1820 2173 CircleF
1836 2173 CircleF
1852 2173 CircleF
1868 2173 CircleF
1884 2173 CircleF
1900 2174 CircleF
1916 2174 CircleF
1932 2174 CircleF
1949 2174 CircleF
1965 2174 CircleF
1981 2174 CircleF
1997 2174 CircleF
2013 2174 CircleF
2029 2174 CircleF
2045 2174 CircleF
2061 2174 CircleF
2078 2174 CircleF
2094 2174 CircleF
2110 2174 CircleF
2126 2174 CircleF
2142 2174 CircleF
2158 2174 CircleF
2174 2173 CircleF
2190 2173 CircleF
2206 2173 CircleF
2223 2173 CircleF
2239 2173 CircleF
2255 2173 CircleF
2271 2173 CircleF
2287 2173 CircleF
2303 2173 CircleF
2319 2173 CircleF
2335 2173 CircleF
2352 2173 CircleF
2368 2173 CircleF
2384 2173 CircleF
2400 2173 CircleF
2416 2173 CircleF
2432 2173 CircleF
2448 2172 CircleF
2464 2172 CircleF
2481 2172 CircleF
2497 2172 CircleF
2513 2172 CircleF
2529 2172 CircleF
2545 2172 CircleF
2561 2173 CircleF
2577 2173 CircleF
2593 2173 CircleF
2610 2173 CircleF
2626 2173 CircleF
2642 2173 CircleF
2658 2173 CircleF
2674 2173 CircleF
2690 2173 CircleF
2706 2174 CircleF
2722 2174 CircleF
2738 2174 CircleF
2755 2174 CircleF
2771 2174 CircleF
2787 2174 CircleF
2803 2174 CircleF
2819 2174 CircleF
2835 2174 CircleF
2851 2174 CircleF
2867 2174 CircleF
2884 2174 CircleF
2900 2174 CircleF
2916 2174 CircleF
2932 2174 CircleF
2948 2174 CircleF
2964 2174 CircleF
2980 2174 CircleF
2996 2174 CircleF
3013 2174 CircleF
3029 2174 CircleF
3045 2174 CircleF
3061 2174 CircleF
3077 2174 CircleF
3093 2174 CircleF
3109 2173 CircleF
3125 2173 CircleF
3142 2173 CircleF
3158 2173 CircleF
3174 2173 CircleF
3190 2173 CircleF
3206 2173 CircleF
3222 2173 CircleF
3238 2173 CircleF
3254 2173 CircleF
3271 2173 CircleF
3287 2173 CircleF
3303 2173 CircleF
3319 2173 CircleF
3335 2173 CircleF
3351 2173 CircleF
3367 2173 CircleF
3383 2173 CircleF
3399 2173 CircleF
3416 2173 CircleF
3432 2174 CircleF
3448 2174 CircleF
3464 2174 CircleF
3480 2174 CircleF
3496 2174 CircleF
3512 2174 CircleF
3528 2174 CircleF
3545 2174 CircleF
3561 2174 CircleF
3577 2174 CircleF
3593 2174 CircleF
3609 2174 CircleF
3625 2174 CircleF
3641 2174 CircleF
3657 2174 CircleF
3674 2174 CircleF
3690 2174 CircleF
3706 2174 CircleF
3722 2174 CircleF
3738 2174 CircleF
3754 2174 CircleF
3770 2173 CircleF
3786 2173 CircleF
3803 2173 CircleF
3819 2173 CircleF
3835 2173 CircleF
3851 2173 CircleF
3867 2172 CircleF
3883 2172 CircleF
3899 2172 CircleF
3915 2172 CircleF
3931 2172 CircleF
3948 2172 CircleF
3964 2172 CircleF
3980 2172 CircleF
3996 2172 CircleF
4012 2172 CircleF
4028 2172 CircleF
4044 2173 CircleF
4060 2173 CircleF
4077 2173 CircleF
4093 2173 CircleF
4109 2173 CircleF
4125 2173 CircleF
4141 2174 CircleF
4157 2174 CircleF
4173 2174 CircleF
4189 2174 CircleF
4206 2174 CircleF
4222 2174 CircleF
4238 2174 CircleF
4254 2174 CircleF
4270 2174 CircleF
4286 2174 CircleF
4302 2174 CircleF
4318 2174 CircleF
4335 2174 CircleF
4351 2174 CircleF
4367 2174 CircleF
4383 2174 CircleF
4399 2174 CircleF
4415 2174 CircleF
4431 2174 CircleF
4447 2174 CircleF
4463 2174 CircleF
4480 2174 CircleF
4496 2173 CircleF
4512 2173 CircleF
4528 2173 CircleF
4544 2173 CircleF
4560 2173 CircleF
4576 2172 CircleF
4592 2172 CircleF
4609 2172 CircleF
4625 2172 CircleF
4641 2172 CircleF
4657 2172 CircleF
4673 2172 CircleF
4689 2173 CircleF
4705 2173 CircleF
4721 2173 CircleF
4738 2173 CircleF
4754 2173 CircleF
4770 2173 CircleF
4786 2174 CircleF
4802 2174 CircleF
4818 2174 CircleF
4834 2174 CircleF
4850 2174 CircleF
4867 2174 CircleF
4883 2174 CircleF
4899 2174 CircleF
4915 2174 CircleF
4931 2174 CircleF
2.000 UL
LTb
LCb setrgbcolor
[] 0 setdash
1.500 UL
LTb
1078 3623 N
0 -2919 V
3853 0 V
0 2919 V
-3853 0 V
Z stroke
1.000 UP
1.500 UL
LTb
stroke
grestore
end
showpage
%%Trailer
