%!PS-Adobe-2.0 EPSF-2.0
%%Title: fig4.tex
%%Creator: gnuplot 5.0 patchlevel 3
%%CreationDate: Mon Apr 16 00:56:57 2018
%%DocumentFonts: 
%%BoundingBox: 50 50 244 244
%%EndComments
%%BeginProlog
/gnudict 256 dict def
gnudict begin
%
% The following true/false flags may be edited by hand if desired.
% The unit line width and grayscale image gamma correction may also be changed.
%
/Color true def
/Blacktext false def
/Solid false def
/Dashlength 2.5 def
/Landscape false def
/Level1 false def
/Level3 false def
/Rounded false def
/ClipToBoundingBox false def
/SuppressPDFMark false def
/TransparentPatterns false def
/gnulinewidth 5.000 def
/userlinewidth gnulinewidth def
/Gamma 1.0 def
/BackgroundColor {-1.000 -1.000 -1.000} def
%
/vshift -73 def
/dl1 {
  10.0 Dashlength userlinewidth gnulinewidth div mul mul mul
  Rounded { currentlinewidth 0.75 mul sub dup 0 le { pop 0.01 } if } if
} def
/dl2 {
  10.0 Dashlength userlinewidth gnulinewidth div mul mul mul
  Rounded { currentlinewidth 0.75 mul add } if
} def
/hpt_ 31.5 def
/vpt_ 31.5 def
/hpt hpt_ def
/vpt vpt_ def
/doclip {
  ClipToBoundingBox {
    newpath 50 50 moveto 244 50 lineto 244 244 lineto 50 244 lineto closepath
    clip
  } if
} def
%
% Gnuplot Prolog Version 5.1 (Oct 2015)
%
%/SuppressPDFMark true def
%
/M {moveto} bind def
/L {lineto} bind def
/R {rmoveto} bind def
/V {rlineto} bind def
/N {newpath moveto} bind def
/Z {closepath} bind def
/C {setrgbcolor} bind def
/f {rlineto fill} bind def
/g {setgray} bind def
/Gshow {show} def   % May be redefined later in the file to support UTF-8
/vpt2 vpt 2 mul def
/hpt2 hpt 2 mul def
/Lshow {currentpoint stroke M 0 vshift R 
	Blacktext {gsave 0 setgray textshow grestore} {textshow} ifelse} def
/Rshow {currentpoint stroke M dup stringwidth pop neg vshift R
	Blacktext {gsave 0 setgray textshow grestore} {textshow} ifelse} def
/Cshow {currentpoint stroke M dup stringwidth pop -2 div vshift R 
	Blacktext {gsave 0 setgray textshow grestore} {textshow} ifelse} def
/UP {dup vpt_ mul /vpt exch def hpt_ mul /hpt exch def
  /hpt2 hpt 2 mul def /vpt2 vpt 2 mul def} def
/DL {Color {setrgbcolor Solid {pop []} if 0 setdash}
 {pop pop pop 0 setgray Solid {pop []} if 0 setdash} ifelse} def
/BL {stroke userlinewidth 2 mul setlinewidth
	Rounded {1 setlinejoin 1 setlinecap} if} def
/AL {stroke userlinewidth 2 div setlinewidth
	Rounded {1 setlinejoin 1 setlinecap} if} def
/UL {dup gnulinewidth mul /userlinewidth exch def
	dup 1 lt {pop 1} if 10 mul /udl exch def} def
/PL {stroke userlinewidth setlinewidth
	Rounded {1 setlinejoin 1 setlinecap} if} def
3.8 setmiterlimit
% Classic Line colors (version 5.0)
/LCw {1 1 1} def
/LCb {0 0 0} def
/LCa {0 0 0} def
/LC0 {1 0 0} def
/LC1 {0 1 0} def
/LC2 {0 0 1} def
/LC3 {1 0 1} def
/LC4 {0 1 1} def
/LC5 {1 1 0} def
/LC6 {0 0 0} def
/LC7 {1 0.3 0} def
/LC8 {0.5 0.5 0.5} def
% Default dash patterns (version 5.0)
/LTB {BL [] LCb DL} def
/LTw {PL [] 1 setgray} def
/LTb {PL [] LCb DL} def
/LTa {AL [1 udl mul 2 udl mul] 0 setdash LCa setrgbcolor} def
/LT0 {PL [] LC0 DL} def
/LT1 {PL [2 dl1 3 dl2] LC1 DL} def
/LT2 {PL [1 dl1 1.5 dl2] LC2 DL} def
/LT3 {PL [6 dl1 2 dl2 1 dl1 2 dl2] LC3 DL} def
/LT4 {PL [1 dl1 2 dl2 6 dl1 2 dl2 1 dl1 2 dl2] LC4 DL} def
/LT5 {PL [4 dl1 2 dl2] LC5 DL} def
/LT6 {PL [1.5 dl1 1.5 dl2 1.5 dl1 1.5 dl2 1.5 dl1 6 dl2] LC6 DL} def
/LT7 {PL [3 dl1 3 dl2 1 dl1 3 dl2] LC7 DL} def
/LT8 {PL [2 dl1 2 dl2 2 dl1 6 dl2] LC8 DL} def
/SL {[] 0 setdash} def
/Pnt {stroke [] 0 setdash gsave 1 setlinecap M 0 0 V stroke grestore} def
/Dia {stroke [] 0 setdash 2 copy vpt add M
  hpt neg vpt neg V hpt vpt neg V
  hpt vpt V hpt neg vpt V closepath stroke
  Pnt} def
/Pls {stroke [] 0 setdash vpt sub M 0 vpt2 V
  currentpoint stroke M
  hpt neg vpt neg R hpt2 0 V stroke
 } def
/Box {stroke [] 0 setdash 2 copy exch hpt sub exch vpt add M
  0 vpt2 neg V hpt2 0 V 0 vpt2 V
  hpt2 neg 0 V closepath stroke
  Pnt} def
/Crs {stroke [] 0 setdash exch hpt sub exch vpt add M
  hpt2 vpt2 neg V currentpoint stroke M
  hpt2 neg 0 R hpt2 vpt2 V stroke} def
/TriU {stroke [] 0 setdash 2 copy vpt 1.12 mul add M
  hpt neg vpt -1.62 mul V
  hpt 2 mul 0 V
  hpt neg vpt 1.62 mul V closepath stroke
  Pnt} def
/Star {2 copy Pls Crs} def
/BoxF {stroke [] 0 setdash exch hpt sub exch vpt add M
  0 vpt2 neg V hpt2 0 V 0 vpt2 V
  hpt2 neg 0 V closepath fill} def
/TriUF {stroke [] 0 setdash vpt 1.12 mul add M
  hpt neg vpt -1.62 mul V
  hpt 2 mul 0 V
  hpt neg vpt 1.62 mul V closepath fill} def
/TriD {stroke [] 0 setdash 2 copy vpt 1.12 mul sub M
  hpt neg vpt 1.62 mul V
  hpt 2 mul 0 V
  hpt neg vpt -1.62 mul V closepath stroke
  Pnt} def
/TriDF {stroke [] 0 setdash vpt 1.12 mul sub M
  hpt neg vpt 1.62 mul V
  hpt 2 mul 0 V
  hpt neg vpt -1.62 mul V closepath fill} def
/DiaF {stroke [] 0 setdash vpt add M
  hpt neg vpt neg V hpt vpt neg V
  hpt vpt V hpt neg vpt V closepath fill} def
/Pent {stroke [] 0 setdash 2 copy gsave
  translate 0 hpt M 4 {72 rotate 0 hpt L} repeat
  closepath stroke grestore Pnt} def
/PentF {stroke [] 0 setdash gsave
  translate 0 hpt M 4 {72 rotate 0 hpt L} repeat
  closepath fill grestore} def
/Circle {stroke [] 0 setdash 2 copy
  hpt 0 360 arc stroke Pnt} def
/CircleF {stroke [] 0 setdash hpt 0 360 arc fill} def
/C0 {BL [] 0 setdash 2 copy moveto vpt 90 450 arc} bind def
/C1 {BL [] 0 setdash 2 copy moveto
	2 copy vpt 0 90 arc closepath fill
	vpt 0 360 arc closepath} bind def
/C2 {BL [] 0 setdash 2 copy moveto
	2 copy vpt 90 180 arc closepath fill
	vpt 0 360 arc closepath} bind def
/C3 {BL [] 0 setdash 2 copy moveto
	2 copy vpt 0 180 arc closepath fill
	vpt 0 360 arc closepath} bind def
/C4 {BL [] 0 setdash 2 copy moveto
	2 copy vpt 180 270 arc closepath fill
	vpt 0 360 arc closepath} bind def
/C5 {BL [] 0 setdash 2 copy moveto
	2 copy vpt 0 90 arc
	2 copy moveto
	2 copy vpt 180 270 arc closepath fill
	vpt 0 360 arc} bind def
/C6 {BL [] 0 setdash 2 copy moveto
	2 copy vpt 90 270 arc closepath fill
	vpt 0 360 arc closepath} bind def
/C7 {BL [] 0 setdash 2 copy moveto
	2 copy vpt 0 270 arc closepath fill
	vpt 0 360 arc closepath} bind def
/C8 {BL [] 0 setdash 2 copy moveto
	2 copy vpt 270 360 arc closepath fill
	vpt 0 360 arc closepath} bind def
/C9 {BL [] 0 setdash 2 copy moveto
	2 copy vpt 270 450 arc closepath fill
	vpt 0 360 arc closepath} bind def
/C10 {BL [] 0 setdash 2 copy 2 copy moveto vpt 270 360 arc closepath fill
	2 copy moveto
	2 copy vpt 90 180 arc closepath fill
	vpt 0 360 arc closepath} bind def
/C11 {BL [] 0 setdash 2 copy moveto
	2 copy vpt 0 180 arc closepath fill
	2 copy moveto
	2 copy vpt 270 360 arc closepath fill
	vpt 0 360 arc closepath} bind def
/C12 {BL [] 0 setdash 2 copy moveto
	2 copy vpt 180 360 arc closepath fill
	vpt 0 360 arc closepath} bind def
/C13 {BL [] 0 setdash 2 copy moveto
	2 copy vpt 0 90 arc closepath fill
	2 copy moveto
	2 copy vpt 180 360 arc closepath fill
	vpt 0 360 arc closepath} bind def
/C14 {BL [] 0 setdash 2 copy moveto
	2 copy vpt 90 360 arc closepath fill
	vpt 0 360 arc} bind def
/C15 {BL [] 0 setdash 2 copy vpt 0 360 arc closepath fill
	vpt 0 360 arc closepath} bind def
/Rec {newpath 4 2 roll moveto 1 index 0 rlineto 0 exch rlineto
	neg 0 rlineto closepath} bind def
/Square {dup Rec} bind def
/Bsquare {vpt sub exch vpt sub exch vpt2 Square} bind def
/S0 {BL [] 0 setdash 2 copy moveto 0 vpt rlineto BL Bsquare} bind def
/S1 {BL [] 0 setdash 2 copy vpt Square fill Bsquare} bind def
/S2 {BL [] 0 setdash 2 copy exch vpt sub exch vpt Square fill Bsquare} bind def
/S3 {BL [] 0 setdash 2 copy exch vpt sub exch vpt2 vpt Rec fill Bsquare} bind def
/S4 {BL [] 0 setdash 2 copy exch vpt sub exch vpt sub vpt Square fill Bsquare} bind def
/S5 {BL [] 0 setdash 2 copy 2 copy vpt Square fill
	exch vpt sub exch vpt sub vpt Square fill Bsquare} bind def
/S6 {BL [] 0 setdash 2 copy exch vpt sub exch vpt sub vpt vpt2 Rec fill Bsquare} bind def
/S7 {BL [] 0 setdash 2 copy exch vpt sub exch vpt sub vpt vpt2 Rec fill
	2 copy vpt Square fill Bsquare} bind def
/S8 {BL [] 0 setdash 2 copy vpt sub vpt Square fill Bsquare} bind def
/S9 {BL [] 0 setdash 2 copy vpt sub vpt vpt2 Rec fill Bsquare} bind def
/S10 {BL [] 0 setdash 2 copy vpt sub vpt Square fill 2 copy exch vpt sub exch vpt Square fill
	Bsquare} bind def
/S11 {BL [] 0 setdash 2 copy vpt sub vpt Square fill 2 copy exch vpt sub exch vpt2 vpt Rec fill
	Bsquare} bind def
/S12 {BL [] 0 setdash 2 copy exch vpt sub exch vpt sub vpt2 vpt Rec fill Bsquare} bind def
/S13 {BL [] 0 setdash 2 copy exch vpt sub exch vpt sub vpt2 vpt Rec fill
	2 copy vpt Square fill Bsquare} bind def
/S14 {BL [] 0 setdash 2 copy exch vpt sub exch vpt sub vpt2 vpt Rec fill
	2 copy exch vpt sub exch vpt Square fill Bsquare} bind def
/S15 {BL [] 0 setdash 2 copy Bsquare fill Bsquare} bind def
/D0 {gsave translate 45 rotate 0 0 S0 stroke grestore} bind def
/D1 {gsave translate 45 rotate 0 0 S1 stroke grestore} bind def
/D2 {gsave translate 45 rotate 0 0 S2 stroke grestore} bind def
/D3 {gsave translate 45 rotate 0 0 S3 stroke grestore} bind def
/D4 {gsave translate 45 rotate 0 0 S4 stroke grestore} bind def
/D5 {gsave translate 45 rotate 0 0 S5 stroke grestore} bind def
/D6 {gsave translate 45 rotate 0 0 S6 stroke grestore} bind def
/D7 {gsave translate 45 rotate 0 0 S7 stroke grestore} bind def
/D8 {gsave translate 45 rotate 0 0 S8 stroke grestore} bind def
/D9 {gsave translate 45 rotate 0 0 S9 stroke grestore} bind def
/D10 {gsave translate 45 rotate 0 0 S10 stroke grestore} bind def
/D11 {gsave translate 45 rotate 0 0 S11 stroke grestore} bind def
/D12 {gsave translate 45 rotate 0 0 S12 stroke grestore} bind def
/D13 {gsave translate 45 rotate 0 0 S13 stroke grestore} bind def
/D14 {gsave translate 45 rotate 0 0 S14 stroke grestore} bind def
/D15 {gsave translate 45 rotate 0 0 S15 stroke grestore} bind def
/DiaE {stroke [] 0 setdash vpt add M
  hpt neg vpt neg V hpt vpt neg V
  hpt vpt V hpt neg vpt V closepath stroke} def
/BoxE {stroke [] 0 setdash exch hpt sub exch vpt add M
  0 vpt2 neg V hpt2 0 V 0 vpt2 V
  hpt2 neg 0 V closepath stroke} def
/TriUE {stroke [] 0 setdash vpt 1.12 mul add M
  hpt neg vpt -1.62 mul V
  hpt 2 mul 0 V
  hpt neg vpt 1.62 mul V closepath stroke} def
/TriDE {stroke [] 0 setdash vpt 1.12 mul sub M
  hpt neg vpt 1.62 mul V
  hpt 2 mul 0 V
  hpt neg vpt -1.62 mul V closepath stroke} def
/PentE {stroke [] 0 setdash gsave
  translate 0 hpt M 4 {72 rotate 0 hpt L} repeat
  closepath stroke grestore} def
/CircE {stroke [] 0 setdash 
  hpt 0 360 arc stroke} def
/Opaque {gsave closepath 1 setgray fill grestore 0 setgray closepath} def
/DiaW {stroke [] 0 setdash vpt add M
  hpt neg vpt neg V hpt vpt neg V
  hpt vpt V hpt neg vpt V Opaque stroke} def
/BoxW {stroke [] 0 setdash exch hpt sub exch vpt add M
  0 vpt2 neg V hpt2 0 V 0 vpt2 V
  hpt2 neg 0 V Opaque stroke} def
/TriUW {stroke [] 0 setdash vpt 1.12 mul add M
  hpt neg vpt -1.62 mul V
  hpt 2 mul 0 V
  hpt neg vpt 1.62 mul V Opaque stroke} def
/TriDW {stroke [] 0 setdash vpt 1.12 mul sub M
  hpt neg vpt 1.62 mul V
  hpt 2 mul 0 V
  hpt neg vpt -1.62 mul V Opaque stroke} def
/PentW {stroke [] 0 setdash gsave
  translate 0 hpt M 4 {72 rotate 0 hpt L} repeat
  Opaque stroke grestore} def
/CircW {stroke [] 0 setdash 
  hpt 0 360 arc Opaque stroke} def
/BoxFill {gsave Rec 1 setgray fill grestore} def
/Density {
  /Fillden exch def
  currentrgbcolor
  /ColB exch def /ColG exch def /ColR exch def
  /ColR ColR Fillden mul Fillden sub 1 add def
  /ColG ColG Fillden mul Fillden sub 1 add def
  /ColB ColB Fillden mul Fillden sub 1 add def
  ColR ColG ColB setrgbcolor} def
/BoxColFill {gsave Rec PolyFill} def
/PolyFill {gsave Density fill grestore grestore} def
/h {rlineto rlineto rlineto gsave closepath fill grestore} bind def
%
% PostScript Level 1 Pattern Fill routine for rectangles
% Usage: x y w h s a XX PatternFill
%	x,y = lower left corner of box to be filled
%	w,h = width and height of box
%	  a = angle in degrees between lines and x-axis
%	 XX = 0/1 for no/yes cross-hatch
%
/PatternFill {gsave /PFa [ 9 2 roll ] def
  PFa 0 get PFa 2 get 2 div add PFa 1 get PFa 3 get 2 div add translate
  PFa 2 get -2 div PFa 3 get -2 div PFa 2 get PFa 3 get Rec
  TransparentPatterns {} {gsave 1 setgray fill grestore} ifelse
  clip
  currentlinewidth 0.5 mul setlinewidth
  /PFs PFa 2 get dup mul PFa 3 get dup mul add sqrt def
  0 0 M PFa 5 get rotate PFs -2 div dup translate
  0 1 PFs PFa 4 get div 1 add floor cvi
	{PFa 4 get mul 0 M 0 PFs V} for
  0 PFa 6 get ne {
	0 1 PFs PFa 4 get div 1 add floor cvi
	{PFa 4 get mul 0 2 1 roll M PFs 0 V} for
 } if
  stroke grestore} def
%
/languagelevel where
 {pop languagelevel} {1} ifelse
dup 2 lt
	{/InterpretLevel1 true def
	 /InterpretLevel3 false def}
	{/InterpretLevel1 Level1 def
	 2 gt
	    {/InterpretLevel3 Level3 def}
	    {/InterpretLevel3 false def}
	 ifelse }
 ifelse
%
% PostScript level 2 pattern fill definitions
%
/Level2PatternFill {
/Tile8x8 {/PaintType 2 /PatternType 1 /TilingType 1 /BBox [0 0 8 8] /XStep 8 /YStep 8}
	bind def
/KeepColor {currentrgbcolor [/Pattern /DeviceRGB] setcolorspace} bind def
<< Tile8x8
 /PaintProc {0.5 setlinewidth pop 0 0 M 8 8 L 0 8 M 8 0 L stroke} 
>> matrix makepattern
/Pat1 exch def
<< Tile8x8
 /PaintProc {0.5 setlinewidth pop 0 0 M 8 8 L 0 8 M 8 0 L stroke
	0 4 M 4 8 L 8 4 L 4 0 L 0 4 L stroke}
>> matrix makepattern
/Pat2 exch def
<< Tile8x8
 /PaintProc {0.5 setlinewidth pop 0 0 M 0 8 L
	8 8 L 8 0 L 0 0 L fill}
>> matrix makepattern
/Pat3 exch def
<< Tile8x8
 /PaintProc {0.5 setlinewidth pop -4 8 M 8 -4 L
	0 12 M 12 0 L stroke}
>> matrix makepattern
/Pat4 exch def
<< Tile8x8
 /PaintProc {0.5 setlinewidth pop -4 0 M 8 12 L
	0 -4 M 12 8 L stroke}
>> matrix makepattern
/Pat5 exch def
<< Tile8x8
 /PaintProc {0.5 setlinewidth pop -2 8 M 4 -4 L
	0 12 M 8 -4 L 4 12 M 10 0 L stroke}
>> matrix makepattern
/Pat6 exch def
<< Tile8x8
 /PaintProc {0.5 setlinewidth pop -2 0 M 4 12 L
	0 -4 M 8 12 L 4 -4 M 10 8 L stroke}
>> matrix makepattern
/Pat7 exch def
<< Tile8x8
 /PaintProc {0.5 setlinewidth pop 8 -2 M -4 4 L
	12 0 M -4 8 L 12 4 M 0 10 L stroke}
>> matrix makepattern
/Pat8 exch def
<< Tile8x8
 /PaintProc {0.5 setlinewidth pop 0 -2 M 12 4 L
	-4 0 M 12 8 L -4 4 M 8 10 L stroke}
>> matrix makepattern
/Pat9 exch def
/Pattern1 {PatternBgnd KeepColor Pat1 setpattern} bind def
/Pattern2 {PatternBgnd KeepColor Pat2 setpattern} bind def
/Pattern3 {PatternBgnd KeepColor Pat3 setpattern} bind def
/Pattern4 {PatternBgnd KeepColor Landscape {Pat5} {Pat4} ifelse setpattern} bind def
/Pattern5 {PatternBgnd KeepColor Landscape {Pat4} {Pat5} ifelse setpattern} bind def
/Pattern6 {PatternBgnd KeepColor Landscape {Pat9} {Pat6} ifelse setpattern} bind def
/Pattern7 {PatternBgnd KeepColor Landscape {Pat8} {Pat7} ifelse setpattern} bind def
} def
%
%
%End of PostScript Level 2 code
%
/PatternBgnd {
  TransparentPatterns {} {gsave 1 setgray fill grestore} ifelse
} def
%
% Substitute for Level 2 pattern fill codes with
% grayscale if Level 2 support is not selected.
%
/Level1PatternFill {
/Pattern1 {0.250 Density} bind def
/Pattern2 {0.500 Density} bind def
/Pattern3 {0.750 Density} bind def
/Pattern4 {0.125 Density} bind def
/Pattern5 {0.375 Density} bind def
/Pattern6 {0.625 Density} bind def
/Pattern7 {0.875 Density} bind def
} def
%
% Now test for support of Level 2 code
%
Level1 {Level1PatternFill} {Level2PatternFill} ifelse
%
/Symbol-Oblique /Symbol findfont [1 0 .167 1 0 0] makefont
dup length dict begin {1 index /FID eq {pop pop} {def} ifelse} forall
currentdict end definefont pop
%
Level1 SuppressPDFMark or 
{} {
/SDict 10 dict def
systemdict /pdfmark known not {
  userdict /pdfmark systemdict /cleartomark get put
} if
SDict begin [
  /Title (fig4.tex)
  /Subject (gnuplot plot)
  /Creator (gnuplot 5.0 patchlevel 3)
  /Author (daniela)
%  /Producer (gnuplot)
%  /Keywords ()
  /CreationDate (Mon Apr 16 00:56:57 2018)
  /DOCINFO pdfmark
end
} ifelse
%
% Support for boxed text - Ethan A Merritt May 2005
%
/InitTextBox { userdict /TBy2 3 -1 roll put userdict /TBx2 3 -1 roll put
           userdict /TBy1 3 -1 roll put userdict /TBx1 3 -1 roll put
	   /Boxing true def } def
/ExtendTextBox { Boxing
    { gsave dup false charpath pathbbox
      dup TBy2 gt {userdict /TBy2 3 -1 roll put} {pop} ifelse
      dup TBx2 gt {userdict /TBx2 3 -1 roll put} {pop} ifelse
      dup TBy1 lt {userdict /TBy1 3 -1 roll put} {pop} ifelse
      dup TBx1 lt {userdict /TBx1 3 -1 roll put} {pop} ifelse
      grestore } if } def
/PopTextBox { newpath TBx1 TBxmargin sub TBy1 TBymargin sub M
               TBx1 TBxmargin sub TBy2 TBymargin add L
	       TBx2 TBxmargin add TBy2 TBymargin add L
	       TBx2 TBxmargin add TBy1 TBymargin sub L closepath } def
/DrawTextBox { PopTextBox stroke /Boxing false def} def
/FillTextBox { gsave PopTextBox 1 1 1 setrgbcolor fill grestore /Boxing false def} def
0 0 0 0 InitTextBox
/TBxmargin 20 def
/TBymargin 20 def
/Boxing false def
/textshow { ExtendTextBox Gshow } def
%
% redundant definitions for compatibility with prologue.ps older than 5.0.2
/LTB {BL [] LCb DL} def
/LTb {PL [] LCb DL} def
end
%%EndProlog
%%Page: 1 1
gnudict begin
gsave
doclip
50 50 translate
0.050 0.050 scale
0 setgray
newpath
1.500 UL
LTb
LCb setrgbcolor
[] 0 setdash
388 2877 M
47 0 V
3374 0 R
-47 0 V
stroke
LTb
388 3063 M
47 0 V
3374 0 R
-47 0 V
stroke
388 3250 M
47 0 V
3374 0 R
-47 0 V
stroke
388 3436 M
47 0 V
3374 0 R
-47 0 V
stroke
388 3623 M
47 0 V
3374 0 R
-47 0 V
stroke
388 3809 M
47 0 V
3374 0 R
-47 0 V
stroke
388 2877 M
0 47 V
0 885 R
0 -47 V
stroke
1243 2877 M
0 47 V
0 885 R
0 -47 V
stroke
2099 2877 M
0 47 V
0 885 R
0 -47 V
stroke
2954 2877 M
0 47 V
0 885 R
0 -47 V
stroke
3809 2877 M
0 47 V
0 885 R
0 -47 V
stroke
3809 2877 M
-47 0 V
stroke
3809 3809 M
-47 0 V
stroke
1.500 UL
LTb
388 3809 N
0 -932 V
3421 0 V
0 932 V
-3421 0 V
Z stroke
1.000 UP
1.500 UL
LTb
0.200 UP
1.000 UL
LTb
0.65 0.81 0.89 C 388 3312 M
14 -1 V
15 -4 V
14 -6 V
14 -9 V
15 -10 V
14 -12 V
14 -13 V
15 -13 V
14 -14 V
14 -13 V
14 -13 V
15 -11 V
14 -9 V
14 -6 V
15 -4 V
14 -1 V
14 3 V
15 6 V
14 10 V
14 14 V
15 18 V
14 22 V
14 24 V
15 28 V
14 30 V
14 33 V
14 35 V
15 35 V
14 36 V
14 36 V
15 36 V
14 35 V
14 32 V
15 31 V
14 28 V
14 25 V
15 21 V
14 18 V
14 13 V
15 10 V
14 5 V
14 1 V
14 -3 V
15 -7 V
14 -11 V
14 -14 V
15 -18 V
14 -21 V
14 -24 V
15 -25 V
14 -28 V
14 -29 V
15 -30 V
14 -30 V
14 -31 V
15 -30 V
14 -30 V
14 -28 V
15 -28 V
14 -26 V
14 -24 V
14 -22 V
15 -20 V
14 -18 V
14 -15 V
15 -13 V
14 -11 V
14 -8 V
15 -7 V
14 -4 V
14 -2 V
15 0 V
14 2 V
14 3 V
15 4 V
14 6 V
14 6 V
14 7 V
15 8 V
14 8 V
14 8 V
15 7 V
14 8 V
14 7 V
15 6 V
14 6 V
14 5 V
15 5 V
14 3 V
14 2 V
15 2 V
14 1 V
14 0 V
14 -1 V
15 -1 V
14 -2 V
14 -2 V
15 -3 V
14 -2 V
14 -2 V
15 -2 V
14 -1 V
14 -1 V
15 0 V
stroke 1877 3288 M
14 1 V
14 3 V
15 3 V
14 5 V
14 7 V
15 8 V
14 9 V
14 12 V
14 13 V
15 14 V
14 16 V
14 17 V
15 18 V
14 20 V
14 20 V
15 21 V
14 21 V
14 21 V
15 21 V
14 21 V
14 19 V
15 19 V
14 17 V
14 15 V
14 13 V
15 11 V
14 9 V
14 5 V
15 3 V
14 0 V
14 -3 V
15 -6 V
14 -9 V
14 -12 V
15 -15 V
14 -18 V
14 -21 V
15 -22 V
14 -25 V
14 -27 V
15 -27 V
14 -29 V
14 -29 V
14 -29 V
15 -29 V
14 -28 V
14 -27 V
15 -26 V
14 -23 V
14 -21 V
15 -18 V
14 -16 V
14 -12 V
15 -10 V
14 -6 V
14 -2 V
15 0 V
14 4 V
14 6 V
14 10 V
15 12 V
14 14 V
14 16 V
15 17 V
14 17 V
14 19 V
15 18 V
14 17 V
14 17 V
15 15 V
14 13 V
14 12 V
15 8 V
14 6 V
14 3 V
14 0 V
15 -3 V
14 -6 V
14 -9 V
15 -12 V
14 -13 V
14 -16 V
15 -17 V
14 -19 V
14 -18 V
15 -19 V
14 -18 V
14 -17 V
15 -15 V
14 -13 V
14 -10 V
15 -7 V
14 -3 V
14 0 V
14 5 V
15 9 V
14 13 V
14 17 V
15 22 V
14 25 V
14 28 V
15 32 V
14 33 V
14 36 V
stroke 3365 3409 M
15 37 V
14 37 V
14 37 V
15 36 V
14 35 V
14 32 V
14 29 V
15 25 V
14 22 V
14 17 V
15 12 V
14 7 V
14 2 V
15 -3 V
14 -9 V
14 -13 V
15 -17 V
14 -22 V
14 -25 V
15 -29 V
14 -30 V
14 -33 V
14 -34 V
15 -34 V
14 -33 V
14 -33 V
15 -31 V
14 -29 V
14 -26 V
15 -23 V
14 -20 V
388 3312 CircleF
402 3311 CircleF
417 3307 CircleF
431 3301 CircleF
445 3292 CircleF
460 3282 CircleF
474 3270 CircleF
488 3257 CircleF
503 3244 CircleF
517 3230 CircleF
531 3217 CircleF
545 3204 CircleF
560 3193 CircleF
574 3184 CircleF
588 3178 CircleF
603 3174 CircleF
617 3173 CircleF
631 3176 CircleF
646 3182 CircleF
660 3192 CircleF
674 3206 CircleF
689 3224 CircleF
703 3246 CircleF
717 3270 CircleF
732 3298 CircleF
746 3328 CircleF
760 3361 CircleF
774 3396 CircleF
789 3431 CircleF
803 3467 CircleF
817 3503 CircleF
832 3539 CircleF
846 3574 CircleF
860 3606 CircleF
875 3637 CircleF
889 3665 CircleF
903 3690 CircleF
918 3711 CircleF
932 3729 CircleF
946 3742 CircleF
961 3752 CircleF
975 3757 CircleF
989 3758 CircleF
1003 3755 CircleF
1018 3748 CircleF
1032 3737 CircleF
1046 3723 CircleF
1061 3705 CircleF
1075 3684 CircleF
1089 3660 CircleF
1104 3635 CircleF
1118 3607 CircleF
1132 3578 CircleF
1147 3548 CircleF
1161 3518 CircleF
1175 3487 CircleF
1190 3457 CircleF
1204 3427 CircleF
1218 3399 CircleF
1233 3371 CircleF
1247 3345 CircleF
1261 3321 CircleF
1275 3299 CircleF
1290 3279 CircleF
1304 3261 CircleF
1318 3246 CircleF
1333 3233 CircleF
1347 3222 CircleF
1361 3214 CircleF
1376 3207 CircleF
1390 3203 CircleF
1404 3201 CircleF
1419 3201 CircleF
1433 3203 CircleF
1447 3206 CircleF
1462 3210 CircleF
1476 3216 CircleF
1490 3222 CircleF
1504 3229 CircleF
1519 3237 CircleF
1533 3245 CircleF
1547 3253 CircleF
1562 3260 CircleF
1576 3268 CircleF
1590 3275 CircleF
1605 3281 CircleF
1619 3287 CircleF
1633 3292 CircleF
1648 3297 CircleF
1662 3300 CircleF
1676 3302 CircleF
1691 3304 CircleF
1705 3305 CircleF
1719 3305 CircleF
1733 3304 CircleF
1748 3303 CircleF
1762 3301 CircleF
1776 3299 CircleF
1791 3296 CircleF
1805 3294 CircleF
1819 3292 CircleF
1834 3290 CircleF
1848 3289 CircleF
1862 3288 CircleF
1877 3288 CircleF
1891 3289 CircleF
1905 3292 CircleF
1920 3295 CircleF
1934 3300 CircleF
1948 3307 CircleF
1963 3315 CircleF
1977 3324 CircleF
1991 3336 CircleF
2005 3349 CircleF
2020 3363 CircleF
2034 3379 CircleF
2048 3396 CircleF
2063 3414 CircleF
2077 3434 CircleF
2091 3454 CircleF
2106 3475 CircleF
2120 3496 CircleF
2134 3517 CircleF
2149 3538 CircleF
2163 3559 CircleF
2177 3578 CircleF
2192 3597 CircleF
2206 3614 CircleF
2220 3629 CircleF
2234 3642 CircleF
2249 3653 CircleF
2263 3662 CircleF
2277 3667 CircleF
2292 3670 CircleF
2306 3670 CircleF
2320 3667 CircleF
2335 3661 CircleF
2349 3652 CircleF
2363 3640 CircleF
2378 3625 CircleF
2392 3607 CircleF
2406 3586 CircleF
2421 3564 CircleF
2435 3539 CircleF
2449 3512 CircleF
2464 3485 CircleF
2478 3456 CircleF
2492 3427 CircleF
2506 3398 CircleF
2521 3369 CircleF
2535 3341 CircleF
2549 3314 CircleF
2564 3288 CircleF
2578 3265 CircleF
2592 3244 CircleF
2607 3226 CircleF
2621 3210 CircleF
2635 3198 CircleF
2650 3188 CircleF
2664 3182 CircleF
2678 3180 CircleF
2693 3180 CircleF
2707 3184 CircleF
2721 3190 CircleF
2735 3200 CircleF
2750 3212 CircleF
2764 3226 CircleF
2778 3242 CircleF
2793 3259 CircleF
2807 3276 CircleF
2821 3295 CircleF
2836 3313 CircleF
2850 3330 CircleF
2864 3347 CircleF
2879 3362 CircleF
2893 3375 CircleF
2907 3387 CircleF
2922 3395 CircleF
2936 3401 CircleF
2950 3404 CircleF
2964 3404 CircleF
2979 3401 CircleF
2993 3395 CircleF
3007 3386 CircleF
3022 3374 CircleF
3036 3361 CircleF
3050 3345 CircleF
3065 3328 CircleF
3079 3309 CircleF
3093 3291 CircleF
3108 3272 CircleF
3122 3254 CircleF
3136 3237 CircleF
3151 3222 CircleF
3165 3209 CircleF
3179 3199 CircleF
3194 3192 CircleF
3208 3189 CircleF
3222 3189 CircleF
3236 3194 CircleF
3251 3203 CircleF
3265 3216 CircleF
3279 3233 CircleF
3294 3255 CircleF
3308 3280 CircleF
3322 3308 CircleF
3337 3340 CircleF
3351 3373 CircleF
3365 3409 CircleF
3380 3446 CircleF
3394 3483 CircleF
3408 3520 CircleF
3423 3556 CircleF
3437 3591 CircleF
3451 3623 CircleF
3465 3652 CircleF
3480 3677 CircleF
3494 3699 CircleF
3508 3716 CircleF
3523 3728 CircleF
3537 3735 CircleF
3551 3737 CircleF
3566 3734 CircleF
3580 3725 CircleF
3594 3712 CircleF
3609 3695 CircleF
3623 3673 CircleF
3637 3648 CircleF
3652 3619 CircleF
3666 3589 CircleF
3680 3556 CircleF
3694 3522 CircleF
3709 3488 CircleF
3723 3455 CircleF
3737 3422 CircleF
3752 3391 CircleF
3766 3362 CircleF
3780 3336 CircleF
3795 3313 CircleF
3809 3293 CircleF
2.000 UL
LTb
LCb setrgbcolor
[] 0 setdash
1.500 UL
LTb
388 3809 N
0 -932 V
3421 0 V
0 932 V
-3421 0 V
Z stroke
1.000 UP
1.500 UL
LTb
1.500 UL
LTb
388 1632 M
47 0 V
3374 0 R
-47 0 V
stroke
388 1765 M
47 0 V
3374 0 R
-47 0 V
stroke
388 1899 M
47 0 V
3374 0 R
-47 0 V
stroke
388 2032 M
47 0 V
3374 0 R
-47 0 V
stroke
388 2165 M
47 0 V
3374 0 R
-47 0 V
stroke
388 2298 M
47 0 V
3374 0 R
-47 0 V
stroke
388 2432 M
47 0 V
3374 0 R
-47 0 V
stroke
388 2565 M
47 0 V
3374 0 R
-47 0 V
stroke
388 1632 M
0 47 V
0 886 R
0 -47 V
stroke
1243 1632 M
0 47 V
0 886 R
0 -47 V
stroke
2099 1632 M
0 47 V
0 886 R
0 -47 V
stroke
2954 1632 M
0 47 V
0 886 R
0 -47 V
stroke
3809 1632 M
0 47 V
0 886 R
0 -47 V
stroke
3809 1632 M
-47 0 V
stroke
3809 2565 M
-47 0 V
stroke
1.500 UL
LTb
388 2565 N
0 -933 V
3421 0 V
0 933 V
-3421 0 V
Z stroke
1.000 UP
1.500 UL
LTb
0.200 UP
1.000 UL
LTb
1.00 0.65 0.00 C 388 2447 M
14 -2 V
15 -6 V
14 -9 V
14 -12 V
15 -16 V
14 -19 V
14 -21 V
15 -23 V
14 -25 V
14 -26 V
14 -27 V
15 -27 V
14 -28 V
14 -27 V
15 -26 V
14 -24 V
14 -23 V
15 -21 V
14 -19 V
14 -16 V
15 -14 V
14 -11 V
14 -9 V
15 -6 V
14 -4 V
14 -1 V
14 0 V
15 3 V
14 4 V
14 5 V
15 6 V
14 7 V
14 7 V
15 8 V
14 7 V
14 7 V
15 7 V
14 5 V
14 5 V
15 3 V
14 3 V
14 1 V
14 1 V
15 -1 V
14 -2 V
14 -3 V
15 -4 V
14 -4 V
14 -4 V
15 -5 V
14 -5 V
14 -4 V
15 -4 V
14 -4 V
14 -2 V
15 -2 V
14 -1 V
14 1 V
15 2 V
14 4 V
14 5 V
14 6 V
15 8 V
14 10 V
14 11 V
15 12 V
14 14 V
14 15 V
15 15 V
14 17 V
14 17 V
15 18 V
14 17 V
14 18 V
15 17 V
14 17 V
14 17 V
14 15 V
15 15 V
14 13 V
14 11 V
15 11 V
14 8 V
14 6 V
15 5 V
14 3 V
14 0 V
15 -1 V
14 -4 V
14 -5 V
15 -8 V
14 -9 V
14 -11 V
14 -13 V
15 -14 V
14 -16 V
14 -16 V
15 -18 V
14 -18 V
14 -19 V
15 -19 V
14 -19 V
14 -18 V
15 -19 V
stroke 1877 2140 M
14 -17 V
14 -17 V
15 -16 V
14 -15 V
14 -14 V
15 -12 V
14 -10 V
14 -9 V
14 -7 V
15 -5 V
14 -3 V
14 -2 V
15 0 V
14 1 V
14 3 V
15 4 V
14 6 V
14 7 V
15 7 V
14 8 V
14 9 V
15 9 V
14 9 V
14 9 V
14 8 V
15 8 V
14 7 V
14 7 V
15 5 V
14 5 V
14 3 V
15 2 V
14 0 V
14 0 V
15 -2 V
14 -3 V
14 -4 V
15 -5 V
14 -5 V
14 -6 V
15 -7 V
14 -6 V
14 -6 V
14 -6 V
15 -6 V
14 -5 V
14 -3 V
15 -2 V
14 -1 V
14 1 V
15 2 V
14 5 V
14 6 V
15 8 V
14 11 V
14 12 V
15 14 V
14 15 V
14 17 V
14 19 V
15 19 V
14 20 V
14 20 V
15 20 V
14 20 V
14 20 V
15 18 V
14 17 V
14 14 V
15 13 V
14 11 V
14 8 V
15 5 V
14 2 V
14 0 V
14 -4 V
15 -7 V
14 -10 V
14 -13 V
15 -15 V
14 -18 V
14 -20 V
15 -21 V
14 -23 V
14 -24 V
15 -25 V
14 -24 V
14 -25 V
15 -23 V
14 -23 V
14 -20 V
15 -19 V
14 -17 V
14 -14 V
14 -11 V
15 -8 V
14 -6 V
14 -2 V
15 0 V
14 3 V
14 6 V
15 8 V
14 10 V
14 12 V
stroke 3365 2047 M
15 12 V
14 14 V
14 15 V
15 14 V
14 14 V
14 13 V
14 12 V
15 10 V
14 8 V
14 6 V
15 4 V
14 2 V
14 -1 V
15 -4 V
14 -6 V
14 -8 V
15 -10 V
14 -12 V
14 -14 V
15 -14 V
14 -15 V
14 -16 V
14 -15 V
15 -15 V
14 -14 V
14 -12 V
15 -10 V
14 -9 V
14 -6 V
15 -3 V
14 0 V
388 2447 CircleF
402 2445 CircleF
417 2439 CircleF
431 2430 CircleF
445 2418 CircleF
460 2402 CircleF
474 2383 CircleF
488 2362 CircleF
503 2339 CircleF
517 2314 CircleF
531 2288 CircleF
545 2261 CircleF
560 2234 CircleF
574 2206 CircleF
588 2179 CircleF
603 2153 CircleF
617 2129 CircleF
631 2106 CircleF
646 2085 CircleF
660 2066 CircleF
674 2050 CircleF
689 2036 CircleF
703 2025 CircleF
717 2016 CircleF
732 2010 CircleF
746 2006 CircleF
760 2005 CircleF
774 2005 CircleF
789 2008 CircleF
803 2012 CircleF
817 2017 CircleF
832 2023 CircleF
846 2030 CircleF
860 2037 CircleF
875 2045 CircleF
889 2052 CircleF
903 2059 CircleF
918 2066 CircleF
932 2071 CircleF
946 2076 CircleF
961 2079 CircleF
975 2082 CircleF
989 2083 CircleF
1003 2084 CircleF
1018 2083 CircleF
1032 2081 CircleF
1046 2078 CircleF
1061 2074 CircleF
1075 2070 CircleF
1089 2066 CircleF
1104 2061 CircleF
1118 2056 CircleF
1132 2052 CircleF
1147 2048 CircleF
1161 2044 CircleF
1175 2042 CircleF
1190 2040 CircleF
1204 2039 CircleF
1218 2040 CircleF
1233 2042 CircleF
1247 2046 CircleF
1261 2051 CircleF
1275 2057 CircleF
1290 2065 CircleF
1304 2075 CircleF
1318 2086 CircleF
1333 2098 CircleF
1347 2112 CircleF
1361 2127 CircleF
1376 2142 CircleF
1390 2159 CircleF
1404 2176 CircleF
1419 2194 CircleF
1433 2211 CircleF
1447 2229 CircleF
1462 2246 CircleF
1476 2263 CircleF
1490 2280 CircleF
1504 2295 CircleF
1519 2310 CircleF
1533 2323 CircleF
1547 2334 CircleF
1562 2345 CircleF
1576 2353 CircleF
1590 2359 CircleF
1605 2364 CircleF
1619 2367 CircleF
1633 2367 CircleF
1648 2366 CircleF
1662 2362 CircleF
1676 2357 CircleF
1691 2349 CircleF
1705 2340 CircleF
1719 2329 CircleF
1733 2316 CircleF
1748 2302 CircleF
1762 2286 CircleF
1776 2270 CircleF
1791 2252 CircleF
1805 2234 CircleF
1819 2215 CircleF
1834 2196 CircleF
1848 2177 CircleF
1862 2159 CircleF
1877 2140 CircleF
1891 2123 CircleF
1905 2106 CircleF
1920 2090 CircleF
1934 2075 CircleF
1948 2061 CircleF
1963 2049 CircleF
1977 2039 CircleF
1991 2030 CircleF
2005 2023 CircleF
2020 2018 CircleF
2034 2015 CircleF
2048 2013 CircleF
2063 2013 CircleF
2077 2014 CircleF
2091 2017 CircleF
2106 2021 CircleF
2120 2027 CircleF
2134 2034 CircleF
2149 2041 CircleF
2163 2049 CircleF
2177 2058 CircleF
2192 2067 CircleF
2206 2076 CircleF
2220 2085 CircleF
2234 2093 CircleF
2249 2101 CircleF
2263 2108 CircleF
2277 2115 CircleF
2292 2120 CircleF
2306 2125 CircleF
2320 2128 CircleF
2335 2130 CircleF
2349 2130 CircleF
2363 2130 CircleF
2378 2128 CircleF
2392 2125 CircleF
2406 2121 CircleF
2421 2116 CircleF
2435 2111 CircleF
2449 2105 CircleF
2464 2098 CircleF
2478 2092 CircleF
2492 2086 CircleF
2506 2080 CircleF
2521 2074 CircleF
2535 2069 CircleF
2549 2066 CircleF
2564 2064 CircleF
2578 2063 CircleF
2592 2064 CircleF
2607 2066 CircleF
2621 2071 CircleF
2635 2077 CircleF
2650 2085 CircleF
2664 2096 CircleF
2678 2108 CircleF
2693 2122 CircleF
2707 2137 CircleF
2721 2154 CircleF
2735 2173 CircleF
2750 2192 CircleF
2764 2212 CircleF
2778 2232 CircleF
2793 2252 CircleF
2807 2272 CircleF
2821 2292 CircleF
2836 2310 CircleF
2850 2327 CircleF
2864 2341 CircleF
2879 2354 CircleF
2893 2365 CircleF
2907 2373 CircleF
2922 2378 CircleF
2936 2380 CircleF
2950 2380 CircleF
2964 2376 CircleF
2979 2369 CircleF
2993 2359 CircleF
3007 2346 CircleF
3022 2331 CircleF
3036 2313 CircleF
3050 2293 CircleF
3065 2272 CircleF
3079 2249 CircleF
3093 2225 CircleF
3108 2200 CircleF
3122 2176 CircleF
3136 2151 CircleF
3151 2128 CircleF
3165 2105 CircleF
3179 2085 CircleF
3194 2066 CircleF
3208 2049 CircleF
3222 2035 CircleF
3236 2024 CircleF
3251 2016 CircleF
3265 2010 CircleF
3279 2008 CircleF
3294 2008 CircleF
3308 2011 CircleF
3322 2017 CircleF
3337 2025 CircleF
3351 2035 CircleF
3365 2047 CircleF
3380 2059 CircleF
3394 2073 CircleF
3408 2088 CircleF
3423 2102 CircleF
3437 2116 CircleF
3451 2129 CircleF
3465 2141 CircleF
3480 2151 CircleF
3494 2159 CircleF
3508 2165 CircleF
3523 2169 CircleF
3537 2171 CircleF
3551 2170 CircleF
3566 2166 CircleF
3580 2160 CircleF
3594 2152 CircleF
3609 2142 CircleF
3623 2130 CircleF
3637 2116 CircleF
3652 2102 CircleF
3666 2087 CircleF
3680 2071 CircleF
3694 2056 CircleF
3709 2041 CircleF
3723 2027 CircleF
3737 2015 CircleF
3752 2005 CircleF
3766 1996 CircleF
3780 1990 CircleF
3795 1987 CircleF
3809 1987 CircleF
2.000 UL
LTb
LCb setrgbcolor
[] 0 setdash
1.500 UL
LTb
388 2565 N
0 -933 V
3421 0 V
0 933 V
-3421 0 V
Z stroke
1.000 UP
1.500 UL
LTb
1.500 UL
LTb
388 388 M
47 0 V
3374 0 R
-47 0 V
stroke
388 544 M
47 0 V
3374 0 R
-47 0 V
stroke
388 699 M
47 0 V
3374 0 R
-47 0 V
stroke
388 855 M
47 0 V
3374 0 R
-47 0 V
stroke
388 1010 M
47 0 V
3374 0 R
-47 0 V
stroke
388 1166 M
47 0 V
3374 0 R
-47 0 V
stroke
388 1321 M
47 0 V
3374 0 R
-47 0 V
stroke
388 388 M
0 47 V
0 886 R
0 -47 V
stroke
1243 388 M
0 47 V
0 886 R
0 -47 V
stroke
2099 388 M
0 47 V
0 886 R
0 -47 V
stroke
2954 388 M
0 47 V
0 886 R
0 -47 V
stroke
3809 388 M
0 47 V
0 886 R
0 -47 V
stroke
3809 388 M
-47 0 V
stroke
3809 1321 M
-47 0 V
stroke
1.500 UL
LTb
388 1321 N
0 -933 V
3421 0 V
0 933 V
-3421 0 V
Z stroke
1.000 UP
1.500 UL
LTb
0.200 UP
1.000 UL
LTb
LC3 setrgbcolor
388 630 M
14 3 V
15 10 V
14 16 V
14 21 V
15 27 V
14 31 V
14 36 V
15 38 V
14 41 V
14 41 V
14 42 V
15 41 V
14 40 V
14 37 V
15 33 V
14 29 V
14 25 V
15 19 V
14 13 V
14 8 V
15 1 V
14 -5 V
14 -10 V
15 -16 V
14 -21 V
14 -26 V
14 -29 V
15 -32 V
14 -35 V
14 -36 V
15 -38 V
14 -36 V
14 -36 V
15 -35 V
14 -32 V
14 -28 V
15 -26 V
14 -21 V
14 -17 V
15 -12 V
14 -7 V
14 -3 V
14 3 V
15 7 V
14 11 V
14 15 V
15 19 V
14 22 V
14 25 V
15 27 V
14 29 V
14 29 V
15 30 V
14 29 V
14 29 V
15 27 V
14 26 V
14 23 V
15 20 V
14 18 V
14 14 V
14 11 V
15 7 V
14 4 V
14 0 V
15 -4 V
14 -7 V
14 -10 V
15 -13 V
14 -16 V
14 -18 V
15 -21 V
14 -22 V
14 -23 V
15 -24 V
14 -24 V
14 -25 V
14 -24 V
15 -23 V
14 -22 V
14 -20 V
15 -18 V
14 -16 V
14 -14 V
15 -10 V
14 -8 V
14 -5 V
15 -2 V
14 1 V
14 5 V
15 7 V
14 10 V
14 13 V
14 16 V
15 17 V
14 20 V
14 21 V
15 22 V
14 24 V
14 23 V
15 24 V
14 23 V
14 23 V
15 21 V
stroke 1877 1007 M
14 20 V
14 18 V
15 15 V
14 13 V
14 11 V
15 7 V
14 4 V
14 1 V
14 -3 V
15 -6 V
14 -9 V
14 -12 V
15 -15 V
14 -18 V
14 -21 V
15 -22 V
14 -24 V
14 -26 V
15 -26 V
14 -26 V
14 -27 V
15 -26 V
14 -24 V
14 -23 V
14 -21 V
15 -19 V
14 -15 V
14 -13 V
15 -9 V
14 -5 V
14 -1 V
15 3 V
14 7 V
14 11 V
15 15 V
14 18 V
14 21 V
15 25 V
14 27 V
14 29 V
15 31 V
14 31 V
14 32 V
14 32 V
15 30 V
14 29 V
14 26 V
15 24 V
14 21 V
14 16 V
15 13 V
14 7 V
14 3 V
15 -1 V
14 -8 V
14 -11 V
15 -17 V
14 -22 V
14 -25 V
14 -29 V
15 -33 V
14 -34 V
14 -37 V
15 -38 V
14 -38 V
14 -38 V
15 -36 V
14 -35 V
14 -31 V
15 -28 V
14 -23 V
14 -19 V
15 -13 V
14 -7 V
14 -2 V
14 5 V
15 10 V
14 17 V
14 22 V
15 28 V
14 32 V
14 36 V
15 40 V
14 42 V
14 43 V
15 45 V
14 43 V
14 43 V
15 40 V
14 37 V
14 32 V
15 28 V
14 22 V
14 16 V
14 9 V
15 2 V
14 -4 V
14 -12 V
15 -18 V
14 -24 V
14 -31 V
15 -35 V
14 -40 V
14 -43 V
stroke 3365 1016 M
15 -46 V
14 -47 V
14 -48 V
15 -47 V
14 -45 V
14 -42 V
14 -38 V
15 -33 V
14 -28 V
14 -21 V
15 -15 V
14 -7 V
14 -1 V
15 7 V
14 14 V
14 20 V
15 27 V
14 32 V
14 37 V
15 41 V
14 43 V
14 45 V
14 46 V
15 46 V
14 44 V
14 41 V
15 38 V
14 34 V
14 29 V
15 23 V
14 17 V
388 630 CircleF
402 633 CircleF
417 643 CircleF
431 659 CircleF
445 680 CircleF
460 707 CircleF
474 738 CircleF
488 774 CircleF
503 812 CircleF
517 853 CircleF
531 894 CircleF
545 936 CircleF
560 977 CircleF
574 1017 CircleF
588 1054 CircleF
603 1087 CircleF
617 1116 CircleF
631 1141 CircleF
646 1160 CircleF
660 1173 CircleF
674 1181 CircleF
689 1182 CircleF
703 1177 CircleF
717 1167 CircleF
732 1151 CircleF
746 1130 CircleF
760 1104 CircleF
774 1075 CircleF
789 1043 CircleF
803 1008 CircleF
817 972 CircleF
832 934 CircleF
846 898 CircleF
860 862 CircleF
875 827 CircleF
889 795 CircleF
903 767 CircleF
918 741 CircleF
932 720 CircleF
946 703 CircleF
961 691 CircleF
975 684 CircleF
989 681 CircleF
1003 684 CircleF
1018 691 CircleF
1032 702 CircleF
1046 717 CircleF
1061 736 CircleF
1075 758 CircleF
1089 783 CircleF
1104 810 CircleF
1118 839 CircleF
1132 868 CircleF
1147 898 CircleF
1161 927 CircleF
1175 956 CircleF
1190 983 CircleF
1204 1009 CircleF
1218 1032 CircleF
1233 1052 CircleF
1247 1070 CircleF
1261 1084 CircleF
1275 1095 CircleF
1290 1102 CircleF
1304 1106 CircleF
1318 1106 CircleF
1333 1102 CircleF
1347 1095 CircleF
1361 1085 CircleF
1376 1072 CircleF
1390 1056 CircleF
1404 1038 CircleF
1419 1017 CircleF
1433 995 CircleF
1447 972 CircleF
1462 948 CircleF
1476 924 CircleF
1490 899 CircleF
1504 875 CircleF
1519 852 CircleF
1533 830 CircleF
1547 810 CircleF
1562 792 CircleF
1576 776 CircleF
1590 762 CircleF
1605 752 CircleF
1619 744 CircleF
1633 739 CircleF
1648 737 CircleF
1662 738 CircleF
1676 743 CircleF
1691 750 CircleF
1705 760 CircleF
1719 773 CircleF
1733 789 CircleF
1748 806 CircleF
1762 826 CircleF
1776 847 CircleF
1791 869 CircleF
1805 893 CircleF
1819 916 CircleF
1834 940 CircleF
1848 963 CircleF
1862 986 CircleF
1877 1007 CircleF
1891 1027 CircleF
1905 1045 CircleF
1920 1060 CircleF
1934 1073 CircleF
1948 1084 CircleF
1963 1091 CircleF
1977 1095 CircleF
1991 1096 CircleF
2005 1093 CircleF
2020 1087 CircleF
2034 1078 CircleF
2048 1066 CircleF
2063 1051 CircleF
2077 1033 CircleF
2091 1012 CircleF
2106 990 CircleF
2120 966 CircleF
2134 940 CircleF
2149 914 CircleF
2163 888 CircleF
2177 861 CircleF
2192 835 CircleF
2206 811 CircleF
2220 788 CircleF
2234 767 CircleF
2249 748 CircleF
2263 733 CircleF
2277 720 CircleF
2292 711 CircleF
2306 706 CircleF
2320 705 CircleF
2335 708 CircleF
2349 715 CircleF
2363 726 CircleF
2378 741 CircleF
2392 759 CircleF
2406 780 CircleF
2421 805 CircleF
2435 832 CircleF
2449 861 CircleF
2464 892 CircleF
2478 923 CircleF
2492 955 CircleF
2506 987 CircleF
2521 1017 CircleF
2535 1046 CircleF
2549 1072 CircleF
2564 1096 CircleF
2578 1117 CircleF
2592 1133 CircleF
2607 1146 CircleF
2621 1153 CircleF
2635 1156 CircleF
2650 1155 CircleF
2664 1147 CircleF
2678 1136 CircleF
2693 1119 CircleF
2707 1097 CircleF
2721 1072 CircleF
2735 1043 CircleF
2750 1010 CircleF
2764 976 CircleF
2778 939 CircleF
2793 901 CircleF
2807 863 CircleF
2821 825 CircleF
2836 789 CircleF
2850 754 CircleF
2864 723 CircleF
2879 695 CircleF
2893 672 CircleF
2907 653 CircleF
2922 640 CircleF
2936 633 CircleF
2950 631 CircleF
2964 636 CircleF
2979 646 CircleF
2993 663 CircleF
3007 685 CircleF
3022 713 CircleF
3036 745 CircleF
3050 781 CircleF
3065 821 CircleF
3079 863 CircleF
3093 906 CircleF
3108 951 CircleF
3122 994 CircleF
3136 1037 CircleF
3151 1077 CircleF
3165 1114 CircleF
3179 1146 CircleF
3194 1174 CircleF
3208 1196 CircleF
3222 1212 CircleF
3236 1221 CircleF
3251 1223 CircleF
3265 1219 CircleF
3279 1207 CircleF
3294 1189 CircleF
3308 1165 CircleF
3322 1134 CircleF
3337 1099 CircleF
3351 1059 CircleF
3365 1016 CircleF
3380 970 CircleF
3394 923 CircleF
3408 875 CircleF
3423 828 CircleF
3437 783 CircleF
3451 741 CircleF
3465 703 CircleF
3480 670 CircleF
3494 642 CircleF
3508 621 CircleF
3523 606 CircleF
3537 599 CircleF
3551 598 CircleF
3566 605 CircleF
3580 619 CircleF
3594 639 CircleF
3609 666 CircleF
3623 698 CircleF
3637 735 CircleF
3652 776 CircleF
3666 819 CircleF
3680 864 CircleF
3694 910 CircleF
3709 956 CircleF
3723 1000 CircleF
3737 1041 CircleF
3752 1079 CircleF
3766 1113 CircleF
3780 1142 CircleF
3795 1165 CircleF
3809 1182 CircleF
2.000 UL
LTb
LCb setrgbcolor
[] 0 setdash
1.500 UL
LTb
388 1321 N
0 -933 V
3421 0 V
0 933 V
-3421 0 V
Z stroke
1.000 UP
1.500 UL
LTb
stroke
grestore
end
showpage
%%Trailer
