%!PS-Adobe-2.0 EPSF-2.0
%%Title: fig5.tex
%%Creator: gnuplot 5.0 patchlevel 3
%%CreationDate: Mon Apr 16 00:21:46 2018
%%DocumentFonts: 
%%BoundingBox: 50 50 244 244
%%EndComments
%%BeginProlog
/gnudict 256 dict def
gnudict begin
%
% The following true/false flags may be edited by hand if desired.
% The unit line width and grayscale image gamma correction may also be changed.
%
/Color true def
/Blacktext false def
/Solid false def
/Dashlength 2.5 def
/Landscape false def
/Level1 false def
/Level3 false def
/Rounded false def
/ClipToBoundingBox false def
/SuppressPDFMark false def
/TransparentPatterns false def
/gnulinewidth 5.000 def
/userlinewidth gnulinewidth def
/Gamma 1.0 def
/BackgroundColor {-1.000 -1.000 -1.000} def
%
/vshift -73 def
/dl1 {
  10.0 Dashlength userlinewidth gnulinewidth div mul mul mul
  Rounded { currentlinewidth 0.75 mul sub dup 0 le { pop 0.01 } if } if
} def
/dl2 {
  10.0 Dashlength userlinewidth gnulinewidth div mul mul mul
  Rounded { currentlinewidth 0.75 mul add } if
} def
/hpt_ 31.5 def
/vpt_ 31.5 def
/hpt hpt_ def
/vpt vpt_ def
/doclip {
  ClipToBoundingBox {
    newpath 50 50 moveto 244 50 lineto 244 244 lineto 50 244 lineto closepath
    clip
  } if
} def
%
% Gnuplot Prolog Version 5.1 (Oct 2015)
%
%/SuppressPDFMark true def
%
/M {moveto} bind def
/L {lineto} bind def
/R {rmoveto} bind def
/V {rlineto} bind def
/N {newpath moveto} bind def
/Z {closepath} bind def
/C {setrgbcolor} bind def
/f {rlineto fill} bind def
/g {setgray} bind def
/Gshow {show} def   % May be redefined later in the file to support UTF-8
/vpt2 vpt 2 mul def
/hpt2 hpt 2 mul def
/Lshow {currentpoint stroke M 0 vshift R 
	Blacktext {gsave 0 setgray textshow grestore} {textshow} ifelse} def
/Rshow {currentpoint stroke M dup stringwidth pop neg vshift R
	Blacktext {gsave 0 setgray textshow grestore} {textshow} ifelse} def
/Cshow {currentpoint stroke M dup stringwidth pop -2 div vshift R 
	Blacktext {gsave 0 setgray textshow grestore} {textshow} ifelse} def
/UP {dup vpt_ mul /vpt exch def hpt_ mul /hpt exch def
  /hpt2 hpt 2 mul def /vpt2 vpt 2 mul def} def
/DL {Color {setrgbcolor Solid {pop []} if 0 setdash}
 {pop pop pop 0 setgray Solid {pop []} if 0 setdash} ifelse} def
/BL {stroke userlinewidth 2 mul setlinewidth
	Rounded {1 setlinejoin 1 setlinecap} if} def
/AL {stroke userlinewidth 2 div setlinewidth
	Rounded {1 setlinejoin 1 setlinecap} if} def
/UL {dup gnulinewidth mul /userlinewidth exch def
	dup 1 lt {pop 1} if 10 mul /udl exch def} def
/PL {stroke userlinewidth setlinewidth
	Rounded {1 setlinejoin 1 setlinecap} if} def
3.8 setmiterlimit
% Classic Line colors (version 5.0)
/LCw {1 1 1} def
/LCb {0 0 0} def
/LCa {0 0 0} def
/LC0 {1 0 0} def
/LC1 {0 1 0} def
/LC2 {0 0 1} def
/LC3 {1 0 1} def
/LC4 {0 1 1} def
/LC5 {1 1 0} def
/LC6 {0 0 0} def
/LC7 {1 0.3 0} def
/LC8 {0.5 0.5 0.5} def
% Default dash patterns (version 5.0)
/LTB {BL [] LCb DL} def
/LTw {PL [] 1 setgray} def
/LTb {PL [] LCb DL} def
/LTa {AL [1 udl mul 2 udl mul] 0 setdash LCa setrgbcolor} def
/LT0 {PL [] LC0 DL} def
/LT1 {PL [2 dl1 3 dl2] LC1 DL} def
/LT2 {PL [1 dl1 1.5 dl2] LC2 DL} def
/LT3 {PL [6 dl1 2 dl2 1 dl1 2 dl2] LC3 DL} def
/LT4 {PL [1 dl1 2 dl2 6 dl1 2 dl2 1 dl1 2 dl2] LC4 DL} def
/LT5 {PL [4 dl1 2 dl2] LC5 DL} def
/LT6 {PL [1.5 dl1 1.5 dl2 1.5 dl1 1.5 dl2 1.5 dl1 6 dl2] LC6 DL} def
/LT7 {PL [3 dl1 3 dl2 1 dl1 3 dl2] LC7 DL} def
/LT8 {PL [2 dl1 2 dl2 2 dl1 6 dl2] LC8 DL} def
/SL {[] 0 setdash} def
/Pnt {stroke [] 0 setdash gsave 1 setlinecap M 0 0 V stroke grestore} def
/Dia {stroke [] 0 setdash 2 copy vpt add M
  hpt neg vpt neg V hpt vpt neg V
  hpt vpt V hpt neg vpt V closepath stroke
  Pnt} def
/Pls {stroke [] 0 setdash vpt sub M 0 vpt2 V
  currentpoint stroke M
  hpt neg vpt neg R hpt2 0 V stroke
 } def
/Box {stroke [] 0 setdash 2 copy exch hpt sub exch vpt add M
  0 vpt2 neg V hpt2 0 V 0 vpt2 V
  hpt2 neg 0 V closepath stroke
  Pnt} def
/Crs {stroke [] 0 setdash exch hpt sub exch vpt add M
  hpt2 vpt2 neg V currentpoint stroke M
  hpt2 neg 0 R hpt2 vpt2 V stroke} def
/TriU {stroke [] 0 setdash 2 copy vpt 1.12 mul add M
  hpt neg vpt -1.62 mul V
  hpt 2 mul 0 V
  hpt neg vpt 1.62 mul V closepath stroke
  Pnt} def
/Star {2 copy Pls Crs} def
/BoxF {stroke [] 0 setdash exch hpt sub exch vpt add M
  0 vpt2 neg V hpt2 0 V 0 vpt2 V
  hpt2 neg 0 V closepath fill} def
/TriUF {stroke [] 0 setdash vpt 1.12 mul add M
  hpt neg vpt -1.62 mul V
  hpt 2 mul 0 V
  hpt neg vpt 1.62 mul V closepath fill} def
/TriD {stroke [] 0 setdash 2 copy vpt 1.12 mul sub M
  hpt neg vpt 1.62 mul V
  hpt 2 mul 0 V
  hpt neg vpt -1.62 mul V closepath stroke
  Pnt} def
/TriDF {stroke [] 0 setdash vpt 1.12 mul sub M
  hpt neg vpt 1.62 mul V
  hpt 2 mul 0 V
  hpt neg vpt -1.62 mul V closepath fill} def
/DiaF {stroke [] 0 setdash vpt add M
  hpt neg vpt neg V hpt vpt neg V
  hpt vpt V hpt neg vpt V closepath fill} def
/Pent {stroke [] 0 setdash 2 copy gsave
  translate 0 hpt M 4 {72 rotate 0 hpt L} repeat
  closepath stroke grestore Pnt} def
/PentF {stroke [] 0 setdash gsave
  translate 0 hpt M 4 {72 rotate 0 hpt L} repeat
  closepath fill grestore} def
/Circle {stroke [] 0 setdash 2 copy
  hpt 0 360 arc stroke Pnt} def
/CircleF {stroke [] 0 setdash hpt 0 360 arc fill} def
/C0 {BL [] 0 setdash 2 copy moveto vpt 90 450 arc} bind def
/C1 {BL [] 0 setdash 2 copy moveto
	2 copy vpt 0 90 arc closepath fill
	vpt 0 360 arc closepath} bind def
/C2 {BL [] 0 setdash 2 copy moveto
	2 copy vpt 90 180 arc closepath fill
	vpt 0 360 arc closepath} bind def
/C3 {BL [] 0 setdash 2 copy moveto
	2 copy vpt 0 180 arc closepath fill
	vpt 0 360 arc closepath} bind def
/C4 {BL [] 0 setdash 2 copy moveto
	2 copy vpt 180 270 arc closepath fill
	vpt 0 360 arc closepath} bind def
/C5 {BL [] 0 setdash 2 copy moveto
	2 copy vpt 0 90 arc
	2 copy moveto
	2 copy vpt 180 270 arc closepath fill
	vpt 0 360 arc} bind def
/C6 {BL [] 0 setdash 2 copy moveto
	2 copy vpt 90 270 arc closepath fill
	vpt 0 360 arc closepath} bind def
/C7 {BL [] 0 setdash 2 copy moveto
	2 copy vpt 0 270 arc closepath fill
	vpt 0 360 arc closepath} bind def
/C8 {BL [] 0 setdash 2 copy moveto
	2 copy vpt 270 360 arc closepath fill
	vpt 0 360 arc closepath} bind def
/C9 {BL [] 0 setdash 2 copy moveto
	2 copy vpt 270 450 arc closepath fill
	vpt 0 360 arc closepath} bind def
/C10 {BL [] 0 setdash 2 copy 2 copy moveto vpt 270 360 arc closepath fill
	2 copy moveto
	2 copy vpt 90 180 arc closepath fill
	vpt 0 360 arc closepath} bind def
/C11 {BL [] 0 setdash 2 copy moveto
	2 copy vpt 0 180 arc closepath fill
	2 copy moveto
	2 copy vpt 270 360 arc closepath fill
	vpt 0 360 arc closepath} bind def
/C12 {BL [] 0 setdash 2 copy moveto
	2 copy vpt 180 360 arc closepath fill
	vpt 0 360 arc closepath} bind def
/C13 {BL [] 0 setdash 2 copy moveto
	2 copy vpt 0 90 arc closepath fill
	2 copy moveto
	2 copy vpt 180 360 arc closepath fill
	vpt 0 360 arc closepath} bind def
/C14 {BL [] 0 setdash 2 copy moveto
	2 copy vpt 90 360 arc closepath fill
	vpt 0 360 arc} bind def
/C15 {BL [] 0 setdash 2 copy vpt 0 360 arc closepath fill
	vpt 0 360 arc closepath} bind def
/Rec {newpath 4 2 roll moveto 1 index 0 rlineto 0 exch rlineto
	neg 0 rlineto closepath} bind def
/Square {dup Rec} bind def
/Bsquare {vpt sub exch vpt sub exch vpt2 Square} bind def
/S0 {BL [] 0 setdash 2 copy moveto 0 vpt rlineto BL Bsquare} bind def
/S1 {BL [] 0 setdash 2 copy vpt Square fill Bsquare} bind def
/S2 {BL [] 0 setdash 2 copy exch vpt sub exch vpt Square fill Bsquare} bind def
/S3 {BL [] 0 setdash 2 copy exch vpt sub exch vpt2 vpt Rec fill Bsquare} bind def
/S4 {BL [] 0 setdash 2 copy exch vpt sub exch vpt sub vpt Square fill Bsquare} bind def
/S5 {BL [] 0 setdash 2 copy 2 copy vpt Square fill
	exch vpt sub exch vpt sub vpt Square fill Bsquare} bind def
/S6 {BL [] 0 setdash 2 copy exch vpt sub exch vpt sub vpt vpt2 Rec fill Bsquare} bind def
/S7 {BL [] 0 setdash 2 copy exch vpt sub exch vpt sub vpt vpt2 Rec fill
	2 copy vpt Square fill Bsquare} bind def
/S8 {BL [] 0 setdash 2 copy vpt sub vpt Square fill Bsquare} bind def
/S9 {BL [] 0 setdash 2 copy vpt sub vpt vpt2 Rec fill Bsquare} bind def
/S10 {BL [] 0 setdash 2 copy vpt sub vpt Square fill 2 copy exch vpt sub exch vpt Square fill
	Bsquare} bind def
/S11 {BL [] 0 setdash 2 copy vpt sub vpt Square fill 2 copy exch vpt sub exch vpt2 vpt Rec fill
	Bsquare} bind def
/S12 {BL [] 0 setdash 2 copy exch vpt sub exch vpt sub vpt2 vpt Rec fill Bsquare} bind def
/S13 {BL [] 0 setdash 2 copy exch vpt sub exch vpt sub vpt2 vpt Rec fill
	2 copy vpt Square fill Bsquare} bind def
/S14 {BL [] 0 setdash 2 copy exch vpt sub exch vpt sub vpt2 vpt Rec fill
	2 copy exch vpt sub exch vpt Square fill Bsquare} bind def
/S15 {BL [] 0 setdash 2 copy Bsquare fill Bsquare} bind def
/D0 {gsave translate 45 rotate 0 0 S0 stroke grestore} bind def
/D1 {gsave translate 45 rotate 0 0 S1 stroke grestore} bind def
/D2 {gsave translate 45 rotate 0 0 S2 stroke grestore} bind def
/D3 {gsave translate 45 rotate 0 0 S3 stroke grestore} bind def
/D4 {gsave translate 45 rotate 0 0 S4 stroke grestore} bind def
/D5 {gsave translate 45 rotate 0 0 S5 stroke grestore} bind def
/D6 {gsave translate 45 rotate 0 0 S6 stroke grestore} bind def
/D7 {gsave translate 45 rotate 0 0 S7 stroke grestore} bind def
/D8 {gsave translate 45 rotate 0 0 S8 stroke grestore} bind def
/D9 {gsave translate 45 rotate 0 0 S9 stroke grestore} bind def
/D10 {gsave translate 45 rotate 0 0 S10 stroke grestore} bind def
/D11 {gsave translate 45 rotate 0 0 S11 stroke grestore} bind def
/D12 {gsave translate 45 rotate 0 0 S12 stroke grestore} bind def
/D13 {gsave translate 45 rotate 0 0 S13 stroke grestore} bind def
/D14 {gsave translate 45 rotate 0 0 S14 stroke grestore} bind def
/D15 {gsave translate 45 rotate 0 0 S15 stroke grestore} bind def
/DiaE {stroke [] 0 setdash vpt add M
  hpt neg vpt neg V hpt vpt neg V
  hpt vpt V hpt neg vpt V closepath stroke} def
/BoxE {stroke [] 0 setdash exch hpt sub exch vpt add M
  0 vpt2 neg V hpt2 0 V 0 vpt2 V
  hpt2 neg 0 V closepath stroke} def
/TriUE {stroke [] 0 setdash vpt 1.12 mul add M
  hpt neg vpt -1.62 mul V
  hpt 2 mul 0 V
  hpt neg vpt 1.62 mul V closepath stroke} def
/TriDE {stroke [] 0 setdash vpt 1.12 mul sub M
  hpt neg vpt 1.62 mul V
  hpt 2 mul 0 V
  hpt neg vpt -1.62 mul V closepath stroke} def
/PentE {stroke [] 0 setdash gsave
  translate 0 hpt M 4 {72 rotate 0 hpt L} repeat
  closepath stroke grestore} def
/CircE {stroke [] 0 setdash 
  hpt 0 360 arc stroke} def
/Opaque {gsave closepath 1 setgray fill grestore 0 setgray closepath} def
/DiaW {stroke [] 0 setdash vpt add M
  hpt neg vpt neg V hpt vpt neg V
  hpt vpt V hpt neg vpt V Opaque stroke} def
/BoxW {stroke [] 0 setdash exch hpt sub exch vpt add M
  0 vpt2 neg V hpt2 0 V 0 vpt2 V
  hpt2 neg 0 V Opaque stroke} def
/TriUW {stroke [] 0 setdash vpt 1.12 mul add M
  hpt neg vpt -1.62 mul V
  hpt 2 mul 0 V
  hpt neg vpt 1.62 mul V Opaque stroke} def
/TriDW {stroke [] 0 setdash vpt 1.12 mul sub M
  hpt neg vpt 1.62 mul V
  hpt 2 mul 0 V
  hpt neg vpt -1.62 mul V Opaque stroke} def
/PentW {stroke [] 0 setdash gsave
  translate 0 hpt M 4 {72 rotate 0 hpt L} repeat
  Opaque stroke grestore} def
/CircW {stroke [] 0 setdash 
  hpt 0 360 arc Opaque stroke} def
/BoxFill {gsave Rec 1 setgray fill grestore} def
/Density {
  /Fillden exch def
  currentrgbcolor
  /ColB exch def /ColG exch def /ColR exch def
  /ColR ColR Fillden mul Fillden sub 1 add def
  /ColG ColG Fillden mul Fillden sub 1 add def
  /ColB ColB Fillden mul Fillden sub 1 add def
  ColR ColG ColB setrgbcolor} def
/BoxColFill {gsave Rec PolyFill} def
/PolyFill {gsave Density fill grestore grestore} def
/h {rlineto rlineto rlineto gsave closepath fill grestore} bind def
%
% PostScript Level 1 Pattern Fill routine for rectangles
% Usage: x y w h s a XX PatternFill
%	x,y = lower left corner of box to be filled
%	w,h = width and height of box
%	  a = angle in degrees between lines and x-axis
%	 XX = 0/1 for no/yes cross-hatch
%
/PatternFill {gsave /PFa [ 9 2 roll ] def
  PFa 0 get PFa 2 get 2 div add PFa 1 get PFa 3 get 2 div add translate
  PFa 2 get -2 div PFa 3 get -2 div PFa 2 get PFa 3 get Rec
  TransparentPatterns {} {gsave 1 setgray fill grestore} ifelse
  clip
  currentlinewidth 0.5 mul setlinewidth
  /PFs PFa 2 get dup mul PFa 3 get dup mul add sqrt def
  0 0 M PFa 5 get rotate PFs -2 div dup translate
  0 1 PFs PFa 4 get div 1 add floor cvi
	{PFa 4 get mul 0 M 0 PFs V} for
  0 PFa 6 get ne {
	0 1 PFs PFa 4 get div 1 add floor cvi
	{PFa 4 get mul 0 2 1 roll M PFs 0 V} for
 } if
  stroke grestore} def
%
/languagelevel where
 {pop languagelevel} {1} ifelse
dup 2 lt
	{/InterpretLevel1 true def
	 /InterpretLevel3 false def}
	{/InterpretLevel1 Level1 def
	 2 gt
	    {/InterpretLevel3 Level3 def}
	    {/InterpretLevel3 false def}
	 ifelse }
 ifelse
%
% PostScript level 2 pattern fill definitions
%
/Level2PatternFill {
/Tile8x8 {/PaintType 2 /PatternType 1 /TilingType 1 /BBox [0 0 8 8] /XStep 8 /YStep 8}
	bind def
/KeepColor {currentrgbcolor [/Pattern /DeviceRGB] setcolorspace} bind def
<< Tile8x8
 /PaintProc {0.5 setlinewidth pop 0 0 M 8 8 L 0 8 M 8 0 L stroke} 
>> matrix makepattern
/Pat1 exch def
<< Tile8x8
 /PaintProc {0.5 setlinewidth pop 0 0 M 8 8 L 0 8 M 8 0 L stroke
	0 4 M 4 8 L 8 4 L 4 0 L 0 4 L stroke}
>> matrix makepattern
/Pat2 exch def
<< Tile8x8
 /PaintProc {0.5 setlinewidth pop 0 0 M 0 8 L
	8 8 L 8 0 L 0 0 L fill}
>> matrix makepattern
/Pat3 exch def
<< Tile8x8
 /PaintProc {0.5 setlinewidth pop -4 8 M 8 -4 L
	0 12 M 12 0 L stroke}
>> matrix makepattern
/Pat4 exch def
<< Tile8x8
 /PaintProc {0.5 setlinewidth pop -4 0 M 8 12 L
	0 -4 M 12 8 L stroke}
>> matrix makepattern
/Pat5 exch def
<< Tile8x8
 /PaintProc {0.5 setlinewidth pop -2 8 M 4 -4 L
	0 12 M 8 -4 L 4 12 M 10 0 L stroke}
>> matrix makepattern
/Pat6 exch def
<< Tile8x8
 /PaintProc {0.5 setlinewidth pop -2 0 M 4 12 L
	0 -4 M 8 12 L 4 -4 M 10 8 L stroke}
>> matrix makepattern
/Pat7 exch def
<< Tile8x8
 /PaintProc {0.5 setlinewidth pop 8 -2 M -4 4 L
	12 0 M -4 8 L 12 4 M 0 10 L stroke}
>> matrix makepattern
/Pat8 exch def
<< Tile8x8
 /PaintProc {0.5 setlinewidth pop 0 -2 M 12 4 L
	-4 0 M 12 8 L -4 4 M 8 10 L stroke}
>> matrix makepattern
/Pat9 exch def
/Pattern1 {PatternBgnd KeepColor Pat1 setpattern} bind def
/Pattern2 {PatternBgnd KeepColor Pat2 setpattern} bind def
/Pattern3 {PatternBgnd KeepColor Pat3 setpattern} bind def
/Pattern4 {PatternBgnd KeepColor Landscape {Pat5} {Pat4} ifelse setpattern} bind def
/Pattern5 {PatternBgnd KeepColor Landscape {Pat4} {Pat5} ifelse setpattern} bind def
/Pattern6 {PatternBgnd KeepColor Landscape {Pat9} {Pat6} ifelse setpattern} bind def
/Pattern7 {PatternBgnd KeepColor Landscape {Pat8} {Pat7} ifelse setpattern} bind def
} def
%
%
%End of PostScript Level 2 code
%
/PatternBgnd {
  TransparentPatterns {} {gsave 1 setgray fill grestore} ifelse
} def
%
% Substitute for Level 2 pattern fill codes with
% grayscale if Level 2 support is not selected.
%
/Level1PatternFill {
/Pattern1 {0.250 Density} bind def
/Pattern2 {0.500 Density} bind def
/Pattern3 {0.750 Density} bind def
/Pattern4 {0.125 Density} bind def
/Pattern5 {0.375 Density} bind def
/Pattern6 {0.625 Density} bind def
/Pattern7 {0.875 Density} bind def
} def
%
% Now test for support of Level 2 code
%
Level1 {Level1PatternFill} {Level2PatternFill} ifelse
%
/Symbol-Oblique /Symbol findfont [1 0 .167 1 0 0] makefont
dup length dict begin {1 index /FID eq {pop pop} {def} ifelse} forall
currentdict end definefont pop
%
Level1 SuppressPDFMark or 
{} {
/SDict 10 dict def
systemdict /pdfmark known not {
  userdict /pdfmark systemdict /cleartomark get put
} if
SDict begin [
  /Title (fig5.tex)
  /Subject (gnuplot plot)
  /Creator (gnuplot 5.0 patchlevel 3)
  /Author (daniela)
%  /Producer (gnuplot)
%  /Keywords ()
  /CreationDate (Mon Apr 16 00:21:46 2018)
  /DOCINFO pdfmark
end
} ifelse
%
% Support for boxed text - Ethan A Merritt May 2005
%
/InitTextBox { userdict /TBy2 3 -1 roll put userdict /TBx2 3 -1 roll put
           userdict /TBy1 3 -1 roll put userdict /TBx1 3 -1 roll put
	   /Boxing true def } def
/ExtendTextBox { Boxing
    { gsave dup false charpath pathbbox
      dup TBy2 gt {userdict /TBy2 3 -1 roll put} {pop} ifelse
      dup TBx2 gt {userdict /TBx2 3 -1 roll put} {pop} ifelse
      dup TBy1 lt {userdict /TBy1 3 -1 roll put} {pop} ifelse
      dup TBx1 lt {userdict /TBx1 3 -1 roll put} {pop} ifelse
      grestore } if } def
/PopTextBox { newpath TBx1 TBxmargin sub TBy1 TBymargin sub M
               TBx1 TBxmargin sub TBy2 TBymargin add L
	       TBx2 TBxmargin add TBy2 TBymargin add L
	       TBx2 TBxmargin add TBy1 TBymargin sub L closepath } def
/DrawTextBox { PopTextBox stroke /Boxing false def} def
/FillTextBox { gsave PopTextBox 1 1 1 setrgbcolor fill grestore /Boxing false def} def
0 0 0 0 InitTextBox
/TBxmargin 20 def
/TBymargin 20 def
/Boxing false def
/textshow { ExtendTextBox Gshow } def
%
% redundant definitions for compatibility with prologue.ps older than 5.0.2
/LTB {BL [] LCb DL} def
/LTb {PL [] LCb DL} def
end
%%EndProlog
%%Page: 1 1
gnudict begin
gsave
doclip
50 50 translate
0.050 0.050 scale
0 setgray
newpath
1.500 UL
LTb
LCb setrgbcolor
[] 0 setdash
388 2877 M
47 0 V
3374 0 R
-47 0 V
stroke
LTb
388 3188 M
47 0 V
3374 0 R
-47 0 V
stroke
388 3498 M
47 0 V
3374 0 R
-47 0 V
stroke
388 3809 M
47 0 V
3374 0 R
-47 0 V
stroke
388 2877 M
0 47 V
0 885 R
0 -47 V
stroke
1243 2877 M
0 47 V
0 885 R
0 -47 V
stroke
2099 2877 M
0 47 V
0 885 R
0 -47 V
stroke
2954 2877 M
0 47 V
0 885 R
0 -47 V
stroke
3809 2877 M
0 47 V
0 885 R
0 -47 V
stroke
1.500 UL
LTb
388 3809 N
0 -932 V
3421 0 V
0 932 V
-3421 0 V
Z stroke
1.000 UP
1.500 UL
LTb
0.200 UP
1.000 UL
LTb
0.65 0.81 0.89 C 388 2877 M
14 0 V
15 0 V
14 0 V
14 0 V
15 1 V
14 1 V
14 2 V
15 4 V
14 4 V
14 6 V
14 7 V
15 10 V
14 12 V
14 14 V
15 17 V
14 20 V
14 22 V
15 25 V
14 28 V
14 31 V
15 33 V
14 35 V
14 37 V
15 39 V
14 41 V
14 41 V
14 41 V
15 42 V
14 41 V
14 41 V
15 39 V
14 37 V
14 35 V
15 32 V
14 29 V
14 26 V
15 23 V
14 18 V
14 14 V
15 10 V
14 6 V
14 1 V
14 -3 V
15 -7 V
14 -11 V
14 -15 V
15 -19 V
14 -22 V
14 -25 V
15 -29 V
14 -30 V
14 -33 V
15 -34 V
14 -36 V
14 -36 V
15 -38 V
14 -37 V
14 -38 V
15 -37 V
14 -36 V
14 -35 V
14 -34 V
15 -33 V
14 -31 V
14 -29 V
15 -28 V
14 -25 V
14 -23 V
15 -21 V
14 -19 V
14 -16 V
15 -15 V
14 -12 V
14 -10 V
15 -8 V
14 -7 V
14 -5 V
14 -3 V
15 -1 V
14 -1 V
14 1 V
15 2 V
14 4 V
14 4 V
15 4 V
14 6 V
14 6 V
15 6 V
14 7 V
14 8 V
15 8 V
14 8 V
14 8 V
14 9 V
15 10 V
14 10 V
14 10 V
15 11 V
14 11 V
14 12 V
15 12 V
14 14 V
14 14 V
15 15 V
stroke 1877 3100 M
14 16 V
14 17 V
15 17 V
14 19 V
14 19 V
15 21 V
14 21 V
14 22 V
14 23 V
15 23 V
14 23 V
14 24 V
15 24 V
14 25 V
14 23 V
15 24 V
14 22 V
14 22 V
15 21 V
14 19 V
14 18 V
15 16 V
14 14 V
14 11 V
14 10 V
15 6 V
14 4 V
14 2 V
15 -2 V
14 -5 V
14 -7 V
15 -11 V
14 -13 V
14 -16 V
15 -19 V
14 -21 V
14 -23 V
15 -25 V
14 -27 V
14 -29 V
15 -30 V
14 -30 V
14 -31 V
14 -32 V
15 -31 V
14 -30 V
14 -30 V
15 -29 V
14 -27 V
14 -26 V
15 -24 V
14 -21 V
14 -20 V
15 -17 V
14 -14 V
14 -12 V
15 -10 V
14 -7 V
14 -5 V
14 -3 V
15 -1 V
14 1 V
14 3 V
15 3 V
14 5 V
14 6 V
15 6 V
14 6 V
14 7 V
15 6 V
14 6 V
14 5 V
15 4 V
14 3 V
14 2 V
14 2 V
15 0 V
14 -1 V
14 -1 V
15 -2 V
14 -3 V
14 -2 V
15 -3 V
14 -3 V
14 -1 V
15 -1 V
14 0 V
14 1 V
15 4 V
14 5 V
14 8 V
15 10 V
14 12 V
14 15 V
14 18 V
15 20 V
14 22 V
14 25 V
15 27 V
14 29 V
14 30 V
15 32 V
14 32 V
14 33 V
stroke 3365 3349 M
15 33 V
14 32 V
14 31 V
15 30 V
14 28 V
14 26 V
14 23 V
15 20 V
14 17 V
14 13 V
15 10 V
14 6 V
14 2 V
15 -1 V
14 -5 V
14 -9 V
15 -12 V
14 -15 V
14 -18 V
15 -20 V
14 -23 V
14 -24 V
14 -25 V
15 -27 V
14 -27 V
14 -27 V
15 -27 V
14 -26 V
14 -26 V
15 -25 V
14 -24 V
388 2877 CircleF
402 2877 CircleF
417 2877 CircleF
431 2877 CircleF
445 2877 CircleF
460 2878 CircleF
474 2879 CircleF
488 2881 CircleF
503 2885 CircleF
517 2889 CircleF
531 2895 CircleF
545 2902 CircleF
560 2912 CircleF
574 2924 CircleF
588 2938 CircleF
603 2955 CircleF
617 2975 CircleF
631 2997 CircleF
646 3022 CircleF
660 3050 CircleF
674 3081 CircleF
689 3114 CircleF
703 3149 CircleF
717 3186 CircleF
732 3225 CircleF
746 3266 CircleF
760 3307 CircleF
774 3348 CircleF
789 3390 CircleF
803 3431 CircleF
817 3472 CircleF
832 3511 CircleF
846 3548 CircleF
860 3583 CircleF
875 3615 CircleF
889 3644 CircleF
903 3670 CircleF
918 3693 CircleF
932 3711 CircleF
946 3725 CircleF
961 3735 CircleF
975 3741 CircleF
989 3742 CircleF
1003 3739 CircleF
1018 3732 CircleF
1032 3721 CircleF
1046 3706 CircleF
1061 3687 CircleF
1075 3665 CircleF
1089 3640 CircleF
1104 3611 CircleF
1118 3581 CircleF
1132 3548 CircleF
1147 3514 CircleF
1161 3478 CircleF
1175 3442 CircleF
1190 3404 CircleF
1204 3367 CircleF
1218 3329 CircleF
1233 3292 CircleF
1247 3256 CircleF
1261 3221 CircleF
1275 3187 CircleF
1290 3154 CircleF
1304 3123 CircleF
1318 3094 CircleF
1333 3066 CircleF
1347 3041 CircleF
1361 3018 CircleF
1376 2997 CircleF
1390 2978 CircleF
1404 2962 CircleF
1419 2947 CircleF
1433 2935 CircleF
1447 2925 CircleF
1462 2917 CircleF
1476 2910 CircleF
1490 2905 CircleF
1504 2902 CircleF
1519 2901 CircleF
1533 2900 CircleF
1547 2901 CircleF
1562 2903 CircleF
1576 2907 CircleF
1590 2911 CircleF
1605 2915 CircleF
1619 2921 CircleF
1633 2927 CircleF
1648 2933 CircleF
1662 2940 CircleF
1676 2948 CircleF
1691 2956 CircleF
1705 2964 CircleF
1719 2972 CircleF
1733 2981 CircleF
1748 2991 CircleF
1762 3001 CircleF
1776 3011 CircleF
1791 3022 CircleF
1805 3033 CircleF
1819 3045 CircleF
1834 3057 CircleF
1848 3071 CircleF
1862 3085 CircleF
1877 3100 CircleF
1891 3116 CircleF
1905 3133 CircleF
1920 3150 CircleF
1934 3169 CircleF
1948 3188 CircleF
1963 3209 CircleF
1977 3230 CircleF
1991 3252 CircleF
2005 3275 CircleF
2020 3298 CircleF
2034 3321 CircleF
2048 3345 CircleF
2063 3369 CircleF
2077 3394 CircleF
2091 3417 CircleF
2106 3441 CircleF
2120 3463 CircleF
2134 3485 CircleF
2149 3506 CircleF
2163 3525 CircleF
2177 3543 CircleF
2192 3559 CircleF
2206 3573 CircleF
2220 3584 CircleF
2234 3594 CircleF
2249 3600 CircleF
2263 3604 CircleF
2277 3606 CircleF
2292 3604 CircleF
2306 3599 CircleF
2320 3592 CircleF
2335 3581 CircleF
2349 3568 CircleF
2363 3552 CircleF
2378 3533 CircleF
2392 3512 CircleF
2406 3489 CircleF
2421 3464 CircleF
2435 3437 CircleF
2449 3408 CircleF
2464 3378 CircleF
2478 3348 CircleF
2492 3317 CircleF
2506 3285 CircleF
2521 3254 CircleF
2535 3224 CircleF
2549 3194 CircleF
2564 3165 CircleF
2578 3138 CircleF
2592 3112 CircleF
2607 3088 CircleF
2621 3067 CircleF
2635 3047 CircleF
2650 3030 CircleF
2664 3016 CircleF
2678 3004 CircleF
2693 2994 CircleF
2707 2987 CircleF
2721 2982 CircleF
2735 2979 CircleF
2750 2978 CircleF
2764 2979 CircleF
2778 2982 CircleF
2793 2985 CircleF
2807 2990 CircleF
2821 2996 CircleF
2836 3002 CircleF
2850 3008 CircleF
2864 3015 CircleF
2879 3021 CircleF
2893 3027 CircleF
2907 3032 CircleF
2922 3036 CircleF
2936 3039 CircleF
2950 3041 CircleF
2964 3043 CircleF
2979 3043 CircleF
2993 3042 CircleF
3007 3041 CircleF
3022 3039 CircleF
3036 3036 CircleF
3050 3034 CircleF
3065 3031 CircleF
3079 3028 CircleF
3093 3027 CircleF
3108 3026 CircleF
3122 3026 CircleF
3136 3027 CircleF
3151 3031 CircleF
3165 3036 CircleF
3179 3044 CircleF
3194 3054 CircleF
3208 3066 CircleF
3222 3081 CircleF
3236 3099 CircleF
3251 3119 CircleF
3265 3141 CircleF
3279 3166 CircleF
3294 3193 CircleF
3308 3222 CircleF
3322 3252 CircleF
3337 3284 CircleF
3351 3316 CircleF
3365 3349 CircleF
3380 3382 CircleF
3394 3414 CircleF
3408 3445 CircleF
3423 3475 CircleF
3437 3503 CircleF
3451 3529 CircleF
3465 3552 CircleF
3480 3572 CircleF
3494 3589 CircleF
3508 3602 CircleF
3523 3612 CircleF
3537 3618 CircleF
3551 3620 CircleF
3566 3619 CircleF
3580 3614 CircleF
3594 3605 CircleF
3609 3593 CircleF
3623 3578 CircleF
3637 3560 CircleF
3652 3540 CircleF
3666 3517 CircleF
3680 3493 CircleF
3694 3468 CircleF
3709 3441 CircleF
3723 3414 CircleF
3737 3387 CircleF
3752 3360 CircleF
3766 3334 CircleF
3780 3308 CircleF
3795 3283 CircleF
3809 3259 CircleF
2.000 UL
LTb
LCb setrgbcolor
[] 0 setdash
1.500 UL
LTb
388 3809 N
0 -932 V
3421 0 V
0 932 V
-3421 0 V
Z stroke
1.000 UP
1.500 UL
LTb
1.500 UL
LTb
388 1632 M
47 0 V
3374 0 R
-47 0 V
stroke
388 2099 M
47 0 V
3374 0 R
-47 0 V
stroke
388 2565 M
47 0 V
3374 0 R
-47 0 V
stroke
388 1632 M
0 47 V
0 886 R
0 -47 V
stroke
1243 1632 M
0 47 V
0 886 R
0 -47 V
stroke
2099 1632 M
0 47 V
0 886 R
0 -47 V
stroke
2954 1632 M
0 47 V
0 886 R
0 -47 V
stroke
3809 1632 M
0 47 V
0 886 R
0 -47 V
stroke
1.500 UL
LTb
388 2565 N
0 -933 V
3421 0 V
0 933 V
-3421 0 V
Z stroke
1.000 UP
1.500 UL
LTb
0.200 UP
1.000 UL
LTb
1.00 0.65 0.00 C 388 2565 M
14 -2 V
15 -7 V
14 -12 V
14 -16 V
15 -20 V
14 -24 V
14 -27 V
15 -31 V
14 -33 V
14 -36 V
14 -37 V
15 -38 V
14 -40 V
14 -39 V
15 -40 V
14 -38 V
14 -38 V
15 -37 V
14 -35 V
14 -33 V
15 -31 V
14 -28 V
14 -27 V
15 -23 V
14 -22 V
14 -19 V
14 -16 V
15 -15 V
14 -12 V
14 -11 V
15 -8 V
14 -7 V
14 -6 V
15 -4 V
14 -3 V
14 -2 V
15 -2 V
14 -1 V
14 0 V
15 0 V
14 1 V
14 1 V
14 1 V
15 2 V
14 3 V
14 3 V
15 3 V
14 4 V
14 5 V
15 6 V
14 7 V
14 9 V
15 9 V
14 11 V
14 12 V
15 13 V
14 15 V
14 17 V
15 18 V
14 20 V
14 21 V
14 22 V
15 24 V
14 25 V
14 26 V
15 27 V
14 27 V
14 28 V
15 29 V
14 28 V
14 28 V
15 28 V
14 27 V
14 26 V
15 26 V
14 23 V
14 23 V
14 20 V
15 19 V
14 16 V
14 14 V
15 12 V
14 9 V
14 6 V
15 4 V
14 1 V
14 -2 V
15 -5 V
14 -7 V
14 -10 V
15 -13 V
14 -15 V
14 -17 V
14 -20 V
15 -22 V
14 -23 V
14 -25 V
15 -26 V
14 -28 V
14 -28 V
15 -29 V
14 -29 V
14 -29 V
15 -29 V
stroke 1877 2087 M
14 -28 V
14 -28 V
15 -27 V
14 -26 V
14 -25 V
15 -23 V
14 -21 V
14 -20 V
14 -18 V
15 -16 V
14 -14 V
14 -12 V
15 -10 V
14 -8 V
14 -6 V
15 -5 V
14 -2 V
14 -1 V
15 0 V
14 2 V
14 3 V
15 4 V
14 5 V
14 5 V
14 7 V
15 6 V
14 7 V
14 7 V
15 6 V
14 7 V
14 6 V
15 6 V
14 6 V
14 6 V
15 5 V
14 5 V
14 5 V
15 4 V
14 5 V
14 4 V
15 5 V
14 5 V
14 6 V
14 6 V
15 7 V
14 9 V
14 9 V
15 10 V
14 11 V
14 13 V
15 15 V
14 16 V
14 17 V
15 18 V
14 20 V
14 21 V
15 22 V
14 23 V
14 24 V
14 24 V
15 24 V
14 24 V
14 23 V
15 23 V
14 21 V
14 21 V
15 18 V
14 17 V
14 14 V
15 11 V
14 9 V
14 6 V
15 3 V
14 0 V
14 -4 V
14 -6 V
15 -10 V
14 -13 V
14 -16 V
15 -18 V
14 -21 V
14 -23 V
15 -25 V
14 -27 V
14 -27 V
15 -28 V
14 -29 V
14 -28 V
15 -28 V
14 -28 V
14 -26 V
15 -25 V
14 -23 V
14 -21 V
14 -19 V
15 -17 V
14 -15 V
14 -12 V
15 -11 V
14 -7 V
14 -6 V
15 -4 V
14 -3 V
14 -1 V
stroke 3365 1882 M
15 0 V
14 2 V
14 1 V
15 2 V
14 3 V
14 1 V
14 2 V
15 1 V
14 0 V
14 -1 V
15 -2 V
14 -3 V
14 -3 V
15 -5 V
14 -6 V
14 -7 V
15 -7 V
14 -7 V
14 -7 V
15 -7 V
14 -7 V
14 -6 V
14 -5 V
15 -3 V
14 -2 V
14 0 V
15 2 V
14 4 V
14 7 V
15 9 V
14 12 V
402 2563 CircleF
417 2556 CircleF
431 2544 CircleF
445 2528 CircleF
460 2508 CircleF
474 2484 CircleF
488 2457 CircleF
503 2426 CircleF
517 2393 CircleF
531 2357 CircleF
545 2320 CircleF
560 2282 CircleF
574 2242 CircleF
588 2203 CircleF
603 2163 CircleF
617 2125 CircleF
631 2087 CircleF
646 2050 CircleF
660 2015 CircleF
674 1982 CircleF
689 1951 CircleF
703 1923 CircleF
717 1896 CircleF
732 1873 CircleF
746 1851 CircleF
760 1832 CircleF
774 1816 CircleF
789 1801 CircleF
803 1789 CircleF
817 1778 CircleF
832 1770 CircleF
846 1763 CircleF
860 1757 CircleF
875 1753 CircleF
889 1750 CircleF
903 1748 CircleF
918 1746 CircleF
932 1745 CircleF
946 1745 CircleF
961 1745 CircleF
975 1746 CircleF
989 1747 CircleF
1003 1748 CircleF
1018 1750 CircleF
1032 1753 CircleF
1046 1756 CircleF
1061 1759 CircleF
1075 1763 CircleF
1089 1768 CircleF
1104 1774 CircleF
1118 1781 CircleF
1132 1790 CircleF
1147 1799 CircleF
1161 1810 CircleF
1175 1822 CircleF
1190 1835 CircleF
1204 1850 CircleF
1218 1867 CircleF
1233 1885 CircleF
1247 1905 CircleF
1261 1926 CircleF
1275 1948 CircleF
1290 1972 CircleF
1304 1997 CircleF
1318 2023 CircleF
1333 2050 CircleF
1347 2077 CircleF
1361 2105 CircleF
1376 2134 CircleF
1390 2162 CircleF
1404 2190 CircleF
1419 2218 CircleF
1433 2245 CircleF
1447 2271 CircleF
1462 2297 CircleF
1476 2320 CircleF
1490 2343 CircleF
1504 2363 CircleF
1519 2382 CircleF
1533 2398 CircleF
1547 2412 CircleF
1562 2424 CircleF
1576 2433 CircleF
1590 2439 CircleF
1605 2443 CircleF
1619 2444 CircleF
1633 2442 CircleF
1648 2437 CircleF
1662 2430 CircleF
1676 2420 CircleF
1691 2407 CircleF
1705 2392 CircleF
1719 2375 CircleF
1733 2355 CircleF
1748 2333 CircleF
1762 2310 CircleF
1776 2285 CircleF
1791 2259 CircleF
1805 2231 CircleF
1819 2203 CircleF
1834 2174 CircleF
1848 2145 CircleF
1862 2116 CircleF
1877 2087 CircleF
1891 2059 CircleF
1905 2031 CircleF
1920 2004 CircleF
1934 1978 CircleF
1948 1953 CircleF
1963 1930 CircleF
1977 1909 CircleF
1991 1889 CircleF
2005 1871 CircleF
2020 1855 CircleF
2034 1841 CircleF
2048 1829 CircleF
2063 1819 CircleF
2077 1811 CircleF
2091 1805 CircleF
2106 1800 CircleF
2120 1798 CircleF
2134 1797 CircleF
2149 1797 CircleF
2163 1799 CircleF
2177 1802 CircleF
2192 1806 CircleF
2206 1811 CircleF
2220 1816 CircleF
2234 1823 CircleF
2249 1829 CircleF
2263 1836 CircleF
2277 1843 CircleF
2292 1849 CircleF
2306 1856 CircleF
2320 1862 CircleF
2335 1868 CircleF
2349 1874 CircleF
2363 1880 CircleF
2378 1885 CircleF
2392 1890 CircleF
2406 1895 CircleF
2421 1899 CircleF
2435 1904 CircleF
2449 1908 CircleF
2464 1913 CircleF
2478 1918 CircleF
2492 1924 CircleF
2506 1930 CircleF
2521 1937 CircleF
2535 1946 CircleF
2549 1955 CircleF
2564 1965 CircleF
2578 1976 CircleF
2592 1989 CircleF
2607 2004 CircleF
2621 2020 CircleF
2635 2037 CircleF
2650 2055 CircleF
2664 2075 CircleF
2678 2096 CircleF
2693 2118 CircleF
2707 2141 CircleF
2721 2165 CircleF
2735 2189 CircleF
2750 2213 CircleF
2764 2237 CircleF
2778 2260 CircleF
2793 2283 CircleF
2807 2304 CircleF
2821 2325 CircleF
2836 2343 CircleF
2850 2360 CircleF
2864 2374 CircleF
2879 2385 CircleF
2893 2394 CircleF
2907 2400 CircleF
2922 2403 CircleF
2936 2403 CircleF
2950 2399 CircleF
2964 2393 CircleF
2979 2383 CircleF
2993 2370 CircleF
3007 2354 CircleF
3022 2336 CircleF
3036 2315 CircleF
3050 2292 CircleF
3065 2267 CircleF
3079 2240 CircleF
3093 2213 CircleF
3108 2185 CircleF
3122 2156 CircleF
3136 2128 CircleF
3151 2100 CircleF
3165 2072 CircleF
3179 2046 CircleF
3194 2021 CircleF
3208 1998 CircleF
3222 1977 CircleF
3236 1958 CircleF
3251 1941 CircleF
3265 1926 CircleF
3279 1914 CircleF
3294 1903 CircleF
3308 1896 CircleF
3322 1890 CircleF
3337 1886 CircleF
3351 1883 CircleF
3365 1882 CircleF
3380 1882 CircleF
3394 1884 CircleF
3408 1885 CircleF
3423 1887 CircleF
3437 1890 CircleF
3451 1891 CircleF
3465 1893 CircleF
3480 1894 CircleF
3494 1894 CircleF
3508 1893 CircleF
3523 1891 CircleF
3537 1888 CircleF
3551 1885 CircleF
3566 1880 CircleF
3580 1874 CircleF
3594 1867 CircleF
3609 1860 CircleF
3623 1853 CircleF
3637 1846 CircleF
3652 1839 CircleF
3666 1832 CircleF
3680 1826 CircleF
3694 1821 CircleF
3709 1818 CircleF
3723 1816 CircleF
3737 1816 CircleF
3752 1818 CircleF
3766 1822 CircleF
3780 1829 CircleF
3795 1838 CircleF
3809 1850 CircleF
2.000 UL
LTb
LCb setrgbcolor
[] 0 setdash
1.500 UL
LTb
388 2565 N
0 -933 V
3421 0 V
0 933 V
-3421 0 V
Z stroke
1.000 UP
1.500 UL
LTb
1.500 UL
LTb
388 388 M
47 0 V
3374 0 R
-47 0 V
stroke
388 803 M
47 0 V
3374 0 R
-47 0 V
stroke
388 1217 M
47 0 V
3374 0 R
-47 0 V
stroke
388 388 M
0 47 V
0 886 R
0 -47 V
stroke
1243 388 M
0 47 V
0 886 R
0 -47 V
stroke
2099 388 M
0 47 V
0 886 R
0 -47 V
stroke
2954 388 M
0 47 V
0 886 R
0 -47 V
stroke
3809 388 M
0 47 V
0 886 R
0 -47 V
stroke
1.500 UL
LTb
388 1321 N
0 -933 V
3421 0 V
0 933 V
-3421 0 V
Z stroke
1.000 UP
1.500 UL
LTb
0.200 UP
1.000 UL
LTb
LC3 setrgbcolor
388 388 M
14 5 V
15 16 V
14 25 V
14 35 V
15 43 V
14 51 V
14 57 V
15 62 V
14 65 V
14 67 V
14 67 V
15 67 V
14 63 V
14 59 V
15 54 V
14 47 V
14 39 V
15 31 V
14 22 V
14 12 V
15 2 V
14 -7 V
14 -16 V
15 -25 V
14 -33 V
14 -40 V
14 -47 V
15 -51 V
14 -55 V
14 -58 V
15 -59 V
14 -59 V
14 -58 V
15 -55 V
14 -51 V
14 -47 V
15 -41 V
14 -35 V
14 -28 V
15 -20 V
14 -13 V
14 -5 V
14 3 V
15 10 V
14 17 V
14 24 V
15 29 V
14 35 V
14 40 V
15 42 V
14 46 V
14 47 V
15 48 V
14 48 V
14 46 V
15 45 V
14 41 V
14 38 V
15 34 V
14 29 V
14 24 V
14 19 V
15 12 V
14 7 V
14 1 V
15 -5 V
14 -11 V
14 -16 V
15 -21 V
14 -25 V
14 -30 V
15 -33 V
14 -36 V
14 -38 V
15 -39 V
14 -40 V
14 -40 V
14 -39 V
15 -38 V
14 -36 V
14 -33 V
15 -30 V
14 -27 V
14 -22 V
15 -18 V
14 -12 V
14 -8 V
15 -3 V
14 2 V
14 8 V
15 12 V
14 18 V
14 21 V
14 26 V
15 29 V
14 33 V
14 34 V
15 37 V
14 38 V
14 39 V
15 39 V
14 38 V
14 36 V
15 35 V
stroke 1877 1004 M
14 31 V
14 29 V
15 24 V
14 20 V
14 16 V
15 10 V
14 6 V
14 0 V
14 -6 V
15 -11 V
14 -16 V
14 -21 V
15 -26 V
14 -30 V
14 -34 V
15 -37 V
14 -40 V
14 -41 V
15 -43 V
14 -42 V
14 -42 V
15 -41 V
14 -39 V
14 -36 V
14 -32 V
15 -28 V
14 -23 V
14 -17 V
15 -12 V
14 -5 V
14 0 V
15 8 V
14 13 V
14 20 V
15 26 V
14 31 V
14 36 V
15 41 V
14 44 V
14 47 V
15 49 V
14 50 V
14 49 V
14 49 V
15 46 V
14 44 V
14 39 V
15 35 V
14 29 V
14 22 V
15 16 V
14 8 V
14 1 V
15 -8 V
14 -14 V
14 -23 V
15 -30 V
14 -36 V
14 -42 V
14 -48 V
15 -52 V
14 -55 V
14 -57 V
15 -58 V
14 -58 V
14 -56 V
15 -53 V
14 -50 V
14 -44 V
15 -38 V
14 -31 V
14 -23 V
15 -15 V
14 -6 V
14 3 V
14 13 V
15 21 V
14 30 V
14 38 V
15 45 V
14 51 V
14 57 V
15 61 V
14 63 V
14 65 V
15 64 V
14 63 V
14 61 V
15 55 V
14 50 V
14 43 V
15 35 V
14 27 V
14 17 V
14 8 V
15 -3 V
14 -12 V
14 -23 V
15 -31 V
14 -40 V
14 -48 V
15 -54 V
14 -59 V
14 -64 V
stroke 3365 960 M
15 -66 V
14 -67 V
14 -66 V
15 -65 V
14 -60 V
14 -56 V
14 -50 V
15 -42 V
14 -34 V
14 -25 V
15 -16 V
14 -6 V
14 5 V
15 13 V
14 23 V
14 32 V
15 40 V
14 46 V
14 52 V
15 57 V
14 60 V
14 61 V
14 62 V
15 60 V
14 58 V
14 55 V
15 49 V
14 44 V
14 37 V
15 29 V
14 22 V
388 388 CircleF
402 393 CircleF
417 409 CircleF
431 434 CircleF
445 469 CircleF
460 512 CircleF
474 563 CircleF
488 620 CircleF
503 682 CircleF
517 747 CircleF
531 814 CircleF
545 881 CircleF
560 948 CircleF
574 1011 CircleF
588 1070 CircleF
603 1124 CircleF
617 1171 CircleF
631 1210 CircleF
646 1241 CircleF
660 1263 CircleF
674 1275 CircleF
689 1277 CircleF
703 1270 CircleF
717 1254 CircleF
732 1229 CircleF
746 1196 CircleF
760 1156 CircleF
774 1109 CircleF
789 1058 CircleF
803 1003 CircleF
817 945 CircleF
832 886 CircleF
846 827 CircleF
860 769 CircleF
875 714 CircleF
889 663 CircleF
903 616 CircleF
918 575 CircleF
932 540 CircleF
946 512 CircleF
961 492 CircleF
975 479 CircleF
989 474 CircleF
1003 477 CircleF
1018 487 CircleF
1032 504 CircleF
1046 528 CircleF
1061 557 CircleF
1075 592 CircleF
1089 632 CircleF
1104 674 CircleF
1118 720 CircleF
1132 767 CircleF
1147 815 CircleF
1161 863 CircleF
1175 909 CircleF
1190 954 CircleF
1204 995 CircleF
1218 1033 CircleF
1233 1067 CircleF
1247 1096 CircleF
1261 1120 CircleF
1275 1139 CircleF
1290 1151 CircleF
1304 1158 CircleF
1318 1159 CircleF
1333 1154 CircleF
1347 1143 CircleF
1361 1127 CircleF
1376 1106 CircleF
1390 1081 CircleF
1404 1051 CircleF
1419 1018 CircleF
1433 982 CircleF
1447 944 CircleF
1462 905 CircleF
1476 865 CircleF
1490 825 CircleF
1504 786 CircleF
1519 748 CircleF
1533 712 CircleF
1547 679 CircleF
1562 649 CircleF
1576 622 CircleF
1590 600 CircleF
1605 582 CircleF
1619 570 CircleF
1633 562 CircleF
1648 559 CircleF
1662 561 CircleF
1676 569 CircleF
1691 581 CircleF
1705 599 CircleF
1719 620 CircleF
1733 646 CircleF
1748 675 CircleF
1762 708 CircleF
1776 742 CircleF
1791 779 CircleF
1805 817 CircleF
1819 856 CircleF
1834 895 CircleF
1848 933 CircleF
1862 969 CircleF
1877 1004 CircleF
1891 1035 CircleF
1905 1064 CircleF
1920 1088 CircleF
1934 1108 CircleF
1948 1124 CircleF
1963 1134 CircleF
1977 1140 CircleF
1991 1140 CircleF
2005 1134 CircleF
2020 1123 CircleF
2034 1107 CircleF
2048 1086 CircleF
2063 1060 CircleF
2077 1030 CircleF
2091 996 CircleF
2106 959 CircleF
2120 919 CircleF
2134 878 CircleF
2149 835 CircleF
2163 793 CircleF
2177 751 CircleF
2192 710 CircleF
2206 671 CircleF
2220 635 CircleF
2234 603 CircleF
2249 575 CircleF
2263 552 CircleF
2277 535 CircleF
2292 523 CircleF
2306 518 CircleF
2320 518 CircleF
2335 526 CircleF
2349 539 CircleF
2363 559 CircleF
2378 585 CircleF
2392 616 CircleF
2406 652 CircleF
2421 693 CircleF
2435 737 CircleF
2449 784 CircleF
2464 833 CircleF
2478 883 CircleF
2492 932 CircleF
2506 981 CircleF
2521 1027 CircleF
2535 1071 CircleF
2549 1110 CircleF
2564 1145 CircleF
2578 1174 CircleF
2592 1196 CircleF
2607 1212 CircleF
2621 1220 CircleF
2635 1221 CircleF
2650 1213 CircleF
2664 1199 CircleF
2678 1176 CircleF
2693 1146 CircleF
2707 1110 CircleF
2721 1068 CircleF
2735 1020 CircleF
2750 968 CircleF
2764 913 CircleF
2778 856 CircleF
2793 798 CircleF
2807 740 CircleF
2821 684 CircleF
2836 631 CircleF
2850 581 CircleF
2864 537 CircleF
2879 499 CircleF
2893 468 CircleF
2907 445 CircleF
2922 430 CircleF
2936 424 CircleF
2950 427 CircleF
2964 440 CircleF
2979 461 CircleF
2993 491 CircleF
3007 529 CircleF
3022 574 CircleF
3036 625 CircleF
3050 682 CircleF
3065 743 CircleF
3079 806 CircleF
3093 871 CircleF
3108 935 CircleF
3122 998 CircleF
3136 1059 CircleF
3151 1114 CircleF
3165 1164 CircleF
3179 1207 CircleF
3194 1242 CircleF
3208 1269 CircleF
3222 1286 CircleF
3236 1294 CircleF
3251 1291 CircleF
3265 1279 CircleF
3279 1256 CircleF
3294 1225 CircleF
3308 1185 CircleF
3322 1137 CircleF
3337 1083 CircleF
3351 1024 CircleF
3365 960 CircleF
3380 894 CircleF
3394 827 CircleF
3408 761 CircleF
3423 696 CircleF
3437 636 CircleF
3451 580 CircleF
3465 530 CircleF
3480 488 CircleF
3494 454 CircleF
3508 429 CircleF
3523 413 CircleF
3537 407 CircleF
3551 412 CircleF
3566 425 CircleF
3580 448 CircleF
3594 480 CircleF
3609 520 CircleF
3623 566 CircleF
3637 618 CircleF
3652 675 CircleF
3666 735 CircleF
3680 796 CircleF
3694 858 CircleF
3709 918 CircleF
3723 976 CircleF
3737 1031 CircleF
3752 1080 CircleF
3766 1124 CircleF
3780 1161 CircleF
3795 1190 CircleF
3809 1212 CircleF
2.000 UL
LTb
LCb setrgbcolor
[] 0 setdash
1.500 UL
LTb
388 1321 N
0 -933 V
3421 0 V
0 933 V
-3421 0 V
Z stroke
1.000 UP
1.500 UL
LTb
stroke
grestore
end
showpage
%%Trailer
