%!PS-Adobe-2.0 EPSF-2.0
%%Title: fig6.tex
%%Creator: gnuplot 5.0 patchlevel 3
%%CreationDate: Mon Apr 16 14:42:43 2018
%%DocumentFonts: 
%%BoundingBox: 50 50 280 244
%%EndComments
%%BeginProlog
/gnudict 256 dict def
gnudict begin
%
% The following true/false flags may be edited by hand if desired.
% The unit line width and grayscale image gamma correction may also be changed.
%
/Color true def
/Blacktext false def
/Solid false def
/Dashlength 2.5 def
/Landscape false def
/Level1 false def
/Level3 false def
/Rounded false def
/ClipToBoundingBox false def
/SuppressPDFMark false def
/TransparentPatterns false def
/gnulinewidth 5.000 def
/userlinewidth gnulinewidth def
/Gamma 1.0 def
/BackgroundColor {-1.000 -1.000 -1.000} def
%
/vshift -73 def
/dl1 {
  10.0 Dashlength userlinewidth gnulinewidth div mul mul mul
  Rounded { currentlinewidth 0.75 mul sub dup 0 le { pop 0.01 } if } if
} def
/dl2 {
  10.0 Dashlength userlinewidth gnulinewidth div mul mul mul
  Rounded { currentlinewidth 0.75 mul add } if
} def
/hpt_ 31.5 def
/vpt_ 31.5 def
/hpt hpt_ def
/vpt vpt_ def
/doclip {
  ClipToBoundingBox {
    newpath 50 50 moveto 280 50 lineto 280 244 lineto 50 244 lineto closepath
    clip
  } if
} def
%
% Gnuplot Prolog Version 5.1 (Oct 2015)
%
%/SuppressPDFMark true def
%
/M {moveto} bind def
/L {lineto} bind def
/R {rmoveto} bind def
/V {rlineto} bind def
/N {newpath moveto} bind def
/Z {closepath} bind def
/C {setrgbcolor} bind def
/f {rlineto fill} bind def
/g {setgray} bind def
/Gshow {show} def   % May be redefined later in the file to support UTF-8
/vpt2 vpt 2 mul def
/hpt2 hpt 2 mul def
/Lshow {currentpoint stroke M 0 vshift R 
	Blacktext {gsave 0 setgray textshow grestore} {textshow} ifelse} def
/Rshow {currentpoint stroke M dup stringwidth pop neg vshift R
	Blacktext {gsave 0 setgray textshow grestore} {textshow} ifelse} def
/Cshow {currentpoint stroke M dup stringwidth pop -2 div vshift R 
	Blacktext {gsave 0 setgray textshow grestore} {textshow} ifelse} def
/UP {dup vpt_ mul /vpt exch def hpt_ mul /hpt exch def
  /hpt2 hpt 2 mul def /vpt2 vpt 2 mul def} def
/DL {Color {setrgbcolor Solid {pop []} if 0 setdash}
 {pop pop pop 0 setgray Solid {pop []} if 0 setdash} ifelse} def
/BL {stroke userlinewidth 2 mul setlinewidth
	Rounded {1 setlinejoin 1 setlinecap} if} def
/AL {stroke userlinewidth 2 div setlinewidth
	Rounded {1 setlinejoin 1 setlinecap} if} def
/UL {dup gnulinewidth mul /userlinewidth exch def
	dup 1 lt {pop 1} if 10 mul /udl exch def} def
/PL {stroke userlinewidth setlinewidth
	Rounded {1 setlinejoin 1 setlinecap} if} def
3.8 setmiterlimit
% Classic Line colors (version 5.0)
/LCw {1 1 1} def
/LCb {0 0 0} def
/LCa {0 0 0} def
/LC0 {1 0 0} def
/LC1 {0 1 0} def
/LC2 {0 0 1} def
/LC3 {1 0 1} def
/LC4 {0 1 1} def
/LC5 {1 1 0} def
/LC6 {0 0 0} def
/LC7 {1 0.3 0} def
/LC8 {0.5 0.5 0.5} def
% Default dash patterns (version 5.0)
/LTB {BL [] LCb DL} def
/LTw {PL [] 1 setgray} def
/LTb {PL [] LCb DL} def
/LTa {AL [1 udl mul 2 udl mul] 0 setdash LCa setrgbcolor} def
/LT0 {PL [] LC0 DL} def
/LT1 {PL [2 dl1 3 dl2] LC1 DL} def
/LT2 {PL [1 dl1 1.5 dl2] LC2 DL} def
/LT3 {PL [6 dl1 2 dl2 1 dl1 2 dl2] LC3 DL} def
/LT4 {PL [1 dl1 2 dl2 6 dl1 2 dl2 1 dl1 2 dl2] LC4 DL} def
/LT5 {PL [4 dl1 2 dl2] LC5 DL} def
/LT6 {PL [1.5 dl1 1.5 dl2 1.5 dl1 1.5 dl2 1.5 dl1 6 dl2] LC6 DL} def
/LT7 {PL [3 dl1 3 dl2 1 dl1 3 dl2] LC7 DL} def
/LT8 {PL [2 dl1 2 dl2 2 dl1 6 dl2] LC8 DL} def
/SL {[] 0 setdash} def
/Pnt {stroke [] 0 setdash gsave 1 setlinecap M 0 0 V stroke grestore} def
/Dia {stroke [] 0 setdash 2 copy vpt add M
  hpt neg vpt neg V hpt vpt neg V
  hpt vpt V hpt neg vpt V closepath stroke
  Pnt} def
/Pls {stroke [] 0 setdash vpt sub M 0 vpt2 V
  currentpoint stroke M
  hpt neg vpt neg R hpt2 0 V stroke
 } def
/Box {stroke [] 0 setdash 2 copy exch hpt sub exch vpt add M
  0 vpt2 neg V hpt2 0 V 0 vpt2 V
  hpt2 neg 0 V closepath stroke
  Pnt} def
/Crs {stroke [] 0 setdash exch hpt sub exch vpt add M
  hpt2 vpt2 neg V currentpoint stroke M
  hpt2 neg 0 R hpt2 vpt2 V stroke} def
/TriU {stroke [] 0 setdash 2 copy vpt 1.12 mul add M
  hpt neg vpt -1.62 mul V
  hpt 2 mul 0 V
  hpt neg vpt 1.62 mul V closepath stroke
  Pnt} def
/Star {2 copy Pls Crs} def
/BoxF {stroke [] 0 setdash exch hpt sub exch vpt add M
  0 vpt2 neg V hpt2 0 V 0 vpt2 V
  hpt2 neg 0 V closepath fill} def
/TriUF {stroke [] 0 setdash vpt 1.12 mul add M
  hpt neg vpt -1.62 mul V
  hpt 2 mul 0 V
  hpt neg vpt 1.62 mul V closepath fill} def
/TriD {stroke [] 0 setdash 2 copy vpt 1.12 mul sub M
  hpt neg vpt 1.62 mul V
  hpt 2 mul 0 V
  hpt neg vpt -1.62 mul V closepath stroke
  Pnt} def
/TriDF {stroke [] 0 setdash vpt 1.12 mul sub M
  hpt neg vpt 1.62 mul V
  hpt 2 mul 0 V
  hpt neg vpt -1.62 mul V closepath fill} def
/DiaF {stroke [] 0 setdash vpt add M
  hpt neg vpt neg V hpt vpt neg V
  hpt vpt V hpt neg vpt V closepath fill} def
/Pent {stroke [] 0 setdash 2 copy gsave
  translate 0 hpt M 4 {72 rotate 0 hpt L} repeat
  closepath stroke grestore Pnt} def
/PentF {stroke [] 0 setdash gsave
  translate 0 hpt M 4 {72 rotate 0 hpt L} repeat
  closepath fill grestore} def
/Circle {stroke [] 0 setdash 2 copy
  hpt 0 360 arc stroke Pnt} def
/CircleF {stroke [] 0 setdash hpt 0 360 arc fill} def
/C0 {BL [] 0 setdash 2 copy moveto vpt 90 450 arc} bind def
/C1 {BL [] 0 setdash 2 copy moveto
	2 copy vpt 0 90 arc closepath fill
	vpt 0 360 arc closepath} bind def
/C2 {BL [] 0 setdash 2 copy moveto
	2 copy vpt 90 180 arc closepath fill
	vpt 0 360 arc closepath} bind def
/C3 {BL [] 0 setdash 2 copy moveto
	2 copy vpt 0 180 arc closepath fill
	vpt 0 360 arc closepath} bind def
/C4 {BL [] 0 setdash 2 copy moveto
	2 copy vpt 180 270 arc closepath fill
	vpt 0 360 arc closepath} bind def
/C5 {BL [] 0 setdash 2 copy moveto
	2 copy vpt 0 90 arc
	2 copy moveto
	2 copy vpt 180 270 arc closepath fill
	vpt 0 360 arc} bind def
/C6 {BL [] 0 setdash 2 copy moveto
	2 copy vpt 90 270 arc closepath fill
	vpt 0 360 arc closepath} bind def
/C7 {BL [] 0 setdash 2 copy moveto
	2 copy vpt 0 270 arc closepath fill
	vpt 0 360 arc closepath} bind def
/C8 {BL [] 0 setdash 2 copy moveto
	2 copy vpt 270 360 arc closepath fill
	vpt 0 360 arc closepath} bind def
/C9 {BL [] 0 setdash 2 copy moveto
	2 copy vpt 270 450 arc closepath fill
	vpt 0 360 arc closepath} bind def
/C10 {BL [] 0 setdash 2 copy 2 copy moveto vpt 270 360 arc closepath fill
	2 copy moveto
	2 copy vpt 90 180 arc closepath fill
	vpt 0 360 arc closepath} bind def
/C11 {BL [] 0 setdash 2 copy moveto
	2 copy vpt 0 180 arc closepath fill
	2 copy moveto
	2 copy vpt 270 360 arc closepath fill
	vpt 0 360 arc closepath} bind def
/C12 {BL [] 0 setdash 2 copy moveto
	2 copy vpt 180 360 arc closepath fill
	vpt 0 360 arc closepath} bind def
/C13 {BL [] 0 setdash 2 copy moveto
	2 copy vpt 0 90 arc closepath fill
	2 copy moveto
	2 copy vpt 180 360 arc closepath fill
	vpt 0 360 arc closepath} bind def
/C14 {BL [] 0 setdash 2 copy moveto
	2 copy vpt 90 360 arc closepath fill
	vpt 0 360 arc} bind def
/C15 {BL [] 0 setdash 2 copy vpt 0 360 arc closepath fill
	vpt 0 360 arc closepath} bind def
/Rec {newpath 4 2 roll moveto 1 index 0 rlineto 0 exch rlineto
	neg 0 rlineto closepath} bind def
/Square {dup Rec} bind def
/Bsquare {vpt sub exch vpt sub exch vpt2 Square} bind def
/S0 {BL [] 0 setdash 2 copy moveto 0 vpt rlineto BL Bsquare} bind def
/S1 {BL [] 0 setdash 2 copy vpt Square fill Bsquare} bind def
/S2 {BL [] 0 setdash 2 copy exch vpt sub exch vpt Square fill Bsquare} bind def
/S3 {BL [] 0 setdash 2 copy exch vpt sub exch vpt2 vpt Rec fill Bsquare} bind def
/S4 {BL [] 0 setdash 2 copy exch vpt sub exch vpt sub vpt Square fill Bsquare} bind def
/S5 {BL [] 0 setdash 2 copy 2 copy vpt Square fill
	exch vpt sub exch vpt sub vpt Square fill Bsquare} bind def
/S6 {BL [] 0 setdash 2 copy exch vpt sub exch vpt sub vpt vpt2 Rec fill Bsquare} bind def
/S7 {BL [] 0 setdash 2 copy exch vpt sub exch vpt sub vpt vpt2 Rec fill
	2 copy vpt Square fill Bsquare} bind def
/S8 {BL [] 0 setdash 2 copy vpt sub vpt Square fill Bsquare} bind def
/S9 {BL [] 0 setdash 2 copy vpt sub vpt vpt2 Rec fill Bsquare} bind def
/S10 {BL [] 0 setdash 2 copy vpt sub vpt Square fill 2 copy exch vpt sub exch vpt Square fill
	Bsquare} bind def
/S11 {BL [] 0 setdash 2 copy vpt sub vpt Square fill 2 copy exch vpt sub exch vpt2 vpt Rec fill
	Bsquare} bind def
/S12 {BL [] 0 setdash 2 copy exch vpt sub exch vpt sub vpt2 vpt Rec fill Bsquare} bind def
/S13 {BL [] 0 setdash 2 copy exch vpt sub exch vpt sub vpt2 vpt Rec fill
	2 copy vpt Square fill Bsquare} bind def
/S14 {BL [] 0 setdash 2 copy exch vpt sub exch vpt sub vpt2 vpt Rec fill
	2 copy exch vpt sub exch vpt Square fill Bsquare} bind def
/S15 {BL [] 0 setdash 2 copy Bsquare fill Bsquare} bind def
/D0 {gsave translate 45 rotate 0 0 S0 stroke grestore} bind def
/D1 {gsave translate 45 rotate 0 0 S1 stroke grestore} bind def
/D2 {gsave translate 45 rotate 0 0 S2 stroke grestore} bind def
/D3 {gsave translate 45 rotate 0 0 S3 stroke grestore} bind def
/D4 {gsave translate 45 rotate 0 0 S4 stroke grestore} bind def
/D5 {gsave translate 45 rotate 0 0 S5 stroke grestore} bind def
/D6 {gsave translate 45 rotate 0 0 S6 stroke grestore} bind def
/D7 {gsave translate 45 rotate 0 0 S7 stroke grestore} bind def
/D8 {gsave translate 45 rotate 0 0 S8 stroke grestore} bind def
/D9 {gsave translate 45 rotate 0 0 S9 stroke grestore} bind def
/D10 {gsave translate 45 rotate 0 0 S10 stroke grestore} bind def
/D11 {gsave translate 45 rotate 0 0 S11 stroke grestore} bind def
/D12 {gsave translate 45 rotate 0 0 S12 stroke grestore} bind def
/D13 {gsave translate 45 rotate 0 0 S13 stroke grestore} bind def
/D14 {gsave translate 45 rotate 0 0 S14 stroke grestore} bind def
/D15 {gsave translate 45 rotate 0 0 S15 stroke grestore} bind def
/DiaE {stroke [] 0 setdash vpt add M
  hpt neg vpt neg V hpt vpt neg V
  hpt vpt V hpt neg vpt V closepath stroke} def
/BoxE {stroke [] 0 setdash exch hpt sub exch vpt add M
  0 vpt2 neg V hpt2 0 V 0 vpt2 V
  hpt2 neg 0 V closepath stroke} def
/TriUE {stroke [] 0 setdash vpt 1.12 mul add M
  hpt neg vpt -1.62 mul V
  hpt 2 mul 0 V
  hpt neg vpt 1.62 mul V closepath stroke} def
/TriDE {stroke [] 0 setdash vpt 1.12 mul sub M
  hpt neg vpt 1.62 mul V
  hpt 2 mul 0 V
  hpt neg vpt -1.62 mul V closepath stroke} def
/PentE {stroke [] 0 setdash gsave
  translate 0 hpt M 4 {72 rotate 0 hpt L} repeat
  closepath stroke grestore} def
/CircE {stroke [] 0 setdash 
  hpt 0 360 arc stroke} def
/Opaque {gsave closepath 1 setgray fill grestore 0 setgray closepath} def
/DiaW {stroke [] 0 setdash vpt add M
  hpt neg vpt neg V hpt vpt neg V
  hpt vpt V hpt neg vpt V Opaque stroke} def
/BoxW {stroke [] 0 setdash exch hpt sub exch vpt add M
  0 vpt2 neg V hpt2 0 V 0 vpt2 V
  hpt2 neg 0 V Opaque stroke} def
/TriUW {stroke [] 0 setdash vpt 1.12 mul add M
  hpt neg vpt -1.62 mul V
  hpt 2 mul 0 V
  hpt neg vpt 1.62 mul V Opaque stroke} def
/TriDW {stroke [] 0 setdash vpt 1.12 mul sub M
  hpt neg vpt 1.62 mul V
  hpt 2 mul 0 V
  hpt neg vpt -1.62 mul V Opaque stroke} def
/PentW {stroke [] 0 setdash gsave
  translate 0 hpt M 4 {72 rotate 0 hpt L} repeat
  Opaque stroke grestore} def
/CircW {stroke [] 0 setdash 
  hpt 0 360 arc Opaque stroke} def
/BoxFill {gsave Rec 1 setgray fill grestore} def
/Density {
  /Fillden exch def
  currentrgbcolor
  /ColB exch def /ColG exch def /ColR exch def
  /ColR ColR Fillden mul Fillden sub 1 add def
  /ColG ColG Fillden mul Fillden sub 1 add def
  /ColB ColB Fillden mul Fillden sub 1 add def
  ColR ColG ColB setrgbcolor} def
/BoxColFill {gsave Rec PolyFill} def
/PolyFill {gsave Density fill grestore grestore} def
/h {rlineto rlineto rlineto gsave closepath fill grestore} bind def
%
% PostScript Level 1 Pattern Fill routine for rectangles
% Usage: x y w h s a XX PatternFill
%	x,y = lower left corner of box to be filled
%	w,h = width and height of box
%	  a = angle in degrees between lines and x-axis
%	 XX = 0/1 for no/yes cross-hatch
%
/PatternFill {gsave /PFa [ 9 2 roll ] def
  PFa 0 get PFa 2 get 2 div add PFa 1 get PFa 3 get 2 div add translate
  PFa 2 get -2 div PFa 3 get -2 div PFa 2 get PFa 3 get Rec
  TransparentPatterns {} {gsave 1 setgray fill grestore} ifelse
  clip
  currentlinewidth 0.5 mul setlinewidth
  /PFs PFa 2 get dup mul PFa 3 get dup mul add sqrt def
  0 0 M PFa 5 get rotate PFs -2 div dup translate
  0 1 PFs PFa 4 get div 1 add floor cvi
	{PFa 4 get mul 0 M 0 PFs V} for
  0 PFa 6 get ne {
	0 1 PFs PFa 4 get div 1 add floor cvi
	{PFa 4 get mul 0 2 1 roll M PFs 0 V} for
 } if
  stroke grestore} def
%
/languagelevel where
 {pop languagelevel} {1} ifelse
dup 2 lt
	{/InterpretLevel1 true def
	 /InterpretLevel3 false def}
	{/InterpretLevel1 Level1 def
	 2 gt
	    {/InterpretLevel3 Level3 def}
	    {/InterpretLevel3 false def}
	 ifelse }
 ifelse
%
% PostScript level 2 pattern fill definitions
%
/Level2PatternFill {
/Tile8x8 {/PaintType 2 /PatternType 1 /TilingType 1 /BBox [0 0 8 8] /XStep 8 /YStep 8}
	bind def
/KeepColor {currentrgbcolor [/Pattern /DeviceRGB] setcolorspace} bind def
<< Tile8x8
 /PaintProc {0.5 setlinewidth pop 0 0 M 8 8 L 0 8 M 8 0 L stroke} 
>> matrix makepattern
/Pat1 exch def
<< Tile8x8
 /PaintProc {0.5 setlinewidth pop 0 0 M 8 8 L 0 8 M 8 0 L stroke
	0 4 M 4 8 L 8 4 L 4 0 L 0 4 L stroke}
>> matrix makepattern
/Pat2 exch def
<< Tile8x8
 /PaintProc {0.5 setlinewidth pop 0 0 M 0 8 L
	8 8 L 8 0 L 0 0 L fill}
>> matrix makepattern
/Pat3 exch def
<< Tile8x8
 /PaintProc {0.5 setlinewidth pop -4 8 M 8 -4 L
	0 12 M 12 0 L stroke}
>> matrix makepattern
/Pat4 exch def
<< Tile8x8
 /PaintProc {0.5 setlinewidth pop -4 0 M 8 12 L
	0 -4 M 12 8 L stroke}
>> matrix makepattern
/Pat5 exch def
<< Tile8x8
 /PaintProc {0.5 setlinewidth pop -2 8 M 4 -4 L
	0 12 M 8 -4 L 4 12 M 10 0 L stroke}
>> matrix makepattern
/Pat6 exch def
<< Tile8x8
 /PaintProc {0.5 setlinewidth pop -2 0 M 4 12 L
	0 -4 M 8 12 L 4 -4 M 10 8 L stroke}
>> matrix makepattern
/Pat7 exch def
<< Tile8x8
 /PaintProc {0.5 setlinewidth pop 8 -2 M -4 4 L
	12 0 M -4 8 L 12 4 M 0 10 L stroke}
>> matrix makepattern
/Pat8 exch def
<< Tile8x8
 /PaintProc {0.5 setlinewidth pop 0 -2 M 12 4 L
	-4 0 M 12 8 L -4 4 M 8 10 L stroke}
>> matrix makepattern
/Pat9 exch def
/Pattern1 {PatternBgnd KeepColor Pat1 setpattern} bind def
/Pattern2 {PatternBgnd KeepColor Pat2 setpattern} bind def
/Pattern3 {PatternBgnd KeepColor Pat3 setpattern} bind def
/Pattern4 {PatternBgnd KeepColor Landscape {Pat5} {Pat4} ifelse setpattern} bind def
/Pattern5 {PatternBgnd KeepColor Landscape {Pat4} {Pat5} ifelse setpattern} bind def
/Pattern6 {PatternBgnd KeepColor Landscape {Pat9} {Pat6} ifelse setpattern} bind def
/Pattern7 {PatternBgnd KeepColor Landscape {Pat8} {Pat7} ifelse setpattern} bind def
} def
%
%
%End of PostScript Level 2 code
%
/PatternBgnd {
  TransparentPatterns {} {gsave 1 setgray fill grestore} ifelse
} def
%
% Substitute for Level 2 pattern fill codes with
% grayscale if Level 2 support is not selected.
%
/Level1PatternFill {
/Pattern1 {0.250 Density} bind def
/Pattern2 {0.500 Density} bind def
/Pattern3 {0.750 Density} bind def
/Pattern4 {0.125 Density} bind def
/Pattern5 {0.375 Density} bind def
/Pattern6 {0.625 Density} bind def
/Pattern7 {0.875 Density} bind def
} def
%
% Now test for support of Level 2 code
%
Level1 {Level1PatternFill} {Level2PatternFill} ifelse
%
/Symbol-Oblique /Symbol findfont [1 0 .167 1 0 0] makefont
dup length dict begin {1 index /FID eq {pop pop} {def} ifelse} forall
currentdict end definefont pop
%
Level1 SuppressPDFMark or 
{} {
/SDict 10 dict def
systemdict /pdfmark known not {
  userdict /pdfmark systemdict /cleartomark get put
} if
SDict begin [
  /Title (fig6.tex)
  /Subject (gnuplot plot)
  /Creator (gnuplot 5.0 patchlevel 3)
  /Author (daniela)
%  /Producer (gnuplot)
%  /Keywords ()
  /CreationDate (Mon Apr 16 14:42:43 2018)
  /DOCINFO pdfmark
end
} ifelse
%
% Support for boxed text - Ethan A Merritt May 2005
%
/InitTextBox { userdict /TBy2 3 -1 roll put userdict /TBx2 3 -1 roll put
           userdict /TBy1 3 -1 roll put userdict /TBx1 3 -1 roll put
	   /Boxing true def } def
/ExtendTextBox { Boxing
    { gsave dup false charpath pathbbox
      dup TBy2 gt {userdict /TBy2 3 -1 roll put} {pop} ifelse
      dup TBx2 gt {userdict /TBx2 3 -1 roll put} {pop} ifelse
      dup TBy1 lt {userdict /TBy1 3 -1 roll put} {pop} ifelse
      dup TBx1 lt {userdict /TBx1 3 -1 roll put} {pop} ifelse
      grestore } if } def
/PopTextBox { newpath TBx1 TBxmargin sub TBy1 TBymargin sub M
               TBx1 TBxmargin sub TBy2 TBymargin add L
	       TBx2 TBxmargin add TBy2 TBymargin add L
	       TBx2 TBxmargin add TBy1 TBymargin sub L closepath } def
/DrawTextBox { PopTextBox stroke /Boxing false def} def
/FillTextBox { gsave PopTextBox 1 1 1 setrgbcolor fill grestore /Boxing false def} def
0 0 0 0 InitTextBox
/TBxmargin 20 def
/TBymargin 20 def
/Boxing false def
/textshow { ExtendTextBox Gshow } def
%
% redundant definitions for compatibility with prologue.ps older than 5.0.2
/LTB {BL [] LCb DL} def
/LTb {PL [] LCb DL} def
end
%%EndProlog
%%Page: 1 1
gnudict begin
gsave
doclip
50 50 translate
0.050 0.050 scale
0 setgray
newpath
1.500 UL
LTb
LCb setrgbcolor
[] 0 setdash
946 704 M
47 0 V
3218 0 R
-47 0 V
stroke
LTb
946 1434 M
47 0 V
3218 0 R
-47 0 V
stroke
946 2164 M
47 0 V
3218 0 R
-47 0 V
stroke
946 2893 M
47 0 V
3218 0 R
-47 0 V
stroke
946 3623 M
47 0 V
3218 0 R
-47 0 V
stroke
946 704 M
0 47 V
0 2872 R
0 -47 V
stroke
1762 704 M
0 47 V
0 2872 R
0 -47 V
stroke
2579 704 M
0 47 V
0 2872 R
0 -47 V
stroke
3395 704 M
0 47 V
0 2872 R
0 -47 V
stroke
4211 704 M
0 47 V
0 2872 R
0 -47 V
stroke
1.500 UL
LTb
946 3623 N
946 704 L
3265 0 V
0 2919 V
-3265 0 V
Z stroke
1.000 UP
1.500 UL
LTb
0.200 UP
1.000 UL
LTb
0.00 0.15 0.68 C LCb setrgbcolor
0.200 UP
1.000 UL
LTb
0.00 0.15 0.68 C 3488 1810 M
591 0 V
946 704 M
27 1 V
28 5 V
27 12 V
28 23 V
27 38 V
28 59 V
27 86 V
27 117 V
28 149 V
27 180 V
28 207 V
27 229 V
28 240 V
27 243 V
28 234 V
27 217 V
27 189 V
28 154 V
27 115 V
28 73 V
27 31 V
28 -9 V
27 -42 V
27 -70 V
28 -89 V
27 -98 V
28 -96 V
27 -85 V
28 -62 V
27 -33 V
28 -1 V
27 29 V
27 51 V
28 65 V
27 73 V
28 73 V
27 69 V
28 63 V
27 55 V
27 45 V
28 34 V
27 24 V
28 12 V
27 2 V
28 -10 V
27 -19 V
28 -28 V
27 -36 V
27 -42 V
28 -47 V
27 -49 V
28 -51 V
27 -50 V
28 -48 V
27 -43 V
27 -39 V
28 -33 V
27 -28 V
28 -21 V
27 -15 V
28 -10 V
27 -5 V
28 -2 V
27 1 V
27 3 V
28 4 V
27 4 V
28 4 V
27 3 V
28 3 V
27 2 V
27 2 V
28 0 V
27 1 V
28 0 V
27 0 V
28 0 V
27 1 V
28 2 V
27 3 V
27 4 V
28 5 V
27 6 V
28 6 V
27 7 V
28 7 V
27 6 V
27 6 V
28 6 V
27 4 V
28 3 V
27 2 V
28 0 V
27 -1 V
28 -1 V
27 -3 V
27 -3 V
28 -5 V
27 -4 V
28 -5 V
27 -6 V
28 -5 V
stroke 3745 2802 M
27 -6 V
27 -6 V
28 -6 V
27 -6 V
28 -6 V
27 -7 V
28 -6 V
27 -7 V
28 -7 V
27 -6 V
27 -7 V
28 -6 V
27 -6 V
28 -5 V
27 -5 V
28 -5 V
27 -5 V
946 704 CircleF
973 705 CircleF
1001 710 CircleF
1028 722 CircleF
1056 745 CircleF
1083 783 CircleF
1111 842 CircleF
1138 928 CircleF
1165 1045 CircleF
1193 1194 CircleF
1220 1374 CircleF
1248 1581 CircleF
1275 1810 CircleF
1303 2050 CircleF
1330 2293 CircleF
1358 2527 CircleF
1385 2744 CircleF
1412 2933 CircleF
1440 3087 CircleF
1467 3202 CircleF
1495 3275 CircleF
1522 3306 CircleF
1550 3297 CircleF
1577 3255 CircleF
1604 3185 CircleF
1632 3096 CircleF
1659 2998 CircleF
1687 2902 CircleF
1714 2817 CircleF
1742 2755 CircleF
1769 2722 CircleF
1797 2721 CircleF
1824 2750 CircleF
1851 2801 CircleF
1879 2866 CircleF
1906 2939 CircleF
1934 3012 CircleF
1961 3081 CircleF
1989 3144 CircleF
2016 3199 CircleF
2043 3244 CircleF
2071 3278 CircleF
2098 3302 CircleF
2126 3314 CircleF
2153 3316 CircleF
2181 3306 CircleF
2208 3287 CircleF
2236 3259 CircleF
2263 3223 CircleF
2290 3181 CircleF
2318 3134 CircleF
2345 3085 CircleF
2373 3034 CircleF
2400 2984 CircleF
2428 2936 CircleF
2455 2893 CircleF
2482 2854 CircleF
2510 2821 CircleF
2537 2793 CircleF
2565 2772 CircleF
2592 2757 CircleF
2620 2747 CircleF
2647 2742 CircleF
2675 2740 CircleF
2702 2741 CircleF
2729 2744 CircleF
2757 2748 CircleF
2784 2752 CircleF
2812 2756 CircleF
2839 2759 CircleF
2867 2762 CircleF
2894 2764 CircleF
2921 2766 CircleF
2949 2766 CircleF
2976 2767 CircleF
3004 2767 CircleF
3031 2767 CircleF
3059 2767 CircleF
3086 2768 CircleF
3114 2770 CircleF
3141 2773 CircleF
3168 2777 CircleF
3196 2782 CircleF
3223 2788 CircleF
3251 2794 CircleF
3278 2801 CircleF
3306 2808 CircleF
3333 2814 CircleF
3360 2820 CircleF
3388 2826 CircleF
3415 2830 CircleF
3443 2833 CircleF
3470 2835 CircleF
3498 2835 CircleF
3525 2834 CircleF
3553 2833 CircleF
3580 2830 CircleF
3607 2827 CircleF
3635 2822 CircleF
3662 2818 CircleF
3690 2813 CircleF
3717 2807 CircleF
3745 2802 CircleF
3772 2796 CircleF
3799 2790 CircleF
3827 2784 CircleF
3854 2778 CircleF
3882 2772 CircleF
3909 2765 CircleF
3937 2759 CircleF
3964 2752 CircleF
3992 2745 CircleF
4019 2739 CircleF
4046 2732 CircleF
4074 2726 CircleF
4101 2720 CircleF
4129 2715 CircleF
4156 2710 CircleF
4184 2705 CircleF
4211 2700 CircleF
3783 1810 CircleF
0.200 UP
1.000 UL
LTb
LCb setrgbcolor
[] 0 setdash
0.00 0.38 0.68 C LCb setrgbcolor
0.200 UP
1.000 UL
LTb
0.00 0.38 0.68 C 3488 1590 M
591 0 V
946 704 M
27 1 V
28 4 V
27 6 V
28 11 V
27 20 V
28 36 V
27 56 V
27 85 V
28 116 V
27 149 V
28 179 V
27 206 V
28 224 V
27 234 V
28 231 V
27 220 V
27 199 V
28 169 V
27 134 V
28 94 V
27 53 V
28 13 V
27 -22 V
27 -53 V
28 -74 V
27 -89 V
28 -91 V
27 -84 V
28 -67 V
27 -43 V
28 -14 V
27 13 V
27 35 V
28 49 V
27 57 V
28 60 V
27 59 V
28 55 V
27 50 V
27 43 V
28 35 V
27 26 V
28 17 V
27 8 V
28 -2 V
27 -9 V
28 -18 V
27 -24 V
27 -29 V
28 -33 V
27 -35 V
28 -36 V
27 -35 V
28 -34 V
27 -30 V
27 -27 V
28 -23 V
27 -18 V
28 -13 V
27 -10 V
28 -5 V
27 -2 V
28 1 V
27 3 V
27 4 V
28 5 V
27 6 V
28 5 V
27 4 V
28 3 V
27 2 V
27 1 V
28 0 V
27 -2 V
28 -2 V
27 -2 V
28 -3 V
27 -2 V
28 -2 V
27 -1 V
27 -1 V
28 0 V
27 1 V
28 2 V
27 2 V
28 3 V
27 2 V
27 3 V
28 2 V
27 1 V
28 1 V
27 0 V
28 0 V
27 -1 V
28 -2 V
27 -3 V
27 -2 V
28 -3 V
27 -4 V
28 -3 V
27 -4 V
28 -4 V
stroke 3745 2741 M
27 -4 V
27 -4 V
28 -4 V
27 -5 V
28 -5 V
27 -5 V
28 -5 V
27 -6 V
28 -5 V
27 -6 V
27 -6 V
28 -5 V
27 -6 V
28 -5 V
27 -6 V
28 -5 V
27 -4 V
946 704 CircleF
973 705 CircleF
1001 709 CircleF
1028 715 CircleF
1056 726 CircleF
1083 746 CircleF
1111 782 CircleF
1138 838 CircleF
1165 923 CircleF
1193 1039 CircleF
1220 1188 CircleF
1248 1367 CircleF
1275 1573 CircleF
1303 1797 CircleF
1330 2031 CircleF
1358 2262 CircleF
1385 2482 CircleF
1412 2681 CircleF
1440 2850 CircleF
1467 2984 CircleF
1495 3078 CircleF
1522 3131 CircleF
1550 3144 CircleF
1577 3122 CircleF
1604 3069 CircleF
1632 2995 CircleF
1659 2906 CircleF
1687 2815 CircleF
1714 2731 CircleF
1742 2664 CircleF
1769 2621 CircleF
1797 2607 CircleF
1824 2620 CircleF
1851 2655 CircleF
1879 2704 CircleF
1906 2761 CircleF
1934 2821 CircleF
1961 2880 CircleF
1989 2935 CircleF
2016 2985 CircleF
2043 3028 CircleF
2071 3063 CircleF
2098 3089 CircleF
2126 3106 CircleF
2153 3114 CircleF
2181 3112 CircleF
2208 3103 CircleF
2236 3085 CircleF
2263 3061 CircleF
2290 3032 CircleF
2318 2999 CircleF
2345 2964 CircleF
2373 2928 CircleF
2400 2893 CircleF
2428 2859 CircleF
2455 2829 CircleF
2482 2802 CircleF
2510 2779 CircleF
2537 2761 CircleF
2565 2748 CircleF
2592 2738 CircleF
2620 2733 CircleF
2647 2731 CircleF
2675 2732 CircleF
2702 2735 CircleF
2729 2739 CircleF
2757 2744 CircleF
2784 2750 CircleF
2812 2755 CircleF
2839 2759 CircleF
2867 2762 CircleF
2894 2764 CircleF
2921 2765 CircleF
2949 2765 CircleF
2976 2763 CircleF
3004 2761 CircleF
3031 2759 CircleF
3059 2756 CircleF
3086 2754 CircleF
3114 2752 CircleF
3141 2751 CircleF
3168 2750 CircleF
3196 2750 CircleF
3223 2751 CircleF
3251 2753 CircleF
3278 2755 CircleF
3306 2758 CircleF
3333 2760 CircleF
3360 2763 CircleF
3388 2765 CircleF
3415 2766 CircleF
3443 2767 CircleF
3470 2767 CircleF
3498 2767 CircleF
3525 2766 CircleF
3553 2764 CircleF
3580 2761 CircleF
3607 2759 CircleF
3635 2756 CircleF
3662 2752 CircleF
3690 2749 CircleF
3717 2745 CircleF
3745 2741 CircleF
3772 2737 CircleF
3799 2733 CircleF
3827 2729 CircleF
3854 2724 CircleF
3882 2719 CircleF
3909 2714 CircleF
3937 2709 CircleF
3964 2703 CircleF
3992 2698 CircleF
4019 2692 CircleF
4046 2686 CircleF
4074 2681 CircleF
4101 2675 CircleF
4129 2670 CircleF
4156 2664 CircleF
4184 2659 CircleF
4211 2655 CircleF
3783 1590 CircleF
0.200 UP
1.000 UL
LTb
LCb setrgbcolor
[] 0 setdash
0.00 0.68 0.64 C LCb setrgbcolor
0.200 UP
1.000 UL
LTb
0.00 0.68 0.64 C 3488 1370 M
591 0 V
946 704 M
27 1 V
28 4 V
27 5 V
28 10 V
27 18 V
28 31 V
27 50 V
27 75 V
28 105 V
27 136 V
28 166 V
27 191 V
28 211 V
27 221 V
28 221 V
27 213 V
27 194 V
28 167 V
27 135 V
28 97 V
27 59 V
28 20 V
27 -15 V
27 -45 V
28 -67 V
27 -82 V
28 -87 V
27 -81 V
28 -66 V
27 -44 V
28 -18 V
27 8 V
27 28 V
28 43 V
27 51 V
28 55 V
27 55 V
28 53 V
27 48 V
27 42 V
28 36 V
27 27 V
28 19 V
27 11 V
28 2 V
27 -5 V
28 -13 V
27 -18 V
27 -23 V
28 -26 V
27 -28 V
28 -28 V
27 -28 V
28 -26 V
27 -23 V
27 -20 V
28 -16 V
27 -13 V
28 -9 V
27 -5 V
28 -3 V
27 1 V
28 2 V
27 4 V
27 5 V
28 6 V
27 5 V
28 5 V
27 5 V
28 3 V
27 2 V
27 0 V
28 0 V
27 -2 V
28 -3 V
27 -3 V
28 -3 V
27 -4 V
28 -3 V
27 -3 V
27 -2 V
28 -1 V
27 -1 V
28 0 V
27 1 V
28 1 V
27 1 V
27 1 V
28 1 V
27 0 V
28 0 V
27 0 V
28 -1 V
27 -1 V
28 -2 V
27 -2 V
27 -2 V
28 -3 V
27 -2 V
28 -3 V
27 -3 V
28 -3 V
stroke 3745 2719 M
27 -4 V
27 -3 V
28 -4 V
27 -4 V
28 -5 V
27 -4 V
28 -5 V
27 -6 V
28 -5 V
27 -6 V
27 -5 V
28 -6 V
27 -5 V
28 -6 V
27 -5 V
28 -5 V
27 -6 V
946 704 CircleF
973 705 CircleF
1001 709 CircleF
1028 714 CircleF
1056 724 CircleF
1083 742 CircleF
1111 773 CircleF
1138 823 CircleF
1165 898 CircleF
1193 1003 CircleF
1220 1139 CircleF
1248 1305 CircleF
1275 1496 CircleF
1303 1707 CircleF
1330 1928 CircleF
1358 2149 CircleF
1385 2362 CircleF
1412 2556 CircleF
1440 2723 CircleF
1467 2858 CircleF
1495 2955 CircleF
1522 3014 CircleF
1550 3034 CircleF
1577 3019 CircleF
1604 2974 CircleF
1632 2907 CircleF
1659 2825 CircleF
1687 2738 CircleF
1714 2657 CircleF
1742 2591 CircleF
1769 2547 CircleF
1797 2529 CircleF
1824 2537 CircleF
1851 2565 CircleF
1879 2608 CircleF
1906 2659 CircleF
1934 2714 CircleF
1961 2769 CircleF
1989 2822 CircleF
2016 2870 CircleF
2043 2912 CircleF
2071 2948 CircleF
2098 2975 CircleF
2126 2994 CircleF
2153 3005 CircleF
2181 3007 CircleF
2208 3002 CircleF
2236 2989 CircleF
2263 2971 CircleF
2290 2948 CircleF
2318 2922 CircleF
2345 2894 CircleF
2373 2866 CircleF
2400 2838 CircleF
2428 2812 CircleF
2455 2789 CircleF
2482 2769 CircleF
2510 2753 CircleF
2537 2740 CircleF
2565 2731 CircleF
2592 2726 CircleF
2620 2723 CircleF
2647 2724 CircleF
2675 2726 CircleF
2702 2730 CircleF
2729 2735 CircleF
2757 2741 CircleF
2784 2746 CircleF
2812 2751 CircleF
2839 2756 CircleF
2867 2759 CircleF
2894 2761 CircleF
2921 2761 CircleF
2949 2761 CircleF
2976 2759 CircleF
3004 2756 CircleF
3031 2753 CircleF
3059 2750 CircleF
3086 2746 CircleF
3114 2743 CircleF
3141 2740 CircleF
3168 2738 CircleF
3196 2737 CircleF
3223 2736 CircleF
3251 2736 CircleF
3278 2737 CircleF
3306 2738 CircleF
3333 2739 CircleF
3360 2740 CircleF
3388 2741 CircleF
3415 2741 CircleF
3443 2741 CircleF
3470 2741 CircleF
3498 2740 CircleF
3525 2739 CircleF
3553 2737 CircleF
3580 2735 CircleF
3607 2733 CircleF
3635 2730 CircleF
3662 2728 CircleF
3690 2725 CircleF
3717 2722 CircleF
3745 2719 CircleF
3772 2715 CircleF
3799 2712 CircleF
3827 2708 CircleF
3854 2704 CircleF
3882 2699 CircleF
3909 2695 CircleF
3937 2690 CircleF
3964 2684 CircleF
3992 2679 CircleF
4019 2673 CircleF
4046 2668 CircleF
4074 2662 CircleF
4101 2657 CircleF
4129 2651 CircleF
4156 2646 CircleF
4184 2641 CircleF
4211 2635 CircleF
3783 1370 CircleF
0.200 UP
1.000 UL
LTb
LCb setrgbcolor
[] 0 setdash
0.00 0.68 0.31 C LCb setrgbcolor
0.200 UP
1.000 UL
LTb
0.00 0.68 0.31 C 3488 1150 M
591 0 V
946 704 M
27 1 V
28 3 V
27 6 V
28 8 V
27 15 V
28 26 V
27 43 V
27 65 V
28 91 V
27 118 V
28 145 V
27 169 V
28 187 V
27 196 V
28 198 V
27 192 V
27 176 V
28 152 V
27 125 V
28 91 V
27 57 V
28 23 V
27 -9 V
27 -36 V
28 -58 V
27 -70 V
28 -76 V
27 -72 V
28 -59 V
27 -41 V
28 -18 V
27 5 V
27 22 V
28 37 V
27 45 V
28 50 V
27 51 V
28 50 V
27 46 V
27 42 V
28 37 V
27 29 V
28 22 V
27 15 V
28 7 V
27 2 V
28 -4 V
27 -9 V
27 -12 V
28 -14 V
27 -15 V
28 -15 V
27 -14 V
28 -12 V
27 -11 V
27 -7 V
28 -6 V
27 -3 V
28 0 V
27 1 V
28 3 V
27 5 V
28 5 V
27 6 V
27 6 V
28 6 V
27 5 V
28 4 V
27 4 V
28 3 V
27 1 V
27 0 V
28 -1 V
27 -2 V
28 -3 V
27 -4 V
28 -4 V
27 -4 V
28 -3 V
27 -4 V
27 -2 V
28 -3 V
27 -1 V
28 -1 V
27 0 V
28 0 V
27 0 V
27 0 V
28 1 V
27 0 V
28 0 V
27 0 V
28 0 V
27 -1 V
28 -1 V
27 -1 V
27 -2 V
28 -1 V
27 -2 V
28 -2 V
27 -2 V
28 -3 V
stroke 3745 2693 M
27 -2 V
27 -3 V
28 -4 V
27 -4 V
28 -4 V
27 -5 V
28 -5 V
27 -5 V
28 -6 V
27 -5 V
27 -6 V
28 -6 V
27 -6 V
28 -6 V
27 -6 V
28 -5 V
27 -6 V
946 704 CircleF
973 705 CircleF
1001 708 CircleF
1028 714 CircleF
1056 722 CircleF
1083 737 CircleF
1111 763 CircleF
1138 806 CircleF
1165 871 CircleF
1193 962 CircleF
1220 1080 CircleF
1248 1225 CircleF
1275 1394 CircleF
1303 1581 CircleF
1330 1777 CircleF
1358 1975 CircleF
1385 2167 CircleF
1412 2343 CircleF
1440 2495 CircleF
1467 2620 CircleF
1495 2711 CircleF
1522 2768 CircleF
1550 2791 CircleF
1577 2782 CircleF
1604 2746 CircleF
1632 2688 CircleF
1659 2618 CircleF
1687 2542 CircleF
1714 2470 CircleF
1742 2411 CircleF
1769 2370 CircleF
1797 2352 CircleF
1824 2357 CircleF
1851 2379 CircleF
1879 2416 CircleF
1906 2461 CircleF
1934 2511 CircleF
1961 2562 CircleF
1989 2612 CircleF
2016 2658 CircleF
2043 2700 CircleF
2071 2737 CircleF
2098 2766 CircleF
2126 2788 CircleF
2153 2803 CircleF
2181 2810 CircleF
2208 2812 CircleF
2236 2808 CircleF
2263 2799 CircleF
2290 2787 CircleF
2318 2773 CircleF
2345 2758 CircleF
2373 2743 CircleF
2400 2729 CircleF
2428 2717 CircleF
2455 2706 CircleF
2482 2699 CircleF
2510 2693 CircleF
2537 2690 CircleF
2565 2690 CircleF
2592 2691 CircleF
2620 2694 CircleF
2647 2699 CircleF
2675 2704 CircleF
2702 2710 CircleF
2729 2716 CircleF
2757 2722 CircleF
2784 2727 CircleF
2812 2731 CircleF
2839 2735 CircleF
2867 2738 CircleF
2894 2739 CircleF
2921 2739 CircleF
2949 2738 CircleF
2976 2736 CircleF
3004 2733 CircleF
3031 2729 CircleF
3059 2725 CircleF
3086 2721 CircleF
3114 2718 CircleF
3141 2714 CircleF
3168 2712 CircleF
3196 2709 CircleF
3223 2708 CircleF
3251 2707 CircleF
3278 2707 CircleF
3306 2707 CircleF
3333 2707 CircleF
3360 2707 CircleF
3388 2708 CircleF
3415 2708 CircleF
3443 2708 CircleF
3470 2708 CircleF
3498 2708 CircleF
3525 2707 CircleF
3553 2706 CircleF
3580 2705 CircleF
3607 2703 CircleF
3635 2702 CircleF
3662 2700 CircleF
3690 2698 CircleF
3717 2696 CircleF
3745 2693 CircleF
3772 2691 CircleF
3799 2688 CircleF
3827 2684 CircleF
3854 2680 CircleF
3882 2676 CircleF
3909 2671 CircleF
3937 2666 CircleF
3964 2661 CircleF
3992 2655 CircleF
4019 2650 CircleF
4046 2644 CircleF
4074 2638 CircleF
4101 2632 CircleF
4129 2626 CircleF
4156 2620 CircleF
4184 2615 CircleF
4211 2609 CircleF
3783 1150 CircleF
0.200 UP
1.000 UL
LTb
LCb setrgbcolor
[] 0 setdash
0.04 0.68 0.00 C LCb setrgbcolor
0.200 UP
1.000 UL
LTb
0.04 0.68 0.00 C 3488 930 M
591 0 V
946 704 M
27 1 V
28 3 V
27 5 V
28 8 V
27 14 V
28 23 V
27 38 V
27 58 V
28 82 V
27 105 V
28 130 V
27 149 V
28 165 V
27 172 V
28 173 V
27 165 V
27 150 V
28 129 V
27 104 V
28 74 V
27 45 V
28 15 V
27 -11 V
27 -34 V
28 -50 V
27 -60 V
28 -62 V
27 -58 V
28 -47 V
27 -30 V
28 -11 V
27 9 V
27 24 V
28 37 V
27 44 V
28 48 V
27 49 V
28 49 V
27 45 V
27 41 V
28 36 V
27 29 V
28 24 V
27 18 V
28 12 V
27 7 V
28 3 V
27 1 V
27 -2 V
28 -3 V
27 -4 V
28 -3 V
27 -2 V
28 -1 V
27 0 V
27 2 V
28 3 V
27 4 V
28 6 V
27 5 V
28 7 V
27 6 V
28 7 V
27 6 V
27 6 V
28 5 V
27 5 V
28 4 V
27 3 V
28 2 V
27 1 V
27 1 V
28 0 V
27 -1 V
28 -1 V
27 -2 V
28 -2 V
27 -1 V
28 -2 V
27 -1 V
27 -1 V
28 0 V
27 1 V
28 0 V
27 2 V
28 1 V
27 2 V
27 1 V
28 2 V
27 1 V
28 1 V
27 1 V
28 1 V
27 0 V
28 0 V
27 0 V
27 -1 V
28 -1 V
27 -2 V
28 -1 V
27 -3 V
28 -2 V
stroke 3745 2675 M
27 -3 V
27 -3 V
28 -4 V
27 -4 V
28 -5 V
27 -4 V
28 -6 V
27 -5 V
28 -6 V
27 -6 V
27 -6 V
28 -6 V
27 -5 V
28 -6 V
27 -6 V
28 -6 V
27 -5 V
946 704 CircleF
973 705 CircleF
1001 708 CircleF
1028 713 CircleF
1056 721 CircleF
1083 735 CircleF
1111 758 CircleF
1138 796 CircleF
1165 854 CircleF
1193 936 CircleF
1220 1041 CircleF
1248 1171 CircleF
1275 1320 CircleF
1303 1485 CircleF
1330 1657 CircleF
1358 1830 CircleF
1385 1995 CircleF
1412 2145 CircleF
1440 2274 CircleF
1467 2378 CircleF
1495 2452 CircleF
1522 2497 CircleF
1550 2512 CircleF
1577 2501 CircleF
1604 2467 CircleF
1632 2417 CircleF
1659 2357 CircleF
1687 2295 CircleF
1714 2237 CircleF
1742 2190 CircleF
1769 2160 CircleF
1797 2149 CircleF
1824 2158 CircleF
1851 2182 CircleF
1879 2219 CircleF
1906 2263 CircleF
1934 2311 CircleF
1961 2360 CircleF
1989 2409 CircleF
2016 2454 CircleF
2043 2495 CircleF
2071 2531 CircleF
2098 2560 CircleF
2126 2584 CircleF
2153 2602 CircleF
2181 2614 CircleF
2208 2621 CircleF
2236 2624 CircleF
2263 2625 CircleF
2290 2623 CircleF
2318 2620 CircleF
2345 2616 CircleF
2373 2613 CircleF
2400 2611 CircleF
2428 2610 CircleF
2455 2610 CircleF
2482 2612 CircleF
2510 2615 CircleF
2537 2619 CircleF
2565 2625 CircleF
2592 2630 CircleF
2620 2637 CircleF
2647 2643 CircleF
2675 2650 CircleF
2702 2656 CircleF
2729 2662 CircleF
2757 2667 CircleF
2784 2672 CircleF
2812 2676 CircleF
2839 2679 CircleF
2867 2681 CircleF
2894 2682 CircleF
2921 2683 CircleF
2949 2683 CircleF
2976 2682 CircleF
3004 2681 CircleF
3031 2679 CircleF
3059 2677 CircleF
3086 2676 CircleF
3114 2674 CircleF
3141 2673 CircleF
3168 2672 CircleF
3196 2672 CircleF
3223 2673 CircleF
3251 2673 CircleF
3278 2675 CircleF
3306 2676 CircleF
3333 2678 CircleF
3360 2679 CircleF
3388 2681 CircleF
3415 2682 CircleF
3443 2683 CircleF
3470 2684 CircleF
3498 2685 CircleF
3525 2685 CircleF
3553 2685 CircleF
3580 2685 CircleF
3607 2684 CircleF
3635 2683 CircleF
3662 2681 CircleF
3690 2680 CircleF
3717 2677 CircleF
3745 2675 CircleF
3772 2672 CircleF
3799 2669 CircleF
3827 2665 CircleF
3854 2661 CircleF
3882 2656 CircleF
3909 2652 CircleF
3937 2646 CircleF
3964 2641 CircleF
3992 2635 CircleF
4019 2629 CircleF
4046 2623 CircleF
4074 2617 CircleF
4101 2612 CircleF
4129 2606 CircleF
4156 2600 CircleF
4184 2594 CircleF
4211 2589 CircleF
3783 930 CircleF
2.000 UL
LTb
LCb setrgbcolor
[] 0 setdash
1.500 UL
LTb
946 3623 N
946 704 L
3265 0 V
0 2919 V
-3265 0 V
Z stroke
1.000 UP
1.500 UL
LTb
stroke
grestore
end
showpage
%%Trailer
