0.000000000000000000e+00 0.000000000000000000e+00 0.000000000000000000e+00 0.000000000000000000e+00
1.004184100418409997e+00 -4.561622496512818259e-06 4.577029994345949149e-06 1.540749783313088983e-08
2.008368200836819994e+00 -1.813244841519789929e-05 1.819311094131137452e-05 6.066252611347522361e-08
3.012552301255229992e+00 -4.036618798808344621e-05 4.049911492776114841e-05 1.329269396777021939e-07
4.016736401673639989e+00 -7.072425496601475459e-05 7.095208886420678596e-05 2.278338981920313699e-07
5.020920502092049986e+00 -1.086877948006659267e-04 1.090281731319642233e-04 3.403783312982966436e-07
6.025104602510459983e+00 -1.531814511999129991e-04 1.536451448092002181e-04 4.636936092872190329e-07
7.029288702928869981e+00 -2.032341060015374623e-04 2.038254947324125155e-04 5.913887308750531702e-07
8.033472803347279978e+00 -2.578525501504280726e-04 2.585700223418641031e-04 7.174721914360304709e-07
9.037656903765689975e+00 -3.156608457961507241e-04 3.164968578075466610e-04 8.360120113959368382e-07
1.004184100418409997e+01 -3.754482646617374186e-04 3.763909204097526384e-04 9.426557480152197854e-07
1.104602510460250997e+01 -4.359257881026978865e-04 4.369600488722813481e-04 1.034260769583461581e-06
1.205020920502091997e+01 -4.956846822786742379e-04 4.967937226351137880e-04 1.109040356439550123e-06
1.305439330543932996e+01 -5.533985121763951298e-04 5.545653578886700075e-04 1.166845712274877656e-06
1.405857740585773996e+01 -6.078988731577084081e-04 6.091077917471654501e-04 1.208918589457042003e-06
1.506276150627614996e+01 -6.580467408333623425e-04 6.592842911343765877e-04 1.237550301014245235e-06
1.606694560669455996e+01 -7.026982068720766250e-04 7.039540450148873418e-04 1.255838142810716818e-06
1.707112970711296995e+01 -7.411439820220744323e-04 7.424111953255874141e-04 1.267213303512981781e-06
1.807531380753137995e+01 -7.725816046572075990e-04 7.738567222769221488e-04 1.275117619714549733e-06
1.907949790794978995e+01 -7.963302607597588789e-04 7.976129400677489656e-04 1.282679307990086670e-06
2.008368200836819994e+01 -8.123040556878846630e-04 8.135961337824015871e-04 1.292078094516924125e-06
2.108786610878660994e+01 -8.201484844402306962e-04 8.214533400109358396e-04 1.304855570705143464e-06
2.209205020920501994e+01 -8.198687188510911383e-04 8.211901403172294778e-04 1.321421466138339440e-06
2.309623430962342994e+01 -8.118845463570556475e-04 8.132255584006875537e-04 1.341012043631906181e-06
2.410041841004183993e+01 -7.963418291909718505e-04 7.977040970669202480e-04 1.362267875948397489e-06
2.510460251046024993e+01 -7.739273669550295054e-04 7.753102228175157151e-04 1.382855862486209730e-06
2.610878661087865993e+01 -7.454022744399768641e-04 7.468023826171510393e-04 1.400108177174175239e-06
2.711297071129706993e+01 -7.114161210181046968e-04 7.128274335514994675e-04 1.411312533394770696e-06
2.811715481171547992e+01 -6.730563511039289182e-04 6.744701558374366357e-04 1.413804733507717515e-06
2.912133891213388992e+01 -6.313054407183216199e-04 6.327109603992964182e-04 1.405519680974798291e-06
3.012552301255229992e+01 -5.871483056278936630e-04 5.885333755711874559e-04 1.385069943293792960e-06
3.112970711297070991e+01 -5.417468641174538746e-04 5.430988029542227480e-04 1.351938836768873387e-06
3.213389121338911991e+01 -4.961796241761406989e-04 4.974862974812532812e-04 1.306673305112582284e-06
3.313807531380753346e+01 -4.514783075524331224e-04 4.527290141010942293e-04 1.250706548661106865e-06
3.414225941422593991e+01 -4.086378889887054555e-04 4.098241996473017679e-04 1.186310658596312351e-06
3.514644351464434635e+01 -3.686719206930089143e-04 3.697886483865486795e-04 1.116727693539765198e-06
3.615062761506275990e+01 -3.323358918655427985e-04 3.333812163903715486e-04 1.045324524828750157e-06
3.715481171548117345e+01 -3.003618766183047128e-04 3.013377262148786428e-04 9.758495965739300004e-07
3.815899581589957990e+01 -2.734954156250468671e-04 2.744077832206315293e-04 9.123675955846621832e-07
3.916317991631798634e+01 -2.520385266457925155e-04 2.528963882517665240e-04 8.578616059740085120e-07
4.016736401673639989e+01 -2.364102969717452041e-04 2.372256922652526967e-04 8.153952935074926245e-07
4.117154811715481344e+01 -2.269167074989697497e-04 2.277041136005131250e-04 7.874061015433753141e-07
4.217573221757321988e+01 -2.234144487081035635e-04 2.241890899015164251e-04 7.746411934128616394e-07
4.317991631799162633e+01 -2.259802858114445812e-04 2.267581827224418589e-04 7.778969109972777574e-07
4.418410041841003988e+01 -2.344066559797353122e-04 2.352032923622626726e-04 7.966363825273603538e-07
4.518828451882845343e+01 -2.482400998252698443e-04 2.490692544732109326e-04 8.291546479410882853e-07
4.619246861924685987e+01 -2.672028398718051534e-04 2.680766319671512576e-04 8.737920953461042473e-07
4.719665271966526632e+01 -2.906730758438502704e-04 2.916007300713951977e-04 9.276542275449273234e-07
4.820083682008367987e+01 -3.180129194551017946e-04 3.190006045683535518e-04 9.876851132517572296e-07
4.920502092050209342e+01 -3.486403830571527251e-04 3.496913252558631058e-04 1.050942198710380637e-06
5.020920502092049986e+01 -3.817429984650511088e-04 3.828570501946959581e-04 1.114051729644849331e-06
5.121338912133890631e+01 -4.165746849443818789e-04 4.177488175663990333e-04 1.174132622017154404e-06
5.221757322175731986e+01 -4.523919319089353408e-04 4.536206041534374123e-04 1.228672244502071464e-06
5.322175732217573341e+01 -4.883946426640362048e-04 4.896701387591129162e-04 1.275496095076711356e-06
5.422594142259413985e+01 -5.238115349256444730e-04 5.251246391060337970e-04 1.313104180389323972e-06
5.523012552301254630e+01 -5.579321778252932518e-04 5.592727606098524262e-04 1.340582784559174456e-06
5.623430962343095985e+01 -5.900876361344398191e-04 5.914452496196265230e-04 1.357613485186703883e-06
5.723849372384937340e+01 -6.195836955429356863e-04 6.209481376286962728e-04 1.364442085760586565e-06
5.824267782426777984e+01 -6.459230126749648804e-04 6.472848503626948968e-04 1.361837687730016455e-06
5.924686192468618628e+01 -6.686093244799851121e-04 6.699602958386563500e-04 1.350971358671237965e-06
6.025104602510459983e+01 -6.871458428406862495e-04 6.884791673545942459e-04 1.333324513907996334e-06
6.125523012552301338e+01 -7.013278157398383783e-04 7.026383408856862189e-04 1.310525145847840633e-06
6.225941422594141983e+01 -7.108595661085015394e-04 7.121438790704814892e-04 1.284312961979949819e-06
6.326359832635982627e+01 -7.155379120974414420e-04 7.167942795027748559e-04 1.256367405333413956e-06
6.426778242677823982e+01 -7.154329515973723019e-04 7.166610455381361433e-04 1.228093940763841374e-06
6.527196652719665337e+01 -7.104702787935623931e-04 7.116710969717887636e-04 1.200818178226370492e-06
6.627615062761506692e+01 -7.007855483389668905e-04 7.019609458471798291e-04 1.175397508212938646e-06
6.728033472803346626e+01 -6.866459516567946508e-04 6.877982305603103086e-04 1.152278903515657760e-06
6.828451882845187981e+01 -6.682174433417786830e-04 6.693491706479814951e-04 1.131727306202812144e-06
6.928870292887029336e+01 -6.459168829116013200e-04 6.470301965144642509e-04 1.113313602862930907e-06
7.029288702928869270e+01 -6.201534232395111701e-04 6.212498288167278560e-04 1.096405577216685856e-06
7.129707112970710625e+01 -5.913141878518546335e-04 5.923943669459141859e-04 1.080179094059552369e-06
7.230125523012551980e+01 -5.599778738900607067e-04 5.610411360030820305e-04 1.063262113021323785e-06
7.330543933054393335e+01 -5.266596864139660994e-04 5.277041404945226333e-04 1.044454080556533881e-06
7.430962343096234690e+01 -4.918986568837047102e-04 4.929211535986688375e-04 1.022496714964127307e-06
7.531380753138074624e+01 -4.563179558813024173e-04 4.573140078607540460e-04 9.960519794516287106e-07
7.631799163179915979e+01 -4.204945264624226908e-04 4.214588334972013683e-04 9.643070347786775187e-07
7.732217573221757334e+01 -3.850103071395549748e-04 3.859369247003474612e-04 9.266175607924864721e-07
7.832635983263597268e+01 -3.504505810109082020e-04 3.513333688343056593e-04 8.827878233974573163e-07
7.933054393305438623e+01 -3.173925053221449133e-04 3.182258251566150165e-04 8.333198344701031601e-07
8.033472803347279978e+01 -2.863370002271770076e-04 2.871160339521505733e-04 7.790337249735657110e-07
8.133891213389121333e+01 -2.577895817450492899e-04 2.585110243272792374e-04 7.214425822299475044e-07
8.234309623430962688e+01 -2.322409774844214070e-04 2.329036375003923354e-04 6.626600159709283844e-07
8.334728033472802622e+01 -2.100275154732766936e-04 2.106324327461051027e-04 6.049172728284091249e-07
8.435146443514643977e+01 -1.915395219613813538e-04 1.920905606109801766e-04 5.510386495988228717e-07
8.535564853556485332e+01 -1.770891713032129999e-04 1.775931018330734190e-04 5.039305298604190853e-07
8.635983263598325266e+01 -1.668214802197365287e-04 1.672875923031114098e-04 4.661120833748810810e-07
8.736401673640166621e+01 -1.609754986160449874e-04 1.614158668610254921e-04 4.403682449805046417e-07
8.836820083682007976e+01 -1.596081251395986556e-04 1.600367526174428789e-04 4.286274778442233924e-07
8.937238493723849331e+01 -1.626956352781538939e-04 1.631277784297502365e-04 4.321431515963425340e-07
9.037656903765690686e+01 -1.702802404849323992e-04 1.707321793518179476e-04 4.519388668855484070e-07
9.138075313807530620e+01 -1.821592405010230564e-04 1.826466693835016031e-04 4.874288824785466545e-07
9.238493723849371975e+01 -1.981547938677552523e-04 1.986923441252841371e-04 5.375502575288848561e-07
9.338912133891213330e+01 -2.180875778134971910e-04 2.186882205550411129e-04 6.006427415439219430e-07
9.439330543933053264e+01 -2.415495225333019746e-04 2.422230822458626420e-04 6.735597125606673785e-07
9.539748953974894619e+01 -2.682185311869700328e-04 2.689717608252983894e-04 7.532296383283565433e-07
9.640167364016735974e+01 -2.977047485024364448e-04 2.985408530782329706e-04 8.361045757965257508e-07
9.740585774058577329e+01 -3.294763366096242763e-04 3.303945240821226648e-04 9.181874724983885017e-07
9.841004184100418684e+01 -3.630845146227468234e-04 3.640806395019957620e-04 9.961248792489385551e-07
9.941422594142258617e+01 -3.979869507945155149e-04 3.990536953069057091e-04 1.066744512390194188e-06
1.004184100418409997e+02 -4.336060847557332565e-04 4.347336435570614555e-04 1.127558801328198967e-06
1.014225941422594133e+02 -4.693998142866195877e-04 4.705768646023900104e-04 1.177050315770422628e-06
1.024267782426778126e+02 -5.047858406557192978e-04 5.060003837440429919e-04 1.214543088323694064e-06
1.034309623430962262e+02 -5.391863420335374357e-04 5.404267245159299904e-04 1.240382482392554664e-06
1.044351464435146397e+02 -5.720411508264300338e-04 5.732969892789929744e-04 1.255838452562940688e-06
1.054393305439330533e+02 -6.028371880645311265e-04 6.041000513363758984e-04 1.262863271844771873e-06
1.064435146443514668e+02 -6.310421908439778349e-04 6.323062266442303070e-04 1.264035800252472086e-06
1.074476987447698662e+02 -6.561860710839750865e-04 6.574482537882175848e-04 1.262182704242498232e-06
1.084518828451882797e+02 -6.778969842475834895e-04 6.791569327642132947e-04 1.259948516629805226e-06
1.094560669456066933e+02 -6.957448356833539904e-04 6.970047978489546381e-04 1.259962165600647666e-06
1.104602510460250926e+02 -7.094697844721720159e-04 7.107337864338258981e-04 1.264001961653882233e-06
1.114644351464435061e+02 -7.188635428976297703e-04 7.201366414201215704e-04 1.273098522491800111e-06
1.124686192468619197e+02 -7.236761755109455407e-04 7.249639071882363339e-04 1.287731677290793186e-06
1.134728033472803332e+02 -7.239207822711257734e-04 7.252277609731683228e-04 1.306978702042549401e-06
1.144769874476987468e+02 -7.195686400930378923e-04 7.208980321911084843e-04 1.329392098070591999e-06
1.154811715481171461e+02 -7.106194898767181911e-04 7.119724272854899283e-04 1.352937408771737182e-06
1.164853556485355597e+02 -6.973505078510244815e-04 6.987252864099069427e-04 1.374778558882461255e-06
1.174895397489539732e+02 -6.799239618108243732e-04 6.813161800796052603e-04 1.392218268780887058e-06
1.184937238493723726e+02 -6.586257582742449657e-04 6.600283355762126547e-04 1.402577301967689039e-06
1.194979079497907861e+02 -6.339302545066427541e-04 6.353337761498822900e-04 1.403521643239535877e-06
1.205020920502091997e+02 -6.061934581639283337e-04 6.075868634540793067e-04 1.393405290150973030e-06
1.215062761506276132e+02 -5.759582859703460400e-04 5.773296388165150006e-04 1.371352846168960582e-06
1.225104602510460268e+02 -5.438122027866532093e-04 5.451496028512359260e-04 1.337400064582716652e-06
1.235146443514644261e+02 -5.102897702350395193e-04 5.115822021229954331e-04 1.292431887955913794e-06
1.245188284518828397e+02 -4.760689430497455632e-04 4.773070784835908853e-04 1.238135433845322098e-06
1.255230125523012532e+02 -4.418002266585174809e-04 4.429771152292261149e-04 1.176888570708634063e-06
1.265271966527196525e+02 -4.081216321020209037e-04 4.092331674453442147e-04 1.111535343323311054e-06
1.275313807531380661e+02 -3.757055088383642882e-04 3.767504615811434476e-04 1.044952742779159394e-06
1.285355648535564796e+02 -3.452095744874705829e-04 3.461898585364053815e-04 9.802840489347985908e-07
1.295397489539748790e+02 -3.172441455107088970e-04 3.181644672396455320e-04 9.203217289366349974e-07
1.305439330543933067e+02 -2.923651690572848239e-04 2.932324240428885176e-04 8.672549856036937399e-07
1.315481171548117061e+02 -2.711618816279015576e-04 2.719851663728345414e-04 8.232847449329838696e-07
1.325523012552301338e+02 -2.540505279656768423e-04 2.548400697695019090e-04 7.895418038250667792e-07
1.335564853556485332e+02 -2.414154677992108589e-04 2.421822044074151137e-04 7.667366082042548214e-07
1.345606694560669325e+02 -2.336649351285524645e-04 2.344203731659000312e-04 7.554380373475666488e-07
1.355648535564853603e+02 -2.309057545993864480e-04 2.316608055153990264e-04 7.550509160125784547e-07
1.365690376569037596e+02 -2.333094571582705612e-04 2.340745518110143308e-04 7.650946527437696432e-07
1.375732217573221590e+02 -2.409854750982098892e-04 2.417703351238476017e-04 7.848600256377125106e-07
1.385774058577405867e+02 -2.537060141708513683e-04 2.545187951457084097e-04 8.127809748570413717e-07
1.395815899581589861e+02 -2.713953098577581713e-04 2.722430902168948563e-04 8.477803591366850355e-07
1.405857740585773854e+02 -2.937804167494340035e-04 2.946687710445594632e-04 8.883542951254597142e-07
1.415899581589958132e+02 -3.203623793208709714e-04 3.212949666375752855e-04 9.325873167043141621e-07
1.425941422594142125e+02 -3.507916229846808065e-04 3.517707386309076867e-04 9.791156462268801874e-07
1.435983263598326403e+02 -3.844293851177349453e-04 3.854553247861769449e-04 1.025939668441999686e-06
1.446025104602510396e+02 -4.205979960241190696e-04 4.216692352547735112e-04 1.071239230654441599e-06
1.456066945606694389e+02 -4.586788805638342126e-04 4.597925157459048506e-04 1.113635182070638052e-06
1.466108786610878667e+02 -4.978194100070387762e-04 4.989707336591209241e-04 1.151323652082147930e-06
1.476150627615062660e+02 -5.372234992387925345e-04 5.384067045495211090e-04 1.183205310728574489e-06
1.486192468619246938e+02 -5.760972102170081044e-04 5.773058245233109176e-04 1.208614306302813191e-06
1.496234309623430931e+02 -6.135628020580430331e-04 6.147897796727752606e-04 1.226977614732227551e-06
1.506276150627614925e+02 -6.487820369091013006e-04 6.500206655419837887e-04 1.238628632882488034e-06
1.516317991631799202e+02 -6.809652900475748893e-04 6.822095659229088227e-04 1.244275875333933357e-06
1.526359832635983196e+02 -7.093647391189783491e-04 7.106096995761479462e-04 1.244960457169597134e-06
1.536401673640167189e+02 -7.332086228094558678e-04 7.344509522697606485e-04 1.242329460304780753e-06
1.546443514644351467e+02 -7.519435837034516013e-04 7.531815270538366747e-04 1.237943350385073416e-06
1.556485355648535460e+02 -7.650352874639665401e-04 7.662686807354823770e-04 1.233393271515836886e-06
1.566527196652719454e+02 -7.719402916245288182e-04 7.731704924107685173e-04 1.230200786239699084e-06
1.576569037656903731e+02 -7.725053668291570474e-04 7.737344098450726904e-04 1.229043015915642911e-06
1.586610878661087725e+02 -7.664736069836752819e-04 7.677038598266072711e-04 1.230252842931989221e-06
1.596652719665272002e+02 -7.537011376648194982e-04 7.549345950302877029e-04 1.233457365468204614e-06
1.606694560669455996e+02 -7.344730862177684116e-04 7.357102722131969585e-04 1.237185995428546903e-06
1.616736401673639989e+02 -7.088639220068637670e-04 7.101035922827403368e-04 1.239670275876569860e-06
1.626778242677824267e+02 -6.772518958649831333e-04 6.784903188564728183e-04 1.238422991489684932e-06
1.636820083682008260e+02 -6.402740796720429728e-04 6.415046775587462946e-04 1.230597886703321819e-06
1.646861924686192538e+02 -5.983836930345542982e-04 5.995971980568004511e-04 1.213505022246152976e-06
1.656903765690376531e+02 -5.524424067608890709e-04 5.536270052610703374e-04 1.184598500181266445e-06
1.666945606694560524e+02 -5.033297959413651768e-04 5.044717988202940262e-04 1.142002878928849441e-06
1.676987447698744802e+02 -4.518651898891556939e-04 4.529498349126193091e-04 1.084645023463615132e-06
1.687029288702928795e+02 -3.991798120234202329e-04 4.001923515026817313e-04 1.012539479261498343e-06
1.697071129707112789e+02 -3.463143383569677880e-04 3.472412158803672710e-04 9.268775233994830387e-07
1.707112970711297066e+02 -2.943144848103207423e-04 2.951444595804542104e-04 8.299747701334680983e-07
1.717154811715481060e+02 -2.443228542177156015e-04 2.450480932266740908e-04 7.252390089584892507e-07
1.727196652719665053e+02 -1.974323580933301514e-04 1.980494969850976616e-04 6.171388917675102448e-07
1.737238493723849331e+02 -1.546522580032627658e-04 1.551628701099705410e-04 5.106121067077751263e-07
1.747280334728033324e+02 -1.169356190759973657e-04 1.173464920967148828e-04 4.108730207175170790e-07
1.757322175732217602e+02 -8.526695935018313577e-05 8.559056107837470506e-05 3.236017281915692934e-07
1.767364016736401595e+02 -6.030448954119638216e-05 6.055781808533833299e-05 2.533285441419508288e-07
1.777405857740585589e+02 -4.270513232118577918e-05 4.290936288353641714e-05 2.042305623506379675e-07
1.787447698744769866e+02 -3.311692715435299306e-05 3.329685371666890603e-05 1.799265623159129746e-07
1.797489539748953860e+02 -3.164987562087606676e-05 3.183131350292800477e-05 1.814378820519380042e-07
1.807531380753138137e+02 -3.858178052429384053e-05 3.879123526506766950e-05 2.094547407738289735e-07
1.817573221757322131e+02 -5.400109458009172414e-05 5.426419075482691312e-05 2.630961747351889812e-07
1.827615062761506124e+02 -7.745440806850023563e-05 7.779326759038696082e-05 3.388595218867251901e-07
1.837656903765690402e+02 -1.087750145238874921e-04 1.092084235616574972e-04 4.334090377700050567e-07
1.847698744769874395e+02 -1.473609176780854568e-04 1.479024457318178776e-04 5.415280537324207444e-07
1.857740585774058388e+02 -1.923404358514790857e-04 1.929975099315139886e-04 6.570740800349028632e-07
1.867782426778242666e+02 -2.430505188814047202e-04 2.438250923204599019e-04 7.745734390551817228e-07
1.877824267782426659e+02 -2.983227314369285565e-04 2.992104692196573268e-04 8.877377827287702416e-07
1.887866108786610653e+02 -3.570052433864434605e-04 3.579965221347514159e-04 9.912787483079554818e-07
1.897907949790794930e+02 -4.180013663586112926e-04 4.190825103610462676e-04 1.081144002434974993e-06
1.907949790794978924e+02 -4.798929250954264703e-04 4.810469976050946173e-04 1.154072509668147006e-06
1.917991631799163201e+02 -5.413685822378555557e-04 5.425772336831169440e-04 1.208651445261388346e-06
1.928033472803347195e+02 -6.011299482953091911e-04 6.023749619066265382e-04 1.245013611317347113e-06
1.938075313807531188e+02 -6.578452994757677530e-04 6.591099410220291333e-04 1.264641546261380256e-06
1.948117154811715466e+02 -7.102014463885586437e-04 7.114719148224590839e-04 1.270468433900440175e-06
1.958158995815899459e+02 -7.570768503383229486e-04 7.583431447324429087e-04 1.266294394119960032e-06
1.968200836820083737e+02 -7.974475496699273691e-04 7.987039351469160664e-04 1.256385476988697292e-06
1.978242677824267730e+02 -8.302282757782775136e-04 8.314735762772196281e-04 1.245300498942114586e-06
1.988284518828451723e+02 -8.548459992259171969e-04 8.560828125951935874e-04 1.236813369276390517e-06
1.998326359832636001e+02 -8.706926933285119574e-04 8.719267169268185569e-04 1.234023598306599467e-06
2.008368200836819994e+02 -8.771948217254355029e-04 8.784338674205915964e-04 1.239045695156093529e-06
2.018410041841003988e+02 -8.744928831135867497e-04 8.757448496985453801e-04 1.251966584958630335e-06
2.028451882845188265e+02 -8.624743400410528338e-04 8.637462506131399209e-04 1.271910572087087132e-06
2.038493723849372259e+02 -8.413028424872903699e-04 8.425993295004818862e-04 1.296487013191516269e-06
2.048535564853556252e+02 -8.117561809546369744e-04 8.130779482511396594e-04 1.321767296502684985e-06
2.058577405857740530e+02 -7.742643199561971556e-04 7.756078109607544846e-04 1.343491004557328949e-06
2.068619246861924523e+02 -7.297777046529896339e-04 7.311344607794367789e-04 1.356756126447145050e-06
2.078661087866108801e+02 -6.794762036418378059e-04 6.808331014636070933e-04 1.356897821769287305e-06
2.088702928870292794e+02 -6.243370281459048599e-04 6.256770136514600011e-04 1.339985505555141287e-06
2.098744769874476788e+02 -5.658147026531556989e-04 5.671178994142156427e-04 1.303196761059943753e-06
2.108786610878661065e+02 -5.053150002857220713e-04 5.065603150666841969e-04 1.245314780962125667e-06
2.118828451882845059e+02 -4.441904075139779806e-04 4.453572014133655443e-04 1.166793899387563727e-06
2.128870292887029336e+02 -3.839724826520951595e-04 3.850424842020139238e-04 1.070001549918764283e-06
2.138912133891213330e+02 -3.261252954146476313e-04 3.270844443293841053e-04 9.591489147364740120e-07
2.148953974895397323e+02 -2.720223775878327643e-04 2.728622487494503090e-04 8.398711616175447148e-07
2.158995815899581601e+02 -2.229104348917543277e-04 2.236291436760184936e-04 7.187087842641659563e-07
2.169037656903765594e+02 -1.801079653162007688e-04 1.807113546858918340e-04 6.033893696910652693e-07
2.179079497907949587e+02 -1.445482999543612479e-04 1.450492787794521732e-04 5.009788250909252838e-07
2.189121338912133865e+02 -1.170253707741819582e-04 1.174433585595657803e-04 4.179877853838220858e-07
2.199163179916317858e+02 -9.843567732592539699e-05 9.879646567934052825e-05 3.607883534151312688e-07
2.209205020920501852e+02 -8.895779323025987395e-05 8.929026485704483207e-05 3.324716267849581186e-07
2.219246861924686129e+02 -8.886578344247109129e-05 8.920100847209511130e-05 3.352250296240200100e-07
2.229288702928870123e+02 -9.836993277012595627e-05 9.873962601048003052e-05 3.696932403540742484e-07
2.239330543933054400e+02 -1.168711644997655341e-04 1.173036457797760335e-04 4.324812800104993471e-07
2.249372384937238394e+02 -1.440904825856792471e-04 1.446105983381462678e-04 5.201157524670207977e-07
2.259414225941422387e+02 -1.794298773982738737e-04 1.800570464446371588e-04 6.271690463632850765e-07
2.269456066945606665e+02 -2.217348574308219966e-04 2.224809676520944635e-04 7.461102212724668448e-07
2.279497907949790658e+02 -2.701881574281861376e-04 2.710585579008828461e-04 8.704004726967085048e-07
2.289539748953974936e+02 -3.235182752092669034e-04 3.245109622356245893e-04 9.926870263576859088e-07
2.299581589958158929e+02 -3.803177369076093939e-04 3.814240513000388688e-04 1.106314392429474935e-06
2.309623430962342923e+02 -4.393304980874201959e-04 4.405367458302222872e-04 1.206247742802091238e-06
2.319665271966527200e+02 -4.990481305852112470e-04 5.003365986618879546e-04 1.288468076676707597e-06
2.329707112970711194e+02 -5.580029843239575627e-04 5.593537935909553838e-04 1.350809266997821112e-06
2.339748953974895187e+02 -6.147948239888512134e-04 6.161877046415575876e-04 1.392880652706374178e-06
2.349790794979079465e+02 -6.681232621169597152e-04 6.695390734151596135e-04 1.415811298199898260e-06
2.359832635983263458e+02 -7.166462894289127306e-04 7.180683557459488497e-04 1.422066317036119187e-06
2.369874476987447451e+02 -7.592386992177901917e-04 7.606538103177573618e-04 1.415111099967170105e-06
2.379916317991631729e+02 -7.950721440468377921e-04 7.964709968445449206e-04 1.398852797707128559e-06
2.389958158995815722e+02 -8.231369897283569159e-04 8.245144113361302374e-04 1.377421607773321455e-06
2.400000000000000000e+02 -8.429824773373839619e-04 8.443369246828869024e-04 1.354447345502940436e-06
