0.000000000000000000e+00 0.000000000000000000e+00 0.000000000000000000e+00
1.008403361344537785e+00 3.807177675638095948e-03 1.654370582333530848e-04
2.016806722689075571e+00 1.507120362344516185e-02 5.708829763722000905e-04
3.025210084033613356e+00 3.333530562548792098e-02 9.525384171584772020e-04
4.033613445378151141e+00 5.787957411304045507e-02 8.990477702619514844e-04
5.042016806722688926e+00 8.778143241267866159e-02 -1.086906999363534965e-04
6.050420168067226712e+00 1.219752550793122836e-01 -2.647592831856115936e-03
7.058823529411764497e+00 1.593121822976151236e-01 -7.296388065361369968e-03
8.067226890756302282e+00 1.986138046918024536e-01 -1.457791286038889744e-02
9.075630252100840067e+00 2.387174704620753651e-01 -2.490313563255330820e-02
1.008403361344537785e+01 2.785168699943083581e-01 -3.852072203160172847e-02
1.109243697478991564e+01 3.169914686837416173e-01 -5.547285969500181935e-02
1.210084033613445342e+01 3.532301281346259536e-01 -7.555927245980109674e-02
1.310924369747899121e+01 3.864502451679110440e-01 -9.831175700166416842e-02
1.411764705882352899e+01 4.160087710828634933e-01 -1.229790742072416343e-01
1.512605042016806678e+01 4.414030724060507005e-01 -1.485215341825376623e-01
1.613445378151260456e+01 4.622693946815452648e-01 -1.736249332841922621e-01
1.714285714285714235e+01 4.783832110140553429e-01 -1.967523403885143018e-01
1.815126050420168013e+01 4.896400354829106849e-01 -2.162330485570513883e-01
1.915966386554621792e+01 4.960438964533309125e-01 -2.304396191798399052e-01
2.016806722689075571e+01 4.976923119636329496e-01 -2.380533815203652592e-01
2.117647058823529349e+01 4.947585736583048899e-01 -2.383615108935934757e-01
2.218487394957983128e+01 4.874763420266670089e-01 -2.314559663063802120e-01
2.319327731092436906e+01 4.761290581696642210e-01 -2.182037097595086461e-01
2.420168067226890685e+01 4.610411329095915889e-01 -2.000016833443851727e-01
2.521008403361344463e+01 4.425676184095028720e-01 -1.784607834184662734e-01
2.621848739495798242e+01 4.210922459083377145e-01 -1.551580328283876931e-01
2.722689075630252020e+01 3.970290090651100723e-01 -1.314889822351652526e-01
2.823529411764705799e+01 3.708225884791374050e-01 -1.085975999744226428e-01
2.924369747899159577e+01 3.429424779727345829e-01 -8.735211237755979852e-02
3.025210084033613356e+01 3.138924809592471554e-01 -6.835735148005839257e-02
3.126050420168067134e+01 2.842035209202571355e-01 -5.197233520805033535e-02
3.226890756302520913e+01 2.544262525275182707e-01 -3.833851681415234580e-02
3.327731092436974336e+01 2.251276458564834826e-01 -2.741544076891710979e-02
3.428571428571428470e+01 1.968823921689071277e-01 -1.901751213183255906e-02
3.529411764705882604e+01 1.702577006623453570e-01 -1.285151563138087205e-02
3.630252100840336027e+01 1.457979824203798902e-01 -8.556096347995589824e-03
3.731092436974789450e+01 1.240155272445442325e-01 -5.741165934702863183e-03
3.831932773109243584e+01 1.053695165467539718e-01 -4.022239681047867776e-03
3.932773109243697718e+01 9.025647598028518903e-02 -3.051889913512129127e-03
4.033613445378151141e+01 7.900778734325997199e-02 -2.544956808843146234e-03
4.134453781512604564e+01 7.189269901525940920e-02 -2.296577672779465118e-03
4.235294117647058698e+01 6.911489641188539590e-02 -2.192237231250615537e-03
4.336134453781512832e+01 7.081481176537152145e-02 -2.209827929529950552e-03
4.436974789915966255e+01 7.705856464527416350e-02 -2.413812357891398364e-03
4.537815126050419678e+01 8.780165181431842658e-02 -2.942282390332673359e-03
4.638655462184873812e+01 1.028740825904749245e-01 -3.988944738889665942e-03
4.739495798319327946e+01 1.219514983487168802e-01 -5.781157960636384985e-03
4.840336134453781369e+01 1.445400881119722758e-01 -8.555732276210203935e-03
4.941176470588234793e+01 1.699874487932426792e-01 -1.253507509798468256e-02
5.042016806722688926e+01 1.975060719045447222e-01 -1.790409205659360126e-02
5.142857142857143060e+01 2.262119294033684280e-01 -2.478906615431331062e-02
5.243697478991596483e+01 2.551767106058031587e-01 -3.324001980619639696e-02
5.344537815126049907e+01 2.834926159630113407e-01 -4.322010958325028795e-02
5.445378151260504040e+01 3.103104126400537677e-01 -5.459415443143100788e-02
5.546218487394958174e+01 3.348868331934964360e-01 -6.712573765878349086e-02
5.647058823529411598e+01 3.566181253245781502e-01 -8.048050182076327275e-02
5.747899159663865021e+01 3.750536138239266570e-01 -9.423226819795038622e-02
5.848739495798319155e+01 3.899057292158194521e-01 -1.078787654744010061e-01
5.949579831932773288e+01 4.010506773661788316e-01 -1.208651053305522804e-01
6.050420168067226712e+01 4.085204321718540754e-01 -1.326147423429131500e-01
6.151260504201680135e+01 4.124796038608948834e-01 -1.425638861340172703e-01
6.252100840336134269e+01 4.132053898545993142e-01 -1.502128570299765542e-01
6.352941176470588402e+01 4.110484042268038873e-01 -1.551703344955537300e-01
6.453781512605041826e+01 4.063916162730514259e-01 -1.571913153630468685e-01
6.554621848739495249e+01 3.996216162729149257e-01 -1.562070482748801892e-01
6.655462184873948672e+01 3.911130428370312995e-01 -1.523305801851093655e-01
6.756302521008403517e+01 3.812195227902757111e-01 -1.458368797681928175e-01
6.857142857142856940e+01 3.702723096190647656e-01 -1.371260470420136990e-01
6.957983193277310363e+01 3.585915492662237192e-01 -1.266843443782831313e-01
7.058823529411765207e+01 3.464694418298668310e-01 -1.150323046326848786e-01
7.159663865546218631e+01 3.341541102427312282e-01 -1.026862403488291164e-01
7.260504201680672054e+01 3.218203536561181632e-01 -9.012768820152960991e-02
7.361344537815125477e+01 3.095299353072578086e-01 -7.777892228479954539e-02
7.462184873949578900e+01 2.972057608110856286e-01 -6.599056836951389116e-02
7.563025210084033745e+01 2.846367029791632142e-01 -5.503560753789904503e-02
7.663865546218487168e+01 2.715194358996737556e-01 -4.510877294015003258e-02
7.764705882352940591e+01 2.575251866070598084e-01 -3.632943549443901077e-02
7.865546218487395436e+01 2.423836330899584723e-01 -2.875034779037122235e-02
7.966386554621848859e+01 2.259498788563403249e-01 -2.236494848487180498e-02
8.067226890756302282e+01 2.082558868407176078e-01 -1.711740167950104308e-02
8.168067226890755705e+01 1.895523576322082349e-01 -1.291668906450649246e-02
8.268907563025209129e+01 1.703167667827489851e-01 -9.647339936292409490e-03
8.369747899159663973e+01 1.512433087037186041e-01 -7.181899637423772020e-03
8.470588235294117396e+01 1.332075461014206041e-01 -5.392661240809726308e-03
8.571428571428570820e+01 1.172044906641692696e-01 -4.162175674489398958e-03
8.672268907563025664e+01 1.042603599793323621e-01 -3.392229211619079976e-03
8.773109243697479087e+01 9.532956911244505616e-02 -3.011362592820088224e-03
8.873949579831932510e+01 9.118201149745386314e-02 -2.979974461033485511e-03
8.974789915966385934e+01 9.228677293582343566e-02 -3.292091484657255762e-03
9.075630252100839357e+01 9.875366935134421986e-02 -3.976222479551649869e-03
9.176470588235294201e+01 1.103156663732365317e-01 -5.092593600618977590e-03
9.277310924369747624e+01 1.263674891444708237e-01 -6.727865604618576967e-03
9.378151260504201048e+01 1.460502339294971197e-01 -8.988543774576696066e-03
9.478991596638655892e+01 1.683382694163249038e-01 -1.199183141905413308e-02
9.579831932773109315e+01 1.921231698870100590e-01 -1.585511474237688567e-02
9.680672268907562739e+01 2.162937292698483560e-01 -2.068468900875264360e-02
9.781512605042016162e+01 2.398147977264484254e-01 -2.656584605442890989e-02
9.882352941176469585e+01 2.617920372171034238e-01 -3.354941315222914611e-02
9.983193277310924429e+01 2.815304229511961243e-01 -4.164139708274028351e-02
1.008403361344537785e+02 2.985754545103305180e-01 -5.079499283470978455e-02
1.018487394957983128e+02 3.127216905163077154e-01 -6.090042607455936619e-02
1.028571428571428612e+02 3.240142188840593462e-01 -7.178125638341859016e-02
1.038655462184873954e+02 3.327272828474163724e-01 -8.319177724430226739e-02
1.048739495798319297e+02 3.393262494696576148e-01 -9.481773767688550514e-02
1.058823529411764639e+02 3.444171147144809986e-01 -1.062839143880132120e-01
1.068907563025209981e+02 3.486762568679375729e-01 -1.171676401886472263e-01
1.078991596638655466e+02 3.527533613863336193e-01 -1.270173112938763893e-01
1.089075630252100808e+02 3.571615285136426898e-01 -1.353774921988312174e-01
1.099159663865546150e+02 3.621888838022206958e-01 -1.418265862497125607e-01
1.109243697478991635e+02 3.678351937868296062e-01 -1.460099768169035306e-01
1.119327731092436977e+02 3.738148642622134421e-01 -1.476768433753683496e-01
1.129411764705882320e+02 3.796117311688811391e-01 -1.467103865983158117e-01
1.139495798319327662e+02 3.845527750311692472e-01 -1.431397672232767038e-01
1.149579831932773004e+02 3.878945894508230019e-01 -1.371394787419322192e-01
1.159663865546218489e+02 3.888997218916105947e-01 -1.290121590963861919e-01
1.169747899159663831e+02 3.869064360578862161e-01 -1.191587918984604588e-01
1.179831932773109173e+02 3.813857821477129040e-01 -1.080391593482541435e-01
1.189915966386554658e+02 3.719848695532601557e-01 -9.613759614913197638e-02
1.200000000000000000e+02 3.585600550755643212e-01 -8.392885477435796382e-02
