0.000000000000000000e+00 2.220446049250313081e-16 -2.220446049250313081e-16
1.008403361344537785e+00 -2.096304431258300127e-04 6.402771769843385030e-04
2.016806722689075571e+00 -8.332723513154727257e-04 2.546869302217258380e-03
3.025210084033613356e+00 -1.855803219528162629e-03 5.678405619234716539e-03
4.033613445378151141e+00 -3.252941255339814042e-03 9.968792194004039153e-03
5.042016806722688926e+00 -4.991291409867981699e-03 1.532945148441744454e-02
6.050420168067226712e+00 -7.028517941112810696e-03 2.165231356779728777e-02
7.058823529411764497e+00 -9.317194656860094959e-03 2.881721149609861587e-02
8.067226890756302282e+00 -1.180369576320772218e-02 3.669344252571393739e-02
9.075630252100840067e+00 -1.443060781383098679e-02 4.514482610408587782e-02
1.008403361344537785e+01 -1.713889334218166027e-02 5.403388625976868198e-02
1.109243697478991564e+01 -1.986950708732448945e-02 6.322484065857847391e-02
1.210084033613445342e+01 -2.256602774374472098e-02 7.258703834471069705e-02
1.310924369747899121e+01 -2.517422777726019412e-02 8.199487903687185941e-02
1.411764705882352899e+01 -2.764714011736124633e-02 9.133275609077717849e-02
1.512605042016806678e+01 -2.994289257488147449e-02 1.004927593490454463e-01
1.613445378151260456e+01 -3.202898081286142951e-02 1.093785472458289609e-01
1.714285714285714235e+01 -3.388071906833733937e-02 1.179037265633761100e-01
1.815126050420168013e+01 -3.548307605031109091e-02 1.259936134696633125e-01
1.915966386554621792e+01 -3.683010869903668993e-02 1.335850198543072631e-01
2.016806722689075571e+01 -3.792457089557255134e-02 1.406263638457962983e-01
2.117647058823529349e+01 -3.877748408555103943e-02 1.470781375323939599e-01
2.218487394957983128e+01 -3.940694036750957974e-02 1.529126836544709711e-01
2.319327731092436906e+01 -3.983684768498918505e-02 1.581142426982298232e-01
2.420168067226890685e+01 -4.009570311202681481e-02 1.626789281737507364e-01
2.521008403361344463e+01 -4.021498232238418513e-02 1.666144014678364593e-01
2.621848739495798242e+01 -4.022738439217499185e-02 1.699392509768699044e-01
2.722689075630252020e+01 -4.016613571768412605e-02 1.726831103750593455e-01
2.823529411764705799e+01 -4.006212835381461890e-02 1.748844653724785925e-01
2.924369747899159577e+01 -3.994468203084600155e-02 1.765914729194647537e-01
3.025210084033613356e+01 -3.983812041728118647e-02 1.778582986406456179e-01
3.126050420168067134e+01 -3.976335107585193818e-02 1.787458093006442095e-01
3.226890756302520913e+01 -3.973541122589430152e-02 1.793176794413438024e-01
3.327731092436974336e+01 -3.976461463782676731e-02 1.796395930322709500e-01
3.428571428571428470e+01 -3.985645217065947321e-02 1.797765486153429793e-01
3.529411764705882604e+01 -4.001171452887641866e-02 1.797901782527500103e-01
3.630252100840336027e+01 -4.022836461861645230e-02 1.797373433375695218e-01
3.731092436974789450e+01 -4.050118977994099367e-02 1.796668639126309808e-01
3.831932773109243584e+01 -4.082413505572635160e-02 1.796187911355009437e-01
3.932773109243697718e+01 -4.118996525159712707e-02 1.796220226228993910e-01
4.033613445378151141e+01 -4.159173214436440169e-02 1.796940234024292371e-01
4.134453781512604564e+01 -4.202254496529489458e-02 1.798399424595826801e-01
4.235294117647058698e+01 -4.247591572394138204e-02 1.800532566327813777e-01
4.336134453781512832e+01 -4.294530995279310925e-02 1.803159126648981037e-01
4.436974789915966255e+01 -4.342410251350581341e-02 1.806004142074253416e-01
4.537815126050419678e+01 -4.390475681784145046e-02 1.808703608027723009e-01
4.638655462184873812e+01 -4.437900271936645602e-02 1.810835678259892223e-01
4.739495798319327946e+01 -4.483706064669268354e-02 1.811929782931032129e-01
4.840336134453781369e+01 -4.526793511581939100e-02 1.811495276958065004e-01
4.941176470588234793e+01 -4.565941002072582133e-02 1.809038166552172644e-01
5.042016806722688926e+01 -4.599797315227016625e-02 1.804076864413119985e-01
5.142857142857143060e+01 -4.626989158350980347e-02 1.796165362332364790e-01
5.243697478991596483e+01 -4.646063850772852444e-02 1.784896576856648265e-01
5.344537815126049907e+01 -4.655660107579306928e-02 1.769924671796881954e-01
5.445378151260504040e+01 -4.654436300821696015e-02 1.750962780624603088e-01
5.546218487394958174e+01 -4.641217832419219924e-02 1.727797475822780982e-01
5.647058823529411598e+01 -4.614971316803595514e-02 1.700286985764482006e-01
5.747899159663865021e+01 -4.574855951276968202e-02 1.668365710265015123e-01
5.848739495798319155e+01 -4.520269962616152437e-02 1.632043563406757603e-01
5.949579831932773288e+01 -4.450816003388458064e-02 1.591404685274907527e-01
6.050420168067226712e+01 -4.366381368023564136e-02 1.546604629588880231e-01
6.151260504201680135e+01 -4.267072857350351356e-02 1.497867618745435392e-01
6.252100840336134269e+01 -4.153283483202774296e-02 1.445480712338537144e-01
6.352941176470588402e+01 -4.025643704283876634e-02 1.389789954021738438e-01
6.453781512605041826e+01 -3.885046017596405221e-02 1.331194375701677535e-01
6.554621848739495249e+01 -3.732620240013895252e-02 1.270138613067638422e-01
6.655462184873948672e+01 -3.569726508538118015e-02 1.207109724699728659e-01
6.756302521008403517e+01 -3.397925230925957774e-02 1.142625462309848627e-01
6.857142857142856940e+01 -3.218961980910162168e-02 1.077233897376197458e-01
6.957983193277310363e+01 -3.034717952360455051e-02 1.011499667231889887e-01
7.058823529411765207e+01 -2.847193665615765923e-02 9.460032817759211898e-02
7.159663865546218631e+01 -2.658461458665217769e-02 8.813299587571743476e-02
7.260504201680672054e+01 -2.470627997334995385e-02 8.180646662707891092e-02
7.361344537815125477e+01 -2.285815761732634677e-02 7.567865524744110672e-02
7.462184873949578900e+01 -2.106080888700800902e-02 6.980591053031737214e-02
7.563025210084033745e+01 -1.933422004046669862e-02 6.424290397054621682e-02
7.663865546218487168e+01 -1.769666213857612469e-02 5.904144322060356220e-02
7.764705882352940591e+01 -1.616488787927627957e-02 5.425047514205749710e-02
7.865546218487395436e+01 -1.475324299472846601e-02 4.991506925699940034e-02
7.966386554621848859e+01 -1.347378674577126567e-02 4.607621083104740389e-02
8.067226890756302282e+01 -1.233617892889160572e-02 4.277021437805916815e-02
8.168067226890755705e+01 -1.134756952495308280e-02 4.002822805584482779e-02
8.268907563025209129e+01 -1.051305194275342636e-02 3.787601527447526095e-02
8.369747899159663973e+01 -9.835300334985253023e-03 3.633339032143778624e-02
8.470588235294117396e+01 -9.314974046681134823e-03 3.541417996104145871e-02
8.571428571428570820e+01 -8.950237343321898464e-03 3.512582061021263247e-02
8.672268907563025664e+01 -8.736883377047366395e-03 3.546939019991890429e-02
8.773109243697479087e+01 -8.668165081901935132e-03 3.643947973614136693e-02
8.873949579831932510e+01 -8.735026723705185958e-03 3.802433289378692738e-02
8.974789915966385934e+01 -8.926497708925618113e-03 4.020593649566261973e-02
9.075630252100839357e+01 -9.230469195734336552e-03 4.296039116355621079e-02
9.176470588235294201e+01 -9.634512583266086061e-03 4.625812828594666470e-02
9.277310924369747624e+01 -1.012714271138703825e-02 5.006453065923288648e-02
9.378151260504201048e+01 -1.069877649587924751e-02 5.434028656230394105e-02
9.478991596638655892e+01 -1.134290494404766036e-02 5.904208714879377595e-02
9.579831932773109315e+01 -1.205677446364006311e-02 6.412324129424895602e-02
9.680672268907562739e+01 -1.284166159887667469e-02 6.953420098139706518e-02
9.781512605042016162e+01 -1.370270528746064809e-02 7.522350135080857481e-02
9.882352941176469585e+01 -1.464782893241367567e-02 8.113801532910225323e-02
9.983193277310924429e+01 -1.568651515105334848e-02 8.722408636728473663e-02
1.008403361344537785e+02 -1.682778254174488453e-02 9.342763528570596776e-02
1.018487394957983128e+02 -1.807852552449995542e-02 9.969517110605663479e-02
1.028571428571428612e+02 -1.944174581543622882e-02 1.059740627607678176e-01
1.038655462184873954e+02 -2.091536001534355371e-02 1.122130541549014593e-01
1.048739495798319297e+02 -2.249182271687244494e-02 1.183629364822977870e-01
1.058823529411764639e+02 -2.415784719165470218e-02 1.243765109395131851e-01
1.068907563025209981e+02 -2.589564051173054438e-02 1.302095445293958154e-01
1.078991596638655466e+02 -2.768335872467786452e-02 1.358204325210286001e-01
1.089075630252100808e+02 -2.949710222033186113e-02 1.411711189030245839e-01
1.099159663865546150e+02 -3.131168008456053364e-02 1.462268734916867263e-01
1.109243697478991635e+02 -3.310204038238373503e-02 1.509567878530246876e-01
1.119327731092436977e+02 -3.484406437757781028e-02 1.553339714452883769e-01
1.129411764705882320e+02 -3.651493572581232527e-02 1.593355608795329337e-01
1.139495798319327662e+02 -3.809379842115445669e-02 1.629432255113885120e-01
1.149579831932773004e+02 -3.956154969262426491e-02 1.661429331973441892e-01
1.159663865546218489e+02 -4.090134815944757030e-02 1.689254752268980475e-01
1.169747899159663831e+02 -4.209849681489719053e-02 1.712862591784675148e-01
1.179831932773109173e+02 -4.314094248478816951e-02 1.732256259462567893e-01
1.189915966386554658e+02 -4.401951971228112992e-02 1.747487391723017147e-01
1.200000000000000000e+02 -4.472872176735487315e-02 1.758657208862326460e-01
