0.000000000000000000e+00 2.220446049250313081e-16 2.220446049250313081e-16
1.008403361344537785e+00 5.075879265153848685e-03 1.227008698995835090e-03
2.016806722689075571e+00 2.006593323406535845e-02 4.736312631205219503e-03
3.025210084033613356e+00 4.428393271578401347e-02 1.002924638680968705e-02
4.033613445378151141e+00 7.666572611360278344e-02 1.632791784507325872e-02
5.042016806722688926e+00 1.158693751169563857e-01 2.264946908742393461e-02
6.050420168067226712e+00 1.603728534516775106e-01 2.789555231462248486e-02
7.058823529411764497e+00 2.085659619981585777e-01 3.094956682508254175e-02
8.067226890756302282e+00 2.588272809688847431e-01 3.077267163425245755e-02
9.075630252100840067e+00 3.095890667475507119e-01 2.649287084292595296e-02
1.008403361344537785e+01 3.593903664369046957e-01 1.748271741116202982e-02
1.109243697478991564e+01 4.069158767074037009e-01 3.424367743346534709e-03
1.210084033613445342e+01 4.510285731736320969e-01 -1.563929994944501800e-02
1.310924369747899121e+01 4.907914366834371656e-01 -3.926712233575901934e-02
1.411764705882352899e+01 5.254775264663300582e-01 -6.659363130972872913e-02
1.512605042016806678e+01 5.545685431127069798e-01 -9.631323468586283632e-02
1.613445378151260456e+01 5.777549091543903170e-01 -1.266892306453875072e-01
1.714285714285714235e+01 5.949134991593789668e-01 -1.555851147616934549e-01
1.815126050420168013e+01 6.060837483861583053e-01 -1.805645773991302327e-01
1.915966386554621792e+01 6.114404772277275413e-01 -1.991238274081952309e-01
2.016806722689075571e+01 6.112613499423495966e-01 -2.091130149929678606e-01
2.117647058823529349e+01 6.058886318403529092e-01 -2.092991938275786667e-01
2.218487394957983128e+01 5.957029867643059973e-01 -1.997972633705047407e-01
2.319327731092436906e+01 5.811031141569753533e-01 -1.820225507571633372e-01
2.420168067226890685e+01 5.624893108692885502e-01 -1.581922592127091853e-01
2.521008403361344463e+01 5.402543304852307493e-01 -1.307468165456542319e-01
2.621848739495798242e+01 5.147916638013942947e-01 -1.019586723206816758e-01
2.722689075630252020e+01 4.865021807456317848e-01 -7.374005930225635552e-02
2.823529411764705799e+01 4.558039556228528077e-01 -4.757923149878950930e-02
2.924369747899159577e+01 4.231500110048216357e-01 -2.454201899390362485e-02
3.025210084033613356e+01 3.890369339579553554e-01 -5.297196238960300008e-03
3.126050420168067134e+01 3.540109308795402754e-01 9.844233757247078387e-03
3.226890756302520913e+01 3.186683358933466437e-01 2.088309337074045757e-02
3.327731092436974336e+01 2.836489544827938136e-01 2.808169303084473434e-02
3.428571428571428470e+01 2.496210327067007739e-01 3.190987878816597956e-02
3.529411764705882604e+01 2.172744403678583680e-01 3.298594814159216959e-02
3.630252100840336027e+01 1.872986834266137102e-01 3.201777950357187486e-02
3.731092436974789450e+01 1.603530745408150437e-01 2.974323366360231979e-02
3.831932773109243584e+01 1.370412620119905167e-01 2.687339583907411011e-02
3.932773109243697718e+01 1.178911327860620029e-01 2.404150275226868416e-02
4.033613445378151141e+01 1.033496830560792779e-01 2.175929270445808861e-02
4.134453781512604564e+01 9.379822361044509726e-02 2.038544040535916757e-02
4.235294117647058698e+01 8.957421403854026742e-02 2.010870663695629723e-02
4.336134453781512832e+01 9.096224957843079828e-02 2.094254541023010674e-02
4.436974789915966255e+01 9.817433844884471128e-02 2.273642903241945845e-02
4.537815126050419678e+01 1.113005122625273513e-01 2.519859283807757144e-02
4.638655462184873812e+01 1.302425492420156150e-01 2.792830082795716429e-02
4.739495798319327946e+01 1.546485240540331763e-01 3.045470270014516423e-02
4.840336134453781369e+01 1.838835532509544013e-01 3.227950005320301408e-02
4.941176470588234793e+01 2.170269901458108386e-01 3.291825470839015999e-02
5.042016806722688926e+01 2.529195054458186487e-01 3.193952110639863839e-02
5.142857142857143060e+01 2.902466103858369895e-01 2.899886583166799703e-02
5.243697478991596483e+01 3.276307803685516440e-01 2.386706001134530908e-02
5.344537815126049907e+01 3.637318080712594881e-01 1.645133363614714739e-02
5.445378151260504040e+01 3.973334647856525681e-01 6.809302359517266368e-03
5.546218487394958174e+01 4.274093758025314660e-01 -4.844388673652000321e-03
5.647058823529411598e+01 4.531649116219482742e-01 -1.813893507267372307e-02
5.747899159663865021e+01 4.740618585113884897e-01 -3.255847907535214247e-02
5.848739495798319155e+01 4.898185788208557767e-01 -4.746036926021846014e-02
5.949579831932773288e+01 5.004037462896231414e-01 -6.210440165126951406e-02
6.050420168067226712e+01 5.060229534303029020e-01 -7.569610985842689654e-02
6.151260504201680135e+01 5.070930025052917678e-01 -8.744642728135643139e-02
6.252100840336134269e+01 5.041870396562981860e-01 -9.663423937586745893e-02
6.352941176470588402e+01 4.979706802229397766e-01 -1.026815116546921924e-01
6.453781512605041826e+01 4.891278647340269181e-01 -1.052202832541619948e-01
6.554621848739495249e+01 4.782954315435805626e-01 -1.041342800790214795e-01
6.655462184873948672e+01 4.660412115952403678e-01 -9.957432113681519148e-02
6.756302521008403517e+01 4.528594512261603366e-01 -9.192879678222554141e-02
6.857142857142856940e+01 4.391835680914648599e-01 -8.176635197015602596e-02
6.957983193277310363e+01 4.254004418230270534e-01 -6.976498650896600928e-02
7.058823529411765207e+01 4.118563007258744246e-01 -5.664248118902559526e-02
7.159663865546218631e+01 3.988308762150709619e-01 -4.309322200845366879e-02
7.260504201680672054e+01 3.864958430047731319e-01 -2.974624959519633904e-02
7.361344537815125477e+01 3.748390881381431505e-01 -1.713408739749566756e-02
7.462184873949578900e+01 3.635900364384405670e-01 -5.673002510445446234e-03
7.563025210084033745e+01 3.522295027041850712e-01 4.338724972992036300e-03
7.663865546218487168e+01 3.400618884923065632e-01 1.272218358272647620e-02
7.764705882352940591e+01 3.263516124452161549e-01 1.941069604777356794e-02
7.865546218487395436e+01 3.104686258354147910e-01 2.443774152217259577e-02
7.966386554621848859e+01 2.920096798297004970e-01 2.792169124411070236e-02
8.067226890756302282e+01 2.708754455218096435e-01 3.005025310544207073e-02
8.168067226890755705e+01 2.473264067649765252e-01 3.106071903120355415e-02
8.268907563025209129e+01 2.220051478727083083e-01 3.122046063316519238e-02
8.369747899159663973e+01 1.959264231081996321e-01 3.080698105656898278e-02
8.470588235294117396e+01 1.704383173670684926e-01 3.008830821699293168e-02
8.571428571428570820e+01 1.471396511533367146e-01 2.930509011590931578e-02
8.672268907563025664e+01 1.277500151687305241e-01 2.865480227830952131e-02
8.773109243697479087e+01 1.139302362665463031e-01 2.827907579610133837e-02
8.873949579831932510e+01 1.070596166713866371e-01 2.825494006656126267e-02
8.974789915966385934e+01 1.080023024903133955e-01 2.859012627394541539e-02
9.075630252100839357e+01 1.169438003257597947e-01 2.922323593207054593e-02
9.176470588235294201e+01 1.333657743725951139e-01 3.002829293141573430e-02
9.277310924369747624e+01 1.561666018526965960e-01 3.082353912479485203e-02
9.378151260504201048e+01 1.838627480995669305e-01 3.138412261933831715e-02
9.478991596638655892e+01 2.147731923892117756e-01 3.145739439148642624e-02
9.579831932773109315e+01 2.471585980583208553e-01 3.078060580880515040e-02
9.680672268907562739e+01 2.793299046874042624e-01 2.909995963682598941e-02
9.781512605042016162e+01 3.097562320185229812e-01 2.618922090083852794e-02
9.882352941176469585e+01 3.371612162747559260e-01 2.186899547330867222e-02
9.983193277310924429e+01 3.606073090036021611e-01 1.602368643042129115e-02
1.008403361344537785e+02 3.795400780163724619e-01 8.616820477793440958e-03
1.018487394957983128e+02 3.937983517115288823e-01 -2.953468273856341142e-04
1.028571428571428612e+02 4.036085697101454706e-01 -1.055557064850409787e-02
1.038655462184873954e+02 4.095494774852352915e-01 -2.190041506767093082e-02
1.048739495798319297e+02 4.125057496676776125e-01 -3.396069882922869709e-02
1.058823529411764639e+02 4.135994934711577642e-01 -4.626910914279558362e-02
1.068907563025209981e+02 4.140884626902983090e-01 -5.827724299887027115e-02
1.078991596638655466e+02 4.152151593439088462e-01 -6.938129955027361184e-02
1.089075630252100808e+02 4.180072364082110248e-01 -7.896188995705988312e-02
1.099159663865546150e+02 4.230695882037220912e-01 -8.643189628458314289e-02
1.109243697478991635e+02 4.304560994933335216e-01 -9.129141288940412213e-02
1.119327731092436977e+02 4.396891963152647076e-01 -9.318823683466348484e-02
1.129411764705882320e+02 4.498856241118263100e-01 -9.195809584866876385e-02
1.139495798319327662e+02 4.599122568834719260e-01 -8.765020707550630341e-02
1.149579831932773004e+02 4.685252923399705338e-01 -8.052419072269278999e-02
1.159663865546218489e+02 4.744892302591869893e-01 -7.101865317681554934e-02
1.169747899159663831e+02 4.766782084422747090e-01 -5.970149068736496645e-02
1.179831932773109173e+02 4.741573241916372528e-01 -4.721635518450928437e-02
1.189915966386554658e+02 4.662457147303626925e-01 -3.422470295426349729e-02
1.200000000000000000e+02 4.525644455587158888e-01 -2.135598092003965220e-02
