0.000000000000000000e+00 0.000000000000000000e+00 0.000000000000000000e+00
1.008403361344537785e+00 3.614756105105310091e-03 1.642153862806416953e-04
2.016806722689075571e+00 1.431150284763094138e-02 5.725424422287073156e-04
3.025210084033613356e+00 3.166255630337500016e-02 9.803918968382951959e-04
4.033613445378151141e+00 5.499286787310886382e-02 1.007040111816071004e-03
5.042016806722688926e+00 8.343639038129491148e-02 1.732723398983893048e-04
6.050420168067226712e+00 1.159913270082294501e-01 -2.051530243525334640e-03
7.058823529411764497e+00 1.515758914412828062e-01 -6.196875030732407197e-03
8.067226890756302282e+00 1.890785632209874834e-01 -1.273734876339527311e-02
9.075630252100840067e+00 2.274004393327144768e-01 -2.204070292339666004e-02
1.008403361344537785e+01 2.654932324597976123e-01 -3.432142990868025656e-02
1.109243697478991564e+01 3.023873161111851893e-01 -4.960063542647952239e-02
1.210084033613445342e+01 3.372134350504989442e-01 -6.767372542067318086e-02
1.310924369747899121e+01 3.692210053029683081e-01 -8.808880564383159140e-02
1.411764705882352899e+01 3.977887805680702105e-01 -1.101358246799051255e-01
1.512605042016806678e+01 4.224268848308483371e-01 -1.328471092731819958e-01
1.613445378151260456e+01 4.427737010182719590e-01 -1.550157256155182406e-01
1.714285714285714235e+01 4.585985415022080236e-01 -1.752533033780951932e-01
1.815126050420168013e+01 4.697853317781426341e-01 -1.920809377568345466e-01
1.915966386554621792e+01 4.763207572235717002e-01 -2.040884612443039092e-01
2.016806722689075571e+01 4.782823001780101002e-01 -2.101582594893497413e-01
2.117647058823529349e+01 4.758224353245184002e-01 -2.096966498507423227e-01
2.218487394957983128e+01 4.691550065117731094e-01 -2.027813326373419933e-01
2.319327731092436906e+01 4.585448311751110229e-01 -1.901373253591296386e-01
2.420168067226890685e+01 4.443008944038890906e-01 -1.729527972230011645e-01
2.521008403361344463e+01 4.267656809143969276e-01 -1.526282628145944065e-01
2.621848739495798242e+01 4.063120107377224954e-01 -1.305664068679767142e-01
2.722689075630252020e+01 3.833426436013136485e-01 -1.080348787764839891e-01
2.823529411764705799e+01 3.582923640262203335e-01 -8.609484092880581585e-02
2.924369747899159577e+01 3.316191714186671469e-01 -6.556777160855919995e-02
3.025210084033613356e+01 3.038102266062538970e-01 -4.703947719972756403e-02
3.126050420168067134e+01 2.753796405795445601e-01 -3.087453069264567418e-02
3.226890756302520913e+01 2.468563255412450363e-01 -1.723689078916423867e-02
3.327731092436974336e+01 2.187818603273159468e-01 -6.122117332401755263e-03
3.428571428571428470e+01 1.917022424928045421e-01 2.609709798073733822e-03
3.529411764705882604e+01 1.661563008728950130e-01 9.199770603447010586e-03
3.630252100840336027e+01 1.426572403663950439e-01 1.395636532300614796e-02
3.731092436974789450e+01 1.216872739879107934e-01 1.721786569642613784e-02
3.831932773109243584e+01 1.036805882986128191e-01 1.932184522370872237e-02
3.932773109243697718e+01 8.901140431358112171e-02 2.057716705124068568e-02
4.033613445378151141e+01 7.799341108059332228e-02 2.124048920782373173e-02
4.134453781512604564e+01 7.088139712771046597e-02 2.149993545252537608e-02
4.235294117647058698e+01 6.787057875769852977e-02 2.146570315959239750e-02
4.336134453781512832e+01 6.909270131977485185e-02 2.116776904460992981e-02
4.436974789915966255e+01 7.461721544561572550e-02 2.055982465579830887e-02
4.537815126050419678e+01 8.441643333235537838e-02 1.953091559924868825e-02
4.638655462184873812e+01 9.834310705518278795e-02 1.792106890542521924e-02
4.739495798319327946e+01 1.161131038100230439e-01 1.553985061470664064e-02
4.840336134453781369e+01 1.372804854945908204e-01 1.218849980883840445e-02
4.941176470588234793e+01 1.612446950639074839e-01 7.681096895401307023e-03
5.042016806722688926e+01 1.872725587212387133e-01 1.865100420284537819e-03
5.142857142857143060e+01 2.145354671119337198e-01 -5.359768711061807522e-03
5.243697478991596483e+01 2.421537265761901647e-01 -1.402437258281263865e-02
5.344537815126049907e+01 2.692601625996009496e-01 -2.408051809902667095e-02
5.445378151260504040e+01 2.950473607306065560e-01 -3.539363321948574281e-02
5.546218487394958174e+01 3.187988584129950453e-01 -4.773604177620427436e-02
5.647058823529411598e+01 3.399292474971375988e-01 -6.079291470551972942e-02
5.747899159663865021e+01 3.579967679787183776e-01 -7.416853137155476894e-02
5.848739495798319155e+01 3.727104662799376467e-01 -8.740003878123059344e-02
5.949579831932773288e+01 3.839313148011309629e-01 -9.997949638226366620e-02
6.050420168067226712e+01 3.916670774237442920e-01 -1.113839564250653780e-01
6.151260504201680135e+01 3.960520282969972605e-01 -1.211080178071175517e-01
6.252100840336134269e+01 3.973207632195712158e-01 -1.287028733008059866e-01
6.352941176470588402e+01 3.957827094268540069e-01 -1.338215320612285986e-01
6.453781512605041826e+01 3.917810660415912416e-01 -1.362487821761004803e-01
6.554621848739495249e+01 3.856667275538385731e-01 -1.359246411057128956e-01
6.655462184873948672e+01 3.777838104723842960e-01 -1.329496439602591007e-01
6.756302521008403517e+01 3.684643095807618174e-01 -1.275703186551745416e-01
6.857142857142856940e+01 3.580264097143432966e-01 -1.201466899643588437e-01
6.957983193277310363e+01 3.467751392904196983e-01 -1.111149559094433137e-01
7.058823529411765207e+01 3.349946332146580552e-01 -1.009472876082804227e-01
7.159663865546218631e+01 3.229242232264766255e-01 -9.011145720408020310e-02
7.260504201680672054e+01 3.107376497092171341e-01 -7.904757814296692331e-02
7.361344537815125477e+01 2.985076777610098375e-01 -6.814470901684022142e-02
7.462184873949578900e+01 2.861810021938684390e-01 -5.772572341529991213e-02
7.563025210084033745e+01 2.735880195225028899e-01 -4.804373285735996646e-02
7.663865546218487168e+01 2.604774534620974968e-01 -3.927913988268283418e-02
7.764705882352940591e+01 2.465772060826778578e-01 -3.154206783826651872e-02
7.865546218487395436e+01 2.316643630714214641e-01 -2.487858426146383195e-02
7.966386554621848859e+01 2.156350840388483459e-01 -1.928149361083053570e-02
8.067226890756302282e+01 1.985445572303949913e-01 -1.469646092246246205e-02
8.168067226890755705e+01 1.806387311161292697e-01 -1.103419117461235111e-02
8.268907563025209129e+01 1.623725587928075420e-01 -8.183742903914215105e-03
8.369747899159663973e+01 1.443904717889288314e-01 -6.022108564143202614e-03
8.470588235294117396e+01 1.274981897175666568e-01 -4.426638697264451139e-03
8.571428571428570820e+01 1.126062432946637326e-01 -3.285245927120428178e-03
8.672268907563025664e+01 1.006485734815164568e-01 -2.504918002522504850e-03
8.773109243697479087e+01 9.248652384466193865e-02 -2.018749542437081601e-03
8.873949579831932510e+01 8.880970963678458396e-02 -1.791293816964412144e-03
8.974789915966385934e+01 9.004128359476426535e-02 -1.820904643490273145e-03
9.075630252100839357e+01 9.627328526558132094e-02 -2.138872201707497922e-03
9.176470588235294201e+01 1.072590777302466769e-01 -2.807628160625297298e-03
9.277310924369747624e+01 1.224472425544209653e-01 -3.915251481706683023e-03
9.378151260504201048e+01 1.410510358820789012e-01 -5.568197453738044089e-03
9.478991596638655892e+01 1.621318110097274001e-01 -7.883096065898431704e-03
9.579831932773109315e+01 1.846750877641776256e-01 -1.097650319222842619e-02
9.680672268907562739e+01 2.076589441805578584e-01 -1.495362463833438404e-02
9.781512605042016162e+01 2.301234979907444966e-01 -1.989703471988946148e-02
9.882352941176469585e+01 2.512411486991057430e-01 -2.585812287716038327e-02
9.983193277310924429e+01 2.703609821848440564e-01 -3.284451372515473366e-02
1.008403361344537785e+02 2.870459894579291404e-01 -4.081229438812572496e-02
1.018487394957983128e+02 3.010899881159243563e-01 -4.966033237957523383e-02
1.028571428571428612e+02 3.125105537037058401e-01 -5.922315310557846324e-02
1.038655462184873954e+02 3.215347706602753597e-01 -6.927169962839330175e-02
1.048739495798319297e+02 3.285656674800041532e-01 -7.951498670988454975e-02
1.058823529411764639e+02 3.341321534102701385e-01 -8.960582724077759131e-02
1.068907563025209981e+02 3.388270339927428321e-01 -9.915499325299803601e-02
1.078991596638655466e+02 3.432217966233641615e-01 -1.077492582691792489e-01
1.089075630252100808e+02 3.477701465454263730e-01 -1.149755351192606190e-01
1.099159663865546150e+02 3.527177392532072631e-01 -1.204500662960475976e-01
1.109243697478991635e+02 3.580558658203072397e-01 -1.238535983337567536e-01
1.119327731092436977e+02 3.635183638166137321e-01 -1.249601437723203423e-01
1.129411764705882320e+02 3.686300358848926262e-01 -1.236620182995327166e-01
1.139495798319327662e+02 3.727803352166489947e-01 -1.199844967979133425e-01
1.149579831932773004e+02 3.752951473507089020e-01 -1.140816119016709873e-01
1.159663865546218489e+02 3.755107738760610214e-01 -1.062226478307568556e-01
1.169747899159663831e+02 3.728349303655382752e-01 -9.676629410763371020e-02
1.179831932773109173e+02 3.667972378153556701e-01 -8.612808773150004704e-02
1.189915966386554658e+02 3.570912898320859341e-01 -7.474745968522278350e-02
1.200000000000000000e+02 3.436031436041808718e-01 -6.305835921468538885e-02
