0.000000000000000000e+00 2.220446049250313081e-16 -1.110223024625156540e-16
1.008403361344537785e+00 5.283978328121774481e-03 3.681627548018817642e-03
2.016806722689075571e+00 2.088601042318805057e-02 1.417856406483053444e-02
3.025210084033613356e+00 4.608399973142529582e-02 3.002888238550638356e-02
4.033613445378151141e+00 7.975886889239758304e-02 4.925278480536054992e-02
5.042016806722688926e+00 1.204992138713426586e-01 6.971823507094321304e-02
6.050420168067226712e+00 1.667041455415505524e-01 8.937296697509145016e-02
7.058823529411764497e+00 2.166818728502959424e-01 1.063759491468732055e-01
8.067226890756302282e+00 2.687277309953790549e-01 1.191716989361180090e-01
9.075630252100840067e+00 3.211944417660410611e-01 1.265432134978126122e-01
1.008403361344537785e+01 3.725491076052778183e-01 1.276523407482382799e-01
1.109243697478991564e+01 4.214154732012496130e-01 1.220723938975245559e-01
1.210084033613445342e+01 4.666075338190753818e-01 1.098152645317159726e-01
1.310924369747899121e+01 5.071518618036199300e-01 9.135300021804837467e-02
1.411764705882352899e+01 5.422999552104341703e-01 6.763458432136004728e-02
1.512605042016806678e+01 5.715301220664248394e-01 4.009827345331973270e-02
1.613445378151260456e+01 5.945390094656917146e-01 1.067749479264656909e-02
1.714285714285714235e+01 6.112233669077531406e-01 -1.821088781002921930e-02
1.815126050420168013e+01 6.216531666417384194e-01 -4.373234014269877790e-02
1.915966386554621792e+01 6.260380578899891191e-01 -6.284379515659488380e-02
2.016806722689075571e+01 6.246900818353853246e-01 -7.278825107689790297e-02
2.117647058823529349e+01 6.179863472398188229e-01 -7.190043096971299175e-02
2.218487394957983128e+01 6.063357044102399840e-01 -6.029865878079376795e-02
2.319327731092436906e+01 5.901530828200032275e-01 -3.981297996475041678e-02
2.420168067226890685e+01 5.698439646862492047e-01 -1.320470616965885302e-02
2.521008403361344463e+01 5.457996329366934241e-01 1.663828507975773086e-02
2.621848739495798242e+01 5.184019110692879018e-01 4.715350946313268121e-02
2.722689075630252020e+01 4.880350784083506976e-01 7.626601916733732889e-02
2.823529411764705799e+01 4.551024485563475164e-01 1.024119455406502510e-01
2.924369747899159577e+01 4.200437973959265658e-01 1.245120273412724243e-01
3.025210084033613356e+01 3.833498226854126223e-01 1.419300315902313203e-01
3.126050420168067134e+01 3.455706885559246544e-01 1.544267469081285205e-01
3.226890756302520913e+01 3.073156294898347074e-01 1.621114534189057599e-01
3.327731092436974336e+01 2.692455268951545744e-01 1.653903453820084746e-01
3.428571428571428470e+01 2.320665754837101247e-01 1.649109863408088072e-01
3.529411764705882604e+01 1.965241316323129706e-01 1.615020888754069572e-01
3.630252100840336027e+01 1.633806069494068147e-01 1.561083379889079970e-01
3.731092436974789450e+01 1.333669423870142978e-01 1.497206412661219455e-01
3.831932773109243584e+01 1.071266290694419254e-01 1.433032790902322162e-01
3.932773109243697718e+01 8.519414268106562105e-02 1.377211140133297596e-01
4.033613445378151141e+01 6.802877508757010361e-02 1.336721883793497989e-01
4.134453781512604564e+01 5.607910458662401787e-02 1.316330150382092334e-01
4.235294117647058698e+01 4.983629345509477115e-02 1.318244220208911743e-01
4.336134453781512832e+01 4.984499881876036653e-02 1.342037922710651587e-01
4.436974789915966255e+01 5.664923023551837744e-02 1.384849200923080614e-01
4.537815126050419678e+01 7.065829546328716848e-02 1.441812507220446848e-01
4.638655462184873812e+01 9.195201401700270338e-02 1.506642813666331238e-01
4.739495798319327946e+01 1.201095791599499085e-01 1.572278450156323615e-01
4.840336134453781369e+01 1.541706861625731229e-01 1.631505490393010405e-01
4.941176470588234793e+01 1.927517654958159632e-01 1.677513899269753583e-01
5.042016806722688926e+01 2.342338802379282381e-01 1.704361739752617844e-01
5.142857142857143060e+01 2.769332507392454623e-01 1.707341832051537667e-01
5.243697478991596483e+01 3.192239525369662267e-01 1.683254880254115848e-01
5.344537815126049907e+01 3.596217217797015309e-01 1.630596496131458961e-01
5.445378151260504040e+01 3.968434351570957475e-01 1.549665180844291834e-01
5.546218487394958174e+01 4.298490097985010472e-01 1.442595764393715951e-01
5.647058823529411598e+01 4.578664321797865089e-01 1.313318357698709526e-01
5.747899159663865021e+01 4.804004858435322323e-01 1.167437423480282011e-01
5.848739495798319155e+01 4.972295752405457847e-01 1.012018352512030761e-01
5.949579831932773288e+01 5.083960683139934211e-01 8.552612777394363874e-02
6.050420168067226712e+01 5.141896592515342590e-01 7.060375978973443267e-02
6.151260504201680135e+01 5.151166621462637263e-01 5.732705735080056986e-02
6.252100840336134269e+01 5.118482105737938159e-01 4.651682352773367501e-02
6.352941176470588402e+01 5.051468793309770167e-01 3.883724148827405465e-02
6.453781512605041826e+01 4.957834570307841915e-01 3.471621039475303316e-02
6.554621848739495249e+01 4.844682906193742422e-01 3.429024122940615982e-02
6.655462184873948672e+01 4.718184778277831892e-01 3.739072116656150246e-02
6.756302521008403517e+01 4.583599920345167167e-01 4.357668832911876233e-02
6.857142857142856940e+01 4.445465766198835045e-01 5.220402957962233526e-02
6.957983193277310363e+01 4.307779350783633721e-01 6.251142485401139925e-02
7.058823529411765207e+01 4.174054446707742283e-01 7.370375004732221402e-02
7.159663865546218631e+01 4.047144550669019569e-01 8.502070379891157881e-02
7.260504201680672054e+01 3.928728093411242295e-01 9.578648765322850256e-02
7.361344537815125477e+01 3.818493503297426539e-01 1.054417099993402163e-01
7.462184873949578900e+01 3.713384975352997941e-01 1.135609156647775508e-01
7.563025210084033745e+01 3.607499601437436088e-01 1.198593569478033638e-01
7.663865546218487168e+01 3.492948609346477884e-01 1.241919485324803896e-01
7.764705882352940591e+01 3.361380781188985090e-01 1.265464915904660481e-01
7.865546218487395436e+01 3.205582912309079546e-01 1.270325101002706125e-01
7.966386554621848859e+01 3.020783742499526525e-01 1.258664900459863789e-01
8.067226890756302282e+01 2.805575189667526281e-01 1.233539385874461436e-01
8.168067226890755705e+01 2.562477888111729385e-01 1.198684626385692065e-01
8.268907563025209129e+01 2.298190656676963872e-01 1.158280022998706693e-01
8.369747899159663973e+01 2.023530829204478465e-01 1.116684700003724995e-01
8.470588235294117396e+01 1.753004518326024552e-01 1.078153734923427143e-01
8.571428571428570820e+01 1.503904600298886507e-01 1.046545831349553479e-01
8.672268907563025664e+01 1.294892581274709187e-01 1.025041246599743827e-01
8.773109243697479087e+01 1.144074909983412436e-01 1.015895706425423706e-01
8.873949579831932510e+01 1.066580029276957831e-01 1.020259166165203846e-01
8.974789915966385934e+01 1.071973888260943086e-01 1.038084456043731896e-01
9.075630252100839357e+01 1.162386866183602319e-01 1.068139332492802351e-01
9.176470588235294201e+01 1.332225425630411131e-01 1.108119252471321259e-01
9.277310924369747624e+01 1.569569213089572202e-01 1.154842938136836361e-01
9.378151260504201048e+01 1.858449460923430330e-01 1.204503589062287938e-01
9.478991596638655892e+01 2.180916407493238562e-01 1.252947210009517365e-01
9.579831932773109315e+01 2.518319317425934400e-01 1.295954187479922970e-01
9.680672268907562739e+01 2.852273420016786520e-01 1.329507529749890393e-01
9.781512605042016162e+01 3.165988824095209431e-01 1.350038090331465712e-01
9.882352941176469585e+01 3.445617677315890859e-01 1.354642003680948115e-01
9.983193277310924429e+01 3.681124878841910419e-01 1.341268163828052140e-01
1.008403361344537785e+02 3.866686415854088121e-01 1.308874367404063710e-01
1.018487394957983128e+02 4.000764519737256553e-01 1.257549937597367551e-01
1.028571428571428612e+02 4.085957024535478155e-01 1.188600762684920431e-01
1.038655462184873954e+02 4.128674560978691233e-01 1.104589755277138874e-01
1.048739495798319297e+02 4.138687664142324252e-01 1.009321781337252366e-01
1.058823529411764639e+02 4.128549421039822143e-01 9.077573189760912431e-02
1.068907563025209981e+02 4.112798875892886841e-01 8.058343849430482653e-02
1.078991596638655466e+02 4.106688208113953298e-01 7.101759866124568443e-02
1.089075630252100808e+02 4.123848046751354968e-01 6.276651051697634820e-02
1.099159663865546150e+02 4.172405065235704757e-01 5.648874023356709184e-02
1.109243697478991635e+02 4.251988413511513798e-01 5.274782509448650014e-02
1.119327731092436977e+02 4.355160794113510647e-01 5.194607496890890630e-02
1.129411764705882320e+02 4.470646371095963190e-01 5.427044581396078815e-02
1.139495798319327662e+02 4.585333915632126001e-01 5.966387420651597662e-02
1.149579831932773004e+02 4.685407908135881261e-01 6.782995461237029122e-02
1.159663865546218489e+02 4.757319738884411287e-01 7.826944584972694852e-02
1.169747899159663831e+02 4.788716416328588910e-01 9.033863656584617541e-02
1.179831932773109173e+02 4.769240219006034565e-01 1.033162138117679207e-01
1.189915966386554658e+02 4.691176830430670019e-01 1.164672192533225958e-01
1.200000000000000000e+02 4.549967387682696263e-01 1.290972515291820555e-01
