0.000000000000000000e+00 0.000000000000000000e+00 0.000000000000000000e+00
1.008403361344537785e+00 2.455741579108439154e-03 -4.691293476826174924e-04
2.016806722689075571e+00 9.734808211911971654e-03 -1.907817187497329314e-03
3.025210084033613356e+00 2.158309745022446435e-02 -4.407143574445049339e-03
4.033613445378151141e+00 3.759131481875366276e-02 -8.105841145556791361e-03
5.042016806722688926e+00 5.722655384316377436e-02 -1.317458808958305028e-02
6.050420168067226712e+00 7.985909320440465198e-02 -1.979347411997744999e-02
7.058823529411764497e+00 1.047944055171459166e-01 -2.812709329811591275e-02
8.067226890756302282e+00 1.313033047647478302e-01 -3.829806881545683162e-02
9.075630252100840067e+00 1.586485605107490482e-01 -5.036049695706745766e-02
1.008403361344537785e+01 1.861096929723040638e-01 -6.427588964933228510e-02
1.109243697478991564e+01 2.130027902052684663e-01 -7.989203824687152178e-02
1.210084033613445342e+01 2.386970354868911404e-01 -9.692681453444218498e-02
1.310924369747899121e+01 2.626275479793676038e-01 -1.149582232091618250e-01
1.411764705882352899e+01 2.843045020376979704e-01 -1.334223559103719925e-01
1.512605042016806678e+01 3.033195167592257491e-01 -1.516224559219394585e-01
1.613445378151260456e+01 3.193483358008484263e-01 -1.687518897343067703e-01
1.714285714285714235e+01 3.321507129681875448e-01 -1.839362143163776331e-01
1.815126050420168013e+01 3.415682439865179720e-01 -1.962996225632771541e-01
1.915966386554621792e+01 3.475204143685588498e-01 -2.050566734681118497e-01
2.016806722689075571e+01 3.499994650689914888e-01 -2.096198841280625391e-01
2.117647058823529349e+01 3.490644549463679525e-01 -2.096979557790976667e-01
2.218487394957983128e+01 3.448348787637032231e-01 -2.053496434594930253e-01
2.319327731092436906e+01 3.374845993771986574e-01 -1.969698249550675406e-01
2.420168067226890685e+01 3.272361110540487061e-01 -1.852127609350440185e-01
2.521008403361344463e+01 3.143553043808289260e-01 -1.708835845505186635e-01
2.621848739495798242e+01 2.991462786725656020e-01 -1.548323382651297653e-01
2.722689075630252020e+01 2.819463762501022153e-01 -1.378717747980311437e-01
2.823529411764705799e+01 2.631216620536358519e-01 -1.207242488547277670e-01
2.924369747899159577e+01 2.430621080614583374e-01 -1.039930566964983871e-01
3.025210084033613356e+01 2.221763489135537561e-01 -8.815174466732900171e-02
3.126050420168067134e+01 2.008858519329490555e-01 -7.354558800264099361e-02
3.226890756302520913e+01 1.796177620710588396e-01 -6.040061932496954000e-02
3.327731092436974336e+01 1.587978947277957076e-01 -4.883822361310641291e-02
3.428571428571428470e+01 1.388430484483937910e-01 -3.889258688110652784e-02
3.529411764705882604e+01 1.201529100747543710e-01 -3.052966654775346456e-02
3.630252100840336027e+01 1.031018368815984632e-01 -2.366658637823970679e-02
3.731092436974789450e+01 8.803058438672917152e-02 -1.819034609148628689e-02
3.831932773109243584e+01 7.523893761053590534e-02 -1.397509193796864224e-02
3.932773109243697718e+01 6.498013121767798328e-02 -1.089717536319256830e-02
4.033613445378151141e+01 5.745703324662621014e-02 -8.847214833276328960e-03
4.134453781512604564e+01 5.281998721807867891e-02 -7.738806790863472784e-03
4.235294117647058698e+01 5.116519693622567644e-02 -7.513633353593007769e-03
4.336134453781512832e+01 5.253241624427906764e-02 -8.142995675678221801e-03
4.436974789915966255e+01 5.690096122600396544e-02 -9.625952496475020936e-03
4.537815126050419678e+01 6.418391458921024473e-02 -1.198443753596301065e-02
4.638655462184873812e+01 7.422178396458711802e-02 -1.525595266874346656e-02
4.739495798319327946e+01 8.677758444758365552e-02 -1.948449168299459799e-02
4.840336134453781369e+01 1.015357253852512409e-01 -2.471045587471554228e-02
4.941176470588234793e+01 1.181066873442975229e-01 -3.096035252375273217e-02
5.042016806722688926e+01 1.360378145808343042e-01 -3.823675658092451357e-02
5.142857142857143060e+01 1.548302809402606339e-01 -4.650932245576133717e-02
5.243697478991596483e+01 1.739606273264144853e-01 -5.570735238579538340e-02
5.344537815126049907e+01 1.929045843010359640e-01 -6.571433906256296531e-02
5.445378151260504040e+01 2.111611223945328852e-01 -7.636512163124953290e-02
5.546218487394958174e+01 2.282737959267864269e-01 -8.744568141665065575e-02
5.647058823529411598e+01 2.438480027597815791e-01 -9.869606704724631641e-02
5.747899159663865021e+01 2.575634093347427545e-01 -1.098168408393880302e-01
5.848739495798319155e+01 2.691814181697258501e-01 -1.204792683781463758e-01
5.949579831932773288e+01 2.785480113450125028e-01 -1.303394196738915101e-01
6.050420168067226712e+01 2.855920283601101062e-01 -1.390560291774096680e-01
6.151260504201680135e+01 2.903186636119876596e-01 -1.463111471303938371e-01
6.252100840336134269e+01 2.927986742259884867e-01 -1.518323162895538481e-01
6.352941176470588402e+01 2.931544200413043200e-01 -1.554137923289456991e-01
6.453781512605041826e+01 2.915450983004199692e-01 -1.569337819886990060e-01
6.554621848739495249e+01 2.881537349512981461e-01 -1.563646724680867184e-01
6.655462184873948672e+01 2.831778343383648533e-01 -1.537741934275392852e-01
6.756302521008403517e+01 2.768235723576633056e-01 -1.493173277145823930e-01
6.857142857142856940e+01 2.693015139808394576e-01 -1.432205198464642226e-01
6.957983193277310363e+01 2.608214439378218064e-01 -1.357611213372087455e-01
7.058823529411765207e+01 2.515843939028639120e-01 -1.272453905276617059e-01
7.159663865546218631e+01 2.417710186707444642e-01 -1.179876998847115832e-01
7.260504201680672054e+01 2.315280338201297639e-01 -1.082931123317687483e-01
7.361344537815125477e+01 2.209557034940994313e-01 -9.844395960698826276e-02
7.462184873949578900e+01 2.101013472293220552e-01 -8.869053670980864279e-02
7.563025210084033745e+01 1.989633943374100600e-01 -7.924558753685895240e-02
7.663865546218487168e+01 1.875074416863391491e-01 -7.028189887726776774e-02
7.764705882352940591e+01 1.756920926889919965e-01 -6.193250785164861050e-02
7.865546218487395436e+01 1.634994259894553270e-01 -5.429298561817863522e-02
7.966386554621848859e+01 1.509642725805606656e-01 -4.742514829652866304e-02
8.067226890756302282e+01 1.381977380620804663e-01 -4.136181460603904902e-02
8.168067226890755705e+01 1.254017837179619566e-01 -3.611223237908500749e-02
8.268907563025209129e+01 1.128726640521454661e-01 -3.166775950017663988e-02
8.369747899159663973e+01 1.009925372614569605e-01 -2.800765833189200471e-02
8.470588235294117396e+01 9.020897043559550355e-02 -2.510459413399468431e-02
8.571428571428570820e+01 8.100341732786164872e-02 -2.292961648293001531e-02
8.672268907563025664e+01 7.385120387022847677e-02 -2.145642202810371657e-02
8.773109243697479087e+01 6.917686759637564631e-02 -2.066470101072770404e-02
8.873949579831932510e+01 6.731023886515841159e-02 -2.054245114177488674e-02
8.974789915966385934e+01 6.844961620833434068e-02 -2.108716842203106623e-02
9.075630252100839357e+01 7.263772918811628454e-02 -2.230584048253536622e-02
9.176470588235294201e+01 7.975452958577478046e-02 -2.421376909479944217e-02
9.277310924369747624e+01 8.952706226934670219e-02 -2.683227504812579767e-02
9.378151260504201048e+01 1.015531866242042058e-01 -3.018542964087100877e-02
9.478991596638655892e+01 1.153341412265230792e-01 -3.429593932679342316e-02
9.579831932773109315e+01 1.303115517544857216e-01 -3.918037413121067125e-02
9.680672268907562739e+01 1.459063741466695152e-01 -4.484397926515426569e-02
9.781512605042016162e+01 1.615578667351873499e-01 -5.127531047067113157e-02
9.882352941176469585e+01 1.767601159676579492e-01 -5.844098618010651336e-02
9.983193277310924429e+01 1.910929281304909466e-01 -6.628091158718074638e-02
1.008403361344537785e+02 2.042438115691145306e-01 -7.470415012490283502e-02
1.018487394957983128e+02 2.160197656825770807e-01 -8.358590246048680505e-02
1.028571428571428612e+02 2.263483975835023365e-01 -9.276595484899541333e-02
1.038655462184873954e+02 2.352687084133062712e-01 -1.020489755587408176e-01
1.048739495798319297e+02 2.429122523253468557e-01 -1.112072759708255809e-01
1.058823529411764639e+02 2.494752566333726662e-01 -1.199862474416069080e-01
1.068907563025209981e+02 2.551829898603568125e-01 -1.281128969297701259e-01
1.078991596638655466e+02 2.602489192356933767e-01 -1.353077034645969734e-01
1.089075630252100808e+02 2.648336231091734660e-01 -1.412995316681227020e-01
1.099159663865546150e+02 2.690106456283947178e-01 -1.458428368438793310e-01
1.109243697478991635e+02 2.727466100884545774e-01 -1.487357512938716209e-01
1.119327731092436977e+02 2.758995821269167870e-01 -1.498366583617264380e-01
1.129411764705882320e+02 2.782348008354844637e-01 -1.490770532783334268e-01
1.139495798319327662e+02 2.794531841843479469e-01 -1.464684545091532453e-01
1.149579831932773004e+02 2.792268659619800975e-01 -1.421020991656969379e-01
1.159663865546218489e+02 2.772367905707668889e-01 -1.361415068518861959e-01
1.169747899159663831e+02 2.732080642581558028e-01 -1.288091711145604723e-01
1.179831932773109173e+02 2.669402441049233410e-01 -1.203696483419829377e-01
1.189915966386554658e+02 2.583311877242528976e-01 -1.111113940332575378e-01
1.200000000000000000e+02 2.473937789695213052e-01 -1.013293472810723461e-01
