0.000000000000000000e+00 0.000000000000000000e+00 -1.110223024625156540e-16
1.008403361344537785e+00 1.582730991376957164e-03 -3.316570478638647401e-04
2.016806722689075571e+00 6.279290204926235575e-03 -1.339657333286115026e-03
3.025210084033613356e+00 1.394085057226890356e-02 -3.061982613877911596e-03
4.033613445378151141e+00 2.432621329999884452e-02 -5.554619786109271651e-03
5.042016806722688926e+00 3.711672038902158466e-02 -8.882989009674213676e-03
6.050420168067226712e+00 5.193161797968581794e-02 -1.311015942122528699e-02
7.058823529411764497e+00 6.834342846619356759e-02 -1.828299576526981607e-02
8.067226890756302282e+00 8.589717153360154622e-02 -2.441938022944856179e-02
9.075630252100840067e+00 1.041250297713636197e-01 -3.149462285873771972e-02
1.008403361344537785e+01 1.225606887843403436e-01 -3.942984569640006765e-02
1.109243697478991564e+01 1.407528100248669478e-01 -4.808346156189324816e-02
1.210084033613445342e+01 1.582764818915842753e-01 -5.724632087463044083e-02
1.310924369747899121e+01 1.747416733989091142e-01 -6.664076149779929459e-02
1.411764705882352899e+01 1.898002680953152499e-01 -7.592537044404779056e-02
1.512605042016806678e+01 2.031517539662344163e-01 -8.470663930307464895e-02
1.613445378151260456e+01 2.145473091853116188e-01 -9.255823222679537832e-02
1.714285714285714235e+01 2.237911587692316129e-01 -9.904698882876517008e-02
1.815126050420168013e+01 2.307412797348502576e-01 -1.037663811870591646e-01
1.915966386554621792e+01 2.353091601058927562e-01 -1.063744241282080782e-01
2.016806722689075571e+01 2.374584383443729685e-01 -1.066305120016165509e-01
2.117647058823529349e+01 2.372022562729474426e-01 -1.044236295503752077e-01
2.218487394957983128e+01 2.346005664887531594e-01 -9.978626979344695780e-02
2.319327731092436906e+01 2.297570829869330922e-01 -9.288990694809340365e-02
2.420168067226890685e+01 2.228152732322987717e-01 -8.402258139759699596e-02
2.521008403361344463e+01 2.139544754631879098e-01 -7.355532114794738341e-02
2.621848739495798242e+01 2.033859461923264167e-01 -6.190475046349408483e-02
2.722689075630252020e+01 1.913487592651872404e-01 -4.949826022668901704e-02
2.823529411764705799e+01 1.781045004754584493e-01 -3.674487236230017384e-02
2.924369747899159577e+01 1.639329285932578095e-01 -2.401521510553028538e-02
3.025210084033613356e+01 1.491272455513370510e-01 -1.162904203795089852e-02
3.126050420168067134e+01 1.339891849835421755e-01 1.506840439003953591e-04
3.226890756302520913e+01 1.188228425262152221e-01 1.111924842822042958e-02
3.327731092436974336e+01 1.039298061526610084e-01 2.112677442208010792e-02
3.428571428571428470e+01 8.960392243986481375e-02 3.007247341765406645e-02
3.529411764705882604e+01 7.612607285296379978e-02 3.789729822976062312e-02
3.630252100840336027e+01 6.375836776996290922e-02 4.457613413729843987e-02
3.731092436974789450e+01 5.273983196289599995e-02 5.010919275173664200e-02
3.831932773109243584e+01 4.328237095954434732e-02 5.451402331040500204e-02
3.932773109243697718e+01 3.556736972341589809e-02 5.781846234772280990e-02
4.033613445378151141e+01 2.974283621223261509e-02 6.005485440904489991e-02
4.134453781512604564e+01 2.592167354705265936e-02 6.125545548940480867e-02
4.235294117647058698e+01 2.417974216721130443e-02 6.144952182006413466e-02
4.336134453781512832e+01 2.455322655225633532e-02 6.066205821435854961e-02
4.436974789915966255e+01 2.703537546852585738e-02 5.891395447851910383e-02
4.537815126050419678e+01 3.157282137373684794e-02 5.622341864883251272e-02
4.638655462184873812e+01 3.806186622123441943e-02 5.260862809156530151e-02
4.739495798319327946e+01 4.634610067294486768e-02 4.809122104696250677e-02
4.840336134453781369e+01 5.621705872041604657e-02 4.270007921104601589e-02
4.941176470588234793e+01 6.741846173034993228e-02 3.647526172162895985e-02
5.042016806722688926e+01 7.965387799300160943e-02 2.947195892508958082e-02
5.142857142857143060e+01 9.259775921110913188e-02 2.176389444650783656e-02
5.243697478991596483e+01 1.059089889929071271e-01 1.344574055349390118e-02
5.344537815126049907e+01 1.192452774352983358e-01 4.634441473397310496e-03
5.445378151260504040e+01 1.322765198198649905e-01 -4.530430356190273677e-03
5.546218487394958174e+01 1.446968492667828343e-01 -1.388793131731358432e-02
5.647058823529411598e+01 1.562346273375654349e-01 -2.325875605018445924e-02
5.747899159663865021e+01 1.666598867123267880e-01 -3.245000183904178659e-02
5.848739495798319155e+01 1.757886936110955034e-01 -4.126125310879291685e-02
5.949579831932773288e+01 1.834853266503033709e-01 -4.949238667562261274e-02
6.050420168067226712e+01 1.896621646926215377e-01 -5.695264308634873096e-02
6.151260504201680135e+01 1.942772795635965277e-01 -6.347035357712682568e-02
6.252100840336134269e+01 1.973299036088713709e-01 -6.890228186351898820e-02
6.352941176470588402e+01 1.988547585621389668e-01 -7.314204398914403438e-02
6.453781512605041826e+01 1.989159050792426164e-01 -7.612646423665780926e-02
6.554621848739495249e+01 1.976007188585287011e-01 -7.783888103315017570e-02
6.655462184873948672e+01 1.950148717532829146e-01 -7.830901164552306337e-02
6.756302521008403517e+01 1.912781171107555966e-01 -7.760946851723204976e-02
6.857142857142856940e+01 1.865203109961626193e-01 -7.584936463230518289e-02
6.957983193277310363e+01 1.808766410555315840e-01 -7.316564488396515298e-02
7.058823529411765207e+01 1.744824030758367339e-01 -6.971364409672076157e-02
7.159663865546218631e+01 1.674669108915740612e-01 -6.565764721137135052e-02
7.260504201680672054e+01 1.599473595659826053e-01 -6.116228792116717994e-02
7.361344537815125477e+01 1.520236049831420466e-01 -5.638504053379422842e-02
7.462184873949578900e+01 1.437763074453815015e-01 -5.147066743266937028e-02
7.563025210084033745e+01 1.352690684624291428e-01 -4.654730907967186138e-02
7.663865546218487168e+01 1.265549530243186283e-01 -4.172419527367987602e-02
7.764705882352940591e+01 1.176861798118165048e-01 -3.709056981610170389e-02
7.865546218487395436e+01 1.087258193074004398e-01 -3.271612330298789839e-02
7.966386554621848859e+01 9.975892684412068778e-02 -2.865236473530496930e-02
8.067226890756302282e+01 9.090130511028182703e-02 -2.493473377742427832e-02
8.168067226890755705e+01 8.230414857193402156e-02 -2.158508772319545077e-02
8.268907563025209129e+01 7.415416402927099693e-02 -1.861468725358272902e-02
8.369747899159663973e+01 6.666848336784958473e-02 -1.602726568019219311e-02
8.470588235294117396e+01 6.008446474875439591e-02 -1.382198520678790121e-02
8.571428571428570820e+01 5.464479020296408862e-02 -1.199606349627946322e-02
8.672268907563025664e+01 5.057966763943555488e-02 -1.054709547907739520e-02
8.773109243697479087e+01 4.808779519363604038e-02 -9.474845781693996827e-03
8.873949579831932510e+01 4.731812301686277866e-02 -8.782386814207510106e-03
8.974789915966385934e+01 4.835468850699342624e-02 -8.476543900141408905e-03
9.075630252100839357e+01 5.120691481910943921e-02 -8.567695514163031767e-03
9.176470588235294201e+01 5.580644197055040223e-02 -9.068889966686977111e-03
9.277310924369747624e+01 6.201049853249485100e-02 -9.994313109544017415e-03
9.378151260504201048e+01 6.961118248608721970e-02 -1.135723989790060617e-02
9.478991596638655892e+01 7.834941030239039872e-02 -1.316761795768839338e-02
9.579831932773109315e+01 8.793162909135543437e-02 -1.542931878559261616e-02
9.680672268907562739e+01 9.804805821718465264e-02 -1.813725434361801447e-02
9.781512605042016162e+01 1.083913487197873948e-01 -2.127456550744499797e-02
9.882352941176469585e+01 1.186743809460670818e-01 -2.481011634765828422e-02
9.983193277310924429e+01 1.286451973785476266e-01 -2.869624658077329915e-02
1.008403361344537785e+02 1.380983457855178287e-01 -3.286712918027145935e-02
1.018487394957983128e+02 1.468817312968064837e-01 -3.723792490204302918e-02
1.028571428571428612e+02 1.548985908935409661e-01 -4.170504566470234487e-02
1.038655462184873954e+02 1.621040876283297294e-01 -4.614729740304768235e-02
1.048739495798319297e+02 1.684973444767645656e-01 -5.042836913435888579e-02
1.058823529411764639e+02 1.741092836795958831e-01 -5.440072011386509754e-02
1.068907563025209981e+02 1.789871995084133527e-01 -5.791106990787908693e-02
1.078991596638655466e+02 1.831773228268678277e-01 -6.080684840663752588e-02
1.089075630252100808e+02 1.867078652539320149e-01 -6.294377342462520453e-02
1.099159663865546150e+02 1.895752477547085757e-01 -6.419399395111291540e-02
1.109243697478991635e+02 1.917363607952691229e-01 -6.445429424900606108e-02
1.119327731092436977e+02 1.931081046426486036e-01 -6.365307143188736472e-02
1.129411764705882320e+02 1.935741678321334369e-01 -6.175571542088476029e-02
1.139495798319327662e+02 1.929974233249356352e-01 -5.876762755104347757e-02
1.149579831932773004e+02 1.912359309433158128e-01 -5.473449128838991928e-02
1.159663865546218489e+02 1.881598712258649719e-01 -4.973956728396689009e-02
1.169747899159663831e+02 1.836678922278909276e-01 -4.389864715248770199e-02
1.179831932773109173e+02 1.777015309330951531e-01 -3.735326373528013999e-02
1.189915966386554658e+02 1.702566642914127293e-01 -3.026275361632058125e-02
1.200000000000000000e+02 1.613912686250329465e-01 -2.279611562077865639e-02
