0.000000000000000000e+00 0.000000000000000000e+00 0.000000000000000000e+00
1.008403361344537785e+00 2.953523258184431732e-03 -2.492671631260101606e-04
2.016806722689075571e+00 1.170258201244978036e-02 -1.051552587220339063e-03
3.025210084033613356e+00 2.592444821985750991e-02 -2.564916390541904789e-03
4.033613445378151141e+00 4.510352252143567942e-02 -5.033906366578300151e-03
5.042016806722688926e+00 6.857168571103033905e-02 -8.764201297438933835e-03
6.050420168067226712e+00 9.554488437817709734e-02 -1.408930185129686485e-02
7.058823529411764497e+00 1.251655527342321328e-01 -2.133348750514496572e-02
8.067226890756302282e+00 1.565403564128338143e-01 -3.077292390701558134e-02
9.075630252100840067e+00 1.887741902385906556e-01 -4.259765937043802353e-02
1.008403361344537785e+01 2.209996792279507183e-01 -5.687666336025420932e-02
1.109243697478991564e+01 2.524019773147352375e-01 -7.352769614303844570e-02
1.210084033613445342e+01 2.822384707032297158e-01 -9.229324698831153917e-02
1.310924369747899121e+01 3.098533335503561581e-01 -1.127235731151432496e-01
1.411764705882352899e+01 3.346876292597846803e-01 -1.341685967502730392e-01
1.512605042016806678e+01 3.562850238630246302e-01 -1.557812304376923196e-01
1.613445378151260456e+01 3.742934505217485608e-01 -1.765369887215950673e-01
1.714285714285714235e+01 3.884632349738890156e-01 -1.952783510786517684e-01
1.815126050420168013e+01 3.986424775654777708e-01 -2.107962872391494491e-01
1.915966386554621792e+01 4.047697710682536254e-01 -2.219591118722397116e-01
2.016806722689075571e+01 4.068657149013381602e-01 -2.278847965249626295e-01
2.117647058823529349e+01 4.050238833048516174e-01 -2.281169837588794547e-01
2.218487394957983128e+01 3.994019664973107453e-01 -2.227314822505487291e-01
2.319327731092436906e+01 3.902137306175681442e-01 -2.123140688030704659e-01
2.420168067226890685e+01 3.777219985541069303e-01 -1.978197740438931707e-01
2.521008403361344463e+01 3.622326761650260796e-01 -1.803847299698360107e-01
2.621848739495798242e+01 3.440900830990432091e-01 -1.611611884473378442e-01
2.722689075630252020e+01 3.236730577619708615e-01 -1.412056875792777610e-01
2.823529411764705799e+01 3.013915109005891324e-01 -1.214176311625291271e-01
2.924369747899159577e+01 2.776829278497934261e-01 -1.025137408226297620e-01
3.025210084033613356e+01 2.530083239416085483e-01 -8.502491096387654324e-02
3.126050420168067134e+01 2.278466058066981326e-01 -6.930603085294084753e-02
3.226890756302520913e+01 2.026881417379939876e-01 -5.555407763491615469e-02
3.327731092436974336e+01 1.780270605458855737e-01 -4.383089486273994417e-02
3.428571428571428470e+01 1.543525528184914730e-01 -3.408876078005285137e-02
3.529411764705882604e+01 1.321392825150660144e-01 -2.619738364938317687e-02
3.630252100840336027e+01 1.118368068406433435e-01 -1.997111087552139175e-02
3.731092436974789450e+01 9.385828609038315840e-02 -1.519513712335518463e-02
3.831932773109243584e+01 7.857010890495452760e-02 -1.164960570793782679e-02
3.932773109243697718e+01 6.628468709756329957e-02 -9.130564675928320995e-03
4.033613445378151141e+01 5.725698852272764761e-02 -7.466729805092997552e-03
4.134453781512604564e+01 5.168384261458847106e-02 -6.531398964681578434e-03
4.235294117647058698e+01 4.970316538633490211e-02 -6.249109700148913760e-03
4.336134453781512832e+01 5.138999922355669270e-02 -6.596976118522723809e-03
4.436974789915966255e+01 5.674785023022554942e-02 -7.601032593230083734e-03
4.537815126050419678e+01 6.569594183355575989e-02 -9.328208452979325216e-03
4.638655462184873812e+01 7.805529738855587762e-02 -1.187481077831509246e-02
4.739495798319327946e+01 9.353810916284832633e-02 -1.535257880989693291e-02
4.840336134453781369e+01 1.117446893576616862e-01 -1.987341530307995541e-02
4.941176470588234793e+01 1.321707554881366153e-01 -2.553385753324199925e-02
5.042016806722688926e+01 1.542254930872981600e-01 -3.240026255001593469e-02
5.142857142857143060e+01 1.772587064869970419e-01 -4.049561583869865089e-02
5.243697478991596483e+01 2.005932187899326369e-01 -4.978846906511869008e-02
5.344537815126049907e+01 2.235591509664442977e-01 -6.018466620629991937e-02
5.445378151260504040e+01 2.455264834432082655e-01 -7.152228987262387871e-02
5.546218487394958174e+01 2.659329670521743960e-01 -8.357023247154593548e-02
5.647058823529411598e+01 2.843053928658627605e-01 -9.603077883690203098e-02
5.747899159663865021e+01 3.002737425330967991e-01 -1.085467936594056715e-01
5.848739495798319155e+01 3.135784827625576199e-01 -1.207138470492501447e-01
5.949579831932773288e+01 3.240719809351673142e-01 -1.320977487284400453e-01
6.050420168067226712e+01 3.317143466024017329e-01 -1.422577232403365866e-01
6.151260504201680135e+01 3.365631792043290993e-01 -1.507746263539868625e-01
6.252100840336134269e+01 3.387571300425769039e-01 -1.572824197476632158e-01
6.352941176470588402e+01 3.384947921161509665e-01 -1.614995434592069179e-01
6.453781512605041826e+01 3.360123371901999612e-01 -1.632553745815907842e-01
6.554621848739495249e+01 3.315646678213579612e-01 -1.625066062447532156e-01
6.655462184873948672e+01 3.254131544961802458e-01 -1.593398844967575112e-01
6.756302521008403517e+01 3.178197028822224990e-01 -1.539599417830216366e-01
6.857142857142856940e+01 3.090439046081021601e-01 -1.466659244860826217e-01
6.957983193277310363e+01 2.993390815053063037e-01 -1.378209742082379119e-01
7.058823529411765207e+01 2.889436949746646555e-01 -1.278204692954345578e-01
7.159663865546218631e+01 2.780666499374602196e-01 -1.170632706586405281e-01
7.260504201680672054e+01 2.668678261868859813e-01 -1.059285551318014384e-01
7.361344537815125477e+01 2.554384750363081213e-01 -9.475891692867299820e-02
7.462184873949578900e+01 2.437895856885905488e-01 -8.384946635994383612e-02
7.563025210084033745e+01 2.318562275620124069e-01 -7.344208165772347918e-02
7.663865546218487168e+01 2.195211281503191003e-01 -6.372383308562135085e-02
7.764705882352940591e+01 2.066535887494294066e-01 -5.482854251651669841e-02
7.865546218487395436e+01 1.931553858881818186e-01 -4.684086523782760025e-02
7.966386554621848859e+01 1.790045453990627422e-01 -3.980210694061914189e-02
8.067226890756302282e+01 1.642903267902728892e-01 -3.371723852843011571e-02
8.168067226890755705e+01 1.492352605527182963e-01 -2.856265809927771571e-02
8.268907563025209129e+01 1.342018479689446320e-01 -2.429429429355955961e-02
8.369747899159663973e+01 1.196825264771776975e-01 -2.085565938945266318e-02
8.470588235294117396e+01 1.062723856058206406e-01 -1.818551096856713123e-02
8.571428571428570820e+01 9.462583376175204286e-02 -1.622483492857185183e-02
8.672268907563025664e+01 8.540007106591118724e-02 -1.492280550712821174e-02
8.773109243697479087e+01 7.919072115986758309e-02 -1.424149209263614324e-02
8.873949579831932510e+01 7.646704281143779092e-02 -1.415911390433155503e-02
8.974789915966385934e+01 7.751622689520909493e-02 -1.467170422363550664e-02
9.075630252100839357e+01 8.240690041593357051e-02 -1.579311802345362281e-02
9.176470588235294201e+01 9.097930341284654610e-02 -1.755340356652501654e-02
9.277310924369747624e+01 1.028623287317126378e-01 -1.999560914870812667e-02
9.378151260504201048e+01 1.175107579746232922e-01 -2.317118581442523251e-02
9.478991596638655892e+01 1.342532412208381487e-01 -2.713420573005498326e-02
9.579831932773109315e+01 1.523441278714416924e-01 -3.193466111662313089e-02
9.680672268907562739e+01 1.710167343192590117e-01 -3.761115025040018267e-02
9.781512605042016162e+01 1.895370701048593176e-01 -4.418332655709455992e-02
9.882352941176469585e+01 2.072541506042160364e-01 -5.164439706138423958e-02
9.983193277310924429e+01 2.236416781398560261e-01 -5.995408942224211835e-02
1.008403361344537785e+02 2.383268136727223485e-01 -6.903248354368329842e-02
1.018487394957983128e+02 2.511044305059755288e-01 -7.875514332088628944e-02
1.028571428571428612e+02 2.619371825601910508e-01 -8.895001131860191812e-02
1.038655462184873954e+02 2.709424663235984188e-01 -9.939671239721703522e-02
1.048739495798319297e+02 2.783669891463413926e-01 -1.098288079578291221e-01
1.058823529411764639e+02 2.845491918162117440e-01 -1.199396589559875714e-01
1.068907563025209981e+02 2.898694586152572583e-01 -1.293926253912998092e-01
1.078991596638655466e+02 2.946899305101147171e-01 -1.378360437677530470e-01
1.089075630252100808e+02 2.992906490110327500e-01 -1.449229710616964928e-01
1.099159663865546150e+02 3.038145563998551069e-01 -1.503348503871964059e-01
1.109243697478991635e+02 3.082357115072944520e-01 -1.538071859401045627e-01
1.119327731092436977e+02 3.123587903878624061e-01 -1.551538026846038809e-01
1.129411764705882320e+02 3.158467570723462181e-01 -1.542859103730834791e-01
1.139495798319327662e+02 3.182662379954601661e-01 -1.512222954607367331e-01
1.149579831932773004e+02 3.191400887619169069e-01 -1.460885076116811288e-01
1.159663865546218489e+02 3.179999056304836369e-01 -1.391052392441906038e-01
1.169747899159663831e+02 3.144338412070293298e-01 -1.305682966717072180e-01
1.179831932773109173e+02 3.081267298854615255e-01 -1.208237844084715240e-01
1.189915966386554658e+02 2.988913039190597143e-01 -1.102423122917388643e-01
1.200000000000000000e+02 2.866905264603398784e-01 -9.919514600953838190e-02
