0.000000000000000000e+00 0.000000000000000000e+00 -1.110223024625156540e-16
1.008403361344537785e+00 8.758927017047390962e-04 -2.562105805796743851e-04
2.016806722689075571e+00 3.477434969962778233e-03 -1.030648513524301535e-03
3.025210084033613356e+00 7.728348997834477707e-03 -2.339900893709612184e-03
4.033613445378151141e+00 1.350536923593381733e-02 -4.207801722004966827e-03
5.042016806722688926e+00 2.064045604540021284e-02 -6.658737362411182303e-03
6.050420168067226712e+00 2.893100352046529267e-02 -9.712237668092482679e-03
7.058823529411764497e+00 3.814489711029267482e-02 -1.337427555128467560e-02
8.067226890756302282e+00 4.802747469064938546e-02 -1.762884979956402809e-02
9.075630252100840067e+00 5.831260339420696326e-02 -2.243231403624867948e-02
1.008403361344537785e+01 6.872876722096254998e-02 -2.770661894394854663e-02
1.109243697478991564e+01 7.900568015043374359e-02 -3.333463479925247164e-02
1.210084033613445342e+01 8.888329019017127131e-02 -3.915986434255547266e-02
1.310924369747899121e+01 9.811694190737163535e-02 -4.498725050738106024e-02
1.411764705882352899e+01 1.064817372242650162e-01 -5.058712736221260275e-02
1.512605042016806678e+01 1.137786268905243148e-01 -5.570506185067136684e-02
1.613445378151260456e+01 1.198375341289813489e-01 -6.007429544494613527e-02
1.714285714285714235e+01 1.245192343457515172e-01 -6.343158038105167762e-02
1.815126050420168013e+01 1.277182541125976289e-01 -6.553778338040805451e-02
1.915966386554621792e+01 1.293638553385023648e-01 -6.619875327346136373e-02
2.016806722689075571e+01 1.294198428980630755e-01 -6.528390192716282403e-02
2.117647058823529349e+01 1.278849137414606041e-01 -6.274083494006710282e-02
2.218487394957983128e+01 1.247914237452989461e-01 -5.860083976390695337e-02
2.319327731092436906e+01 1.202038296740899348e-01 -5.297496227686626646e-02
2.420168067226890685e+01 1.142172484196597448e-01 -4.604217799092724661e-02
2.521008403361344463e+01 1.069540938491473359e-01 -3.803043743029088652e-02
2.621848739495798242e+01 9.856162197252582580e-02 -2.919687460990982864e-02
2.722689075630252020e+01 8.920930031174023611e-02 -1.980925785838727471e-02
2.823529411764705799e+01 7.908374318563049510e-02 -1.012874278043374154e-02
2.924369747899159577e+01 6.838561601890302821e-02 -3.986673849546429338e-04
3.025210084033613356e+01 5.732632777326318596e-02 9.162746381638164905e-03
3.126050420168067134e+01 4.612215630262817001e-02 1.836801285685740748e-02
3.226890756302520913e+01 3.499075626096126435e-02 2.706116815380121832e-02
3.327731092436974336e+01 2.414771607387522501e-02 3.511650832190360561e-02
3.428571428571428470e+01 1.380103895536755054e-02 4.243728617797604130e-02
3.529411764705882604e+01 4.147655938827710109e-03 4.895211775004193466e-02
3.630252100840336027e+01 -4.629528044470365700e-03 5.461079677628144502e-02
3.731092436974789450e+01 -1.236577504997671273e-02 5.938094931351156625e-02
3.831932773109243584e+01 -1.891719073674091867e-02 6.324424708159215314e-02
3.932773109243697718e+01 -2.416240438083505637e-02 6.619279810930844832e-02
4.033613445378151141e+01 -2.800490244597009237e-02 6.822672957153574913e-02
4.134453781512604564e+01 -3.037458698466866114e-02 6.935211247518058286e-02
4.235294117647058698e+01 -3.122925956062028163e-02 6.957954203191540898e-02
4.336134453781512832e+01 -3.055700570810104821e-02 6.892377468335331159e-02
4.436974789915966255e+01 -2.837800419165803500e-02 6.740361625671109636e-02
4.537815126050419678e+01 -2.474649533742723229e-02 6.504263541460608700e-02
4.638655462184873812e+01 -1.975212078336685551e-02 6.187046460439793449e-02
4.739495798319327946e+01 -1.351855315342154196e-02 5.792373825505692242e-02
4.840336134453781369e+01 -6.201100828886696448e-03 5.324776018579213677e-02
4.941176470588234793e+01 2.017673968985000954e-03 4.789820935289812454e-02
5.042016806722688926e+01 1.093547763773339287e-02 4.194177964589829166e-02
5.142857142857143060e+01 2.033757854378448471e-02 3.545727340408011408e-02
5.243697478991596483e+01 3.000431990469576427e-02 2.853632152999141525e-02
5.344537815126049907e+01 3.971968572291306732e-02 2.128258045841291413e-02
5.445378151260504040e+01 4.927792823471266459e-02 1.381096389013114489e-02
5.546218487394958174e+01 5.848883528440507185e-02 6.246335000236302726e-03
5.647058823529411598e+01 6.718283200789643139e-02 -1.279395028479735075e-03
5.747899159663865021e+01 7.521422801240063016e-02 -8.630564858239986314e-03
5.848739495798319155e+01 8.246281489854601077e-02 -1.567138899488285109e-02
5.949579831932773288e+01 8.883514554847971034e-02 -2.227083253490991233e-02
6.050420168067226712e+01 9.426454042731302607e-02 -2.830770894180689723e-02
6.151260504201680135e+01 9.870981531373002049e-02 -3.367540725967854698e-02
6.252100840336134269e+01 1.021537838504159579e-01 -3.828676597333291465e-02
6.352941176470588402e+01 1.046009486314226633e-01 -4.207803652436714614e-02
6.453781512605041826e+01 1.060747718920069804e-01 -4.501140067040809711e-02
6.554621848739495249e+01 1.066150976560259478e-01 -4.707628308058919853e-02
6.655462184873948672e+01 1.062751590846489069e-01 -4.828871673709178580e-02
6.756302521008403517e+01 1.051189770154375980e-01 -4.868916850769688942e-02
6.857142857142856940e+01 1.032189605683558886e-01 -4.833922060694650913e-02
6.957983193277310363e+01 1.006528818859568908e-01 -4.731686848033478388e-02
7.058823529411765207e+01 9.750140838401466503e-02 -4.571169037495059762e-02
7.159663865546218631e+01 9.384580336668191247e-02 -4.362016167397109179e-02
7.260504201680672054e+01 8.976517869068334488e-02 -4.114078864469616903e-02
7.361344537815125477e+01 8.533488195096161633e-02 -3.837025329423870978e-02
7.462184873949578900e+01 8.062590955896109524e-02 -3.540050780251635665e-02
7.563025210084033745e+01 7.570477484292204018e-02 -3.231617928940988538e-02
7.663865546218487168e+01 7.063483809933757129e-02 -2.919298838689254882e-02
7.764705882352940591e+01 6.547893852411690307e-02 -2.609719917257824484e-02
7.865546218487395436e+01 6.030208353596999693e-02 -2.308526175648983880e-02
7.966386554621848859e+01 5.517420594297728353e-02 -2.020398559798097793e-02
8.067226890756302282e+01 5.017285298753282330e-02 -1.749152217289573485e-02
8.168067226890755705e+01 4.538431501421769099e-02 -1.497828244092602734e-02
8.268907563025209129e+01 4.090298919312207460e-02 -1.268792374195992778e-02
8.369747899159663973e+01 3.682962054438743138e-02 -1.063882865461884819e-02
8.470588235294117396e+01 3.326754192800640553e-02 -8.845302526156340051e-03
8.571428571428570820e+01 3.031725065021062537e-02 -7.318533462361331843e-03
8.672268907563025664e+01 2.807086746919584819e-02 -6.067717091237989635e-03
8.773109243697479087e+01 2.660613156660507350e-02 -5.100765057447054218e-03
8.873949579831932510e+01 2.598051033268899968e-02 -4.424655695125401245e-03
8.974789915966385934e+01 2.622680341620498012e-02 -4.045697783678359194e-03
9.075630252100839357e+01 2.734978125274933891e-02 -3.969353995244340183e-03
9.176470588235294201e+01 2.932429252868273828e-02 -4.199778588366731569e-03
9.277310924369747624e+01 3.209542144235455474e-02 -4.739175400678918848e-03
9.378151260504201048e+01 3.558012105202756903e-02 -5.586804531221067904e-03
9.478991596638655892e+01 3.967074158216565838e-02 -6.737916467544513566e-03
9.579831932773109315e+01 4.424038464992263719e-02 -8.182621939706535841e-03
9.680672268907562739e+01 4.914931306680436762e-02 -9.904550152219693260e-03
9.781512605042016162e+01 5.425265514875388106e-02 -1.187971138256860293e-02
9.882352941176469585e+01 5.940861988848655795e-02 -1.407560762060011683e-02
9.983193277310924429e+01 6.448565199514577628e-02 -1.645024899971536669e-02
1.008403361344537785e+02 6.936868901407022836e-02 -1.895167594711166803e-02
1.018487394957983128e+02 7.396379952323295370e-02 -2.151815172133575427e-02
1.028571428571428612e+02 7.819987704908437642e-02 -2.407835753815446012e-02
1.038655462184873954e+02 8.202825390614265633e-02 -2.655236265933869078e-02
1.048739495798319297e+02 8.542023055149949862e-02 -2.885366019814605831e-02
1.058823529411764639e+02 8.836192681928989323e-02 -3.089124277443811017e-02
1.068907563025209981e+02 9.084774639420278852e-02 -3.257252605258287304e-02
1.078991596638655466e+02 9.287329856628601110e-02 -3.380738391785442776e-02
1.089075630252100808e+02 9.442817556567617565e-02 -3.451196160403102731e-02
1.099159663865546150e+02 9.549026624518608397e-02 -3.461284628125604890e-02
1.109243697478991635e+02 9.602299166167682642e-02 -3.405160441224119872e-02
1.119327731092436977e+02 9.597544841254890269e-02 -3.278829395389182277e-02
1.129411764705882320e+02 9.528562444366617257e-02 -3.080424210004095720e-02
1.139495798319327662e+02 9.388648052973713742e-02 -2.810396812845272763e-02
1.149579831932773004e+02 9.171333600094011551e-02 -2.471540478489209214e-02
1.159663865546218489e+02 8.871173240280194605e-02 -2.068882833817031752e-02
1.169747899159663831e+02 8.484532815910539316e-02 -1.609465377077512471e-02
1.179831932773109173e+02 8.010258819572035893e-02 -1.101998453350960805e-02
1.189915966386554658e+02 7.450203372531483126e-02 -5.564710906541869839e-03
1.200000000000000000e+02 6.809585479245638950e-02 1.626860584907907636e-04
