0.000000000000000000e+00 0.000000000000000000e+00 -5.551115123125782702e-17
1.008403361344537785e+00 1.085609682161203793e-03 9.973536806620608708e-04
2.016806722689075571e+00 4.308198565790011259e-03 3.888139169781756888e-03
3.025210084033613356e+00 9.568159288671607143e-03 8.400622026900117501e-03
4.033613445378151141e+00 1.670487147724730725e-02 1.416499401253251689e-02
5.042016806722688926e+00 2.550359609982555398e-02 2.078638161556017883e-02
6.050420168067226712e+00 3.570707904719083725e-02 2.789645440664528797e-02
7.058823529411764497e+00 4.702474249541588325e-02 3.518137304455287717e-02
8.067226890756302282e+00 5.914387050987413019e-02 4.239483285792339240e-02
9.075630252100840067e+00 7.174001372548177713e-02 4.936261981565964740e-02
1.008403361344537785e+01 8.448739731332499669e-02 5.598249840840702207e-02
1.109243697478991564e+01 9.706696634135369983e-02 6.222149687204275859e-02
1.210084033613445342e+01 1.091734106150548111e-01 6.811121034729344936e-02
1.310924369747899121e+01 1.205231252475427173e-01 7.374024483014235409e-02
1.411764705882352899e+01 1.308589147118432994e-01 7.924480771198322282e-02
1.512605042016806678e+01 1.399535870003898452e-01 8.479701478026829831e-02
1.613445378151260456e+01 1.476138537693616470e-01 9.059017086071680103e-02
1.714285714285714235e+01 1.536827542864203089e-01 9.682214067160971327e-02
1.815126050420168013e+01 1.580401000339264339e-01 1.036782226937969509e-01
1.915966386554621792e+01 1.606032525846219361e-01 1.113136975721227828e-01
2.016806722689075571e+01 1.613273047057883769e-01 1.198383640190456290e-01
2.117647058823529349e+01 1.602035787731177496e-01 1.293057462269239788e-01
2.218487394957983128e+01 1.572585752469199960e-01 1.397072060289785145e-01
2.319327731092436906e+01 1.525522198951065889e-01 1.509725674968327991e-01
2.420168067226890685e+01 1.461753299706134435e-01 1.629769173618985101e-01
2.521008403361344463e+01 1.382475428172431631e-01 1.755513841605576553e-01
2.621848739495798242e+01 1.289147295667090187e-01 1.884968019977158460e-01
2.722689075630252020e+01 1.183453697195061549e-01 2.015986032515060811e-01
2.823529411764705799e+01 1.067281418687635597e-01 2.146396182393917607e-01
2.924369747899159577e+01 9.426920511971659256e-02 2.274109582922830275e-01
3.025210084033613356e+01 8.118774201478995423e-02 2.397212831716413750e-01
3.126050420168067134e+01 6.771329868625941550e-02 2.514019603902714617e-01
3.226890756302520913e+01 5.408292958879301615e-02 2.623098456392095046e-01
3.327731092436974336e+01 4.053679434367329915e-02 2.723287230982149310e-01
3.428571428571428470e+01 2.731456959519040772e-02 2.813683957761770604e-01
3.529411764705882604e+01 1.465248561192800114e-02 2.893622108128990900e-01
3.630252100840336027e+01 2.779487245926803851e-03 2.962643028108623011e-01
3.731092436974789450e+01 -8.086519875076692010e-03 3.020464865730339565e-01
3.831932773109243584e+01 -1.774005493898367369e-02 3.066944318408889036e-01
3.932773109243697718e+01 -2.598918073329903322e-02 3.102044655443204069e-01
4.033613445378151141e+01 -3.265655561456881628e-02 3.125809120034608868e-01
4.134453781512604564e+01 -3.758001715733505499e-02 3.138336047459645006e-01
4.235294117647058698e+01 -4.061623708900075069e-02 3.139763276849747986e-01
4.336134453781512832e+01 -4.164897190591021481e-02 3.130259728200749936e-01
4.436974789915966255e+01 -4.060180404395885567e-02 3.110021853623897159e-01
4.537815126050419678e+01 -3.745449230670327978e-02 3.079278318240308843e-01
4.638655462184873812e+01 -3.225857851829050382e-02 3.038300122084747756e-01
4.739495798319327946e+01 -2.514546528507710654e-02 2.987410884796096178e-01
4.840336134453781369e+01 -1.632386281564746078e-02 2.927003118731364428e-01
4.941176470588234793e+01 -6.066389995272425395e-03 2.857555454882180768e-01
5.042016806722688926e+01 5.311681699841752646e-03 2.779643693520792991e-01
5.142857142857143060e+01 1.747448921195238203e-02 2.693952698153213032e-01
5.243697478991596483e+01 3.008463568643038322e-02 2.601285365412938089e-01
5.344537815126049907e+01 4.281851629162447548e-02 2.502562499265939544e-01
5.445378151260504040e+01 5.537745101936264458e-02 2.398814805949161522e-01
5.546218487394958174e+01 6.749411925016779445e-02 2.291172760798605990e-01
5.647058823529411598e+01 7.893672927700412512e-02 2.180845948177993487e-01
5.747899159663865021e+01 8.951179773000861317e-02 2.069090550169386256e-01
5.848739495798319155e+01 9.906422480183674217e-02 1.957176756105081794e-01
5.949579831932773288e+01 1.074765926531275895e-01 1.846348838840910500e-01
6.050420168067226712e+01 1.146679421926745102e-01 1.737778598920594608e-01
6.151260504201680135e+01 1.205910742105111844e-01 1.632522467667421595e-01
6.252100840336134269e+01 1.252292056993649094e-01 1.531482154916906091e-01
6.352941176470588402e+01 1.285924364293729028e-01 1.435370285188344863e-01
6.453781512605041826e+01 1.307138606538340575e-01 1.344687579881815309e-01
6.554621848739495249e+01 1.316459386966635225e-01 1.259714774553056249e-01
6.655462184873948672e+01 1.314574910208401448e-01 1.180517394387800567e-01
6.756302521008403517e+01 1.302305813988235972e-01 1.106966214954850369e-01
6.857142857142856940e+01 1.280576601769072287e-01 1.038770780418890038e-01
6.957983193277310363e+01 1.250385771038986515e-01 9.755214948163654087e-02
7.058823529411765207e+01 1.212767692272014308e-01 9.167390339388431508e-02
7.159663865546218631e+01 1.168751880036507096e-01 8.619261826499552415e-02
7.260504201680672054e+01 1.119327649281731674e-01 8.106164659604980782e-02
7.361344537815125477e+01 1.065414546747864843e-01 7.624190557667259727e-02
7.462184873949578900e+01 1.007845459311632608e-01 7.170583337018682224e-02
7.563025210084033745e+01 9.473785331685413702e-02 6.744021944454919870e-02
7.663865546218487168e+01 8.847293737706363181e-02 6.344811681727119401e-02
7.764705882352940591e+01 8.206151483657553314e-02 5.974984913081154980e-02
7.865546218487395436e+01 7.558114808943405816e-02 5.638265022786187464e-02
7.966386554621848859e+01 6.912054007610346495e-02 5.339906495328644587e-02
8.067226890756302282e+01 6.278315878212181733e-02 5.086411874009416634e-02
8.168067226890755705e+01 5.668879774454937959e-02 4.885109985557817280e-02
8.268907563025209129e+01 5.097300638964052943e-02 4.743595250084414738e-02
8.369747899159663973e+01 4.578357812091926604e-02 4.669067339436355768e-02
8.470588235294117396e+01 4.127407662551973999e-02 4.667618976092696714e-02
8.571428571428570820e+01 3.759574653604036421e-02 4.743534361893614326e-02
8.672268907563025664e+01 3.488770499255422486e-02 4.898706930837953832e-02
8.773109243697479087e+01 3.326620363978238792e-02 5.132274227583005777e-02
8.873949579831932510e+01 3.281494292828346371e-02 5.440524705613275502e-02
8.974789915966385934e+01 3.357719506432155221e-02 5.817093642841614232e-02
9.075630252100839357e+01 3.555059473819000004e-02 6.253411759208887810e-02
9.176470588235294201e+01 3.868568563346463929e-02 6.739322345714221507e-02
9.277310924369747624e+01 4.288817995827243212e-02 7.263764586098592213e-02
9.378151260504201048e+01 4.802422870096378915e-02 7.815451108264476199e-02
9.478991596638655892e+01 5.392856771521403747e-02 8.383480483400201910e-02
9.579831932773109315e+01 6.041418538413145800e-02 8.957846276548014908e-02
9.680672268907562739e+01 6.728262573493304366e-02 9.529843257810538537e-02
9.781512605042016162e+01 7.433473379038257889e-02 1.009236734779098144e-01
9.882352941176469585e+01 8.138063826695463021e-02 1.064011432995911055e-01
9.983193277310924429e+01 8.824796971711235116e-02 1.116969651904587413e-01
1.008403361344537785e+02 9.478839774812830576e-02 1.167967740201705795e-01
1.018487394957983128e+02 1.008821628890747002e-01 1.217051628516408468e-01
1.028571428571428612e+02 1.064395196957129697e-01 1.264445531563176961e-01
1.038655462184873954e+02 1.113998720059322656e-01 1.310533543811172597e-01
1.048739495798319297e+02 1.157287272770244346e-01 1.355831915637908947e-01
1.058823529411764639e+02 1.194116950096938412e-01 1.400956969866336554e-01
1.068907563025209981e+02 1.224462078144593624e-01 1.446587623941666956e-01
1.078991596638655466e+02 1.248316351449432204e-01 1.493421611405447158e-01
1.089075630252100808e+02 1.265589297797311552e-01 1.542129431963953912e-01
1.099159663865546150e+02 1.276018970172603240e-01 1.593310146326947785e-01
1.109243697478991635e+02 1.279127611951988985e-01 1.647448377969496502e-01
1.119327731092436977e+02 1.274234302193819612e-01 1.704876109937793482e-01
1.129411764705882320e+02 1.260513445213080619e-01 1.765745972701116551e-01
1.139495798319327662e+02 1.237084182617013139e-01 1.830014089157397383e-01
1.149579831932773004e+02 1.203112528158923888e-01 1.897434704668191086e-01
1.159663865546218489e+02 1.157907150909471827e-01 1.967568981591943378e-01
1.169747899159663831e+02 1.101005418222690269e-01 2.039804012431804536e-01
1.179831932773109173e+02 1.032247777118062704e-01 2.113380846043161898e-01
1.189915966386554658e+02 9.518348707581358870e-02 2.187430529964369819e-01
1.200000000000000000e+02 8.603705999201383126e-02 2.261011701342789393e-01
