0.000000000000000000e+00 0.000000000000000000e+00 0.000000000000000000e+00
1.008403361344537785e+00 1.276605785539342008e-03 -4.640813240343044654e-04
2.016806722689075571e+00 5.066960369474182713e-03 -1.859534616170943622e-03
3.025210084033613356e+00 1.125652363877527318e-02 -4.195596134451973214e-03
4.033613445378151141e+00 1.966013198239335846e-02 -7.483562934996967897e-03
5.042016806722688926e+00 3.003023041486840850e-02 -1.173110485179185147e-02
6.050420168067226712e+00 4.206970545319421717e-02 -1.693616403879616428e-02
7.058823529411764497e+00 5.544260827429581262e-02 -2.307837584829530719e-02
8.067226890756302282e+00 6.978790158547054645e-02 -3.011150365562231812e-02
9.075630252100840067e+00 8.473094036244943617e-02 -3.795526776395985458e-02
1.008403361344537785e+01 9.989562357884373966e-02 -4.648911142813161312e-02
1.109243697478991564e+01 1.149150288964521094e-01 -5.554769702862305536e-02
1.210084033613445342e+01 1.294397635623769638e-01 -6.491831314775298178e-02
1.310924369747899121e+01 1.431456225597456111e-01 -7.434197768238726134e-02
1.411764705882352899e+01 1.557413188416307825e-01 -8.351987508078906330e-02
1.512605042016806678e+01 1.669723865313137434e-01 -9.212266560508530766e-02
1.613445378151260456e+01 1.766245805087742760e-01 -9.980539933549525955e-02
1.714285714285714235e+01 1.845269170537293668e-01 -1.062282880425846621e-01
1.815126050420168013e+01 1.905530379649800210e-01 -1.110811249845718995e-01
1.915966386554621792e+01 1.946208475971848983e-01 -1.141087271029744832e-01
2.016806722689075571e+01 1.966921392885785380e-01 -1.151354470069835267e-01
2.117647058823529349e+01 1.967715670586964727e-01 -1.140837761878807921e-01
2.218487394957983128e+01 1.949041851845345619e-01 -1.109820660233518108e-01
2.319327731092436906e+01 1.911730931141337742e-01 -1.059609626017671280e-01
2.420168067226890685e+01 1.856967839066638870e-01 -9.923892042516524459e-02
2.521008403361344463e+01 1.786251738737454353e-01 -9.109901793219732369e-02
2.621848739495798242e+01 1.701361279366180312e-01 -8.186335033335490063e-02
2.722689075630252020e+01 1.604319355691541382e-01 -7.186852368248830558e-02
2.823529411764705799e+01 1.497345959514024827e-01 -6.144398592116440128e-02
2.924369747899159577e+01 1.382810137189911526e-01 -5.089563820373110836e-02
3.025210084033613356e+01 1.263189810078193531e-01 -4.049556046463431702e-02
3.126050420168067134e+01 1.141026927467077012e-01 -3.047611916942116750e-02
3.226890756302520913e+01 1.018867618543323195e-01 -2.102694566480400873e-02
3.327731092436974336e+01 8.992203865097614379e-02 -1.229638222232687372e-02
3.428571428571428470e+01 7.845119806722078426e-02 -4.394773463791912249e-03
3.529411764705882604e+01 6.770389541881915996e-02 2.601230693426437313e-03
3.630252100840336027e+01 5.789198572532716636e-02 8.643634208402639629e-03
3.731092436974789450e+01 4.920634831344283810e-02 1.370702780826293932e-02
3.831932773109243584e+01 4.181349871396955464e-02 1.778316841377702850e-02
3.932773109243697718e+01 3.585227314383865327e-02 2.087630396527806464e-02
4.033613445378151141e+01 3.143189800472412365e-02 2.299880427548339767e-02
4.134453781512604564e+01 2.863036099424154379e-02 2.416787504332384984e-02
4.235294117647058698e+01 2.749276040827519640e-02 2.440350074123598390e-02
4.336134453781512832e+01 2.803013349332028614e-02 2.372724183761132366e-02
4.436974789915966255e+01 3.021846316124054965e-02 2.216205698276652036e-02
4.537815126050419678e+01 3.399752671599354237e-02 1.973320540375422816e-02
4.638655462184873812e+01 3.927042212193065929e-02 1.646975643509851484e-02
4.739495798319327946e+01 4.590438241507843742e-02 1.240641022308386354e-02
4.840336134453781369e+01 5.373229991710726239e-02 7.586013733752228205e-03
4.941176470588234793e+01 6.255592898638173693e-02 2.062145766718037621e-03
5.042016806722688926e+01 7.215170410601279283e-02 -4.098984900609337068e-03
5.142857142857143060e+01 8.227752518119202385e-02 -1.081660972708686774e-02
5.243697478991596483e+01 9.268061622400991517e-02 -1.799396301561762002e-02
5.344537815126049907e+01 1.031063114704223738e-01 -2.551779715970003970e-02
5.445378151260504040e+01 1.133074419111276265e-01 -3.325928432032165816e-02
5.546218487394958174e+01 1.230520717766889760e-01 -4.107526756169099791e-02
5.647058823529411598e+01 1.321304792070256973e-01 -4.881089203222921391e-02
5.747899159663865021e+01 1.403611113853606707e-01 -5.630376292423799889e-02
5.848739495798319155e+01 1.475946466003956736e-01 -6.338906389153575738e-02
5.949579831932773288e+01 1.537160690642225269e-01 -6.990536772992395065e-02
6.050420168067226712e+01 1.586454066515048389e-01 -7.570139952154752994e-02
6.151260504201680135e+01 1.623369864602075552e-01 -8.064328456951619373e-02
6.252100840336134269e+01 1.647768791257999688e-01 -8.462107446455435777e-02
6.352941176470588402e+01 1.659795621748469951e-01 -8.755454170283361037e-02
6.453781512605041826e+01 1.659841157361001684e-01 -8.939751049656197157e-02
6.554621848739495249e+01 1.648501043480530281e-01 -9.013993684372267889e-02
6.655462184873948672e+01 1.626539102415858196e-01 -8.980764901297111358e-02
6.756302521008403517e+01 1.594854391024476126e-01 -8.845990888772692351e-02
6.857142857142856940e+01 1.554445358849678716e-01 -8.618478054946399070e-02
6.957983193277310363e+01 1.506372070426600374e-01 -8.309303888015295847e-02
7.058823529411765207e+01 1.451716943899605816e-01 -7.931153191741435737e-02
7.159663865546218631e+01 1.391541828437192763e-01 -7.497642360647693849e-02
7.260504201680672054e+01 1.326842419743168300e-01 -7.022650905273963851e-02
7.361344537815125477e+01 1.258518902619272239e-01 -6.519780975438838055e-02
7.462184873949578900e+01 1.187364318626706883e-01 -6.001920701795548929e-02
7.563025210084033745e+01 1.114075868876235331e-01 -5.480905868920027402e-02
7.663865546218487168e+01 1.039291323071273032e-01 -4.967281999433670325e-02
7.764705882352940591e+01 9.636506767211650004e-02 -4.470208150770693667e-02
7.865546218487395436e+01 8.878662466570141909e-02 -3.997434838720070882e-02
7.966386554621848859e+01 8.127866949139583852e-02 -3.555325768617323412e-02
8.067226890756302282e+01 7.394495387973987199e-02 -3.148964881223370593e-02
8.168067226890755705e+01 6.691091962490625100e-02 -2.782305549053720739e-02
8.268907563025209129e+01 6.032324376219888595e-02 -2.458333459408934552e-02
8.369747899159663973e+01 5.434562392496977701e-02 -2.179225597956169214e-02
8.470588235294117396e+01 4.915178236620953989e-02 -1.946537096961642455e-02
8.571428571428570820e+01 4.491555531237978460e-02 -1.761362441398239831e-02
8.672268907563025664e+01 4.179889005070469565e-02 -1.624465977059408317e-02
8.773109243697479087e+01 3.993927742220537702e-02 -1.536388814858580254e-02
8.873949579831932510e+01 3.943820620106441854e-02 -1.497527093911643625e-02
8.974789915966385934e+01 4.035149905490120759e-02 -1.508162046765537667e-02
9.075630252100839357e+01 4.268280272625712968e-02 -1.568449815749239917e-02
9.176470588235294201e+01 4.638141828501518571e-02 -1.678379228244808452e-02
9.277310924369747624e+01 5.134413393648862289e-02 -1.837686325311471691e-02
9.378151260504201048e+01 5.742082526321912184e-02 -2.045734855979985944e-02
9.478991596638655892e+01 6.442354648409676088e-02 -2.301383846954085932e-02
9.579831932773109315e+01 7.213771609171848453e-02 -2.602827997211853983e-02
9.680672268907562739e+01 8.033454172052645337e-02 -2.947426759615745517e-02
9.781512605042016162e+01 8.878415109805071204e-02 -3.331549656340226928e-02
9.882352941176469585e+01 9.726813908209108739e-02 -3.750439943771544105e-02
9.983193277310924429e+01 1.055901560204393075e-01 -4.198089825042550238e-02
1.008403361344537785e+02 1.135841279599151266e-01 -4.667158388166714467e-02
1.018487394957983128e+02 1.211197725313938323e-01 -5.148977457755243847e-02
1.028571428571428612e+02 1.281040606543606408e-01 -5.633593615640730690e-02
1.038655462184873954e+02 1.344792363723610329e-01 -6.109890286223806921e-02
1.048739495798319297e+02 1.402176923506175399e-01 -6.565812990620290002e-02
1.058823529411764639e+02 1.453141460970537313e-01 -6.988710814330101329e-02
1.068907563025209981e+02 1.497755660971669123e-01 -7.365729911060947543e-02
1.078991596638655466e+02 1.536104142446745868e-01 -7.684303625362343126e-02
1.089075630252100808e+02 1.568186260025126177e-01 -7.932736818707819548e-02
1.099159663865546150e+02 1.593835953001667693e-01 -8.100791747294444622e-02
1.109243697478991635e+02 1.612675088761776898e-01 -8.180247285311947891e-02
1.119327731092436977e+02 1.624108906208017178e-01 -8.165403276215199568e-02
1.129411764705882320e+02 1.627366066157491797e-01 -8.053477678346210311e-02
1.139495798319327662e+02 1.621571762411071482e-01 -7.844801539535750656e-02
1.149579831932773004e+02 1.605846624984164084e-01 -7.542840147284424202e-02
1.159663865546218489e+02 1.579419560858392746e-01 -7.154027783975003274e-02
1.169747899159663831e+02 1.541739532872608009e-01 -6.687414574194927575e-02
1.179831932773109173e+02 1.492573949322166804e-01 -6.154184023124198433e-02
1.189915966386554658e+02 1.432088963005844207e-01 -5.567103234740589102e-02
1.200000000000000000e+02 1.360901789383091032e-01 -4.939921992711071574e-02
