0.000000000000000000e+00 0.000000000000000000e+00 -1.110223024625156540e-16
1.008403361344537785e+00 6.501120830701978548e-04 -1.536679445709454583e-04
2.016806722689075571e+00 2.581914928412087917e-03 -6.137694104814128693e-04
3.025210084033613356e+00 5.741633756103481367e-03 -1.377728854968673922e-03
4.033613445378151141e+00 1.004288049140855676e-02 -2.440439848452324867e-03
5.042016806722688926e+00 1.536708374445516778e-02 -3.791090698619159483e-03
6.050420168067226712e+00 2.157163134643014235e-02 -5.412951132020671352e-03
7.058823529411764497e+00 2.849299404389604717e-02 -7.280067790293776042e-03
8.067226890756302282e+00 3.595254354647881012e-02 -9.355280119971776109e-03
9.075630252100840067e+00 4.376207481296989776e-02 -1.158838149137486617e-02
1.008403361344537785e+01 5.172933111080557644e-02 -1.391499688026975878e-02
1.109243697478991564e+01 5.966402029660688999e-02 -1.625690400488821741e-02
1.210084033613445342e+01 6.738045574611128963e-02 -1.852139635178817745e-02
1.310924369747899121e+01 7.470381646096624362e-02 -2.060471189566126515e-02
1.411764705882352899e+01 8.147321303233856504e-02 -2.239496179597966208e-02
1.512605042016806678e+01 8.754354423012644659e-02 -2.377570768595749229e-02
1.613445378151260456e+01 9.279028424609192527e-02 -2.463337867212322951e-02
1.714285714285714235e+01 9.710964904835395206e-02 -2.486225469526914811e-02
1.815126050420168013e+01 1.004203865915170857e-01 -2.437141333117920361e-02
1.915966386554621792e+01 1.026654026775073447e-01 -2.309168488344337522e-02
2.016806722689075571e+01 1.038109555318738053e-01 -2.097995297568899797e-02
2.117647058823529349e+01 1.038474288004656021e-01 -1.802359386654373008e-02
2.218487394957983128e+01 1.027882343985828673e-01 -1.424156420635380726e-02
2.319327731092436906e+01 1.006691622319498824e-01 -9.684023262345187177e-03
2.420168067226890685e+01 9.754688545176526393e-02 -4.429305005732797618e-03
2.521008403361344463e+01 9.349712033860069216e-02 1.420838895775378141e-03
2.621848739495798242e+01 8.861353416206252387e-02 7.746252373256434787e-03
2.722689075630252020e+01 8.300423759373343202e-02 1.441589273605969890e-02
2.823529411764705799e+01 7.679054008313146440e-02 2.129301910090586336e-02
2.924369747899159577e+01 7.010428524410117213e-02 2.824099633360777073e-02
3.025210084033613356e+01 6.308410041527534595e-02 3.512898778966200286e-02
3.126050420168067134e+01 5.587449044122283492e-02 4.183415902257092700e-02
3.226890756302520913e+01 4.862146665784805588e-02 4.824566363151039372e-02
3.327731092436974336e+01 4.147023498785273876e-02 5.426588877663174326e-02
3.428571428571428470e+01 3.456349439480599361e-02 5.981047301357700352e-02
3.529411764705882604e+01 2.803699163530326555e-02 6.480972614032609602e-02
3.630252100840336027e+01 2.201848525392513523e-02 6.920704902192886809e-02
3.731092436974789450e+01 1.662511690623813543e-02 7.295833123128669939e-02
3.831932773109243584e+01 1.196050902993472942e-02 7.603138409574983214e-02
3.932773109243697718e+01 8.113902952626039777e-03 7.840407312056940636e-02
4.033613445378151141e+01 5.157545370255922634e-03 8.006378084346410517e-02
4.134453781512604564e+01 3.145396822777035695e-03 8.100619745939463545e-02
4.235294117647058698e+01 2.111776822074418192e-03 8.123453245643841303e-02
4.336134453781512832e+01 2.069901491882908395e-03 8.075902833642401024e-02
4.436974789915966255e+01 3.011329582817134920e-03 7.959639568617160599e-02
4.537815126050419678e+01 4.905047587630551043e-03 7.776996201263297603e-02
4.638655462184873812e+01 7.698223654298619323e-03 7.530917722437091566e-02
4.739495798319327946e+01 1.131666452094515218e-02 7.225006646792764275e-02
4.840336134453781369e+01 1.566655453653753582e-02 6.863533841090696530e-02
4.941176470588234793e+01 2.063771390567326058e-02 6.451401509983833993e-02
5.042016806722688926e+01 2.610592658132271371e-02 5.994221683079681284e-02
5.142857142857143060e+01 3.193780214499153391e-02 5.498232115448242752e-02
5.243697478991596483e+01 3.799483105121537196e-02 4.970277363887698474e-02
5.344537815126049907e+01 4.413703787518119537e-02 4.417799783213449683e-02
5.445378151260504040e+01 5.022837098335986017e-02 3.848653573669225114e-02
5.546218487394958174e+01 5.613953568115148673e-02 3.271056046966014375e-02
5.647058823529411598e+01 6.175137087280768711e-02 2.693426020000588839e-02
5.747899159663865021e+01 6.695811025591114074e-02 2.124148707204676079e-02
5.848739495798319155e+01 7.166844143815642720e-02 1.571449317508077925e-02
5.949579831932773288e+01 7.580741456557860136e-02 1.043123389521294353e-02
6.050420168067226712e+01 7.931692885525298831e-02 5.463271681206860464e-03
6.151260504201680135e+01 8.215547923969546140e-02 8.740089315381061041e-04
6.252100840336134269e+01 8.429808131602301025e-02 -3.283629009391275666e-03
6.352941176470588402e+01 8.573500752798890456e-02 -6.968306730248285952e-03
6.453781512605041826e+01 8.647079814307845336e-02 -1.015140644075629428e-02
6.554621848739495249e+01 8.652277311520284453e-02 -1.281748373839541877e-02
6.655462184873948672e+01 8.591964343760749578e-02 -1.496402092039017528e-02
6.756302521008403517e+01 8.470006497709636761e-02 -1.660082850317634584e-02
6.857142857142856940e+01 8.291070776938247455e-02 -1.774859563290054343e-02
6.957983193277310363e+01 8.060498354933498533e-02 -1.843753612647380802e-02
7.058823529411765207e+01 7.784077094021957244e-02 -1.870526374866132713e-02
7.159663865546218631e+01 7.467865086476144221e-02 -1.859478232426325928e-02
7.260504201680672054e+01 7.118060822047278524e-02 -1.815279167489247669e-02
7.361344537815125477e+01 6.740802211187679749e-02 -1.742732304212502026e-02
7.462184873949578900e+01 6.342146008129168067e-02 -1.646645284585657176e-02
7.563025210084033745e+01 5.928059461072709979e-02 -1.531694175152864545e-02
7.663865546218487168e+01 5.504436075595364741e-02 -1.402278892869757154e-02
7.764705882352940591e+01 5.077275635452016544e-02 -1.262499288500362749e-02
7.865546218487395436e+01 4.652775481164905802e-02 -1.116076561053214178e-02
7.966386554621848859e+01 4.237454528802608866e-02 -9.663338235654683750e-03
8.067226890756302282e+01 3.838277495958064556e-02 -8.162355172465107778e-03
8.168067226890755705e+01 3.462594850726685713e-02 -6.683616762616861884e-03
8.268907563025209129e+01 3.118098278210557073e-02 -5.249721141566854321e-03
8.369747899159663973e+01 2.812644572980060875e-02 -3.880497781582836758e-03
8.470588235294117396e+01 2.553936326421846204e-02 -2.593137937246692282e-03
8.571428571428570820e+01 2.349229210535541679e-02 -1.402900121826866631e-03
8.672268907563025664e+01 2.204916458944528035e-02 -3.232592240561826813e-04
8.773109243697479087e+01 2.126127661209409325e-02 6.339004804750691946e-04
8.873949579831932510e+01 2.116395726365971619e-02 1.458049046671017202e-03
8.974789915966385934e+01 2.177333232459155443e-02 2.140215677610135536e-03
9.075630252100839357e+01 2.308471769700226606e-02 2.673048396164334761e-03
9.176470588235294201e+01 2.507190913649703923e-02 3.051176730413218685e-03
9.277310924369747624e+01 2.768797410719348040e-02 3.271598569201006335e-03
9.378151260504201048e+01 3.086730315169838867e-02 3.334162270290041974e-03
9.478991596638655892e+01 3.452851320496408416e-02 3.242193783995817036e-03
9.579831932773109315e+01 3.857866984443325542e-02 3.002879984599249319e-03
9.680672268907562739e+01 4.291721285534344510e-02 2.627986445486008016e-03
9.781512605042016162e+01 4.744061935015286835e-02 2.134185746383798765e-03
9.882352941176469585e+01 5.204674621819593838e-02 1.543286038942937033e-03
9.983193277310924429e+01 5.663800701318755237e-02 8.826831083081909668e-04
1.008403361344537785e+02 6.112495610636514698e-02 1.849004275950028031e-04
1.018487394957983128e+02 6.542792584368117836e-02 -5.125053981757110577e-04
1.028571428571428612e+02 6.947790252539209899e-02 -1.167394051366787977e-03
1.038655462184873954e+02 7.321710665864600287e-02 -1.734361428434083585e-03
1.048739495798319297e+02 7.659755937744372467e-02 -2.165446175205087975e-03
1.058823529411764639e+02 7.957976125345389562e-02 -2.411764531785376420e-03
1.068907563025209981e+02 8.213082850699515713e-02 -2.425360946895716019e-03
1.078991596638655466e+02 8.422185694097161779e-02 -2.160587903187072278e-03
1.089075630252100808e+02 8.582637654962121943e-02 -1.576504175879622771e-03
1.099159663865546150e+02 8.691863474557970370e-02 -6.385339005056112072e-04
1.109243697478991635e+02 8.747269434507887187e-02 6.799066091948136048e-04
1.119327731092436977e+02 8.746297315068807254e-02 2.395552321456162481e-03
1.129411764705882320e+02 8.686501304013827252e-02 4.514500895657302948e-03
1.139495798319327662e+02 8.565756032087534777e-02 7.031374613681973251e-03
1.149579831932773004e+02 8.382526481188501410e-02 9.929128333666548123e-03
1.159663865546218489e+02 8.136146780462127914e-02 1.317948145651171021e-02
1.169747899159663831e+02 7.827139397446825075e-02 1.674361835185689262e-02
1.179831932773109173e+02 7.457469865698329592e-02 2.057358032543998849e-02
1.189915966386554658e+02 7.030782787946732171e-02 2.461360197963136098e-02
1.200000000000000000e+02 6.552513343641075405e-02 2.880211822606570937e-02
