0.000000000000000000e+00 0.000000000000000000e+00 2.220446049250313081e-16
1.008403361344537785e+00 2.352535650924969524e-03 -4.284260653042437639e-04
2.016806722689075571e+00 9.326382249801534741e-03 -1.743016189666990456e-03
3.025210084033613356e+00 2.068028676664268595e-02 -4.029075315263641599e-03
4.033613445378151141e+00 3.602525082248464461e-02 -7.416262352916147549e-03
5.042016806722688926e+00 5.485443804578282734e-02 -1.206368671825974737e-02
6.050420168067226712e+00 7.656841974139672047e-02 -1.813849751992258064e-02
7.058823529411764497e+00 1.005052102747353571e-01 -2.579225175411559157e-02
8.067226890756302282e+00 1.259689058862281108e-01 -3.513597123126932509e-02
9.075630252100840067e+00 1.522551228108888210e-01 -4.621532298950525863e-02
1.008403361344537785e+01 1.786743661436762665e-01 -5.898820192141163155e-02
1.109243697478991564e+01 2.045709245715536806e-01 -7.330533726388932525e-02
1.210084033613445342e+01 2.293386950087521470e-01 -8.889584168852127100e-02
1.310924369747899121e+01 2.524334727321786431e-01 -1.053589426155590036e-01
1.411764705882352899e+01 2.733819492481992519e-01 -1.221636978286426700e-01
1.512605042016806678e+01 2.917880629430547046e-01 -1.386595243466514082e-01
1.613445378151260456e+01 3.073354895910214157e-01 -1.540995734237673442e-01
1.714285714285714235e+01 3.197879929612377214e-01 -1.676818841527387693e-01
1.815126050420168013e+01 3.289876825633781809e-01 -1.786115086000514829e-01
1.915966386554621792e+01 3.348515736030712731e-01 -1.861829776601460207e-01
2.016806722689075571e+01 3.373671014451673500e-01 -1.898738384286938752e-01
2.117647058823529349e+01 3.365864716454702865e-01 -1.894270671969238151e-01
2.218487394957983128e+01 3.326208972943525133e-01 -1.848955597897077308e-01
2.319327731092436906e+01 3.256349213893285910e-01 -1.766302951457923154e-01
2.420168067226890685e+01 3.158410151802182320e-01 -1.652163319355328674e-01
2.521008403361344463e+01 3.034943037029400603e-01 -1.513804946255472572e-01
2.621848739495798242e+01 2.888872779703486326e-01 -1.358986577221991121e-01
2.722689075630252020e+01 2.723451313851121824e-01 -1.195215938680234125e-01
2.823529411764705799e+01 2.542210348636555484e-01 -1.029245509304030914e-01
2.924369747899159577e+01 2.348912859120888541e-01 -8.667845180216748879e-02
3.025210084033613356e+01 2.147501196546266478e-01 -7.123768265350349793e-02
3.126050420168067134e+01 1.942033296210343707e-01 -5.693913105715031620e-02
3.226890756302520913e+01 1.736621141278644753e-01 -4.400968837515684129e-02
3.327731092436974336e+01 1.535361488083166748e-01 -3.257862695182578427e-02
3.428571428571428470e+01 1.342261954244414746e-01 -2.269306999747255915e-02
3.529411764705882604e+01 1.161165635017886721e-01 -1.433519893115486887e-02
3.630252100840336027e+01 9.956703507509678808e-02 -7.439806556106542956e-03
3.731092436974789450e+01 8.490547900493350397e-02 -1.911630033919475835e-03
3.831932773109243584e+01 7.242121697007219971e-02 2.358674009508066050e-03
3.932773109243697718e+01 6.235965568963575123e-02 5.480678573054342806e-03
4.033613445378151141e+01 5.491873790929213683e-02 7.552967702815216455e-03
4.134453781512604564e+01 5.024684684638336396e-02 8.654985177284357789e-03
4.235294117647058698e+01 4.844133386115978546e-02 8.842115705009367943e-03
4.336134453781512832e+01 4.954625139505175468e-02 8.144072533190049867e-03
4.436974789915966255e+01 5.354821226969019854e-02 6.566429309349253174e-03
4.537815126050419678e+01 6.037046296793147082e-02 4.094904801200893729e-03
4.638655462184873812e+01 6.986621766625478180e-02 7.019167569841666676e-04
4.739495798319327946e+01 8.181362348960585784e-02 -3.645346042086439198e-03
4.840336134453781369e+01 9.591413011783711529e-02 -8.975784984922130505e-03
4.941176470588234793e+01 1.117964455565446658e-01 -1.530495208537296925e-02
5.042016806722688926e+01 1.290270147579735127e-01 -2.262596215908718733e-02
5.142857142857143060e+01 1.471264721335121539e-01 -3.090128230276700805e-02
5.243697478991596483e+01 1.655908516239716910e-01 -4.005609634085272042e-02
5.344537815126049907e+01 1.839148461315145422e-01 -4.997350150695756277e-02
5.445378151260504040e+01 2.016146477047064955e-01 -6.049188710593855767e-02
5.546218487394958174e+01 2.182484955899650636e-01 -7.140500566067098376e-02
5.647058823529411598e+01 2.334332098752089912e-01 -8.246497960605203570e-02
5.747899159663865021e+01 2.468560499493486216e-01 -9.338857765880659301e-02
5.848739495798319155e+01 2.582819218335297151e-01 -1.038670385833673215e-01
5.949579831932773288e+01 2.675559002559479982e-01 -1.135791862167905286e-01
6.050420168067226712e+01 2.746016183763599905e-01 -1.222079036252050610e-01
6.151260504201680135e+01 2.794153560181129592e-01 -1.294591178072824755e-01
6.252100840336134269e+01 2.820561386255877601e-01 -1.350818490586147558e-01
6.352941176470588402e+01 2.826328902855728131e-01 -1.388871889579762486e-01
6.453781512605041826e+01 2.812908294199312209e-01 -1.407634305294936938e-01
6.554621848739495249e+01 2.781995983981535581e-01 -1.406849733698970484e-01
6.655462184873948672e+01 2.735445782790861813e-01 -1.387132712189188544e-01
6.756302521008403517e+01 2.675212297331972522e-01 -1.349896096067730866e-01
6.857142857142856940e+01 2.603306077498492854e-01 -1.297210007443442281e-01
6.957983193277310363e+01 2.521739900940125345e-01 -1.231617137589480215e-01
7.058823529411765207e+01 2.432451595851627957e-01 -1.155934480730337333e-01
7.159663865546218631e+01 2.337195845858250909e-01 -1.073064794522341492e-01
7.260504201680672054e+01 2.237417761869848754e-01 -9.858350972631346743e-02
7.361344537815125477e+01 2.134138979132367275e-01 -8.968705788907027632e-02
7.462184873949578900e+01 2.027899071769356798e-01 -8.085043302562577860e-02
7.563025210084033745e+01 1.918796161962039726e-01 -7.227235944452237160e-02
7.663865546218487168e+01 1.806635865286769782e-01 -6.411452144766272010e-02
7.764705882352940591e+01 1.691167207218577939e-01 -5.650154873915091969e-02
7.865546218487395436e+01 1.572359330048613835e-01 -4.952296243640574858e-02
7.966386554621848859e+01 1.450665951276739474e-01 -4.323647922294759915e-02
8.067226890756302282e+01 1.327237991056287036e-01 -3.767247835379716747e-02
8.168067226890755705e+01 1.204053810271332736e-01 -3.283913463867804694e-02
8.268907563025209129e+01 1.083948678543253941e-01 -2.872786655881820472e-02
8.369747899159663973e+01 9.705348342603425937e-02 -2.531883750937624633e-02
8.470588235294117396e+01 8.680102325199723357e-02 -2.258620548082235224e-02
8.571428571428570820e+01 7.808659685038343845e-02 -2.050290221038042482e-02
8.672268907563025664e+01 7.135180152915521212e-02 -1.904475710351705153e-02
8.773109243697479087e+01 6.698967338455541487e-02 -1.819371162072469517e-02
8.873949579831932510e+01 6.530438688835182859e-02 -1.794001571925174510e-02
8.974789915966385934e+01 6.647737029254430219e-02 -1.828330917391318700e-02
9.075630252100839357e+01 7.054524142128260067e-02 -1.923255357310149627e-02
9.176470588235294201e+01 7.739339685806678748e-02 -2.080483948018008178e-02
9.277310924369747624e+01 8.676517554497498175e-02 -2.302310809345864406e-02
9.378151260504201048e+01 9.828368834978640223e-02 -2.591291682070306912e-02
9.478991596638655892e+01 1.114817778158928574e-01 -2.949839645721330506e-02
9.579831932773109315e+01 1.258363718017170285e-01 -3.379764517807992696e-02
9.680672268907562739e+01 1.408046209092272960e-01 -3.881775060482084427e-02
9.781512605042016162e+01 1.558598781278413004e-01 -4.454966874039656410e-02
9.882352941176469585e+01 1.705253600228486821e-01 -5.096326370067449929e-02
9.983193277310924429e+01 1.844025275194844937e-01 -5.800277326012448498e-02
1.008403361344537785e+02 1.971916513518008340e-01 -6.558303475085702772e-02
1.018487394957983128e+02 2.087030276008852159e-01 -7.358686664751945550e-02
1.028571428571428612e+02 2.188581271145972895e-01 -8.186376797085781476e-02
1.038655462184873954e+02 2.276813194171387611e-01 -9.023047099322667464e-02
1.048739495798319297e+02 2.352826581189602084e-01 -9.847370190573334625e-02
1.058823529411764639e+02 2.418324050695774829e-01 -1.063554913355160281e-01
1.068907563025209981e+02 2.475283679374138401e-01 -1.136215119788939187e-01
1.078991596638655466e+02 2.525583938144433382e-01 -1.200121874077197948e-01
1.089075630252100808e+02 2.570626342540727194e-01 -1.252765129837835056e-01
1.099159663865546150e+02 2.611021551069034885e-01 -1.291878195913571670e-01
1.109243697478991635e+02 2.646405870000902993e-01 -1.315600724017504941e-01
1.119327731092436977e+02 2.675427302282318287e-01 -1.322629240037003218e-01
1.129411764705882320e+02 2.695893330630478868e-01 -1.312332323373857079e-01
1.139495798319327662e+02 2.705035442158587600e-01 -1.284812067432347105e-01
1.149579831932773004e+02 2.699837717355031419e-01 -1.240902120186534452e-01
1.159663865546218489e+02 2.677382105144767710e-01 -1.182102232598618574e-01
1.169747899159663831e+02 2.635174005753828652e-01 -1.110460805734809764e-01
1.179831932773109173e+02 2.571422826106846138e-01 -1.028423214006042308e-01
1.189915966386554658e+02 2.485261533361495800e-01 -9.386673024904079732e-02
1.200000000000000000e+02 2.376901370708996986e-01 -8.439441236385636369e-02
