0.000000000000000000e+00 2.220446049250313081e-16 0.000000000000000000e+00
1.008403361344537785e+00 5.113516423384312226e-03 1.259526267239019504e-03
2.016806722689075571e+00 2.021397618458431467e-02 4.863662018582681767e-03
3.025210084033613356e+00 4.460801367202327228e-02 1.030584293083247616e-02
4.033613445378151141e+00 7.722079870254661138e-02 1.679588407611820600e-02
5.042016806722688926e+00 1.166974241052699535e-01 2.333541721997067775e-02
6.050420168067226712e+00 1.615017880542379825e-01 2.880871737283352552e-02
7.058823529411764497e+00 2.100094777282806024e-01 3.208132649603001596e-02
8.067226890756302282e+00 2.605854332202568457e-01 3.209732648386665055e-02
9.075630252100840067e+00 3.116494615019791414e-01 2.796950195543024265e-02
1.008403361344537785e+01 3.617297200138800406e-01 1.905790229746839870e-02
1.109243697478991564e+01 4.095019461033460040e-01 5.035538665236538591e-03
1.210084033613445342e+01 4.538223641909850947e-01 -1.406001549512403415e-02
1.310924369747899121e+01 4.937495447730482212e-01 -3.778867071017844026e-02
1.411764705882352899e+01 5.285544273226836509e-01 -6.528134389516671021e-02
1.512605042016806678e+01 5.577190458968750431e-01 -9.522372786977606474e-02
1.613445378151260456e+01 5.809363729056569170e-01 -1.258645233527575513e-01
1.714285714285714235e+01 5.980875058033889857e-01 -1.550454252818997958e-01
1.815126050420168013e+01 6.092176254189383133e-01 -1.803003886564915614e-01
1.915966386554621792e+01 6.145081464014461314e-01 -1.990886891853813623e-01
2.016806722689075571e+01 6.142434447659936847e-01 -2.092226392552409830e-01
2.117647058823529349e+01 6.087719109161953135e-01 -2.094443706995854360e-01
2.218487394957983128e+01 5.984794986354562418e-01 -1.998703756406783327e-01
2.319327731092436906e+01 5.837686228791203469e-01 -1.819427250358466308e-01
2.420168067226890685e+01 5.650416217247251627e-01 -1.579162985899057459e-01
2.521008403361344463e+01 5.426917281511753899e-01 -1.302666291891649841e-01
2.621848739495798242e+01 5.171119819674421247e-01 -1.012931919061464958e-01
2.722689075630252020e+01 4.887014780875289510e-01 -7.292641908843777721e-02
2.823529411764705799e+01 4.578761723114217475e-01 -4.666574036348181131e-02
2.924369747899159577e+01 4.250877035776063906e-01 -2.358281547265650424e-02
3.025210084033613356e+01 3.908313658733761908e-01 -4.347262944216057079e-03
3.126050420168067134e+01 3.556525519664759383e-01 1.073293087354509900e-02
3.226890756302520913e+01 3.201480683330049093e-01 2.166448379907937039e-02
3.327731092436974336e+01 2.849606692610180403e-01 2.871799179580736272e-02
3.428571428571428470e+01 2.507624467495865872e-01 3.237384724285408133e-02
3.529411764705882604e+01 2.182474040451940489e-01 3.326242311036309296e-02
3.630252100840336027e+01 1.881097664104258715e-01 3.210427759042566720e-02
3.731092436974789450e+01 1.610150755984580684e-01 2.964994586882085947e-02
3.831932773109243584e+01 1.375710256637907580e-01 2.662225005670704192e-02
3.932773109243697718e+01 1.183080158656024672e-01 2.366423598286737651e-02
4.033613445378151141e+01 1.036770220462776004e-01 2.129540344097513582e-02
4.134453781512604564e+01 9.406609944483890207e-02 1.987992403690541643e-02
4.235294117647058698e+01 8.981784202170928211e-02 1.960853124158701277e-02
4.336134453781512832e+01 9.122127374013999646e-02 2.049321410819326950e-02
4.436974789915966255e+01 9.849305652883610929e-02 2.237922910143663735e-02
4.537815126050419678e+01 1.117262829826319859e-01 2.496830103832059500e-02
4.638655462184873812e+01 1.308231470896292770e-01 2.785150017538517986e-02
4.739495798319327946e+01 1.554296264653587389e-01 3.054874711976562907e-02
4.840336134453781369e+01 1.849029727563076264e-01 3.255199049654255994e-02
4.941176470588234793e+01 2.183108691942137192e-01 3.336726548531054881e-02
5.042016806722688926e+01 2.544807928896690719e-01 3.255437098496805071e-02
5.142857142857143060e+01 2.920837899452835007e-01 2.976131275544680044e-02
5.243697478991596483e+01 3.297284656051140406e-01 2.475268986418144301e-02
5.344537815126049907e+01 3.660594423908567485e-01 1.743189627280794518e-02
5.445378151260504040e+01 3.998505098131159841e-01 7.854517478924405438e-03
5.546218487394958174e+01 4.300703560263026137e-01 -3.765764340128541221e-03
5.647058823529411598e+01 4.559184965550175939e-01 -1.705605346695659996e-02
5.747899159663865021e+01 4.768552875489942000e-01 -3.149691903167006757e-02
5.848739495798319155e+01 4.925996494122741876e-01 -4.643963545342910670e-02
5.949579831932773288e+01 5.031246944407037347e-01 -6.113683386043855528e-02
6.050420168067226712e+01 5.086450248667024887e-01 -7.478725064687008484e-02
6.151260504201680135e+01 5.095872030832238053e-01 -8.659283580338505981e-02
6.252100840336134269e+01 5.065340849904385045e-01 -9.582335306595624047e-02
6.352941176470588402e+01 5.001627744662973107e-01 -1.018935466361483577e-01
6.453781512605041826e+01 4.911681352119861010e-01 -1.044302493858375591e-01
6.554621848739495249e+01 4.801954884052788142e-01 -1.033151415288933173e-01
6.655462184873948672e+01 4.678207908770337653e-01 -9.870150488519879861e-02
6.756302521008403517e+01 4.545402894702772478e-01 -9.098097798173732098e-02
6.857142857142856940e+01 4.407892675407873995e-01 -8.072837514006736548e-02
6.957983193277310363e+01 4.269593813161582929e-01 -6.863070112004099332e-02
7.058823529411765207e+01 4.133963490130059260e-01 -5.541271115630697075e-02
7.159663865546218631e+01 4.003795602683726251e-01 -4.177452736850617576e-02
7.260504201680672054e+01 3.880793169009000287e-01 -2.835053100274254057e-02
7.361344537815125477e+01 3.764789120561895519e-01 -1.567724184485097538e-02
7.462184873949578900e+01 3.653035282551710949e-01 -4.174078489388888258e-03
7.563025210084033745e+01 3.540224055735665676e-01 5.859362269329482231e-03
7.663865546218487168e+01 3.419246818985637315e-01 1.424453744219467133e-02
7.764705882352940591e+01 3.282607333266518435e-01 2.091580371357326662e-02
7.865546218487395436e+01 3.123892267884884610e-01 2.590836890158509931e-02
7.966386554621848859e+01 2.938974745247731057e-01 2.934375293366087156e-02
8.067226890756302282e+01 2.726797411282420036e-01 3.141347218576107103e-02
8.168067226890755705e+01 2.489965250627172999e-01 3.235875256181430792e-02
8.268907563025209129e+01 2.234952167780313026e-01 3.245109028262227469e-02
8.369747899159663973e+01 1.971994310466769207e-01 3.197200564245772370e-02
8.470588235294117396e+01 1.714738091343266380e-01 3.119337556116086319e-02
8.571428571428570820e+01 1.479378737644216901e-01 3.035928418170708021e-02
8.672268907563025664e+01 1.283335627927675304e-01 2.966986660344872462e-02
8.773109243697479087e+01 1.143452287139135048e-01 2.926860509777595709e-02
8.873949579831932510e+01 1.073756021886922429e-01 2.923383540525925639e-02
8.974789915966385934e+01 1.083024857425505250e-01 2.957339162489014406e-02
9.075630252100839357e+01 1.173148393808239875e-01 3.022526059827623790e-02
9.176470588235294201e+01 1.338856336230709321e-01 3.106196056055510191e-02
9.277310924369747624e+01 1.568955574629424810e-01 3.189937024030919943e-02
9.378151260504201048e+01 1.848382343361665292e-01 3.250969789146629374e-02
9.478991596638655892e+01 2.160093956852389141e-01 3.263686420757516693e-02
9.579831932773109315e+01 2.486502211067747048e-01 3.201447519018585375e-02
9.680672268907562739e+01 2.810542513642375617e-01 3.038477534363215327e-02
9.781512605042016162e+01 3.116735951688573980e-01 2.751773562254400396e-02
9.882352941176469585e+01 3.392194776194243921e-01 2.323052155736493596e-02
9.983193277310924429e+01 3.627473897387702984e-01 1.740448711155484496e-02
1.008403361344537785e+02 3.817001038565541737e-01 1.000100731348418925e-02
1.018487394957983128e+02 3.959194022003824642e-01 1.074926984132362762e-03
1.028571428571428612e+02 4.056384533836878692e-01 -9.217245059336409696e-03
1.038655462184873954e+02 4.114459673244723614e-01 -2.061089649609160190e-02
1.048739495798319297e+02 4.142412342390202618e-01 -3.273446861996598400e-02
1.058823529411764639e+02 4.151651637790632066e-01 -4.511746517464976236e-02
1.068907563025209981e+02 4.154952872713097989e-01 -5.720684583535518009e-02
1.078991596638655466e+02 4.164961615559619190e-01 -6.839327262465744184e-02
1.089075630252100808e+02 4.192136954488585587e-01 -7.805087481049843845e-02
1.099159663865546150e+02 4.242634690233773043e-01 -8.558623034603152213e-02
1.109243697478991635e+02 4.317028120994956808e-01 -9.049540809869927038e-02
1.119327731092436977e+02 4.410473031264814381e-01 -9.242176910367549958e-02
1.129411764705882320e+02 4.514009798504541315e-01 -9.119842056476357151e-02
1.139495798319327662e+02 4.616147037935718345e-01 -8.687587015839837168e-02
1.149579831932773004e+02 4.704271649525175736e-01 -7.971714813915120601e-02
1.159663865546218489e+02 4.765855447099189846e-01 -7.016547915762849641e-02
1.169747899159663831e+02 4.789477229343053200e-01 -5.879679020986205984e-02
1.179831932773109173e+02 4.765665140762225249e-01 -4.626209771281675209e-02
1.189915966386554658e+02 4.687486441948012228e-01 -3.322868671468959256e-02
1.200000000000000000e+02 4.551062413872077883e-01 -2.033183108589686761e-02
