0.000000000000000000e+00 2.220446049250313081e-16 0.000000000000000000e+00
1.008403361344537785e+00 2.027375399379360843e-03 3.325760676632372181e-04
2.016806722689075571e+00 8.038576110826367582e-03 1.274498817157354580e-03
3.025210084033613356e+00 1.782951429231505180e-02 2.665882892343263144e-03
4.033613445378151141e+00 3.107058076608504305e-02 4.263616506141820750e-03
5.042016806722688926e+00 4.733143873766076926e-02 5.771691426656122559e-03
6.050420168067226712e+00 6.610216032450333401e-02 6.875982958584492266e-03
7.058823529411764497e+00 8.681742430039052216e-02 7.279028882917981669e-03
8.067226890756302282e+00 1.088811644213028007e-01 6.731368560549233493e-03
9.075630252100840067e+00 1.316879817137892594e-01 5.057971660916815715e-03
1.008403361344537785e+01 1.546422389184509694e-01 2.178798056755582024e-03
1.109243697478991564e+01 1.771742877243212000e-01 -1.876776946859504136e-03
1.210084033613445342e+01 1.987537792317781715e-01 -6.961892431198934972e-03
1.310924369747899121e+01 2.189008019504166125e-01 -1.281129321214824479e-02
1.411764705882352899e+01 2.371940880674729968e-01 -1.904810450876215366e-02
1.512605042016806678e+01 2.532759985631869437e-01 -2.519902987850608511e-02
1.613445378151260456e+01 2.668556604316467684e-01 -3.072002899092729500e-02
1.714285714285714235e+01 2.777099655302834869e-01 -3.503349738234751154e-02
1.815126050420168013e+01 2.856833057675032261e-01 -3.757745783736543554e-02
1.915966386554621792e+01 2.906851901512321756e-01 -3.786280355937621245e-02
2.016806722689075571e+01 2.926868932776223176e-01 -3.553165839098682000e-02
2.117647058823529349e+01 2.917175941081324719e-01 -3.040526897373307946e-02
2.218487394957983128e+01 2.878601715877857625e-01 -2.250873507939632479e-02
2.319327731092436906e+01 2.812465271098785191e-01 -1.206477365666247525e-02
2.420168067226890685e+01 2.720528343328025844e-01 5.412473432826470088e-04
2.521008403361344463e+01 2.604950333231546011e-01 1.481413478975857068e-02
2.621848739495798242e+01 2.468244002977797447e-01 3.020623614592121697e-02
2.722689075630252020e+01 2.313232322698237642e-01 4.616853487514327448e-02
2.823529411764705799e+01 2.142998619503635460e-01 6.219037848739605856e-02
2.924369747899159577e+01 1.960844683075460004e-01 7.782540810640403706e-02
3.025210084033613356e+01 1.770245216101204999e-01 9.270599491588393803e-02
3.126050420168067134e+01 1.574799232392356529e-01 1.065483870196632932e-01
3.226890756302520913e+01 1.378176102565338290e-01 1.191510209326804848e-01
3.327731092436974336e+01 1.184054984785773978e-01 1.303880145587494876e-01
3.428571428571428470e+01 9.960705649686529828e-02 1.401988615209741607e-01
3.529411764705882604e+01 8.177514454975343128e-02 1.485763767851363548e-01
3.630252100840336027e+01 6.524557568614863801e-02 1.555536807785894426e-01
3.731092436974789450e+01 5.033040523928122845e-02 1.611912331567824097e-01
3.831932773109243584e+01 3.731243149854412966e-02 1.655644868507690770e-01
3.932773109243697718e+01 2.644218287183042193e-02 1.687528669016910010e-01
4.033613445378151141e+01 1.793728393181548419e-02 1.708307609139378958e-01
4.134453781512604564e+01 1.198342867212198737e-02 1.718607987135780668e-01
4.235294117647058698e+01 8.734305912854289922e-03 1.718896241945711001e-01
4.336134453781512832e+01 8.307714999458259975e-03 1.709461857862307754e-01
4.436974789915966255e+01 1.077531749377425019e-02 1.690425272101019338e-01
4.537815126050419678e+01 1.614614578296602598e-02 1.661767711729267294e-01
4.638655462184873812e+01 2.434696979510286852e-02 1.623379345953849251e-01
4.739495798319327946e+01 3.520580875406231769e-02 1.575119402208760011e-01
4.840336134453781369e+01 4.844477024245652519e-02 1.516885234437381769e-01
4.941176470588234793e+01 6.368658859681575191e-02 1.448684069170740329e-01
5.042016806722688926e+01 8.047450930253596812e-02 1.370701989578747559e-01
5.142857142857143060e+01 9.830084354230639310e-02 1.283365580557401797e-01
5.243697478991596483e+01 1.166385658894091293e-01 1.187389845049753312e-01
5.344537815126049907e+01 1.349700108114997299e-01 1.083812927572382900e-01
5.445378151260504040e+01 1.528106472661894255e-01 9.740114883753503427e-02
5.546218487394958174e+01 1.697269060476422897e-01 8.596947056326320613e-02
5.647058823529411598e+01 1.853483571088085924e-01 7.428743007740401527e-02
5.747899159663865021e+01 1.993750248844641249e-01 6.258086341703328337e-02
5.848739495798319155e+01 2.115802208935075868e-01 5.109238773759106067e-02
5.949579831932773288e+01 2.218102867123961097e-01 4.007099438533590074e-02
6.050420168067226712e+01 2.299813827229546526e-01 2.975961892596479252e-02
6.151260504201680135e+01 2.360734810212226087e-01 2.038133465276270595e-02
6.252100840336134269e+01 2.401216482989410039e-01 1.212543011728950404e-02
6.352941176470588402e+01 2.422056119095059579e-01 5.134824855936082066e-03
6.453781512605041826e+01 2.424391502390896846e-01 -5.036843177287364526e-04
6.554621848739495249e+01 2.409608790457855587e-01 -4.764829750752985760e-03
6.655462184873948672e+01 2.379271392475712510e-01 -7.684963605708805545e-03
6.756302521008403517e+01 2.335068879046391377e-01 -9.356766481814382530e-03
6.857142857142856940e+01 2.278773970566039253e-01 -9.919475205143024610e-03
6.957983193277310363e+01 2.212191130674274753e-01 -9.546011096655870887e-03
7.058823529411765207e+01 2.137087302516740284e-01 -8.428761235824699938e-03
7.159663865546218631e+01 2.055099543328009482e-01 -6.765435011029663492e-03
7.260504201680672054e+01 1.967635979558779447e-01 -4.746522431541833065e-03
7.361344537815125477e+01 1.875790412795868001e-01 -2.544980104002392274e-03
7.462184873949578900e+01 1.780302777139524117e-01 -3.084732683558133459e-04
7.563025210084033745e+01 1.681593477843548179e-01 1.845752973257952512e-03
7.663865546218487168e+01 1.579876685720442708e-01 3.833627899859637367e-03
7.764705882352940591e+01 1.475338404210000398e-01 5.604598630274182369e-03
7.865546218487395436e+01 1.368339624137115962e-01 7.140058583234409895e-03
7.966386554621848859e+01 1.259608350338707883e-01 8.450081300850564858e-03
8.067226890756302282e+01 1.150390213685897889e-01 9.568741569319305640e-03
8.168067226890755705e+01 1.042535830481301495e-01 1.054831832208080744e-02
8.268907563025209129e+01 9.385153379738220281e-02 1.145259826446931584e-02
8.369747899159663973e+01 8.413502272639539203e-02 1.234976736563775379e-02
8.470588235294117396e+01 7.544631429248793708e-02 1.330526112064123190e-02
8.571428571428570820e+01 6.814511215456986459e-02 1.437505854943310624e-02
8.672268907563025664e+01 6.258006365796853210e-02 1.559988488063457357e-02
8.773109243697479087e+01 5.905745481029334165e-02 1.700077314798176253e-02
8.873949579831932510e+01 5.781051911616508221e-02 1.857638130380756536e-02
8.974789915966385934e+01 5.897386466275578165e-02 2.030226317101924138e-02
9.075630252100839357e+01 6.256704385348599295e-02 2.213213760847365652e-02
9.176470588235294201e+01 6.849018767528725071e-02 2.400098270608819195e-02
9.277310924369747624e+01 7.653151276935910019e-02 2.582966211938986234e-02
9.378151260504201048e+01 8.638426742912885814e-02 2.753067823757748833e-02
9.478991596638655892e+01 9.766963432937414424e-02 2.901460823827006763e-02
9.579831932773109315e+01 1.099629736944621738e-01 3.019675943537580842e-02
9.680672268907562739e+01 1.228214797182031193e-01 3.100367978376561418e-02
9.781512605042016162e+01 1.358120742730690722e-01 3.137920536748461942e-02
9.882352941176469585e+01 1.485377715361591022e-01 3.128977167291546735e-02
9.983193277310924429e+01 1.606600359868382011e-01 3.072878035732218294e-02
1.008403361344537785e+02 1.719153404084772241e-01 2.971972463241967510e-02
1.018487394957983128e+02 1.821243341038625285e-01 2.831805271816323355e-02
1.028571428571428612e+02 1.911939622701279706e-01 2.661149626300274296e-02
1.038655462184873954e+02 1.991127841475450744e-01 2.471869062866771660e-02
1.048739495798319297e+02 2.059398047748568494e-01 2.278588586882290823e-02
1.058823529411764639e+02 2.117868002682592454e-01 2.098151673788983818e-02
1.068907563025209981e+02 2.167937843124372321e-01 1.948884660109440059e-02
1.078991596638655466e+02 2.210980557898647447e-01 1.849657255457937133e-02
1.089075630252100808e+02 2.247995618732201439e-01 1.818781347276099414e-02
1.099159663865546150e+02 2.279297761281102730e-01 1.872805657546661173e-02
1.109243697478991635e+02 2.304340459218212622e-01 2.025312838933035486e-02
1.119327731092436977e+02 2.321734286194985231e-01 2.285854403770437582e-02
1.129411764705882320e+02 2.329435230674556934e-01 2.659134119816131125e-02
1.139495798319327662e+02 2.325020084478888194e-01 3.144557695990957136e-02
1.149579831932773004e+02 2.305977746431748798e-01 3.736207262196866719e-02
1.159663865546218489e+02 2.269977896921562266e-01 4.423252892164719619e-02
1.169747899159663831e+02 2.215105142415945139e-01 5.190725986934163760e-02
1.179831932773109173e+02 2.140056264932577168e-01 6.020544852582143669e-02
1.189915966386554658e+02 2.044298145116338894e-01 6.892665450094725976e-02
1.200000000000000000e+02 1.928182807291289880e-01 7.786250050934273581e-02
