0.000000000000000000e+00 2.220446049250313081e-16 -2.220446049250313081e-16
1.008403361344537785e+00 3.386872739881807703e-03 2.198914912923566334e-03
2.016806722689075571e+00 1.341419200109972287e-02 8.401782707085914126e-03
3.025210084033613356e+00 2.969425406688097624e-02 1.758623026843486592e-02
4.033613445378151141e+00 5.161180615028526653e-02 2.842498818258598625e-02
5.042016806722688926e+00 7.837195760769610775e-02 3.955594075431845269e-02
6.050420168067226712e+00 1.090480880390506391e-01 4.972832056116449628e-02
7.058823529411764497e+00 1.426315969538747286e-01 5.787068577144105497e-02
8.067226890756302282e+00 1.780778646069673954e-01 6.312387703324406907e-02
9.075630252100840067e+00 2.143459670208236467e-01 6.486163039764780702e-02
1.008403361344537785e+01 2.504351054169109414e-01 6.270709864948753598e-02
1.109243697478991564e+01 2.854116707700824485e-01 5.654670558006436032e-02
1.210084033613445342e+01 3.184312813914802476e-01 4.654202455662603821e-02
1.310924369747899121e+01 3.487572624365498086e-01 3.313748474357103291e-02
1.411764705882352899e+01 3.757719392171059436e-01 1.706312127980713633e-02
1.512605042016806678e+01 3.989790893422857643e-01 -6.673965427186345778e-04
1.613445378151260456e+01 4.180039472175427484e-01 -1.877064405229522670e-02
1.714285714285714235e+01 4.325960485633824071e-01 -3.573760801101633078e-02
1.815126050420168013e+01 4.426139542637717028e-01 -4.991236032185808469e-02
1.915966386554621792e+01 4.480169768908008887e-01 -5.965674431259748722e-02
2.016806722689075571e+01 4.488541974077722152e-01 -6.361668913577833706e-02
2.117647058823529349e+01 4.452502779604989858e-01 -6.103873728933550957e-02
2.218487394957983128e+01 4.373933605398308000e-01 -5.198967340381988045e-02
2.319327731092436906e+01 4.255264565721299519e-01 -3.732053477041763490e-02
2.420168067226890685e+01 4.099401823934207822e-01 -1.839526203628150114e-02
2.521008403361344463e+01 3.909629247659129891e-01 3.241330891086802168e-03
2.621848739495798242e+01 3.689583767081265897e-01 2.610641675600611222e-02
2.722689075630252020e+01 3.443255832541525230e-01 4.891169915784965294e-02
2.823529411764705799e+01 3.174982181787731061e-01 7.061898699935598156e-02
2.924369747899159577e+01 2.889369665273426868e-01 9.045479926968691409e-02
3.025210084033613356e+01 2.591367680212210978e-01 1.078961213146980569e-01
3.126050420168067134e+01 2.286196495778580751e-01 1.226520982923849923e-01
3.226890756302520913e+01 1.979260388806021176e-01 1.346380167362619673e-01
3.327731092436974336e+01 1.676116444276949391e-01 1.439436645270483206e-01
3.428571428571428470e+01 1.382415346424297198e-01 1.508003268078310644e-01
3.529411764705882604e+01 1.103789912357012737e-01 1.555451911918983576e-01
3.630252100840336027e+01 8.456919327996748059e-02 1.585827353637088155e-01
3.731092436974789450e+01 6.132438691383923501e-02 1.603469826126404651e-01
3.831932773109243584e+01 4.109035327937526905e-02 1.612628628757043492e-01
3.932773109243697718e+01 2.424423374653938978e-02 1.617107136425784963e-01
4.033613445378151141e+01 1.111773021994311161e-02 1.619966925650648815e-01
4.134453781512604564e+01 2.026684553994018145e-03 1.623295100992658835e-01
4.235294117647058698e+01 -2.701684535637127738e-03 1.628080152332150865e-01
4.336134453781512832e+01 -2.725773067986603238e-03 1.634199483831129118e-01
4.436974789915966255e+01 2.273605540859535701e-03 1.640512702390182209e-01
4.537815126050419678e+01 1.249977088318043883e-02 1.645034603152950581e-01
4.638655462184873812e+01 2.792713988217832011e-02 1.645197063363634804e-01
4.739495798319327946e+01 4.820253118603978759e-02 1.638125439566815444e-01
4.840336134453781369e+01 7.263607628908663738e-02 1.620920387928154183e-01
4.941176470588234793e+01 1.002939908787841006e-01 1.590928293585238684e-01
5.042016806722688926e+01 1.301230905488717227e-01 1.545974010115793718e-01
5.142857142857143060e+01 1.610518250198444967e-01 1.484551354721638239e-01
5.243697478991596483e+01 1.920564223866028097e-01 1.405977078678993797e-01
5.344537815126049907e+01 2.222116118086914227e-01 1.310486826185293108e-01
5.445378151260504040e+01 2.507066932028545470e-01 1.199296994992451459e-01
5.546218487394958174e+01 2.768640942890043810e-01 1.074619611351310677e-01
5.647058823529411598e+01 3.001525635048416518e-01 9.396165372511255942e-02
5.747899159663865021e+01 3.201881169312796871e-01 7.983146480447045334e-02
5.848739495798319155e+01 3.367300665373789137e-01 6.554761633407935051e-02
5.949579831932773288e+01 3.496791569778250341e-01 5.163719675216527083e-02
6.050420168067226712e+01 3.590719938652577881e-01 3.864580268291628595e-02
6.151260504201680135e+01 3.650560877918604952e-01 2.710692197439679152e-02
6.252100840336134269e+01 3.678735998222844028e-01 1.749486436434777303e-02
6.352941176470588402e+01 3.678312026565846438e-01 1.018098944223488900e-02
6.453781512605041826e+01 3.652669208092684805e-01 5.396908420054025157e-03
6.554621848739495249e+01 3.605257243089285968e-01 3.207565791937705413e-03
6.655462184873948672e+01 3.539455356478982129e-01 3.506767192353876794e-03
6.756302521008403517e+01 3.458509425201039544e-01 6.035261723667195710e-03
6.857142857142856940e+01 3.365522399756266658e-01 1.041606142271134239e-02
6.957983193277310363e+01 3.263517228072525533e-01 1.619518578135581421e-02
7.058823529411765207e+01 3.155257089051521913e-01 2.289153374069607949e-02
7.159663865546218631e+01 3.043097575695403734e-01 3.003401494285740103e-02
7.260504201680672054e+01 2.928804715691613048e-01 3.718913212613639274e-02
7.361344537815125477e+01 2.813190035707120451e-01 4.398531080297984897e-02
7.462184873949578900e+01 2.695965452706190479e-01 5.012439880388508406e-02
7.563025210084033745e+01 2.575790996798623667e-01 5.538812218277611166e-02
7.663865546218487168e+01 2.450585455443494709e-01 5.964016158817297963e-02
7.764705882352940591e+01 2.317972776985155470e-01 6.282536395632809523e-02
7.865546218487395436e+01 2.176023818935499676e-01 6.496240082598536691e-02
7.966386554621848859e+01 2.023832721426415127e-01 6.613711379324282991e-02
8.067226890756302282e+01 1.861929860420001859e-01 6.649252613522604882e-02
8.168067226890755705e+01 1.692660853463459070e-01 6.621679279115522121e-02
8.268907563025209129e+01 1.520249983743584554e-01 6.552907247504247135e-02
8.369747899159663973e+01 1.350681969966258666e-01 6.466306603093696648e-02
8.470588235294117396e+01 1.191381196921507124e-01 6.384938477472468232e-02
8.571428571428570820e+01 1.050705495642119125e-01 6.329863344442321349e-02
8.672268907563025664e+01 9.371055342311418457e-02 6.318167726181456167e-02
8.773109243697479087e+01 8.582821736900159149e-02 6.361411735758926156e-02
8.873949579831932510e+01 8.204391086970530544e-02 6.464765392432991753e-02
8.974789915966385934e+01 8.273806905091196651e-02 6.626253458135134000e-02
9.075630252100839357e+01 8.800906638127092840e-02 6.837130211199005103e-02
9.176470588235294201e+01 9.766053835677857009e-02 7.082708493879374956e-02
9.277310924369747624e+01 1.112242461989325637e-01 7.343614056571190485e-02
9.378151260504201048e+01 1.280197975192964854e-01 7.597525140997296589e-02
9.478991596638655892e+01 1.472128704395740950e-01 7.820861798427281020e-02
9.579831932773109315e+01 1.678712588170139242e-01 7.990486232279336853e-02
9.680672268907562739e+01 1.890263440075752310e-01 8.085311920704563171e-02
9.781512605042016162e+01 2.097532235959995717e-01 8.087671859979839173e-02
9.882352941176469585e+01 2.292391658281431877e-01 7.984481394910469820e-02
9.983193277310924429e+01 2.468401313644346118e-01 7.768297967054804687e-02
1.008403361344537785e+02 2.621203198277293200e-01 7.438022943468391990e-02
1.018487394957983128e+02 2.748597186115750990e-01 6.999570777844543734e-02
1.028571428571428612e+02 2.850559605922591278e-01 6.466153645263217342e-02
1.038655462184873954e+02 2.929100218357008067e-01 5.858295805393576305e-02
1.048739495798319297e+02 2.987984861304850970e-01 5.203616076605477314e-02
1.058823529411764639e+02 3.032391182516347428e-01 4.536041610599650387e-02
1.068907563025209981e+02 3.068443825286475413e-01 3.894446192732237133e-02
1.078991596638655466e+02 3.102473726702217327e-01 3.320774115047586683e-02
1.089075630252100808e+02 3.139823065110276534e-01 2.857723823922764250e-02
1.099159663865546150e+02 3.183364029400987949e-01 2.545136101690115282e-02
1.109243697478991635e+02 3.232372254257682709e-01 2.416688715302361956e-02
1.119327731092436977e+02 3.282998099010765447e-01 2.496454719378027320e-02
1.129411764705882320e+02 3.329556735200411843e-01 2.795853110396506747e-02
1.139495798319327662e+02 3.365463911936679153e-01 3.312441827104628533e-02
1.149579831932773004e+02 3.383920762117407222e-01 4.029995525015939162e-02
1.159663865546218489e+02 3.378420841002269803e-01 4.920147630501314762e-02
1.169747899159663831e+02 3.343227419940006939e-01 5.945187651089478553e-02
1.179831932773109173e+02 3.273797452000817287e-01 7.061866968709540338e-02
1.189915966386554658e+02 3.167117069606466551e-01 8.224705828441847277e-02
1.200000000000000000e+02 3.021963540252472491e-01 9.389134945235955154e-02
