0.000000000000000000e+00 0.000000000000000000e+00 -2.220446049250313081e-16
1.008403361344537785e+00 2.899979044471590051e-03 1.883192665838029356e-03
2.016806722689075571e+00 1.148809494628288963e-02 7.229404302768083213e-03
3.025210084033613356e+00 2.544040985704787428e-02 1.524748671719922122e-02
4.033613445378151141e+00 4.424196482740705427e-02 2.490363313416699143e-02
5.042016806722688926e+00 6.722785738028058677e-02 3.513424843364121308e-02
6.050420168067226712e+00 9.362286019764376466e-02 4.496587033301890912e-02
7.058823529411764497e+00 1.225824970175577455e-01 5.357214102293383906e-02
8.067226890756302282e+00 1.532312568772022932e-01 6.030057731200877402e-02
9.075630252100840067e+00 1.846947956393141244e-01 6.468759801873080750e-02
1.008403361344537785e+01 2.161289926113512117e-01 6.646905034941930079e-02
1.109243697478991564e+01 2.467434918194510995e-01 6.558738885954285003e-02
1.210084033613445342e+01 2.758178683975578416e-01 6.219600876283326585e-02
1.310924369747899121e+01 3.027166998955155286e-01 5.665786803969152796e-02
1.411764705882352899e+01 3.268989899566387969e-01 4.953669072263366946e-02
1.512605042016806678e+01 3.479232155101383839e-01 4.157780083651796410e-02
1.613445378151260456e+01 3.654477967806575300e-01 3.367477255568829264e-02
1.714285714285714235e+01 3.792288404619363895e-01 2.681561894734663110e-02
1.815126050420168013e+01 3.891153177317847600e-01 2.200323765447531610e-02
1.915966386554621792e+01 3.950424187153485089e-01 2.014894897778640726e-02
2.016806722689075571e+01 3.970231847753620258e-01 2.195000441715899697e-02
2.117647058823529349e+01 3.951408214122760221e-01 2.777749307846122395e-02
2.218487394957983128e+01 3.895408101567621184e-01 3.761388390920994418e-02
2.319327731092436906e+01 3.804187132563146001e-01 5.107001684161271982e-02
2.420168067226890685e+01 3.680174945003433784e-01 6.746378157576238266e-02
2.521008403361344463e+01 3.526231549377409902e-01 8.593947763648646099e-02
2.621848739495798242e+01 3.345563575542891410e-01 1.055907828726632136e-01
2.722689075630252020e+01 3.141679035290076971e-01 1.255541161024444907e-01
2.823529411764705799e+01 2.918371150930960667e-01 1.450703211148133276e-01
2.924369747899159577e+01 2.679707178668553347e-01 1.635186036025757517e-01
3.025210084033613356e+01 2.429952165348103765e-01 1.804328075738247383e-01
3.126050420168067134e+01 2.173570780812279502e-01 1.954985621398370732e-01
3.226890756302520913e+01 1.915179381617657661e-01 2.085431702035227541e-01
3.327731092436974336e+01 1.659456421809666349e-01 2.195199083222755254e-01
3.428571428571428470e+01 1.411062726582281712e-01 2.284875582306770125e-01
3.529411764705882604e+01 1.174590180141839024e-01 2.355854238392717237e-01
3.630252100840336027e+01 9.544929412699787452e-02 2.410078857349204906e-01
3.731092436974789450e+01 7.549108915350588589e-02 2.449811767251337535e-01
3.831932773109243584e+01 5.796153399374104342e-02 2.477383389487405330e-01
3.932773109243697718e+01 4.319378152473940524e-02 2.494984950490612974e-01
4.033613445378151141e+01 3.147464055213200496e-02 2.504498096974278054e-01
4.134453781512604564e+01 2.306073544390585539e-02 2.507356713323796171e-01
4.235294117647058698e+01 1.819042516318114533e-02 2.504463727308721133e-01
4.336134453781512832e+01 1.708803994289054273e-02 2.496161657957653990e-01
4.436974789915966255e+01 1.994503351469201213e-02 2.482266061176776617e-01
4.537815126050419678e+01 2.688870530208553600e-02 2.462130840551373101e-01
4.638655462184873812e+01 3.792733400592052107e-02 2.434760224424175057e-01
4.739495798319327946e+01 5.289023891200339555e-02 2.398952231796088741e-01
4.840336134453781369e+01 7.139756362246729715e-02 2.353446661359726022e-01
4.941176470588234793e+01 9.286584524237739835e-02 2.297085009235180220e-01
5.042016806722688926e+01 1.165546997357560510e-01 2.228964524182912577e-01
5.142857142857143060e+01 1.416353646467227723e-01 2.148576265084958248e-01
5.243697478991596483e+01 1.672667581753717325e-01 2.055896371408898471e-01
5.344537815126049907e+01 1.926460962055041026e-01 1.951470940121777797e-01
5.445378151260504040e+01 2.170398353863842722e-01 1.836494618057391559e-01
5.546218487394958174e+01 2.398214372855804744e-01 1.712777874479107787e-01
5.647058823529411598e+01 2.604790183498499889e-01 1.582737690357103322e-01
5.747899159663865021e+01 2.786205131777985677e-01 1.449333315200785899e-01
5.848739495798319155e+01 2.939780212882487920e-01 1.315925963694976053e-01
5.949579831932773288e+01 3.064025373403100883e-01 1.186120769906412464e-01
6.050420168067226712e+01 3.158547916495659802e-01 1.063565461121297462e-01
6.151260504201680135e+01 3.223904602403859787e-01 9.517205191671584963e-02
6.252100840336134269e+01 3.261481041328677666e-01 8.535679056591005676e-02
6.352941176470588402e+01 3.273237348272999281e-01 7.713889133851614677e-02
6.453781512605041826e+01 3.261488556707217157e-01 7.065644393981351801e-02
6.554621848739495249e+01 3.228776525193335356e-01 6.594235856474672808e-02
6.655462184873948672e+01 3.177705974309783521e-01 6.292637902454623067e-02
6.756302521008403517e+01 3.110902823716394927e-01 6.144357846767012354e-02
6.857142857142856940e+01 3.031000658976699125e-01 6.125201682071179654e-02
6.957983193277310363e+01 2.940584023324890328e-01 6.205803213185645539e-02
7.058823529411765207e+01 2.842091070786791906e-01 6.354302088276431171e-02
7.159663865546218631e+01 2.737681840360930430e-01 6.538778228028996331e-02
7.260504201680672054e+01 2.629096750048522946e-01 6.729255404180922717e-02
7.361344537815125477e+01 2.517340719780998270e-01 6.899912180632283842e-02
7.462184873949578900e+01 2.402635638656569483e-01 7.030028233239915547e-02
7.563025210084033745e+01 2.284526144044334295e-01 7.104655972091333815e-02
7.663865546218487168e+01 2.162036476407891428e-01 7.115335868554772958e-02
7.764705882352940591e+01 2.034090625217497283e-01 7.060046800997188399e-02
7.865546218487395436e+01 1.899963117683955982e-01 6.942971188824254014e-02
7.966386554621848859e+01 1.759687998487140526e-01 6.774016117772696521e-02
8.067226890756302282e+01 1.614323070452607922e-01 6.568191525347355508e-02
8.168067226890755705e+01 1.466173422338283849e-01 6.344532445201400694e-02
8.268907563025209129e+01 1.318864691136087952e-01 6.124839333694165333e-02
8.369747899159663973e+01 1.177202230960252560e-01 5.932155242460923628e-02
8.470588235294117396e+01 1.046969006510899414e-01 5.788948222355483342e-02
8.571428571428570820e+01 9.345192420306513981e-02 5.715200873835579731e-02
8.672268907563025664e+01 8.462100950655526699e-02 5.726500111503718404e-02
8.773109243697479087e+01 7.877942528620418550e-02 5.832399887104899872e-02
8.873949579831932510e+01 7.637696791230585980e-02 6.035385767061862694e-02
8.974789915966385934e+01 7.768204863334648991e-02 6.330578594465485764e-02
9.075630252100839357e+01 8.274453808051096537e-02 6.706205139985099706e-02
9.176470588235294201e+01 9.138995921209913664e-02 7.144811696807706891e-02
9.277310924369747624e+01 1.032398696181641151e-01 7.624875685679544102e-02
9.378151260504201048e+01 1.177527632815532632e-01 8.122603892834234784e-02
9.478991596638655892e+01 1.342744154963266823e-01 8.613711372602139704e-02
9.579831932773109315e+01 1.520837911447421309e-01 9.075004446810286396e-02
9.680672268907562739e+01 1.704404591460753071e-01 9.485764976096811019e-02
9.781512605042016162e+01 1.886369350933980726e-01 9.828807327620292522e-02
9.882352941176469585e+01 2.060429947104485127e-01 1.009140442225969769e-01
9.983193277310924429e+01 2.221454232291395492e-01 1.026595154892299133e-01
1.008403361344537785e+02 2.365756677702073318e-01 1.035038462345535537e-01
1.018487394957983128e+02 2.491199699831527781e-01 1.034848399300123400e-01
1.028571428571428612e+02 2.597206453402394200e-01 1.026991002453819801e-01
1.038655462184873954e+02 2.684681420978660693e-01 1.012996808435318030e-01
1.048739495798319297e+02 2.755835101446093560e-01 9.949011271136376511e-02
1.058823529411764639e+02 2.813863511989929123e-01 9.751881439902032600e-02
1.068907563025209981e+02 2.862598333151442631e-01 9.566635044033400259e-02
1.078991596638655466e+02 2.905972935291405435e-01 9.422828166588148591e-02
1.089075630252100808e+02 2.947172803177793288e-01 9.349983301895004040e-02
1.099159663865546150e+02 2.987767231780191768e-01 9.375243385032094867e-02
1.109243697478991635e+02 3.027141892306060011e-01 9.521199405597158272e-02
1.119327731092436977e+02 3.062604941693662930e-01 9.804094000395635611e-02
1.129411764705882320e+02 3.090087946641006944e-01 1.023211108650070589e-01
1.139495798319327662e+02 3.104837984524915218e-01 1.080454716183117947e-01
1.149579831932773004e+02 3.101977156383579626e-01 1.151186816724467654e-01
1.159663865546218489e+02 3.076882355701331395e-01 1.233679594736430962e-01
1.169747899159663831e+02 3.025600399053118839e-01 1.325555785634521255e-01
1.179831932773109173e+02 2.945121474193987954e-01 1.423992609143900356e-01
1.189915966386554658e+02 2.833634891343594919e-01 1.525955230548672326e-01
1.200000000000000000e+02 2.690724152118857404e-01 1.628373468167667593e-01
