0.000000000000000000e+00 2.220446049250313081e-16 -1.110223024625156540e-16
1.008403361344537785e+00 5.542854011783782120e-03 2.341561658810720203e-03
2.016806722689075571e+00 2.189940912786270122e-02 9.100844669664986952e-03
3.025210084033613356e+00 4.828640307992682068e-02 1.951580563216581687e-02
4.033613445378151141e+00 8.349704438697413966e-02 3.242233961352181115e-02
5.042016806722688926e+00 1.260198157955119136e-01 4.638832778428536585e-02
6.050420168067226712e+00 1.741526605105332415e-01 5.985793106044856593e-02
7.058823529411764497e+00 2.261093829495923746e-01 7.129052593687323913e-02
8.067226890756302282e+00 2.801021845894573481e-01 7.928096797034034360e-02
9.075630252100840067e+00 3.344144642872750595e-01 8.266141568401330630e-02
1.008403361344537785e+01 3.874590459813833654e-01 8.058239660140698035e-02
1.109243697478991564e+01 4.378208376127701307e-01 7.257550615297536645e-02
1.210084033613445342e+01 4.842904658367557236e-01 5.860050529375371298e-02
1.310924369747899121e+01 5.258862863840461088e-01 3.907878967914135693e-02
1.411764705882352899e+01 5.618661057582254870e-01 1.491473018698985520e-02
1.512605042016806678e+01 5.917280126932433770e-01 -1.249524662733203506e-02
1.613445378151260456e+01 6.152003228182350014e-01 -4.127039805061150091e-02
1.714285714285714235e+01 6.322211146406799820e-01 -6.908566180473019180e-02
1.815126050420168013e+01 6.429084257416706194e-01 -9.328141032548264988e-02
1.915966386554621792e+01 6.475231477949046077e-01 -1.111122637955659354e-01
2.016806722689075571e+01 6.464277651140080128e-01 -1.202081077899921357e-01
2.117647058823529349e+01 6.400450256993106546e-01 -1.191980196454549557e-01
2.218487394957983128e+01 6.288211048690919291e-01 -1.081846602547950065e-01
2.319327731092436906e+01 6.131974767426155992e-01 -8.869302740770135252e-02
2.420168067226890685e+01 5.935943512817187795e-01 -6.312552931101467202e-02
2.521008403361344463e+01 5.704062360223993711e-01 -3.412716090048006912e-02
2.621848739495798242e+01 5.440076863521059458e-01 -4.152418118091305566e-03
2.722689075630252020e+01 5.147666402259019058e-01 2.474282213323852897e-02
2.823529411764705799e+01 4.830635856079439350e-01 5.096964757459865325e-02
2.924369747899159577e+01 4.493126492118717508e-01 7.340707971890547689e-02
3.025210084033613356e+01 4.139787016953762055e-01 9.137379480424945299e-02
3.126050420168067134e+01 3.775870072672269373e-01 1.045867643010958137e-01
3.226890756302520913e+01 3.407245014354509660e-01 1.131125614613506247e-01
3.327731092436974336e+01 3.040338094248848932e-01 1.173131355986092306e-01
3.428571428571428470e+01 2.682031619718385773e-01 1.177866778278076065e-01
3.529411764705882604e+01 2.339530244933212266e-01 1.153041771927318937e-01
3.630252100840336027e+01 2.020149845092653607e-01 1.107427279667863029e-01
3.731092436974789450e+01 1.730992524833232515e-01 1.050173411342416596e-01
3.831932773109243584e+01 1.478571871663354464e-01 9.901381293579158971e-02
3.932773109243697718e+01 1.268553864007924137e-01 9.352598908025266944e-02
4.033613445378151141e+01 1.105757686715812538e-01 8.920135464303835526e-02
4.134453781512604564e+01 9.944014721895810816e-02 8.649903713286843931e-02
4.235294117647058698e+01 9.384074984189483271e-02 8.566380548942786888e-02
4.336134453781512832e+01 9.415290003663123741e-02 8.671838451085567279e-02
4.436974789915966255e+01 1.007126552819028742e-01 8.947446756141874680e-02
4.537815126050419678e+01 1.137539065032170393e-01 9.356066932190043595e-02
4.638655462184873812e+01 1.333130352196252311e-01 9.846378455973536781e-02
4.739495798319327946e+01 1.591249463692692157e-01 1.035785647436584522e-01
4.840336134453781369e+01 1.905473735706366689e-01 1.082609755806160923e-01
4.941176470588234793e+01 2.265486973487420563e-01 1.118804374961652748e-01
5.042016806722688926e+01 2.657713623317621288e-01 1.138675695417614708e-01
5.142857142857143060e+01 3.066515211738274349e-01 1.137551120195288146e-01
5.243697478991596483e+01 3.475590086991005023e-01 1.112107313769747918e-01
5.344537815126049907e+01 3.869273658538676663e-01 1.060611682085463858e-01
5.445378151260504040e+01 4.233583036620118811e-01 9.830762936270298624e-02
5.546218487394958174e+01 4.556954849020258269e-01 8.813246028190246939e-02
5.647058823529411598e+01 4.830677529597560138e-01 7.589696525933309346e-02
5.747899159663865021e+01 5.049058897671667712e-01 6.212990205939150634e-02
5.848739495798319155e+01 5.209415254619989000e-01 4.750560732299735633e-02
5.949579831932773288e+01 5.311968395013562105e-01 3.281018020651926825e-02
6.050420168067226712e+01 5.359657547256897470e-01 1.889401115107913753e-02
6.151260504201680135e+01 5.357794955056902619e-01 6.609829347604123662e-03
6.252100840336134269e+01 5.313493126882737894e-01 -3.261831766257272669e-03
6.352941176470588402e+01 5.234856083274479488e-01 -1.009292287770657826e-02
6.453781512605041826e+01 5.130060466136125985e-01 -1.348112029176329330e-02
6.554621848739495249e+01 5.006604323097785247e-01 -1.329953827027763325e-02
6.655462184873948672e+01 4.870959928236064940e-01 -9.709041201888757300e-03
6.756302521008403517e+01 4.728600945489362939e-01 -3.129072564962864789e-03
6.857142857142856940e+01 4.584198530888414780e-01 5.824657140838684910e-03
6.957983193277310363e+01 4.441814366378120660e-01 1.641913529631899848e-02
7.058823529411765207e+01 4.304979422608070649e-01 2.788279418853578662e-02
7.159663865546218631e+01 4.176535790723443498e-01 3.947242875101308890e-02
7.260504201680672054e+01 4.058100134714104357e-01 5.052340374362285225e-02
7.361344537815125477e+01 3.949156546841097182e-01 6.048316112228113717e-02
7.462184873949578900e+01 3.846193098241665886e-01 6.893047710008115558e-02
7.563025210084033745e+01 3.742605090559811831e-01 7.558351256829798359e-02
7.663865546218487168e+01 3.629709460846579638e-01 8.029935215549199867e-02
7.764705882352940591e+01 3.498443219875257970e-01 8.306708110822103031e-02
7.865546218487395436e+01 3.341063145300640080e-01 8.399583331044779833e-02
7.966386554621848859e+01 3.152477375496873790e-01 8.329877869247792610e-02
8.067226890756302282e+01 2.931161141224793987e-01 8.127372594545123619e-02
8.168067226890755705e+01 2.679716408636885205e-01 7.828088581705472393e-02
8.268907563025209129e+01 2.405127517430285522e-01 7.471835644330915294e-02
8.369747899159663973e+01 2.118720213194076329e-01 7.099603644742558117e-02
8.470588235294117396e+01 1.835769430909546251e-01 6.750892447056244805e-02
8.571428571428570820e+01 1.574654647217912373e-01 6.461109179861179719e-02
8.672268907563025664e+01 1.355456797962364401e-01 6.259190055567054323e-02
8.773109243697479087e+01 1.197897825741687239e-01 6.165622330861220135e-02
8.873949579831932510e+01 1.118591440838669904e-01 6.191035874662143002e-02
8.974789915966385934e+01 1.128004707264972373e-01 6.335497341005114080e-02
9.075630252100839357e+01 1.228225342723043845e-01 6.588575243995831165e-02
9.176470588235294201e+01 1.412681629888243862e-01 6.930163718146098439e-02
9.277310924369747624e+01 1.667899673502415414e-01 7.331975126688972111e-02
9.378151260504201048e+01 1.976204103309671112e-01 7.759554423104542131e-02
9.478991596638655892e+01 2.318101425782890246e-01 8.174640732691984546e-02
9.579831932773109315e+01 2.673812242940010186e-01 8.537703140378360978e-02
9.680672268907562739e+01 3.024297805910309833e-01 8.810499540946481467e-02
9.781512605042016162e+01 3.352366766204650794e-01 8.958538755439615642e-02
9.882352941176469585e+01 3.643864131608189894e-01 8.953355711071009360e-02
9.983193277310924429e+01 3.888564528420388466e-01 8.774533182920629670e-02
1.008403361344537785e+02 4.080625138139790664e-01 8.411417016982558614e-02
1.018487394957983128e+02 4.218684010892501668e-01 7.864473218988443648e-02
1.028571428571428612e+02 4.305707298537029271e-01 7.146225863869148931e-02
1.038655462184873954e+02 4.348646835211269490e-01 6.281693924914555360e-02
1.048739495798319297e+02 4.357946446471470114e-01 5.308213975337050528e-02
1.058823529411764639e+02 4.346881306237428966e-01 4.274498389692138467e-02
1.068907563025209981e+02 4.330587062476893845e-01 3.238746560492877791e-02
1.078991596638655466e+02 4.324496981595411516e-01 2.265624120708542577e-02
1.089075630252100808e+02 4.341876452810340403e-01 1.421993182147240908e-02
1.099159663865546150e+02 4.390701205951723640e-01 7.714647843743982492e-03
1.109243697478991635e+02 4.471517434790204248e-01 3.681789454508144210e-03
1.119327731092436977e+02 4.577948793998884991e-01 2.506376453042191699e-03
1.129411764705882320e+02 4.698973724734172297e-01 4.367514072586731189e-03
1.139495798319327662e+02 4.821059447764126649e-01 9.212449213420459415e-03
1.149579831932773004e+02 4.929659720945513968e-01 1.676087820070504275e-02
1.159663865546218489e+02 5.010419830686925202e-01 2.653827675797404417e-02
1.169747899159663831e+02 5.050223045998576410e-01 3.792986090405747746e-02
1.179831932773109173e+02 5.038051851640008572e-01 5.024359430018265904e-02
1.189915966386554658e+02 4.965680410072521589e-01 6.277183672941477610e-02
1.200000000000000000e+02 4.828228959690166189e-01 7.484484336101826507e-02
