0.000000000000000000e+00 0.000000000000000000e+00 0.000000000000000000e+00
1.008403361344537785e+00 -4.227050071907711981e-04 6.261615646645513067e-04
2.016806722689075571e+00 -1.681965523743778057e-03 2.479428651080195500e-03
3.025210084033613356e+00 -3.751736619735490663e-03 5.487268395274469412e-03
4.033613445378151141e+00 -6.589309402235898894e-03 9.537013990035592137e-03
5.042016806722688926e+00 -1.013524373165042292e-02 1.448465377410845800e-02
6.050420168067226712e+00 -1.431539038607576586e-02 2.016702103895395837e-02
7.058823529411764497e+00 -1.904246755389460422e-02 2.641211457953385189e-02
8.067226890756302282e+00 -2.421754999405989484e-02 3.304724144599680002e-02
9.075630252100840067e+00 -2.973113186205922354e-02 3.990439217639885072e-02
1.008403361344537785e+01 -3.546802924899539189e-02 4.682795938811046277e-02
1.109243697478991564e+01 -4.130826657769315347e-02 5.367554513989736265e-02
1.210084033613445342e+01 -4.712837442126749377e-02 6.031807787500675921e-02
1.310924369747899121e+01 -5.280822644173632785e-02 6.664474304968448504e-02
1.411764705882352899e+01 -5.823096170853481190e-02 7.255948102056519744e-02
1.512605042016806678e+01 -6.328583322361314156e-02 7.798043781427754784e-02
1.613445378151260456e+01 -6.787311754166425182e-02 8.284118725614941781e-02
1.714285714285714235e+01 -7.190506564979382009e-02 8.708806507286259713e-02
1.815126050420168013e+01 -7.530815317706252010e-02 9.067921760994857028e-02
1.915966386554621792e+01 -7.802515049287794824e-02 9.358394641525036306e-02
2.016806722689075571e+01 -8.001702540582189549e-02 9.578251339429422195e-02
2.117647058823529349e+01 -8.126234174791224785e-02 9.726434518151327868e-02
2.218487394957983128e+01 -8.175819138531836838e-02 9.802840450621652657e-02
2.319327731092436906e+01 -8.152079035311521338e-02 9.808398404512308488e-02
2.420168067226890685e+01 -8.058228305878289977e-02 9.744864714411083373e-02
2.521008403361344463e+01 -7.899156630286696679e-02 9.615045934504906633e-02
2.621848739495798242e+01 -7.681261626559698907e-02 9.422840824693523576e-02
2.722689075630252020e+01 -7.411994568402424655e-02 9.173031267656450716e-02
2.823529411764705799e+01 -7.099959279288758918e-02 8.871622286271874103e-02
2.924369747899159577e+01 -6.754509595880531236e-02 8.525704616531282198e-02
3.025210084033613356e+01 -6.385393846113363026e-02 8.143330221355171705e-02
3.126050420168067134e+01 -6.002740050356614177e-02 7.733710936051330087e-02
3.226890756302520913e+01 -5.616584878963970517e-02 7.306903598812564127e-02
3.327731092436974336e+01 -5.236685027357468325e-02 6.873713898571476300e-02
3.428571428571428470e+01 -4.872371719870827178e-02 6.445582187865428470e-02
3.529411764705882604e+01 -4.532188842044826416e-02 6.034139261568183255e-02
3.630252100840336027e+01 -4.223796925332345964e-02 5.650949427354268195e-02
3.731092436974789450e+01 -3.953828187519392579e-02 5.307110664891523388e-02
3.831932773109243584e+01 -3.727712724353005047e-02 5.012730682712296382e-02
3.932773109243697718e+01 -3.549604207152401436e-02 4.776440043603524810e-02
4.033613445378151141e+01 -3.422361932198414447e-02 4.604968326733138717e-02
4.134453781512604564e+01 -3.347550277540911612e-02 4.502769454975696917e-02
4.235294117647058698e+01 -3.325361507029900299e-02 4.471622299959543412e-02
4.336134453781512832e+01 -3.354802560318947968e-02 4.510725398012349618e-02
4.436974789915966255e+01 -3.433730604845952605e-02 4.616740951720998964e-02
4.537815126050419678e+01 -3.558850309198202666e-02 4.783938724168246281e-02
4.638655462184873812e+01 -3.726042791597616866e-02 5.004890109304693802e-02
4.739495798319327946e+01 -3.930351238173090955e-02 5.270762741881507285e-02
4.840336134453781369e+01 -4.166092892398209901e-02 5.571794793501827492e-02
4.941176470588234793e+01 -4.427205329904104758e-02 5.898015899719299959e-02
5.042016806722688926e+01 -4.707189821684965025e-02 6.239398339787904924e-02
5.142857142857143060e+01 -4.999320023130360280e-02 6.586267315922134102e-02
5.243697478991596483e+01 -5.296875114963894848e-02 6.929650115031427138e-02
5.344537815126049907e+01 -5.593128444427108992e-02 7.261282739763119665e-02
5.445378151260504040e+01 -5.881556660591313879e-02 7.573817363226642563e-02
5.546218487394958174e+01 -6.155938147165895824e-02 7.860864823273061575e-02
5.647058823529411598e+01 -6.410397921434651813e-02 8.116964582465169276e-02
5.747899159663865021e+01 -6.639533199844938061e-02 8.337616314423967889e-02
5.848739495798319155e+01 -6.838451148183111172e-02 8.519220036933972118e-02
5.949579831932773288e+01 -7.002813485894665568e-02 8.659021648336895360e-02
6.050420168067226712e+01 -7.128896571545761951e-02 8.755055915121967569e-02
6.151260504201680135e+01 -7.213651639880969135e-02 8.806106640339839142e-02
6.252100840336134269e+01 -7.254734226769099514e-02 8.811626858753518476e-02
6.352941176470588402e+01 -7.250542113239244468e-02 8.771661489168081083e-02
6.453781512605041826e+01 -7.200331511120794392e-02 8.686870655688805343e-02
6.554621848739495249e+01 -7.104191014011351779e-02 8.558414664018987317e-02
6.655462184873948672e+01 -6.963089779855169414e-02 8.387931603783171930e-02
6.756302521008403517e+01 -6.778962852010328444e-02 8.177581989815907448e-02
6.857142857142856940e+01 -6.554591717744995272e-02 7.929920209178853430e-02
6.957983193277310363e+01 -6.293639281505170047e-02 7.647948730209819246e-02
7.058823529411765207e+01 -6.000612221470857932e-02 7.335139509438159955e-02
7.159663865546218631e+01 -5.680650489432359507e-02 6.995315284947700718e-02
7.260504201680672054e+01 -5.339516994255488758e-02 6.632749203775711866e-02
7.361344537815125477e+01 -4.983424928531399178e-02 6.252134555377097946e-02
7.462184873949578900e+01 -4.618805682632420861e-02 5.858498233472664296e-02
7.563025210084033745e+01 -4.252243433236846393e-02 5.457274054654936979e-02
7.663865546218487168e+01 -3.890245018140392474e-02 5.054213190349809981e-02
7.764705882352940591e+01 -3.539083699771861102e-02 4.655330317377526228e-02
7.865546218487395436e+01 -3.204700713040220528e-02 4.266878822365549606e-02
7.966386554621848859e+01 -2.892532407483494605e-02 3.895219142772066157e-02
8.067226890756302282e+01 -2.607438814212459377e-02 3.546736037506548200e-02
8.168067226890755705e+01 -2.353629362976916717e-02 3.227720360676133993e-02
8.268907563025209129e+01 -2.134576271780408430e-02 2.944190682757441557e-02
8.369747899159663973e+01 -1.952997890934493608e-02 2.701746684412142940e-02
8.470588235294117396e+01 -1.810846131027354922e-02 2.505398592647245515e-02
8.571428571428570820e+01 -1.709322373463029177e-02 2.359384985698231851e-02
8.672268907563025664e+01 -1.648906871906807847e-02 2.266990494406750933e-02
8.773109243697479087e+01 -1.629454216660330967e-02 2.230435283937148849e-02
8.873949579831932510e+01 -1.650290983377666887e-02 2.250771345465107931e-02
8.974789915966385934e+01 -1.710286808777961021e-02 2.327781646606341681e-02
9.075630252100839357e+01 -1.808016826929959020e-02 2.460051631483706203e-02
9.176470588235294201e+01 -1.941832128517451128e-02 2.644986904172252906e-02
9.277310924369747624e+01 -2.109906171195896629e-02 2.878886676226033448e-02
9.378151260504201048e+01 -2.310329133902744303e-02 3.157175905373277303e-02
9.478991596638655892e+01 -2.541045113955331392e-02 3.474493354911600829e-02
9.579831932773109315e+01 -2.799805695452728393e-02 3.824882742876667407e-02
9.680672268907562739e+01 -3.084139583659462058e-02 4.202046538711556867e-02
9.781512605042016162e+01 -3.391187197452594226e-02 4.599417324126497952e-02
9.882352941176469585e+01 -3.717636144997438219e-02 5.010369761305155656e-02
9.983193277310924429e+01 -4.059652563995908015e-02 5.428368277346229398e-02
1.008403361344537785e+02 -4.412776979975430169e-02 5.847013165514669542e-02
1.018487394957983128e+02 -4.771970557357041454e-02 6.260201515204089073e-02
1.028571428571428612e+02 -5.131638587465281454e-02 6.662169139818141517e-02
1.038655462184873954e+02 -5.485705956297914909e-02 7.047520921640748615e-02
1.048739495798319297e+02 -5.827793717420459707e-02 7.411297236596747773e-02
1.058823529411764639e+02 -6.151412536944511622e-02 7.748990914792353024e-02
1.068907563025209981e+02 -6.450194106993156762e-02 8.056557546617848509e-02
1.078991596638655466e+02 -6.718139189001337552e-02 8.330425427834897700e-02
1.089075630252100808e+02 -6.949881215058695272e-02 8.567508585328975634e-02
1.099159663865546150e+02 -7.140907403244600715e-02 8.765200249177129699e-02
1.109243697478991635e+02 -7.287744939393014931e-02 8.921375845744206057e-02
1.119327731092436977e+02 -7.388083154697522303e-02 9.034403089563269873e-02
1.129411764705882320e+02 -7.440841531181507928e-02 9.103152006416304065e-02
1.139495798319327662e+02 -7.446140307419413240e-02 9.126998909202943544e-02
1.149579831932773004e+02 -7.405204659754971441e-02 9.105835491423452943e-02
1.159663865546218489e+02 -7.320288666665175636e-02 9.040127735337355475e-02
1.169747899159663831e+02 -7.194449916483947050e-02 8.930897415258931549e-02
1.179831932773109173e+02 -7.031382523074036772e-02 8.779757820526667977e-02
1.189915966386554658e+02 -6.835305278908299087e-02 8.588997807491027814e-02
1.200000000000000000e+02 -6.610710979696299283e-02 8.361522494239848058e-02
