0.000000000000000000e+00 2.220446049250313081e-16 1.110223024625156540e-16
1.008403361344537785e+00 2.004720587715169700e-03 5.037244133172524840e-04
2.016806722689075571e+00 7.948781296624907178e-03 1.946812583954904419e-03
3.025210084033613356e+00 1.763044630003163249e-02 4.135505354358803842e-03
4.033613445378151141e+00 3.072391081297098925e-02 6.777881968811239055e-03
5.042016806722688926e+00 4.680376822864162900e-02 9.523041871960957749e-03
6.050420168067226712e+00 6.536589252735247602e-02 1.200319534816496336e-02
7.058823529411764497e+00 8.585127548716753321e-02 1.387331053749074616e-02
8.067226890756302282e+00 1.076704346091842401e-01 1.484465489802289095e-02
9.075630252100840067e+00 1.302245165333151267e-01 1.471130306587764558e-02
1.008403361344537785e+01 1.529241379232617604e-01 1.336955476945012045e-02
1.109243697478991564e+01 1.752054184929974223e-01 1.083066812872934825e-02
1.210084033613445342e+01 1.965430936683019159e-01 7.227164052519885473e-03
1.310924369747899121e+01 2.164616599080768644e-01 2.812073653001956330e-03
1.411764705882352899e+01 2.345433526503799548e-01 -2.049093996107531623e-03
1.512605042016806678e+01 2.504331461852760121e-01 -6.894534752312053705e-03
1.613445378151260456e+01 2.638418901770220870e-01 -1.119232444303885909e-02
1.714285714285714235e+01 2.745473528411990216e-01 -1.437754403148261417e-02
1.815126050420168013e+01 2.823940518389500554e-01 -1.590074758472526106e-02
1.915966386554621792e+01 2.872908553850530566e-01 -1.528368513565581122e-02
2.016806722689075571e+01 2.892077761484763698e-01 -1.217579580739447387e-02
2.117647058823529349e+01 2.881722093090801629e-01 -6.400290813448061833e-03
2.218487394957983128e+01 2.842648189776217915e-01 2.022089885835409717e-03
2.319327731092436906e+01 2.776148937210947132e-01 1.287900217501691813e-02
2.420168067226890685e+01 2.683957090176227744e-01 2.579983047864065071e-02
2.521008403361344463e+01 2.568200834973701774e-01 4.030631488971503362e-02
2.621848739495798242e+01 2.431360422931994059e-01 5.586781031277077147e-02
2.722689075630252020e+01 2.276224276991212214e-01 7.195097487108592649e-02
2.823529411764705799e+01 2.105840495289081904e-01 8.805856805424439049e-02
2.924369747899159577e+01 1.923476151549137203e-01 1.037550373226395761e-01
3.025210084033613356e+01 1.732572265242393605e-01 1.186810267359128535e-01
3.126050420168067134e+01 1.536696925862115481e-01 1.325587273202474270e-01
3.226890756302520913e+01 1.339490056540886265e-01 1.451906495928674268e-01
3.327731092436974336e+01 1.144607139740401180e-01 1.564532988288557247e-01
3.428571428571428470e+01 9.556656102344751602e-02 1.662872787536083807e-01
3.529411764705882604e+01 7.761840646359874363e-02 1.746855781265711505e-01
3.630252100840336027e+01 6.095184997400060478e-02 1.816808426941319832e-01
3.731092436974789450e+01 4.587932900433067118e-02 1.873327111850580096e-01
3.831932773109243584e+01 3.268494948613231976e-02 1.917155964820268510e-01
3.932773109243697718e+01 2.162165049893793878e-02 1.949078832211037504e-01
4.033613445378151141e+01 1.291120168987702765e-02 1.969830402732868357e-01
4.134453781512604564e+01 6.745947936568574832e-03 1.980029823355943241e-01
4.235294117647058698e+01 3.289351574889298746e-03 1.980138619300481073e-01
4.336134453781512832e+01 2.672046336153699464e-03 1.970443724347462622e-01
4.436974789915966255e+01 4.980394353616635073e-03 1.951065129373822371e-01
4.537815126050419678e+01 1.023762107082626382e-02 1.921985235353492749e-01
4.638655462184873812e+01 1.838111066921443992e-02 1.883095980488639354e-01
4.739495798319327946e+01 2.924316255748482529e-02 1.834258033008268063e-01
4.840336134453781369e+01 4.254266922001614937e-02 1.775369102460196968e-01
4.941176470588234793e+01 5.789290480806952299e-02 1.706434455274178363e-01
5.042016806722688926e+01 7.482426113186124716e-02 1.627635036858506856e-01
5.142857142857143060e+01 9.281619430906762336e-02 1.539387244523665599e-01
5.243697478991596483e+01 1.113309571744109938e-01 1.442390656138118343e-01
5.344537815126049907e+01 1.298433089895028036e-01 1.337661986277326465e-01
5.445378151260504040e+01 1.478642978281552445e-01 1.226549752011153460e-01
5.546218487394958174e+01 1.649584121424976235e-01 1.110728322823663072e-01
5.647058823529411598e+01 1.807551583852826660e-01 9.921668824604623627e-02
5.747899159663865021e+01 1.949553113654287628e-01 8.730757322070714643e-02
5.848739495798319155e+01 2.073332308198425622e-01 7.558281864041016540e-02
5.949579831932773288e+01 2.177361720604986672e-01 6.428584556216743184e-02
6.050420168067226712e+01 2.260808126562678932e-01 5.365400783169826937e-02
6.151260504201680135e+01 2.323471345081586925e-01 4.390509827636124296e-02
6.252100840336134269e+01 2.365696480955097325e-01 3.522390784210904791e-02
6.352941176470588402e+01 2.388271223576712288e-01 2.774998719489474297e-02
6.453781512605041826e+01 2.392321432710173834e-01 2.156823233649851623e-02
6.554621848739495249e+01 2.379220279905889246e-01 1.670370586067237983e-02
6.655462184873948672e+01 2.350517719789437798e-01 1.312165252225849787e-02
6.756302521008403517e+01 2.307891042671630366e-01 1.073266600810462990e-02
6.857142857142856940e+01 2.253101844629761263e-01 9.402245987522594994e-03
6.957983193277310363e+01 2.187945351200475397e-01 8.963369088536121687e-03
7.058823529411765207e+01 2.114180490470225493e-01 9.230488044572493500e-03
7.159663865546218631e+01 2.033439605350788604e-01 1.001340857143528940e-02
7.260504201680672054e+01 1.947131454149229057e-01 1.112965701544310626e-02
7.361344537815125477e+01 1.856356767407629782e-01 1.241477107099486776e-02
7.462184873949578900e+01 1.761869966239468788e-01 1.373007168727313765e-02
7.563025210084033745e+01 1.664111399584364825e-01 1.496797866115817666e-02
7.663865546218487168e+01 1.563320596650616956e-01 1.605478736911658544e-02
7.764705882352940591e+01 1.459710345645626184e-01 1.695116417678310672e-02
7.865546218487395436e+01 1.353665400301573563e-01 1.765066816785865189e-02
7.966386554621848859e+01 1.245930510763850751e-01 1.817647256021337476e-02
8.067226890756302282e+01 1.137755915454167210e-01 1.857658968439646063e-02
8.168067226890755705e+01 1.030984112464251590e-01 1.891769431753964614e-02
8.268907563025209129e+01 9.280628037038207712e-02 1.927795969793821840e-02
8.369747899159663973e+01 8.319776500356557136e-02 1.973925563051204257e-02
8.470588235294117396e+01 7.461043215048823729e-02 2.037915976803039708e-02
8.571428571428570820e+01 6.739846001939620024e-02 2.126335163484605051e-02
8.672268907563025664e+01 6.190487572831804286e-02 2.243895622969838133e-02
8.773109243697479087e+01 5.843072010613314937e-02 2.392948354006141365e-02
8.873949579831932510e+01 5.720493854533892364e-02 2.573183061043538000e-02
8.974789915966385934e+01 5.835922520230218957e-02 2.781563565204470123e-02
9.075630252100839357e+01 6.191202915905624771e-02 3.012500728456524168e-02
9.176470588235294201e+01 6.776436056717705103e-02 3.258238430524473817e-02
9.277310924369747624e+01 7.570716031103830179e-02 3.509410582565652970e-02
9.378151260504201048e+01 8.543792347470768878e-02 3.755713606724009335e-02
9.478991596638655892e+01 9.658325859217065101e-02 3.986636818794708770e-02
9.579831932773109315e+01 1.087245641697345278e-01 4.192197771301342524e-02
9.680672268907562739e+01 1.214250553552127521e-01 4.363642427062541795e-02
9.781512605042016162e+01 1.342572032957807249e-01 4.494077337304758224e-02
9.882352941176469585e+01 1.468286571762080772e-01 4.579011830151946683e-02
9.983193277310924429e+01 1.588045183831237050e-01 4.616784070098733928e-02
1.008403361344537785e+02 1.699233717709669467e-01 4.608865373330039983e-02
1.018487394957983128e+02 1.800064224103636867e-01 4.560026643677816960e-02
1.028571428571428612e+02 1.889597409425707308e-01 4.478350100851091753e-02
1.038655462184873954e+02 1.967699111909460008e-01 4.375072106386779236e-02
1.048739495798319297e+02 2.034934453155412548e-01 4.264227056433844698e-02
1.058823529411764639e+02 2.092396863214012193e-01 4.162107685705107585e-02
1.068907563025209981e+02 2.141469611957400598e-01 4.086520226977963244e-02
1.078991596638655466e+02 2.183518076203265768e-01 4.055849691749502384e-02
1.089075630252100808e+02 2.219537735132148804e-01 4.087966331921577545e-02
1.099159663865546150e+02 2.249833087826218492e-01 4.199035875090884051e-02
1.109243697478991635e+02 2.273835010823219704e-01 4.402352353659055861e-02
1.119327731092436977e+02 2.290125056935541359e-01 4.707288821712096727e-02
1.129411764705882320e+02 2.296636335783421856e-01 5.118499509743945630e-02
1.139495798319327662e+02 2.290939340847126804e-01 5.635473433825766154e-02
1.149579831932773004e+02 2.270533639923155711e-01 6.252512362261686274e-02
1.159663865546218489e+02 2.233109970227680208e-01 6.959126259976344819e-02
1.169747899159663831e+02 2.176777153658040476e-01 7.740778717339369397e-02
1.179831932773109173e+02 2.100252411060656854e-01 8.579880121314109598e-02
1.189915966386554658e+02 2.003013734497982590e-01 9.456915550325828423e-02
1.200000000000000000e+02 1.885410728922591872e-01 1.035158264176058163e-01
