0.000000000000000000e+00 0.000000000000000000e+00 0.000000000000000000e+00
1.008403361344537785e+00 2.783415590416948859e-03 4.057460810820145980e-04
2.016806722689075571e+00 1.103075718415380546e-02 1.527189399306405626e-03
3.025210084033613356e+00 2.444374328326981427e-02 3.089831373610962828e-03
4.033613445378151141e+00 4.254423469434276406e-02 4.674911395572634021e-03
5.042016806722688926e+00 6.470998909463598903e-02 5.770285572171629518e-03
6.050420168067226712e+00 9.020880908228312567e-02 5.827278231635535377e-03
7.058823529411764497e+00 1.182353901068895485e-01 4.317214765869659132e-03
8.067226890756302282e+00 1.479472154301944009e-01 7.826089727391849493e-04
9.075630252100840067e+00 1.784953474526247419e-01 -5.119015901066559238e-03
1.008403361344537785e+01 2.090531146242688987e-01 -1.357961350017555802e-02
1.109243697478991564e+01 2.388404426448875739e-01 -2.461349596333273215e-02
1.210084033613445342e+01 2.671404881188417235e-01 -3.803668264478599070e-02
1.310924369747899121e+01 2.933158185107433980e-01 -5.345481063978119174e-02
1.411764705882352899e+01 3.168192160984548700e-01 -7.025914120301779420e-02
1.512605042016806678e+01 3.371998945449499185e-01 -8.763233087456390180e-02
1.613445378151260456e+01 3.541048393081032142e-01 -1.045676697074784389e-01
1.714285714285714235e+01 3.672779221479207656e-01 -1.199113998690914951e-01
1.815126050420168013e+01 3.765562308749212939e-01 -1.324414155739087606e-01
1.915966386554621792e+01 3.818640182163088870e-01 -1.409967568945186267e-01
2.016806722689075571e+01 3.832048989015961471e-01 -1.446582679054223552e-01
2.117647058823529349e+01 3.806551912501539014e-01 -1.429408914794596530e-01
2.218487394957983128e+01 3.743574242903453531e-01 -1.359126570347998220e-01
2.319327731092436906e+01 3.645089497348257268e-01 -1.241663253717231186e-01
2.420168067226890685e+01 3.513575236694481685e-01 -1.086658563957196844e-01
2.521008403361344463e+01 3.351961499121369759e-01 -9.054501165535921992e-02
2.621848739495798242e+01 3.163578669543889443e-01 -7.093698750107946260e-02
2.722689075630252020e+01 2.952110927174111943e-01 -5.086571508211401582e-02
2.823529411764705799e+01 2.721581339509806519e-01 -3.119106370397317640e-02
2.924369747899159577e+01 2.476323192675131679e-01 -1.258810080034233891e-02
3.025210084033613356e+01 2.220900508239873616e-01 4.454651599487657876e-03
3.126050420168067134e+01 1.960062159315227870e-01 1.962339642056631916e-02
3.226890756302520913e+01 1.698687691270301947e-01 3.275963762958045145e-02
3.327731092436974336e+01 1.441739742841674499e-01 4.383663229035938969e-02
3.428571428571428470e+01 1.194137785701061549e-01 5.293571673611574546e-02
3.529411764705882604e+01 9.607006663337702701e-02 6.021814813626535923e-02
3.630252100840336027e+01 7.460330673213311226e-02 6.589779492081127010e-02
3.731092436974789450e+01 5.543636491482195616e-02 7.021445271569226598e-02
3.831932773109243584e+01 3.894825538585144908e-02 7.340800934279467782e-02
3.932773109243697718e+01 2.546644372118411770e-02 7.569686493195282306e-02
4.033613445378151141e+01 1.526792586433101118e-02 7.725999170164321583e-02
4.134453781512604564e+01 8.592055617561822345e-03 7.822401586295391063e-02
4.235294117647058698e+01 5.644119806389458205e-03 7.865646890119992740e-02
4.336134453781512832e+01 6.587874260503334689e-03 7.856504912132245000e-02
4.436974789915966255e+01 1.152176316182351723e-02 7.790264541210079052e-02
4.537815126050419678e+01 2.045006918959757503e-02 7.657703058162312892e-02
4.638655462184873812e+01 3.323759397360226409e-02 7.446438028164370504e-02
4.739495798319327946e+01 4.958001434501391191e-02 7.142541876015140456e-02
4.840336134453781369e+01 6.901184198837939654e-02 6.732175193322520457e-02
4.941176470588234793e+01 9.092450610324298577e-02 6.203272487714617256e-02
5.042016806722688926e+01 1.146111741747724011e-01 5.547098747300405197e-02
5.142857142857143060e+01 1.393182637332313067e-01 4.759594969075631177e-02
5.243697478991596483e+01 1.642958375211909239e-01 3.842337837437104220e-02
5.344537815126049907e+01 1.888300407080407695e-01 2.803408243755822760e-02
5.445378151260504040e+01 2.122721758232788414e-01 1.657869215785856554e-02
5.546218487394958174e+01 2.340639764609235840e-01 4.276808731177750289e-03
5.647058823529411598e+01 2.537443690428196064e-01 -8.583298982982379144e-03
5.747899159663865021e+01 2.709610969376106127e-01 -2.165337501285313770e-02
5.848739495798319155e+01 2.854750696086163497e-01 -3.453888411335326314e-02
5.949579831932773288e+01 2.971529859589430167e-01 -4.681319687277762931e-02
6.050420168067226712e+01 3.059636965874625858e-01 -5.804163742839230089e-02
6.151260504201680135e+01 3.119686407821715690e-01 -6.781030185691505618e-02
6.252100840336134269e+01 3.153078881961182134e-01 -7.575853070561067160e-02
6.352941176470588402e+01 3.161723562274432187e-01 -8.160457531351128502e-02
6.453781512605041826e+01 3.147900951778361822e-01 -8.517666001640133988e-02
6.554621848739495249e+01 3.114104993292379220e-01 -8.643049749309683616e-02
6.655462184873948672e+01 3.062860433108611780e-01 -8.544699520346699106e-02
6.756302521008403517e+01 2.996718168229897117e-01 -8.242385540764374241e-02
6.857142857142856940e+01 2.918223202010243877e-01 -7.765086675134891259e-02
6.957983193277310363e+01 2.829862118271355698e-01 -7.147791326122376887e-02
7.058823529411765207e+01 2.733924624836885364e-01 -6.428002923764808418e-02
7.159663865546218631e+01 2.632465194628799132e-01 -5.643454601026964834e-02
7.260504201680672054e+01 2.527107145513742825e-01 -4.829669605735720239e-02
7.361344537815125477e+01 2.418807110237641833e-01 -4.017917645868096521e-02
7.462184873949578900e+01 2.307836396209492769e-01 -3.234650690995977129e-02
7.563025210084033745e+01 2.193774324968078560e-01 -2.500679079326717513e-02
7.663865546218487168e+01 2.075702358684705651e-01 -1.831004479120879047e-02
7.764705882352940591e+01 1.952587213001404365e-01 -1.235164496266272227e-02
7.865546218487395436e+01 1.823672857936187164e-01 -7.175611914138180225e-03
7.966386554621848859e+01 1.688873120633389568e-01 -2.780476602469716951e-03
8.067226890756302282e+01 1.549084969368448306e-01 8.732515476173041691e-04
8.168067226890755705e+01 1.406441075205608904e-01 3.853258034536288790e-03
8.268907563025209129e+01 1.264329988263073190e-01 6.247055510983701154e-03
8.369747899159663973e+01 1.127306836529535783e-01 8.152009670047588585e-03
8.470588235294117396e+01 1.000892510256092827e-01 9.665355147874032937e-03
8.571428571428570820e+01 8.910665769667369673e-02 1.087614811346959698e-02
8.672268907563025664e+01 8.037910641130840972e-02 1.185691481646311551e-02
8.773109243697479087e+01 7.444708621181572727e-02 1.265739411905619782e-02
8.873949579831932510e+01 7.173364627675327121e-02 1.330045074458918730e-02
8.974789915966385934e+01 7.250017384246842944e-02 1.378007259187330469e-02
9.075630252100839357e+01 7.681441896464913377e-02 1.406181895673597193e-02
9.176470588235294201e+01 8.454064375566272549e-02 1.408558546160776359e-02
9.277310924369747624e+01 9.535330508654049630e-02 1.377061073229080002e-02
9.378151260504201048e+01 1.087674777133851300e-01 1.302199326754271969e-02
9.478991596638655892e+01 1.241765615892471697e-01 1.173864353644016312e-02
9.579831932773109315e+01 1.408935628731982082e-01 9.822541018148944758e-03
9.680672268907562739e+01 1.582018915416545379e-01 7.187014374774980396e-03
9.781512605042016162e+01 1.754056992144705784e-01 3.765806986120279198e-03
9.882352941176469585e+01 1.918795515761750892e-01 -4.779096204496902089e-04
9.983193277310924429e+01 2.071147275338258709e-01 -5.544540389874841324e-03
1.008403361344537785e+02 2.207453494966671315e-01 -1.139146016684189355e-02
1.018487394957983128e+02 2.325636849368777348e-01 -1.792807223435621822e-02
1.028571428571428612e+02 2.425210507422619344e-01 -2.501286365709365356e-02
1.038655462184873954e+02 2.507188393093753298e-01 -3.245373422622721549e-02
1.048739495798319297e+02 2.573850771364667445e-01 -4.000862271391736336e-02
1.058823529411764639e+02 2.628429247889438880e-01 -4.739086652156476731e-02
1.068907563025209981e+02 2.674726983259692048e-01 -5.428427567946791932e-02
1.078991596638655466e+02 2.716451239603618895e-01 -6.035269917668706352e-02
1.089075630252100808e+02 2.756517872594268503e-01 -6.526101238245118896e-02
1.099159663865546150e+02 2.796360810819187304e-01 -6.870120389995482135e-02
1.109243697478991635e+02 2.835490449995836659e-01 -7.041456184613059666e-02
1.119327731092436977e+02 2.871594702494502105e-01 -7.021848520386275716e-02
1.129411764705882320e+02 2.900989881631648171e-01 -6.802607531210425051e-02
1.139495798319327662e+02 2.919174264613220160e-01 -6.385533993973413480e-02
1.149579831932773004e+02 2.921375973651891833e-01 -5.782920451458350986e-02
1.159663865546218489e+02 2.903029388621174434e-01 -5.016496770375300507e-02
1.169747899159663831e+02 2.860172490924970390e-01 -4.115417420576017449e-02
1.179831932773109173e+02 2.789765366601022478e-01 -3.113421051607656587e-02
1.189915966386554658e+02 2.689999142860830528e-01 -2.046706067788706118e-02
1.200000000000000000e+02 2.560481392173485915e-01 -9.514414208924626415e-03
