0.000000000000000000e+00 2.220446049250313081e-16 -2.220446049250313081e-16
1.008403361344537785e+00 7.659430551062440529e-03 6.790339377410803401e-03
2.016806722689075571e+00 3.019335385865384858e-02 2.626206641421335863e-02
3.025210084033613356e+00 6.633762056874881186e-02 5.603176594089898099e-02
4.033613445378151141e+00 1.141844447925811634e-01 9.289169406929731476e-02
5.042016806722688926e+00 1.713987064449602471e-01 1.333822714925519959e-01
6.050420168067226712e+00 2.354103779938416796e-01 1.741371742928888855e-01
7.058823529411764497e+00 3.035760610859885578e-01 2.120798374929077079e-01
8.067226890756302282e+00 3.733092978184848754e-01 2.445476727032056541e-01
9.075630252100840067e+00 4.421790049941516365e-01 2.693797504398750542e-01
1.008403361344537785e+01 5.079892648010231326e-01 2.849867344577795558e-01
1.109243697478991564e+01 5.688419781524072238e-01 2.904059986768955381e-01
1.210084033613445342e+01 6.231854693965788172e-01 2.853442978455716927e-01
1.310924369747899121e+01 6.698492907885560399e-01 2.702098980399932904e-01
1.411764705882352899e+01 7.080644822452684117e-01 2.461369278713754216e-01
1.512605042016806678e+01 7.374674066848099230e-01 2.150049738427465273e-01
1.613445378151260456e+01 7.580846613304457193e-01 1.794546830975900509e-01
1.714285714285714235e+01 7.702964110245469342e-01 1.428892354224250427e-01
1.815126050420168013e+01 7.747762642896722785e-01 1.094157875157744098e-01
1.915966386554621792e+01 7.724080342223322848e-01 8.359106279817773988e-02
2.016806722689075571e+01 7.641838211705025419e-01 6.970612179122037677e-02
2.117647058823529349e+01 7.510935362492756617e-01 7.046448088393775233e-02
2.218487394957983128e+01 7.340216345053653946e-01 8.573414716174376782e-02
2.319327731092436906e+01 7.136695012304525854e-01 1.126362740441478882e-01
2.420168067226890685e+01 6.905187413053635037e-01 1.469036799142723337e-01
2.521008403361344463e+01 6.648407989932649809e-01 1.842047853035756466e-01
2.621848739495798242e+01 6.367442783050556443e-01 2.208079565602552030e-01
2.722689075630252020e+01 6.062430364689217477e-01 2.537755594762051148e-01
2.823529411764705799e+01 5.733368895512906960e-01 2.809647614966391815e-01
2.924369747899159577e+01 5.380912210533770335e-01 3.009717439890736701e-01
3.025210084033613356e+01 5.006945201433135040e-01 3.130647300734475946e-01
3.126050420168067134e+01 4.614902981946558125e-01 3.171160213802503014e-01
3.226890756302520913e+01 4.209844991241120660e-01 3.135327274218348004e-01
3.327731092436974336e+01 3.798332782740463376e-01 3.031836336465784099e-01
3.428571428571428470e+01 3.388251016417382910e-01 2.873197220764512894e-01
3.529411764705882604e+01 2.988630300048225052e-01 2.674864023363693333e-01
3.630252100840336027e+01 2.609305438599576199e-01 2.454261175415063390e-01
3.731092436974789450e+01 2.260227937027246004e-01 2.229707559798462801e-01
3.831932773109243584e+01 1.950570604456762780e-01 2.019245823407932461e-01
3.932773109243697718e+01 1.688108535858261483e-01 1.839407193028136378e-01
4.033613445378151141e+01 1.479317754925031370e-01 1.703979924416610947e-01
4.134453781512604564e+01 1.330140385996232411e-01 1.622899213427869691e-01
4.235294117647058698e+01 1.246889962600767898e-01 1.601419890435166193e-01
4.336134453781512832e+01 1.236714857649129362e-01 1.639737066559704415e-01
4.436974789915966255e+01 1.307265161600517089e-01 1.733156030945016690e-01
4.537815126050419678e+01 1.465433399699882511e-01 1.872791295865703365e-01
4.638655462184873812e+01 1.715250244820236691e-01 2.046651342530648732e-01
4.739495798319327946e+01 2.055378658124273894e-01 2.240901521437714816e-01
4.840336134453781369e+01 2.477140653382556845e-01 2.441111314644536234e-01
4.941176470588234793e+01 2.964142179024809032e-01 2.633355134256806229e-01
5.042016806722688926e+01 3.493844979790681204e-01 2.805105964000366159e-01
5.142857142857143060e+01 4.040358093338567436e-01 2.945912508197344737e-01
5.243697478991596483e+01 4.577334725075656863e-01 3.047877894483997929e-01
5.344537815126049907e+01 5.080299355073589762e-01 3.105967230249820910e-01
5.445378151260504040e+01 5.528278239926089910e-01 3.118170025707697190e-01
5.546218487394958174e+01 5.904823597073178831e-01 3.085536923904922402e-01
5.647058823529411598e+01 6.198527202576591399e-01 3.012100820976709725e-01
5.747899159663865021e+01 6.403120398973327632e-01 2.904680991349700703e-01
5.848739495798319155e+01 6.517337377585665781e-01 2.772555341365766646e-01
5.949579831932773288e+01 6.544751496244425315e-01 2.626971510625267792e-01
6.050420168067226712e+01 6.493574906235104471e-01 2.480456751580375485e-01
6.151260504201680135e+01 6.376192263197455468e-01 2.345890267400753126e-01
6.252100840336134269e+01 6.208205709633873859e-01 2.235337999334577885e-01
6.352941176470588402e+01 6.006853991050271624e-01 2.158735015676312985e-01
6.453781512605041826e+01 5.788937133020446435e-01 2.122624306717665332e-01
6.554621848739495249e+01 5.568946119705786568e-01 2.129259162788711413e-01
6.655462184873948672e+01 5.358174419758672258e-01 2.176351676143030156e-01
6.756302521008403517e+01 5.164759137265224620e-01 2.257562607145794376e-01
6.857142857142856940e+01 4.994140113133771486e-01 2.363572534441314987e-01
6.957983193277310363e+01 4.849687493439243102e-01 2.483413041121423914e-01
7.058823529411765207e+01 4.733404670534977488e-01 2.605746070906239664e-01
7.159663865546218631e+01 4.646419683433942183e-01 2.719901780783936518e-01
7.260504201680672054e+01 4.588646823974733557e-01 2.816617507111943697e-01
7.361344537815125477e+01 4.557007892753641709e-01 2.888504216724133711e-01
7.462184873949578900e+01 4.542854144526657922e-01 2.930298415918825006e-01
7.563025210084033745e+01 4.531110527479988992e-01 2.938957215696961223e-01
7.663865546218487168e+01 4.502666433326174555e-01 2.913641418573497122e-01
7.764705882352940591e+01 4.438299418935662821e-01 2.855616987593393441e-01
7.865546218487395436e+01 4.321903392118373599e-01 2.768093202019642485e-01
7.966386554621848859e+01 4.142469303319367135e-01 2.656006841813091102e-01
8.067226890756302282e+01 3.895207809663512322e-01 2.525755317377683662e-01
8.168067226890755705e+01 3.582189681713032758e-01 2.384877185013102308e-01
8.268907563025209129e+01 3.212703368061633480e-01 2.241675924525453611e-01
8.369747899159663973e+01 2.803404564446705383e-01 2.104783050291537672e-01
8.470588235294117396e+01 2.378190373535908897e-01 1.982661402705619969e-01
8.571428571428570820e+01 1.967587104978361090e-01 1.883061073466320012e-01
8.672268907563025664e+01 1.607377475926869970e-01 1.812459751611797953e-01
8.773109243697479087e+01 1.335885392555395956e-01 1.775542902110479604e-01
8.873949579831932510e+01 1.188524667649772937e-01 1.774797235598715162e-01
8.974789915966385934e+01 1.189078927636672001e-01 1.810289900025383591e-01
9.075630252100839357e+01 1.341619601511137017e-01 1.879677956818979201e-01
9.176470588235294201e+01 1.629646213603035410e-01 1.978445342607261237e-01
9.277310924369747624e+01 2.023081205502228475e-01 2.100318382545754980e-01
9.378151260504201048e+01 2.486962469654032670e-01 2.237785843907328376e-01
9.478991596638655892e+01 2.986950152886613807e-01 2.382651051534961928e-01
9.579831932773109315e+01 3.490956807031808662e-01 2.526562801904413957e-01
9.680672268907562739e+01 3.969145024916524989e-01 2.661495245224428929e-01
9.781512605042016162e+01 4.395167017516266039e-01 2.780165373399708928e-01
9.882352941176469585e+01 4.748265842330960940e-01 2.876387462193802369e-01
9.983193277310924429e+01 5.014540539800875774e-01 2.945367983820027513e-01
1.008403361344537785e+02 5.187311730909802687e-01 2.983944456380688282e-01
1.018487394957983128e+02 5.267055396376996157e-01 2.990769256246267327e-01
1.028571428571428612e+02 5.261111633072739213e-01 2.966435508504369212e-01
1.038655462184873954e+02 5.183213554833543402e-01 2.913536979859713272e-01
1.048739495798319297e+02 5.052914080561268229e-01 2.836647271515505553e-01
1.058823529411764639e+02 4.894962806809752820e-01 2.742195577118385907e-01
1.068907563025209981e+02 4.738427155269353541e-01 2.638207897224772447e-01
1.078991596638655466e+02 4.615056558334655890e-01 2.533877298989813953e-01
1.089075630252100808e+02 4.555433194927724916e-01 2.438931782560330719e-01
1.099159663865546150e+02 4.580103372194419542e-01 2.362794436611445059e-01
1.109243697478991635e+02 4.690457579791496023e-01 2.313587133550938368e-01
1.119327731092436977e+02 4.872213837632648481e-01 2.297110792992004269e-01
1.129411764705882320e+02 5.104120017290867395e-01 2.316008614405266064e-01
1.139495798319327662e+02 5.361811353433703076e-01 2.369328372931988058e-01
1.149579831932773004e+02 5.619252230459186315e-01 2.452611052058265573e-01
1.159663865546218489e+02 5.850422689110676977e-01 2.558477249712797219e-01
1.169747899159663831e+02 6.031114214733268586e-01 2.677545730162432802e-01
1.179831932773109173e+02 6.140384592435259581e-01 2.799468904152681015e-01
1.189915966386554658e+02 6.161699175841890419e-01 2.913908276181836898e-01
1.200000000000000000e+02 6.083828289577508652e-01 3.011350140408867171e-01
