0.000000000000000000e+00 2.220446049250313081e-16 0.000000000000000000e+00
1.008403361344537785e+00 4.279950931948106607e-03 7.869610043689245771e-04
2.016806722689075571e+00 1.693284984706322494e-02 3.015924914299361603e-03
3.025210084033613356e+00 3.741727560737273528e-02 6.304721871971397107e-03
4.033613445378151141e+00 6.488657113480433836e-02 1.005944027541150199e-02
5.042016806722688926e+00 9.826402237745712753e-02 1.353401034251011659e-02
6.050420168067226712e+00 1.363167732365357931e-01 1.590151068858669525e-02
7.058823529411764497e+00 1.777276400304996784e-01 1.633090453854779689e-02
8.067226890756302282e+00 2.211573871359067134e-01 1.406242602961604860e-02
9.075630252100840067e+00 2.652968678807390290e-01 8.477203691057644264e-03
1.008403361344537785e+01 3.089122888881477014e-01 -8.423983377412458395e-04
1.109243697478991564e+01 3.508770595784977964e-01 -1.406224751063844813e-02
1.210084033613445342e+01 3.901985806561298897e-01 -3.105718544117774815e-02
1.310924369747899121e+01 4.260377422410597248e-01 -5.138386031677488752e-02
1.411764705882352899e+01 4.577195725867020393e-01 -7.426555133788681484e-02
1.512605042016806678e+01 4.847314884927613754e-01 -9.858709386593877966e-02
1.613445378151260456e+01 5.067241266825419643e-01 -1.229152211756969759e-01
1.714285714285714235e+01 5.235032176204323928e-01 -1.455521686851339869e-01
1.815126050420168013e+01 5.350075158974487710e-01 -1.646368707656098440e-01
1.915966386554621792e+01 5.412942722349027846e-01 -1.783453036405644454e-01
2.016806722689075571e+01 5.425165184679321406e-01 -1.851864728052061704e-01
2.117647058823529349e+01 5.389013076193682750e-01 -1.843428720669149090e-01
2.218487394957983128e+01 5.307302096561765659e-01 -1.758999601965524073e-01
2.319327731092436906e+01 5.183258917207238525e-01 -1.608149508102409975e-01
2.420168067226890685e+01 5.020390025399437128e-01 -1.406374383401842731e-01
2.521008403361344463e+01 4.822409079921201602e-01 -1.171548054196263067e-01
2.621848739495798242e+01 4.593226100561778047e-01 -9.211083259518904054e-02
2.722689075630252020e+01 4.336989762642251556e-01 -6.703923923640831006e-02
2.823529411764705799e+01 4.058076293615122676e-01 -4.318277423778393853e-02
2.924369747899159577e+01 3.761153405857595722e-01 -2.147243001996579359e-02
3.025210084033613356e+01 3.451253650620187408e-01 -2.536765538313501267e-03
3.126050420168067134e+01 3.133734624029544946e-01 1.327714199672680451e-02
3.226890756302520913e+01 2.814239295680773800e-01 2.587086599481613902e-02
3.327731092436974336e+01 2.498643541250251676e-01 3.535560674380544555e-02
3.428571428571428470e+01 2.192974264621834202e-01 4.200971544305298622e-02
3.529411764705882604e+01 1.903260060877118853e-01 4.623474299419561007e-02
3.630252100840336027e+01 1.635435794348278904e-01 4.850865624334410597e-02
3.731092436974789450e+01 1.395117761596820216e-01 4.934156721476368190e-02
3.831932773109243584e+01 1.187378249803420216e-01 4.923296060400494945e-02
3.932773109243697718e+01 1.016642488297989644e-01 4.863315633741893684e-02
4.033613445378151141e+01 8.866634903086367814e-02 4.791204006138327642e-02
4.134453781512604564e+01 8.005777804147107268e-02 4.733587447015441541e-02
4.235294117647058698e+01 7.610020275315831917e-02 4.705373951245905850e-02
4.336134453781512832e+01 7.700962176223513644e-02 4.709444972168830290e-02
4.436974789915966255e+01 8.293073446594645404e-02 4.737260512590180106e-02
4.537815126050419678e+01 9.390946338869177179e-02 4.770439546781357620e-02
4.638655462184873812e+01 1.098490322637128980e-01 4.783017110256171378e-02
4.739495798319327946e+01 1.304596895272351897e-01 4.744171357545923229e-02
4.840336134453781369e+01 1.552282605445043373e-01 4.621240088044387129e-02
4.941176470588234793e+01 1.834178712458012228e-01 4.382738995688484351e-02
5.042016806722688926e+01 2.140981710073592836e-01 4.001240125849681029e-02
5.142857142857143060e+01 2.462024329277467949e-01 3.456010658071018149e-02
5.243697478991596483e+01 2.786141493553209170e-01 2.735005476420937498e-02
5.344537815126049907e+01 3.102360052832631165e-01 1.836552620909071010e-02
5.445378151260504040e+01 3.400579911106551556e-01 7.704381159315154548e-03
5.546218487394958174e+01 3.672127381424050707e-01 -4.416724169725050331e-03
5.647058823529411598e+01 3.910097768944069685e-01 -1.766464247538568344e-02
5.747899159663865021e+01 4.109493742534719996e-01 -3.159591231842040493e-02
5.848739495798319155e+01 4.267327362154698100e-01 -4.567541799718299877e-02
5.949579831932773288e+01 4.382624022551926402e-01 -5.930538724950906726e-02
6.050420168067226712e+01 4.456194125593906374e-01 -7.185291977934271657e-02
6.151260504201680135e+01 4.490491372690565974e-01 -8.269948909499880152e-02
6.252100840336134269e+01 4.489252629030138220e-01 -9.129176201610511576e-02
6.352941176470588402e+01 4.457012090397767246e-01 -9.719274504442954044e-02
6.453781512605041826e+01 4.398551340476819504e-01 -1.001250990574007460e-01
6.554621848739495249e+01 4.318601495329554840e-01 -1.000103363117690325e-01
6.655462184873948672e+01 4.221568126176684643e-01 -9.696973557191901349e-02
6.756302521008403517e+01 4.111479563879925081e-01 -9.130318566330075658e-02
6.857142857142856940e+01 3.992117041243123943e-01 -8.345521752932061332e-02
6.957983193277310363e+01 3.866975241089238846e-01 -7.395746611267850490e-02
7.058823529411765207e+01 3.739245691723744880e-01 -6.337908833591177071e-02
7.159663865546218631e+01 3.611623603771689783e-01 -5.228091185561845045e-02
7.260504201680672054e+01 3.485907991344587842e-01 -4.117771193580810341e-02
7.361344537815125477e+01 3.362468740704152026e-01 -3.051150873346719639e-02
7.462184873949578900e+01 3.239943623406960072e-01 -2.063971803039743591e-02
7.563025210084033745e+01 3.115249824107673149e-01 -1.182686402802812786e-02
7.663865546218487168e+01 2.984085215071934361e-01 -4.241740425237949808e-03
7.764705882352940591e+01 2.841907405558588007e-01 2.035285560922472925e-03
7.865546218487395436e+01 2.684885586083489706e-01 7.006131535790549592e-03
7.966386554621848859e+01 2.510764951671218270e-01 1.074354865582338725e-02
8.067226890756302282e+01 2.319520592564812134e-01 1.337732485692622042e-02
8.168067226890755705e+01 2.113768354187746112e-01 1.507965285961865298e-02
8.268907563025209129e+01 1.898904869343478463e-01 1.604935220543324270e-02
8.369747899159663973e+01 1.683023607264515498e-01 1.649549575934528001e-02
8.470588235294117396e+01 1.476535645328354018e-01 1.662161610674184331e-02
8.571428571428570820e+01 1.291444414664255635e-01 1.661104477471453400e-02
8.672268907563025664e+01 1.140372983999538015e-01 1.661353919000063684e-02
8.773109243697479087e+01 1.035215986396559318e-01 1.673518002062190924e-02
8.873949579831932510e+01 9.856104606319393557e-02 1.703117095317452367e-02
8.974789915966385934e+01 9.975124727789130841e-02 1.750217558476996338e-02
9.075630252100839357e+01 1.072230690709039536e-01 1.809473639916858723e-02
9.176470588235294201e+01 1.206211804125061349e-01 1.870530671198467054e-02
9.277310924369747624e+01 1.391710026282702017e-01 1.918798559625134459e-02
9.378151260504201048e+01 1.618033669869840541e-01 1.936498548397835862e-02
9.478991596638655892e+01 1.872687102822285787e-01 1.903975189168249926e-02
9.579831932773109315e+01 2.142450037657188666e-01 1.801127857564543966e-02
9.680672268907562739e+01 2.414254383425709083e-01 1.608919355821125663e-02
9.781512605042016162e+01 2.676009174687508096e-01 1.310955134948654788e-02
9.882352941176469585e+01 2.917440289069670456e-01 8.949075359220071135e-03
9.983193277310924429e+01 3.130727771258041692e-01 3.538746659009550655e-03
1.008403361344537785e+02 3.310907489911874002e-01 -3.124453091463585963e-03
1.018487394957983128e+02 3.456016164451425343e-01 -1.096810566633954487e-02
1.028571428571428612e+02 3.567032624125596740e-01 -1.983852647818995507e-02
1.038655462184873954e+02 3.647631101007191567e-01 -2.949741113289250372e-02
1.048739495798319297e+02 3.703802171215100358e-01 -3.962449846013438304e-02
1.058823529411764639e+02 3.743308321162790442e-01 -4.982644960604276640e-02
1.068907563025209981e+02 3.774843423570479750e-01 -5.964863730759750737e-02
1.078991596638655466e+02 3.806939510461058163e-01 -6.859984767846871723e-02
1.089075630252100808e+02 3.846554969738846808e-01 -7.618289132762723348e-02
1.099159663865546150e+02 3.897654956161866746e-01 -8.193202497873608436e-02
1.109243697478991635e+02 3.960320766738836262e-01 -8.545488780382859417e-02
1.119327731092436977e+02 4.030871198303180858e-01 -8.647428401575907309e-02
1.129411764705882320e+02 4.102710069021697770e-01 -8.485949232158396249e-02
1.139495798319327662e+02 4.167430979442565686e-01 -8.064297061647884846e-02
1.149579831932773004e+02 4.215874817334719360e-01 -7.401981493748766017e-02
1.159663865546218489e+02 4.238991144032948633e-01 -6.532458868350299319e-02
1.169747899159663831e+02 4.228639782241092604e-01 -5.499854039145180007e-02
1.179831932773109173e+02 4.178205824413796510e-01 -4.354792357946246639e-02
1.189915966386554658e+02 4.083076174717250595e-01 -3.149997760119083168e-02
1.200000000000000000e+02 3.941047386396243635e-01 -1.936724666955647045e-02
