0.000000000000000000e+00 2.220446049250313081e-16 0.000000000000000000e+00
1.008403361344537785e+00 1.965544068307401027e-03 4.335015441876421960e-04
2.016806722689075571e+00 7.793790553648372033e-03 1.672640908271016968e-03
3.025210084033613356e+00 1.728796641808805212e-02 3.542312077877363130e-03
4.033613445378151141e+00 3.013011762844475250e-02 5.777719113276069685e-03
5.042016806722688926e+00 4.590477485482424846e-02 8.058946506626196715e-03
6.050420168067226712e+00 6.411927215439749972e-02 1.004908411939464674e-02
7.058823529411764497e+00 8.422672395560526493e-02 1.143102641530679975e-02
8.067226890756302282e+00 1.056500586683875031e-01 1.193931590881702753e-02
9.075630252100840067e+00 1.278024754342348412e-01 1.138595886371962518e-02
1.008403361344537785e+01 1.501058843399376563e-01 9.679713536100864602e-03
1.109243697478991564e+01 1.720066519324485732e-01 6.838977574463500630e-03
1.210084033613445342e+01 1.929884508633832318e-01 2.998390761759006651e-03
1.310924369747899121e+01 2.125835085512997047e-01 -1.591730652857448192e-03
1.411764705882352899e+01 2.303801951023516370e-01 -6.572926993161143372e-03
1.512605042016806678e+01 2.460281520123586141e-01 -1.149436493555000549e-02
1.613445378151260456e+01 2.592414638128506255e-01 -1.583834223099278571e-02
1.714285714285714235e+01 2.697998857167607234e-01 -1.905648560381778545e-02
1.815126050420168013e+01 2.775487727622876211e-01 -2.061674630804477548e-02
1.915966386554621792e+01 2.823967374967986110e-01 -2.005707289524383263e-02
2.016806722689075571e+01 2.843127016802871054e-01 -1.703974479856751323e-02
2.117647058823529349e+01 2.833223178197674663e-01 -1.139547915522731714e-02
2.218487394957983128e+01 2.795039816236295493e-01 -3.146065601486558450e-03
2.319327731092436906e+01 2.729842481972479806e-01 7.501413998780348535e-03
2.420168067226890685e+01 2.639333609663510050e-01 2.018640073619126785e-02
2.521008403361344463e+01 2.525608709664313167e-01 3.444336439061679300e-02
2.621848739495798242e+01 2.391114344575373529e-01 4.975486929251915491e-02
2.722689075630252020e+01 2.238600689671477184e-01 6.559989528367426992e-02
2.823529411764705799e+01 2.071076582047777226e-01 8.149126601130896042e-02
2.924369747899159577e+01 1.891767811365476781e-01 9.700077987221833453e-02
3.025210084033613356e+01 1.704071859041087489e-01 1.117735945448098400e-01
3.126050420168067134e+01 1.511510932855757439e-01 1.255337101705029657e-01
3.226890756302520913e+01 1.317673507695467094e-01 1.380831966881349571e-01
3.327731092436974336e+01 1.126163560340076586e-01 1.492959546645435953e-01
3.428571428571428470e+01 9.405449825528700014e-02 1.591084033849670121e-01
3.529411764705882604e+01 7.642820243459291785e-02 1.675082189553620537e-01
3.630252100840336027e+01 6.006750367526736412e-02 1.745221492024420229e-01
3.731092436974789450e+01 4.527946260628123998e-02 1.802037600307162535e-01
3.831932773109243584e+01 3.234331826867276050e-02 1.846216139005205648e-01
3.932773109243697718e+01 2.150750879571206031e-02 1.878489026218481683e-01
4.033613445378151141e+01 1.298941704103073747e-02 1.899548753537472212e-01
4.134453781512604564e+01 6.976540961460275803e-03 1.909984334546798168e-01
4.235294117647058698e+01 3.626759855101191476e-03 1.910240264164987378e-01
4.336134453781512832e+01 3.064165536444507509e-03 1.900600139967240088e-01
4.436974789915966255e+01 5.368069041292167221e-03 1.881193707753303634e-01
4.537815126050419678e+01 1.055531064826042975e-02 1.852024913552812180e-01
4.638655462184873812e+01 1.855955198520131688e-02 1.813015898316991947e-01
4.739495798319327946e+01 2.921364859312192142e-02 1.764064296173852853e-01
4.840336134453781369e+01 4.224231710276193930e-02 1.705108329886955154e-01
4.941176470588234793e+01 5.726958656461589303e-02 1.636194282256360211e-01
5.042016806722688926e+01 7.384011472715990010e-02 1.557541447727022188e-01
5.142857142857143060e+01 9.144942576037939919e-02 1.469598160992389158e-01
5.243697478991596483e+01 1.095754841973199945e-01 1.373088787937024602e-01
5.344537815126049907e+01 1.277073232545797854e-01 1.269045171754246137e-01
5.445378151260504040e+01 1.453680611383658672e-01 1.158820370804496402e-01
5.546218487394958174e+01 1.621319874530715577e-01 1.044080881201316924e-01
5.647058823529411598e+01 1.776359356170613690e-01 9.267763323795907837e-02
5.747899159663865021e+01 1.915855027804131971e-01 8.090874247400359209e-02
5.848739495798319155e+01 2.037576704412167317e-01 6.933488561720069221e-02
5.949579831932773288e+01 2.140003024817507260e-01 5.819500151746792582e-02
6.050420168067226712e+01 2.222290362014038845e-01 4.772155709287073666e-02
6.151260504201680135e+01 2.284212482016745316e-01 3.812763593976997711e-02
6.252100840336134269e+01 2.326077342657151270e-01 2.959389539400447688e-02
6.352941176470588402e+01 2.348628800388419258e-01 2.225674058475146655e-02
6.453781512605041826e+01 2.352946401718452041e-01 1.619925531288379794e-02
6.554621848739495249e+01 2.340355973519230304e-01 1.144628786693535627e-02
6.655462184873948672e+01 2.312362296939820538e-01 7.964489317880185659e-03
6.756302521008403517e+01 2.270600015678652106e-01 5.667284216983370371e-03
6.857142857142856940e+01 2.216790877020948791e-01 4.424079724254958990e-03
6.957983193277310363e+01 2.152692573780874419e-01 4.072429429693658065e-03
7.058823529411765207e+01 2.080029037244299772e-01 4.431620404650504774e-03
7.159663865546218631e+01 2.000405371683624534e-01 5.315961147832726219e-03
7.260504201680672054e+01 1.915213058947671243e-01 6.546805497465890689e-03
7.361344537815125477e+01 1.825549618381632211e-01 7.962498040442356206e-03
7.462184873949578900e+01 1.732180174625328473e-01 9.426024428797918908e-03
7.563025210084033745e+01 1.635570373814103640e-01 1.083008765157023046e-02
7.663865546218487168e+01 1.535995439769983761e-01 1.209975886177550031e-02
7.764705882352940591e+01 1.433705993772182996e-01 1.319299459322731405e-02
7.865546218487395436e+01 1.329118890213929483e-01 1.409918802711451757e-02
7.966386554621848859e+01 1.222995591056651454e-01 1.483608034484995564e-02
8.067226890756302282e+01 1.116583902606782530e-01 1.544507537385375606e-02
8.168067226890755705e+01 1.011700391975075553e-01 1.598537401605604202e-02
8.268907563025209129e+01 9.107418938870803782e-02 1.652719660009338565e-02
8.369747899159663973e+01 8.166194236162815923e-02 1.714445094167782457e-02
8.470588235294117396e+01 7.326125679528872059e-02 1.790729186658102101e-02
8.571428571428570820e+01 6.621560722776087538e-02 1.887503377560073581e-02
8.672268907563025664e+01 6.085708624796315469e-02 2.009003416342802772e-02
8.773109243697479087e+01 5.747673475407899524e-02 2.157304427623840670e-02
8.873949579831932510e+01 5.629548910532200523e-02 2.332046260013909134e-02
8.974789915966385934e+01 5.744014136043729124e-02 2.530371969042277680e-02
9.075630252100839357e+01 6.092811236593287383e-02 2.747082106774834109e-02
9.176470588235294201e+01 6.666323408970431519e-02 2.974986214231312154e-02
9.277310924369747624e+01 7.444266512933461755e-02 3.205413185060934644e-02
9.378151260504201048e+01 8.397286434894191132e-02 3.428831678558852403e-02
9.478991596638655892e+01 9.489135108557356091e-02 3.635528677920341067e-02
9.579831932773109315e+01 1.067914034025848613e-01 3.816300598846134040e-02
9.680672268907562739e+01 1.192482603398299368e-01 3.963116852853942884e-02
9.781512605042016162e+01 1.318456865165555936e-01 4.069724673937336057e-02
9.882352941176469585e+01 1.442013561512611730e-01 4.132164601351373534e-02
9.983193277310924429e+01 1.559880963545388077e-01 4.149187460251513304e-02
1.008403361344537785e+02 1.669495078539566801e-01 4.122551709706323564e-02
1.018487394957983128e+02 1.769089435690862633e-01 4.057188008638479282e-02
1.028571428571428612e+02 1.857718220166879597e-01 3.961209443934055052e-02
1.038655462184873954e+02 1.935214254960522240e-01 3.845751013025389131e-02
1.048739495798319297e+02 2.002084014704532677e-01 3.724638476146524546e-02
1.058823529411764639e+02 2.059341828944900588e-01 3.613859792692508677e-02
1.068907563025209981e+02 2.108278314360669814e-01 3.530843948533790577e-02
1.078991596638655466e+02 2.150164722971976694e-01 3.493540883532852970e-02
1.089075630252100808e+02 2.185919363097790225e-01 3.519365166370458375e-02
1.099159663865546150e+02 2.215806464573739643e-01 3.624056271725650813e-02
1.109243697478991635e+02 2.239265261628671233e-01 3.820541978310110220e-02
1.119327731092436977e+02 2.254930371868348882e-01 4.117923971754033907e-02
1.129411764705882320e+02 2.260819425411035866e-01 4.520698689083402222e-02
1.139495798319327662e+02 2.254601568679885926e-01 5.028338168672596975e-02
1.149579831932773004e+02 2.233875972065815230e-01 5.635265529766564363e-02
1.159663865546218489e+02 2.196426770633750358e-01 6.331229281434347378e-02
1.169747899159663831e+02 2.140445425207520014e-01 7.102019377834523084e-02
1.179831932773109173e+02 2.064716830964037353e-01 7.930433637726574947e-02
1.189915966386554658e+02 1.968766560335217797e-01 8.797365461341755122e-02
1.200000000000000000e+02 1.852969802644695019e-01 9.682902259431758196e-02
