0.000000000000000000e+00 2.220446049250313081e-16 0.000000000000000000e+00
1.008403361344537785e+00 6.468046112884318077e-03 6.225251859910740926e-03
2.016806722689075571e+00 2.553354723929635028e-02 2.373498155513731334e-02
3.025210084033613356e+00 5.622498280962751060e-02 4.972159667374531633e-02
4.033613445378151141e+00 9.705540514226407289e-02 8.087859550991449709e-02
5.042016806722688926e+00 1.461746990995014261e-01 1.140266328050346667e-01
6.050420168067226712e+00 2.015139788918611785e-01 1.463078328216708135e-01
7.058823529411764497e+00 2.609185222727685716e-01 1.752422493236970302e-01
8.067226890756302282e+00 3.222493461775584045e-01 1.987554271126169558e-01
9.075630252100840067e+00 3.834643278594800364e-01 2.152119933162656151e-01
1.008403361344537785e+01 4.426952966104631404e-01 2.234569154381871314e-01
1.109243697478991564e+01 4.982980924132252021e-01 2.228500680963493297e-01
1.210084033613445342e+01 5.488944092458800661e-01 2.132984369479727915e-01
1.310924369747899121e+01 5.933980303602452988e-01 1.952831878699360368e-01
1.411764705882352899e+01 6.310309172250869736e-01 1.698826862104355628e-01
1.512605042016806678e+01 6.613242272466262062e-01 1.387932353304542898e-01
1.613445378151260456e+01 6.841044319258209327e-01 1.043497883845151408e-01
1.714285714285714235e+01 6.994660146498095088e-01 6.953812168537754079e-02
1.815126050420168013e+01 7.077261181253251543e-01 3.796721030375771466e-02
1.915966386554621792e+01 7.093711586402104974e-01 1.367506884088831587e-02
2.016806722689075571e+01 7.049917043957016904e-01 5.173259091219017947e-04
2.117647058823529349e+01 6.952159132904749406e-01 9.511784793162503249e-04
2.218487394957983128e+01 6.806531976351009039e-01 1.483241560177706031e-02
2.319327731092436906e+01 6.618467462785910804e-01 3.951700036346916800e-02
2.420168067226890685e+01 6.392517255257932351e-01 7.116652908526832633e-02
2.521008403361344463e+01 6.132353689883438541e-01 1.059544226837964009e-01
2.621848739495798242e+01 5.840936775581946350e-01 1.406257800341440545e-01
2.722689075630252020e+01 5.520864039005832780e-01 1.726295194447026171e-01
2.823529411764705799e+01 5.174768238295219813e-01 2.000998091642546273e-01
2.924369747899159577e+01 4.805725307539274738e-01 2.217981740964282134e-01
3.025210084033613356e+01 4.417587393706750021e-01 2.370504357819995800e-01
3.126050420168067134e+01 4.015186669565165012e-01 2.456871653319064874e-01
3.226890756302520913e+01 3.604386908958374658e-01 2.479837899453086747e-01
3.327731092436974336e+01 3.191969318000094091e-01 2.445988371744288736e-01
3.428571428571428470e+01 2.785577631095021989e-01 2.365077508778951065e-01
3.529411764705882604e+01 2.393683244692210721e-01 2.249304828801509393e-01
3.630252100840336027e+01 2.025298420558667711e-01 2.112507673991111945e-01
3.731092436974789450e+01 1.689278988024729422e-01 1.969275129218212017e-01
3.831932773109243584e+01 1.393384517303224435e-01 1.833955825535263928e-01
3.932773109243697718e+01 1.143890372465052874e-01 1.719598862580852261e-01
4.033613445378151141e+01 9.461249336709443014e-02 1.636897929635147131e-01
4.134453781512604564e+01 8.054556731665107883e-02 1.593230669359674279e-01
4.235294117647058698e+01 7.281805647801820047e-02 1.592014918205345575e-01
4.336134453781512832e+01 7.218050525151731289e-02 1.632502594590528044e-01
4.436974789915966255e+01 7.943949337566980073e-02 1.710078087191602147e-01
4.537815126050419678e+01 9.527703855065849936e-02 1.817011716298463364e-01
4.638655462184873812e+01 1.199565550306631589e-01 1.943439765214812764e-01
4.739495798319327946e+01 1.530471364506844623e-01 2.078410252945972481e-01
4.840336134453781369e+01 1.933530938584540060e-01 2.210841458060704978e-01
4.941176470588234793e+01 2.390862981063537340e-01 2.330313538951130914e-01
5.042016806722688926e+01 2.881443368683387352e-01 2.427696602345889021e-01
5.142857142857143060e+01 3.383488686421083358e-01 2.495615865292465374e-01
5.243697478991596483e+01 3.876082306542054656e-01 2.528783524405781025e-01
5.344537815126049907e+01 4.340287208423916354e-01 2.524214700923014254e-01
5.445378151260504040e+01 4.759941103868532419e-01 2.481345148882890816e-01
5.546218487394958174e+01 5.122235431687114371e-01 2.402059311617132931e-01
5.647058823529411598e+01 5.418049971426333045e-01 2.290631503390181400e-01
5.747899159663865021e+01 5.642054341354270086e-01 2.153574519535488285e-01
5.848739495798319155e+01 5.792644560922624031e-01 1.999377030606147576e-01
5.949579831932773288e+01 5.871813669354526422e-01 1.838109564019477782e-01
6.050420168067226712e+01 5.884969791577341347e-01 1.680848321902482789e-01
6.151260504201680135e+01 5.840537806834606993e-01 1.538896930636041160e-01
6.252100840336134269e+01 5.749229279593710551e-01 1.422797763245302605e-01
6.352941176470588402e+01 5.622923406679674052e-01 1.341193251436257894e-01
6.453781512605041826e+01 5.473304936682377164e-01 1.299745634153448570e-01
6.554621848739495249e+01 5.310706217014100616e-01 1.300357839909065394e-01
6.655462184873948672e+01 5.143562026697314771e-01 1.340960260864251241e-01
6.756302521008403517e+01 4.978488874103113027e-01 1.415956454832005829e-01
6.857142857142856940e+01 4.820629132857945365e-01 1.517156832350433637e-01
6.957983193277310363e+01 4.674032675004031745e-01 1.634939744488246305e-01
7.058823529411765207e+01 4.541961351248027245e-01 1.759356523332803457e-01
7.159663865546218631e+01 4.426885643681961469e-01 1.881012191681417089e-01
7.260504201680672054e+01 4.329936604036850323e-01 1.991690519048505692e-01
7.361344537815125477e+01 4.249635353143930150e-01 2.084738534050808445e-01
7.462184873949578900e+01 4.180415373647716759e-01 2.155268092122765156e-01
7.563025210084033745e+01 4.112268869936410720e-01 2.200226359606077819e-01
7.663865546218487168e+01 4.032170316142011934e-01 2.218370726273655169e-01
7.764705882352940591e+01 3.926610125226621673e-01 2.210177601204107445e-01
7.865546218487395436e+01 3.784027840194523762e-01 2.177699605516866255e-01
7.966386554621848859e+01 3.596527113037109036e-01 2.124379964343103833e-01
8.067226890756302282e+01 3.360991996634217216e-01 2.054827619417108897e-01
8.168067226890755705e+01 3.079744582935615149e-01 1.974553810597615700e-01
8.268907563025209129e+01 2.760860468195756035e-01 1.889666730009076367e-01
8.369747899159663973e+01 2.418209982265879798e-01 1.806526024684095288e-01
8.470588235294117396e+01 2.071123499924616418e-01 1.731358385279712087e-01
8.571428571428570820e+01 1.743479182647551529e-01 1.669844394750029659e-01
8.672268907563025664e+01 1.462087482083485046e-01 1.626707469706057951e-01
8.773109243697479087e+01 1.254148327685793429e-01 1.605336916955875104e-01
8.873949579831932510e+01 1.143376570841845297e-01 1.607500344783326929e-01
8.974789915966385934e+01 1.145148971406737548e-01 1.633195266881917185e-01
9.075630252100839357e+01 1.262569375386983772e-01 1.680658689327126920e-01
9.176470588235294201e+01 1.485953562253725657e-01 1.746541604472849896e-01
9.277310924369747624e+01 1.796000320697794805e-01 1.826210167743999024e-01
9.378151260504201048e+01 2.168412242729089723e-01 1.914121278313024588e-01
9.478991596638655892e+01 2.577569534467343271e-01 2.004232002287037462e-01
9.579831932773109315e+01 2.998078893810669499e-01 2.090396262838650765e-01
9.680672268907562739e+01 3.405501675032174269e-01 2.166731389804522623e-01
9.781512605042016162e+01 3.778011129260590018e-01 2.227945681639159625e-01
9.882352941176469585e+01 4.098147913347869320e-01 2.269619856654585544e-01
9.983193277310924429e+01 4.353825783467142330e-01 2.288447833253598462e-01
1.008403361344537785e+02 4.538691441310565011e-01 2.282435440581815911e-01
1.018487394957983128e+02 4.652111464558077447e-01 2.251056814554441843e-01
1.028571428571428612e+02 4.698940091735184232e-01 2.195365049153880088e-01
1.038655462184873954e+02 4.689104782987174591e-01 2.118049288326571133e-01
1.048739495798319297e+02 4.637067330554902611e-01 2.023425084703894816e-01
1.058823529411764639e+02 4.561198206657082199e-01 1.917337609570134438e-01
1.068907563025209981e+02 4.482929956799244220e-01 1.806951356489370220e-01
1.078991596638655466e+02 4.425344900330683284e-01 1.700391532678541262e-01
1.089075630252100808e+02 4.410235497728445253e-01 1.606212555459228808e-01
1.099159663865546150e+02 4.451452564786644306e-01 1.532681238539511659e-01
1.109243697478991635e+02 4.548596716903585691e-01 1.486919681021287021e-01
1.119327731092436977e+02 4.690459731081642047e-01 1.474025186345544469e-01
1.129411764705882320e+02 4.860983382445240863e-01 1.496336017165657006e-01
1.139495798319327662e+02 5.041852459954780930e-01 1.553049162537224470e-01
1.149579831932773004e+02 5.213679269720659093e-01 1.640292786977244344e-01
1.159663865546218489e+02 5.357233791264002232e-01 1.751626792827400969e-01
1.169747899159663831e+02 5.454759346250428464e-01 1.878841599696368103e-01
1.179831932773109173e+02 5.491050850618721668e-01 2.012843311840406546e-01
1.189915966386554658e+02 5.454342358799022517e-01 2.144486212072295173e-01
1.200000000000000000e+02 5.337005471874434193e-01 2.265267586219830154e-01
