0.000000000000000000e+00 0.000000000000000000e+00 0.000000000000000000e+00
1.008403361344537785e+00 4.688862974791319083e-03 8.762897558667326336e-04
2.016806722689075571e+00 1.854423864198717631e-02 3.358372583136981504e-03
3.025210084033613356e+00 4.095486041068252536e-02 7.020050184810111560e-03
4.033613445378151141e+00 7.096797752186967401e-02 1.119640536592680924e-02
5.042016806722688926e+00 1.073757443666628619e-01 1.504745420469499884e-02
6.050420168067226712e+00 1.488001483707779293e-01 1.763537686711846852e-02
7.058823529411764497e+00 1.937746748373774253e-01 1.800905405940333992e-02
8.067226890756302282e+00 2.408140999959367257e-01 1.528839749734545173e-02
9.075630252100840067e+00 2.884734010701590634e-01 8.743370179638887407e-03
1.008403361344537785e+01 3.353975956919366119e-01 -2.136448266812029928e-03
1.109243697478991564e+01 3.803574341236863887e-01 -1.758284199584192464e-02
1.210084033613445342e+01 4.222797149891344137e-01 -3.750212905730054835e-02
1.310924369747899121e+01 4.602682244381270937e-01 -6.144061516438426018e-02
1.411764705882352899e+01 4.936145419083477481e-01 -8.856124318675195894e-02
1.512605042016806678e+01 5.217959092229365048e-01 -1.176286469781742117e-01
1.613445378151260456e+01 5.444769823648840656e-01 -1.470190205102615000e-01
1.714285714285714235e+01 5.614936884831434050e-01 -1.747545986247178718e-01
1.815126050420168013e+01 5.728305828345718886e-01 -1.985977408632360053e-01
1.915966386554621792e+01 5.785996996603235409e-01 -2.162691634318533174e-01
2.016806722689075571e+01 5.790149477855566218e-01 -2.258315271266224666e-01
2.117647058823529349e+01 5.743607870910232283e-01 -2.261869520645182208e-01
2.218487394957983128e+01 5.649673519069426941e-01 -2.174465982712691092e-01
2.319327731092436906e+01 5.511969859862684284e-01 -2.008898658541544702e-01
2.420168067226890685e+01 5.334289635222730919e-01 -1.785266419326725362e-01
2.521008403361344463e+01 5.120501817980416259e-01 -1.525843874547637702e-01
2.621848739495798242e+01 4.874579694126661700e-01 -1.251524884683272720e-01
2.722689075630252020e+01 4.600688889795627734e-01 -9.800529759805520769e-02
2.823529411764705799e+01 4.303193381374534887e-01 -7.253558315959263147e-02
2.924369747899159577e+01 3.986801824079018175e-01 -4.975421054448991853e-02
3.025210084033613356e+01 3.656620570530284553e-01 -3.031161565779916245e-02
3.126050420168067134e+01 3.318171206796975969e-01 -1.453234794087054915e-02
3.226890756302520913e+01 2.977377302241355217e-01 -2.457094614967347823e-03
3.327731092436974336e+01 2.640522474068680570e-01 6.110751962360438938e-03
3.428571428571428470e+01 2.314091817733339163e-01 1.155671519037704265e-02
3.529411764705882604e+01 2.004664524666159853e-01 1.440178436179007093e-02
3.630252100840336027e+01 1.718782904180200521e-01 1.524852034357215835e-02
3.731092436974789450e+01 1.462638481347249275e-01 1.472841793993762138e-02
3.831932773109243584e+01 1.241859081769918216e-01 1.345113544466358668e-02
3.932773109243697718e+01 1.061351903194899249e-01 1.195961951233592835e-02
4.033613445378151141e+01 9.252888980328843882e-02 1.069281731171645156e-02
4.134453781512604564e+01 8.371744035202777212e-02 9.957794439390488250e-03
4.235294117647058698e+01 8.000234717511378602e-02 9.915403225332353188e-03
4.336134453781512832e+01 8.162877553020320143e-02 1.057707323007606171e-02
4.436974789915966255e+01 8.876049965657850649e-02 1.181418536924816465e-02
4.537815126050419678e+01 1.014400497549448055e-01 1.337870047093425718e-02
4.638655462184873812e+01 1.195297267704378275e-01 1.493105554422879955e-02
4.739495798319327946e+01 1.426660650355142668e-01 1.607435918435462519e-02
4.840336134453781369e+01 1.702353222164916247e-01 1.639082532413382864e-02
4.941176470588234793e+01 2.013810729572726999e-01 1.547794835865290430e-02
5.042016806722688926e+01 2.350438968319861210e-01 1.298262030336982953e-02
5.142857142857143060e+01 2.700374403378145161e-01 8.630986963424680525e-03
5.243697478991596483e+01 3.051275649277562785e-01 2.252673527847415258e-03
5.344537815126049907e+01 3.391112143178265370e-01 -6.200350971526047417e-03
5.445378151260504040e+01 3.708899539474854734e-01 -1.664097625060412255e-02
5.546218487394958174e+01 3.995304978236489113e-01 -2.884210498796813127e-02
5.647058823529411598e+01 4.243003094572241896e-01 -4.243744603364696388e-02
5.747899159663865021e+01 4.446880396740113817e-01 -5.693073258755831922e-02
5.848739495798319155e+01 4.604105765796338012e-01 -7.171465720356517970e-02
5.949579831932773288e+01 4.714044442752034492e-01 -8.609566029142068366e-02
6.050420168067226712e+01 4.778181421900697945e-01 -9.933655045543343665e-02
6.151260504201680135e+01 4.799852324457567487e-01 -1.107076067213701442e-01
6.252100840336134269e+01 4.783803638672039504e-01 -1.195464128106660251e-01
6.352941176470588402e+01 4.735647021346229835e-01 -1.253242954268529719e-01
6.453781512605041826e+01 4.661238786822377023e-01 -1.277069291232395543e-01
6.554621848739495249e+01 4.566144314507862845e-01 -1.265911301456579263e-01
6.655462184873948672e+01 4.455388612530328807e-01 -1.221150102939811966e-01
6.756302521008403517e+01 4.333500916228454347e-01 -1.146391266393631536e-01
6.857142857142856940e+01 4.204533414200253283e-01 -1.046873852472240962e-01
6.957983193277310363e+01 4.072192063273734064e-01 -9.288674238146643614e-02
7.058823529411765207e+01 3.939831175362829008e-01 -7.990318877201962877e-02
7.159663865546218631e+01 3.810238454640759720e-01 -6.638560953551331245e-02
7.260504201680672054e+01 3.685128558450001535e-01 -5.292222901127430212e-02
7.361344537815125477e+01 3.564625881161134213e-01 -4.001718846113044847e-02
7.462184873949578900e+01 3.446716839648595876e-01 -2.807294240706736943e-02
7.563025210084033745e+01 3.327223199569504519e-01 -1.738385165399547461e-02
7.663865546218487168e+01 3.200530796364398078e-01 -8.139116521486133848e-03
7.764705882352940591e+01 3.060626141257669630e-01 -4.263467281024890809e-04
7.865546218487395436e+01 2.902372228705056845e-01 5.756757514849386581e-03
7.966386554621848859e+01 2.722557669022152016e-01 1.048931163436561675e-02
8.067226890756302282e+01 2.520634509853418859e-01 1.391256791605299803e-02
8.168067226890755705e+01 2.299164603168559751e-01 1.621349150050455101e-02
8.268907563025209129e+01 2.064089019794173030e-01 1.760654195312638670e-02
8.369747899159663973e+01 1.824600852617137559e-01 1.831704725445049142e-02
8.470588235294117396e+01 1.592694586914666921e-01 1.856443525498585601e-02
8.571428571428570820e+01 1.382452467442032429e-01 1.854660565882237933e-02
8.672268907563025664e+01 1.208804250439901029e-01 1.842665092586903697e-02
8.773109243697479087e+01 1.085986291427233352e-01 1.832206080908505008e-02
8.873949579831932510e+01 1.025701222360895226e-01 1.829731509136789391e-02
8.974789915966385934e+01 1.035247010858836303e-01 1.836009340451316696e-02
9.075630252100839357e+01 1.116254583410984935e-01 1.846112778353581341e-02
9.176470588235294201e+01 1.264487025185974112e-01 1.849813018373946960e-02
9.277310924369747624e+01 1.470707572143095110e-01 1.832309456834990691e-02
9.378151260504201048e+01 1.722179642155101664e-01 1.775294327435772423e-02
9.478991596638655892e+01 2.004251022406353666e-01 1.658264873652925964e-02
9.579831932773109315e+01 2.301530308452879314e-01 1.460024037333496061e-02
9.680672268907562739e+01 2.598906531618108140e-01 1.160306746366912556e-02
9.781512605042016162e+01 2.882544995949278821e-01 7.414231069387877682e-03
9.882352941176469585e+01 3.140821371465196687e-01 1.898911562254301799e-03
9.983193277310924429e+01 3.365034300830083147e-01 -5.019354185962665582e-03
1.008403361344537785e+02 3.549890291879307380e-01 -1.334637131611215999e-02
1.018487394957983128e+02 3.693633851260424983e-01 -2.300640749510196592e-02
1.028571428571428612e+02 3.797893902585287584e-01 -3.383110603332162292e-02
1.038655462184873954e+02 3.867498066937999912e-01 -4.555850601473743211e-02
1.048739495798319297e+02 3.909969918765547892e-01 -5.783174713710725889e-02
1.058823529411764639e+02 3.934890012181990748e-01 -7.020652093400436833e-02
1.068907563025209981e+02 3.952979024241245476e-01 -8.216726134102048107e-02
1.078991596638655466e+02 3.974723773442534469e-01 -9.315054209276207864e-02
1.089075630252100808e+02 4.008695873450673908e-01 -1.025807333622312800e-01
1.099159663865546150e+02 4.059861385649699006e-01 -1.099151168096702547e-01
1.109243697478991635e+02 4.128570318272031248e-01 -1.146941387601105866e-01
1.119327731092436977e+02 4.210651707989268022e-01 -1.165899018999256853e-01
1.129411764705882320e+02 4.298460779385326891e-01 -1.154522335397848432e-01
1.139495798319327662e+02 4.382135139052230066e-01 -1.113255755070965414e-01
1.149579831932773004e+02 4.450817946536504977e-01 -1.044460259651184275e-01
1.159663865546218489e+02 4.493736471356988282e-01 -9.521705156879367582e-02
1.169747899159663831e+02 4.501113243086543036e-01 -8.416375298190614807e-02
1.179831932773109173e+02 4.464899117602052492e-01 -7.188041930919752964e-02
1.189915966386554658e+02 4.379351798201733814e-01 -5.898127986871326556e-02
1.200000000000000000e+02 4.241471530264306899e-01 -4.605680691286484496e-02
