0.000000000000000000e+00 0.000000000000000000e+00 -2.220446049250313081e-16
1.008403361344537785e+00 2.968278718998407228e-03 6.363620041405226857e-04
2.016806722689075571e+00 1.175847577753064144e-02 2.444714462159103263e-03
3.025210084033613356e+00 2.603864751460061022e-02 5.136621009018460526e-03
4.033613445378151141e+00 4.528093616574935254e-02 8.272656441427272966e-03
5.042016806722688926e+00 6.880389134119324623e-02 1.131617840413068343e-02
6.050420168067226712e+00 9.581309689965766818e-02 1.369273843028662174e-02
7.058823529411764497e+00 1.254433295136438975e-01 1.484840355578431748e-02
8.067226890756302282e+00 1.567979074554803898e-01 1.430187192203413726e-02
9.075630252100840067e+00 1.889817594738949502e-01 1.168845652988437234e-02
1.008403361344537785e+01 2.211313231161755599e-01 6.795006502960165840e-03
1.109243697478991564e+01 2.524388638991283962e-01 -4.141946134571528049e-04
1.210084033613445342e+01 2.821690291363063707e-01 -9.779143256468447731e-03
1.310924369747899121e+01 3.096743592177457760e-01 -2.093588687272962545e-02
1.411764705882352899e+01 3.344049836570004430e-01 -3.331835262554472266e-02
1.512605042016806678e+01 3.559137423673481848e-01 -4.617257363322813113e-02
1.613445378151260456e+01 3.738564155442678505e-01 -5.858671615519683851e-02
1.714285714285714235e+01 3.879893395532745259e-01 -6.954384596254126194e-02
1.815126050420168013e+01 3.981642982116191387e-01 -7.800362488024470409e-02
1.915966386554621792e+01 4.043213457602581329e-01 -8.301531251146432311e-02
2.016806722689075571e+01 4.064798427459890284e-01 -8.385159149425358560e-02
2.117647058823529349e+01 4.047302830148866715e-01 -8.013352030536569082e-02
2.218487394957983128e+01 3.992264376060263853e-01 -7.190160162752223805e-02
2.319327731092436906e+01 3.901749878496700852e-01 -5.959987820122525370e-02
2.420168067226890685e+01 3.778277691056821652e-01 -4.398176773835971165e-02
2.521008403361344463e+01 3.624767164830149380e-01 -2.597728263664511594e-02
2.621848739495798242e+01 3.444534414005562262e-01 -6.566269968711013760e-03
2.722689075630252020e+01 3.241184879506664451e-01 1.332653604357092458e-02
2.823529411764705799e+01 3.018610876680889454e-01 3.289316887069282380e-02
2.924369747899159577e+01 2.780983073390259630e-01 5.147520295788821088e-02
3.025210084033613356e+01 2.532673010342727515e-01 6.857860778014579495e-02
3.126050420168067134e+01 2.278246509785635254e-01 8.386907874202398361e-02
3.226890756302520913e+01 2.022404014649064052e-01 9.716024337515194453e-02
3.327731092436974336e+01 1.769888856493415652e-01 1.083959054004228761e-01
3.428571428571428470e+01 1.525440034094356356e-01 1.176269136371046464e-01
3.529411764705882604e+01 1.293705914583875849e-01 1.249863858387287863e-01
3.630252100840336027e+01 1.079143158503357292e-01 1.306640484295107374e-01
3.731092436974789450e+01 8.858965981595900985e-02 1.348812752279440197e-01
3.831932773109243584e+01 7.177334439758797924e-02 1.378662993667272296e-01
3.932773109243697718e+01 5.779617520436519662e-02 1.398336881355277672e-01
4.033613445378151141e+01 4.693847283828644912e-02 1.409675762021180834e-01
4.134453781512604564e+01 3.943856319854099901e-02 1.414081395016238973e-01
4.235294117647058698e+01 3.549980493465687559e-02 1.412435674002148200e-01
4.336134453781512832e+01 3.529124260144889114e-02 1.405075394945666245e-01
4.436974789915966255e+01 3.892889901145579756e-02 1.391828810978693598e-01
4.537815126050419678e+01 4.645747798927213346e-02 1.372077564135886218e-01
4.638655462184873812e+01 5.781346044578405952e-02 1.344869371946766368e-01
4.739495798319327946e+01 7.278764329795672783e-02 1.309059778605259350e-01
4.840336134453781369e+01 9.100965410745598394e-02 1.263455486810850514e-01
4.941176470588234793e+01 1.119473568131703622e-01 1.206975366723697096e-01
5.042016806722688926e+01 1.349348577951203776e-01 1.138802586611051826e-01
5.142857142857143060e+01 1.592210401971596578e-01 1.058517344660858672e-01
5.243697478991596483e+01 1.840247750419727879e-01 9.661981674246189478e-02
5.344537815126049907e+01 2.085801414971015788e-01 8.625174697363902077e-02
5.445378151260504040e+01 2.321743748243358940e-01 7.488093718450050673e-02
5.546218487394958174e+01 2.541899811641745721e-01 6.270309579260402444e-02
5.647058823529411598e+01 2.741138882273350674e-01 4.997739979437110236e-02
5.747899159663865021e+01 2.915488483221375660e-01 3.701945663158667799e-02
5.848739495798319155e+01 3.062224234415871216e-01 2.418597965405844263e-02
5.949579831932773288e+01 3.179799321788436828e-01 1.186077658832096482e-02
6.050420168067226712e+01 3.267779820257779022e-01 4.333459594560995498e-04
6.151260504201680135e+01 3.326728600227433219e-01 -9.726849109682467187e-03
6.252100840336134269e+01 3.358069373472163388e-01 -1.830185314402488217e-02
6.352941176470588402e+01 3.363806010168866045e-01 -2.504648827568067837e-02
6.453781512605041826e+01 3.346309470369670525e-01 -2.981113449181616026e-02
6.554621848739495249e+01 3.308173911705276637e-01 -3.255828222179890652e-02
6.655462184873948672e+01 3.252035208466497185e-01 -3.335872868324107898e-02
6.756302521008403517e+01 3.180550625418621102e-01 -3.238521463771681930e-02
6.857142857142856940e+01 3.096383639964392920e-01 -2.989356732779557824e-02
6.957983193277310363e+01 3.002133753958005080e-01 -2.619396485342684322e-02
7.058823529411765207e+01 2.900259218378029580e-01 -2.162478339323326004e-02
7.159663865546218631e+01 2.792929562372248320e-01 -1.652640553979267679e-02
7.260504201680672054e+01 2.681821917991329407e-01 -1.121900897119676443e-02
7.361344537815125477e+01 2.567901734828859084e-01 -5.984736542413271465e-03
7.462184873949578900e+01 2.451344928711678417e-01 -1.057996898712665335e-03
7.563025210084033745e+01 2.331582021428508789e-01 3.382310130158661110e-03
7.663865546218487168e+01 2.207479746716494162e-01 7.218443115754258343e-03
7.764705882352940591e+01 2.077827404926753108e-01 1.038936612831242723e-02
7.865546218487395436e+01 1.941768704295994130e-01 1.288830506541793763e-02
7.966386554621848859e+01 1.799212585564360367e-01 1.475722289045233726e-02
8.067226890756302282e+01 1.651169858235996823e-01 1.607805087349956086e-02
8.168067226890755705e+01 1.499962041089439868e-01 1.696316050936941267e-02
8.268907563025209129e+01 1.349273425573800367e-01 1.754454437681229884e-02
8.369747899159663973e+01 1.204046091300394750e-01 1.796211799480695870e-02
8.470588235294117396e+01 1.070281859281752013e-01 1.835117129235708244e-02
8.571428571428570820e+01 9.545712088937563511e-02 1.883192417599688362e-02
8.672268907563025664e+01 8.634882118086728564e-02 1.949950453360016489e-02
8.773109243697479087e+01 8.030507164884637117e-02 2.041497897528943284e-02
8.873949579831932510e+01 7.779572349516983287e-02 2.160086464515909022e-02
8.974789915966385934e+01 7.910144162144661095e-02 2.303885017861051487e-02
9.075630252100839357e+01 8.427897764106506706e-02 2.467078586791648931e-02
9.176470588235294201e+01 9.314927343139545179e-02 2.640344432580232770e-02
9.277310924369747624e+01 1.053209697142266643e-01 2.811546953411270255e-02
9.378151260504201048e+01 1.202333091981093727e-01 2.966645172147874820e-02
9.478991596638655892e+01 1.372068369249563879e-01 3.090741963205867471e-02
9.579831932773109315e+01 1.554939016944143493e-01 3.169223346560112731e-02
9.680672268907562739e+01 1.743314302550929007e-01 3.188818938544879522e-02
9.781512605042016162e+01 1.929930917042010918e-01 3.138536847260775531e-02
9.882352941176469585e+01 2.108321511815542948e-01 3.010782604457129530e-02
9.983193277310924429e+01 2.273253559094443599e-01 2.802036545162844838e-02
1.008403361344537785e+02 2.421002654103330265e-01 2.513454985419816268e-02
1.018487394957983128e+02 2.549456463776746951e-01 2.151421417128274172e-02
1.028571428571428612e+02 2.658135392946143760e-01 1.727657539964289057e-02
1.038655462184873954e+02 2.748083758716959313e-01 1.259189128569837557e-02
1.048739495798319297e+02 2.821642796863010894e-01 7.680049134984212600e-03
1.058823529411764639e+02 2.882145070392665431e-01 2.803359190835186254e-03
1.068907563025209981e+02 2.933472931603828826e-01 -1.744806634276674373e-03
1.078991596638655466e+02 2.979458809265074226e-01 -5.655104248656006583e-03
1.089075630252100808e+02 3.023139733596980072e-01 -8.620600890480556444e-03
1.099159663865546150e+02 3.066032455715719252e-01 -1.035961499397219931e-02
1.109243697478991635e+02 3.107674472045602876e-01 -1.063769878120179868e-02
1.119327731092436977e+02 3.145691126815275407e-01 -9.288415940559735517e-03
1.129411764705882320e+02 3.176287846206662380e-01 -6.231118998290652300e-03
1.139495798319327662e+02 3.194817955602480275e-01 -1.478236683841394061e-03
1.149579831932773004e+02 3.196355586968104845e-01 4.865183858215771373e-03
1.159663865546218489e+02 3.176185621094489431e-01 1.261064921232635250e-02
1.169747899159663831e+02 3.130224656131503913e-01 2.150217258190734171e-02
1.179831932773109173e+02 3.055350876197677756e-01 3.123828006024420567e-02
1.189915966386554658e+02 2.949693928995049674e-01 4.149450161645473756e-02
1.200000000000000000e+02 2.812840935965961187e-01 5.194361587961626725e-02
