0.000000000000000000e+00 2.220446049250313081e-16 0.000000000000000000e+00
1.008403361344537785e+00 1.447129225508825279e-03 -3.754221024225845582e-04
2.016806722689075571e+00 5.742299558447738761e-03 -1.510433626054852319e-03
3.025210084033613356e+00 1.275200329518955122e-02 -3.430528379016695162e-03
4.033613445378151141e+00 2.226000888665868871e-02 -6.172282993005984153e-03
5.042016806722688926e+00 3.397937591560795667e-02 -9.776223209247758561e-03
6.050420168067226712e+00 4.756649385630695726e-02 -1.427746276790542446e-02
7.058823529411764497e+00 6.263450368070910823e-02 -1.969429486493945447e-02
8.067226890756302282e+00 7.877011022037416765e-02 -2.601779386619040846e-02
9.075630252100840067e+00 9.554685968678122698e-02 -3.320067076695609742e-02
1.008403361344537785e+01 1.125378896343850466e-01 -4.114767761144677571e-02
1.109243697478991564e+01 1.293292249491746482e-01 -4.970949515174261091e-02
1.210084033613445342e+01 1.455291461306091882e-01 -5.867856226593648472e-02
1.310924369747899121e+01 1.607764246683061060e-01 -6.778912853424778895e-02
1.411764705882352899e+01 1.747471741977091320e-01 -7.672235213316680458e-02
1.512605042016806678e+01 1.871610387574169643e-01 -8.511797441256641061e-02
1.613445378151260456e+01 1.977839661693130413e-01 -9.259088177557039945e-02
1.714285714285714235e+01 2.064303393655919638e-01 -9.875457022700850906e-02
1.815126050420168013e+01 2.129642157910922595e-01 -1.032504514778875837e-01
1.915966386554621792e+01 2.172995114847142695e-01 -1.057802355401862293e-01
2.016806722689075571e+01 2.193983571261521881e-01 -1.061359096674824309e-01
2.117647058823529349e+01 2.192694238100205695e-01 -1.042232888895464615e-01
2.218487394957983128e+01 2.169657400840818706e-01 -1.000733068784800395e-01
2.319327731092436906e+01 2.125814482099313008e-01 -9.383753320481402760e-02
2.420168067226890685e+01 2.062484538286506464e-01 -8.576981947170059239e-02
2.521008403361344463e+01 1.981330804480636587e-01 -7.619862765661866710e-02
2.621848739495798242e+01 1.884320497361644531e-01 -6.549523936868650864e-02
2.722689075630252020e+01 1.773677798477717449e-01 -5.404319759533537937e-02
2.823529411764705799e+01 1.651844086033400494e-01 -4.221372535124690017e-02
2.924369747899159577e+01 1.521435216080129216e-01 -3.034753815954283063e-02
3.025210084033613356e+01 1.385188456037673710e-01 -1.874250189661297306e-02
3.126050420168067134e+01 1.245910373541727623e-01 -7.647326448519953246e-03
3.226890756302520913e+01 1.106431485400760639e-01 2.739544620237399641e-03
3.327731092436974336e+01 9.695571347083364877e-02 1.226789318496646075e-02
3.428571428571428470e+01 8.380090792480965334e-02 2.083182611650880034e-02
3.529411764705882604e+01 7.143774949425107934e-02 2.836363875705383286e-02
3.630252100840336027e+01 6.010773056132046044e-02 3.482677559356095465e-02
3.731092436974789450e+01 5.003048557581768474e-02 4.020880317388964009e-02
3.831932773109243584e+01 4.139942242105609793e-02 4.451492208582996657e-02
3.932773109243697718e+01 3.437894301911037509e-02 4.776167373147677253e-02
4.033613445378151141e+01 2.910207681250454037e-02 4.997180516409860385e-02
4.134453781512604564e+01 2.566833566826043356e-02 5.117046249949663839e-02
4.235294117647058698e+01 2.414174129946400349e-02 5.138262955742045612e-02
4.336134453781512832e+01 2.454898518319004186e-02 5.063178300861337355e-02
4.436974789915966255e+01 2.687690476989867960e-02 4.893996532229327734e-02
4.537815126050419678e+01 3.106965798153815683e-02 4.632904053267328237e-02
4.638655462184873812e+01 3.702680265923530278e-02 4.282258180030884542e-02
4.739495798319327946e+01 4.460225171295562063e-02 3.844867002538532308e-02
4.840336134453781369e+01 5.360523844549147654e-02 3.324313063790007572e-02
4.941176470588234793e+01 6.380404998385169613e-02 2.725287204803961139e-02
5.042016806722688926e+01 7.493332888552173277e-02 2.053866246735258638e-02
5.142857142857143060e+01 8.670309946246590460e-02 1.317793854725191061e-02
5.243697478991596483e+01 9.880972151852940311e-02 5.266816030773391333e-03
5.344537815126049907e+01 1.109477577773918533e-01 -3.078920304738219649e-03
5.445378151260504040e+01 1.228220239227736377e-01 -1.172426828007422372e-02
5.546218487394958174e+01 1.341576290293962082e-01 -2.051618990355263961e-02
5.647058823529411598e+01 1.447085890033161792e-01 -2.928639401600685588e-02
5.747899159663865021e+01 1.542645476489623579e-01 -3.785571838124657251e-02
5.848739495798319155e+01 1.626553789578535358e-01 -4.604002959923636507e-02
5.949579831932773288e+01 1.697531356422752324e-01 -5.365696940402886472e-02
6.050420168067226712e+01 1.754722582180017199e-01 -6.053388261165593143e-02
6.151260504201680135e+01 1.797679279762980364e-01 -6.651631614043096441e-02
6.252100840336134269e+01 1.826325463173799069e-01 -7.147618320099957678e-02
6.352941176470588402e+01 1.840909830163397487e-01 -7.531877519281404698e-02
6.453781512605041826e+01 1.841955034589721762e-01 -7.798810428888613977e-02
6.554621848739495249e+01 1.830207525181648531e-01 -7.946970327123836775e-02
6.655462184873948672e+01 1.806591684196761083e-01 -7.979037088563190050e-02
6.756302521008403517e+01 1.772171422197128532e-01 -7.901513782090341387e-02
6.857142857142856940e+01 1.728113369073847050e-01 -7.724182746303309699e-02
6.957983193277310363e+01 1.675643295888606943e-01 -7.459367209079481587e-02
7.058823529411765207e+01 1.615997295641831144e-01 -7.121107435381701656e-02
7.159663865546218631e+01 1.550369621365259576e-01 -6.724348076886310643e-02
7.260504201680672054e+01 1.479860930291283516e-01 -6.284188782689770214e-02
7.361344537815125477e+01 1.405434341744777882e-01 -5.815216995844596504e-02
7.462184873949578900e+01 1.327899599847677248e-01 -5.331001654547873336e-02
7.563025210084033745e+01 1.247931317529409334e-01 -4.843737122158842112e-02
7.663865546218487168e+01 1.166122137270814152e-01 -4.364022511812715166e-02
7.764705882352940591e+01 1.083060653581551236e-01 -3.900739360254212862e-02
7.865546218487395436e+01 9.994269021557267152e-02 -3.461068546401557811e-02
7.966386554621848859e+01 9.160832774683624891e-02 -3.050589954626592437e-02
8.067226890756302282e+01 8.341454868168252101e-02 -2.673444998790186489e-02
8.168067226890755705e+01 7.550181005017875258e-02 -2.332527981998944178e-02
8.268907563025209129e+01 6.803937322960140754e-02 -2.029733036495495746e-02
8.369747899159663973e+01 6.122074272729627342e-02 -1.766202765303770406e-02
8.470588235294117396e+01 5.525479961831092357e-02 -1.542567809319317362e-02
8.571428571428570820e+01 5.035297938693328312e-02 -1.359158286000572424e-02
8.672268907563025664e+01 4.671438419411977350e-02 -1.216199782325200207e-02
8.773109243697479087e+01 4.450974917465566616e-02 -1.113958317342289561e-02
8.873949579831932510e+01 4.386615016837069891e-02 -1.052832494907995908e-02
8.974789915966385934e+01 4.485436488062299887e-02 -1.033391370611191906e-02
9.075630252100839357e+01 4.748089437239411126e-02 -1.056361684021589475e-02
9.176470588235294201e+01 5.168510252801572502e-02 -1.122554359687033543e-02
9.277310924369747624e+01 5.734182834764012249e-02 -1.232739516832159765e-02
9.378151260504201048e+01 6.426917811720345153e-02 -1.387484765908575390e-02
9.478991596638655892e+01 7.224011261632456993e-02 -1.586954411328000969e-02
9.579831932773109315e+01 8.099657459895714950e-02 -1.830683162836921340e-02
9.680672268907562739e+01 9.026521376484941683e-02 -2.117343156696360751e-02
9.781512605042016162e+01 9.977367632953204613e-02 -2.444524580671814107e-02
9.882352941176469585e+01 1.092656266661182762e-01 -2.808521244092732072e-02
9.983193277310924429e+01 1.185137647177261222e-01 -3.204151539651034497e-02
1.008403361344537785e+02 1.273299321897620739e-01 -3.624641510571557923e-02
1.018487394957983128e+02 1.355712713944672299e-01 -4.061580311212664718e-02
1.028571428571428612e+02 1.431417726838466464e-01 -4.504939631455795457e-02
1.038655462184873954e+02 1.499896379905614197e-01 -4.943194809979223336e-02
1.048739495798319297e+02 1.561007198174235722e-01 -5.363577692549159615e-02
1.058823529411764639e+02 1.614882505980794747e-01 -5.752439091219196943e-02
1.068907563025209981e+02 1.661798364723039434e-01 -6.095713468658803258e-02
1.078991596638655466e+02 1.702031770319705206e-01 -6.379497108725340482e-02
1.089075630252100808e+02 1.735724157195903672e-01 -6.590735172850614720e-02
1.099159663865546150e+02 1.762771376557037417e-01 -6.717924961834920161e-02
1.109243697478991635e+02 1.782760543882588866e-01 -6.751799870764929601e-02
1.119327731092436977e+02 1.794965268932859903e-01 -6.685939844396560083e-02
1.129411764705882320e+02 1.798400973584108886e-01 -6.517249678485226294e-02
1.139495798319327662e+02 1.791925340933750999e-01 -6.246205772667479117e-02
1.149579831932773004e+02 1.774368633625580394e-01 -5.876874215483474106e-02
1.159663865546218489e+02 1.744677190879957429e-01 -5.416698889455662247e-02
1.169747899159663831e+02 1.702054818542824144e-01 -4.876074354348425288e-02
1.179831932773109173e+02 1.646085259960101688e-01 -4.267753451150924082e-02
1.189915966386554658e+02 1.576830564047984051e-01 -3.606172881819325049e-02
1.200000000000000000e+02 1.494899558756574987e-01 -2.906756099046992059e-02
