0.000000000000000000e+00 2.220446049250313081e-16 -2.220446049250313081e-16
1.008403361344537785e+00 6.330326200617464316e-03 5.786298185710636588e-03
2.016806722689075571e+00 2.499359421232849598e-02 2.212697932251228572e-02
3.025210084033613356e+00 5.504885251368463184e-02 4.650355605237133094e-02
4.033613445378151141e+00 9.505393135484851985e-02 7.584619567782402427e-02
5.042016806722688926e+00 1.432117050470771424e-01 1.071276709302944052e-01
6.050420168067226712e+00 1.975093476610889631e-01 1.375898420535032196e-01
7.058823529411764497e+00 2.558472431873448638e-01 1.648252255232276475e-01
8.067226890756302282e+00 3.161383189490845069e-01 1.868163800606331693e-01
9.075630252100840067e+00 3.763868794213438562e-01 2.019732101592190965e-01
1.008403361344537785e+01 4.347640081549501989e-01 2.091747466572227987e-01
1.109243697478991564e+01 4.896567987983373449e-01 2.078034753942782364e-01
1.210084033613445342e+01 5.397090371336956682e-01 1.977767573251110189e-01
1.310924369747899121e+01 5.838467458824156964e-01 1.795732147765124465e-01
1.411764705882352899e+01 6.212937891660987866e-01 1.542549730831211940e-01
1.512605042016806678e+01 6.515726819934908320e-01 1.234874857651881985e-01
1.613445378151260456e+01 6.744914865427100725e-01 8.955834211867208516e-02
1.714285714285714235e+01 6.901172828658708180e-01 5.538649026569375522e-02
1.815126050420168013e+01 6.987330637271020883e-01 2.448940839151658722e-02
1.915966386554621792e+01 7.007874636045565708e-01 7.844466907520608601e-04
2.016806722689075571e+01 6.968326899134620334e-01 -1.201001389819045251e-02
2.117647058823529349e+01 6.874627048151351616e-01 -1.153928307914187101e-02
2.218487394957983128e+01 6.732604056564528427e-01 2.054796262334734891e-03
2.319327731092436906e+01 6.547526109105421543e-01 2.623308200174367943e-02
2.420168067226890685e+01 6.323900457885802684e-01 5.729113205875935311e-02
2.521008403361344463e+01 6.065461570711643269e-01 9.151534767185065533e-02
2.621848739495798242e+01 5.775318592790266159e-01 1.257321441082637214e-01
2.722689075630252020e+01 5.456273414030026192e-01 1.574452274349962266e-01
2.823529411764705799e+01 5.111180147427096809e-01 1.848233190825527839e-01
2.924369747899159577e+01 4.743322820785444982e-01 2.066457615986733165e-01
3.025210084033613356e+01 4.356720304452914583e-01 2.222420503837776451e-01
3.126050420168067134e+01 3.956316810934481509e-01 2.314337962038157670e-01
3.226890756302520913e+01 3.548026462943558723e-01 2.344759161276253057e-01
3.327731092436974336e+01 3.138624520742294699e-01 2.319959225104624156e-01
3.428571428571428470e+01 2.735697903162477296e-01 2.249287666266149843e-01
3.529411764705882604e+01 2.347598917111637373e-01 2.144455369729681982e-01
3.630252100840336027e+01 1.983170900918329593e-01 2.018743436497445476e-01
3.731092436974789450e+01 1.651080505825648359e-01 1.886137346173107909e-01
3.831932773109243584e+01 1.358924633847709007e-01 1.760363870829519950e-01
3.932773109243697718e+01 1.112877695644148845e-01 1.653878746056502980e-01
4.033613445378151141e+01 9.181915378221139346e-02 1.576862593509796850e-01
4.134453781512604564e+01 7.801306447638056696e-02 1.536323598903164278e-01
4.235294117647058698e+01 7.048239594242833306e-02 1.535508975748272054e-01
4.336134453781512832e+01 6.995016637741591214e-02 1.573715927668193348e-01
4.436974789915966255e+01 7.718640736348514331e-02 1.646579287789040613e-01
4.537815126050419678e+01 9.283386812983562830e-02 1.746774021611883221e-01
4.638655462184873812e+01 1.171277929876164414e-01 1.864931163634369060e-01
4.739495798319327946e+01 1.496371183482623213e-01 1.990626824434320596e-01
4.840336134453781369e+01 1.891979923780462425e-01 2.113292371950949988e-01
4.941176470588234793e+01 2.340764420285872394e-01 2.222977405650496951e-01
5.042016806722688926e+01 2.822334077423362952e-01 2.310959782884898228e-01
5.142857142857143060e+01 3.315532364444659930e-01 2.370200826391628546e-01
5.243697478991596483e+01 3.800020263372234641e-01 2.395673260673831795e-01
5.344537815126049907e+01 4.257360561994039116e-01 2.384575326466382705e-01
5.445378151260504040e+01 4.671790714305914527e-01 2.336449552678674380e-01
5.546218487394958174e+01 5.030785862367832539e-01 2.253212260490708996e-01
5.647058823529411598e+01 5.325383268530219372e-01 2.139098242508614689e-01
5.747899159663865021e+01 5.550285019800638153e-01 2.000512805985288356e-01
5.848739495798319155e+01 5.703795930340438414e-01 1.845776245450938546e-01
5.949579831932773288e+01 5.787699478966936706e-01 1.684737437350708467e-01
6.050420168067226712e+01 5.807075482945143197e-01 1.528209551966073221e-01
6.151260504201680135e+01 5.769907901941071504e-01 1.387213820669458419e-01
6.252100840336134269e+01 5.686383526499732000e-01 1.272013208647209126e-01
6.352941176470588402e+01 5.567818986861321484e-01 1.191009780077056934e-01
6.453781512605041826e+01 5.425372169217548279e-01 1.149700407592026963e-01
6.554621848739495249e+01 5.268949192104761536e-01 1.149921636955932858e-01
6.655462184873948672e+01 5.106692201071445503e-01 1.189649648088989542e-01
6.756302521008403517e+01 4.945054205046404139e-01 1.263429659512437242e-01
6.857142857142856940e+01 4.789120604481320598e-01 1.363279183958734375e-01
6.957983193277310363e+01 4.642970628725062721e-01 1.479815569153908328e-01
7.058823529411765207e+01 4.509939364166928311e-01 1.603325523098291239e-01
7.159663865546218631e+01 4.392580335963678362e-01 1.724623951114347964e-01
7.260504201680672054e+01 4.292121220166849049e-01 1.835664810742989594e-01
7.361344537815125477e+01 4.207236686575046569e-01 1.929916448535851092e-01
7.462184873949578900e+01 4.132682178323019428e-01 2.002561186228082324e-01
7.563025210084033745e+01 4.058983128300113208e-01 2.050564898363341770e-01
7.663865546218487168e+01 3.973771248565884928e-01 2.072653296180884119e-01
7.764705882352940591e+01 3.864192530829497763e-01 2.069223163617913697e-01
7.865546218487395436e+01 3.719227705534369210e-01 2.042202485393773692e-01
7.966386554621848859e+01 3.531363364264936688e-01 1.994868583123523553e-01
8.067226890756302282e+01 3.297698289483599332e-01 1.931628022296787428e-01
8.168067226890755705e+01 3.020586788605796880e-01 1.857758703078538076e-01
8.268907563025209129e+01 2.707951147630038857e-01 1.779112086529430758e-01
8.369747899159663973e+01 2.373311193248262008e-01 1.701778179721260553e-01
8.470588235294117396e+01 2.035427484049416869e-01 1.631713397914409391e-01
8.571428571428570820e+01 1.717382836451735173e-01 1.574345187952177483e-01
8.672268907563025664e+01 1.444976695368884734e-01 1.534180162761541455e-01
8.773109243697479087e+01 1.244232139062232401e-01 1.514446674539079440e-01
8.873949579831932510e+01 1.137717356954353054e-01 1.516826043071095587e-01
8.974789915966385934e+01 1.140012435486803533e-01 1.541312088876910513e-01
9.075630252100839357e+01 1.254088049787793757e-01 1.586220793469588219e-01
9.176470588235294201e+01 1.470847917584123810e-01 1.648356181221513062e-01
9.277310924369747624e+01 1.771995621433857249e-01 1.723291953271495203e-01
9.378151260504201048e+01 2.134320583759357071e-01 1.805728889442487217e-01
9.478991596638655892e+01 2.533160329735488769e-01 1.889884878300593929e-01
9.579831932773109315e+01 2.943922200452819826e-01 1.969874470280185141e-01
9.680672268907562739e+01 3.342893698171183203e-01 2.040063912598206741e-01
9.781512605042016162e+01 3.708848812613356749e-01 2.095388016038233214e-01
9.882352941176469585e+01 4.024747696909898309e-01 2.131624648370682440e-01
9.983193277310924429e+01 4.278739275174214818e-01 2.145630195026388964e-01
1.008403361344537785e+02 4.464519459721327799e-01 2.135533647919921618e-01
1.018487394957983128e+02 4.581334102003919995e-01 2.100889993993297900e-01
1.028571428571428612e+02 4.633756276146794306e-01 2.042788244509397000e-01
1.038655462184873954e+02 4.631278929101241282e-01 1.963907297827036658e-01
1.048739495798319297e+02 4.587784640859979834e-01 1.868505727462546062e-01
1.058823529411764639e+02 4.520924549865104058e-01 1.762326770687290267e-01
1.068907563025209981e+02 4.451261586841890328e-01 1.652391513488414843e-01
1.078991596638655466e+02 4.400865246524814367e-01 1.546648505572281174e-01
1.089075630252100808e+02 4.390402357655991405e-01 1.453454871139663318e-01
1.099159663865546150e+02 4.432879094886152949e-01 1.380877180359898482e-01
1.109243697478991635e+02 4.527956463729114756e-01 1.335861478500754984e-01
1.119327731092436977e+02 4.664974236340411196e-01 1.323376795085045021e-01
1.129411764705882320e+02 4.828489632589452185e-01 1.345704874202209300e-01
1.139495798319327662e+02 5.000847088634001736e-01 1.402072286605623441e-01
1.149579831932773004e+02 5.163355514837968396e-01 1.488715018075010832e-01
1.159663865546218489e+02 5.297509624020579899e-01 1.599366564500155352e-01
1.169747899159663831e+02 5.386241650775340783e-01 1.726029362585048688e-01
1.179831932773109173e+02 5.414964280691147991e-01 1.859831838170566964e-01
1.189915966386554658e+02 5.372432099930639637e-01 1.991842309580635906e-01
1.200000000000000000e+02 5.251412476238785931e-01 2.113741828468524986e-01
