0.000000000000000000e+00 2.220446049250313081e-16 1.110223024625156540e-16
1.008403361344537785e+00 1.791348091699229705e-03 -1.070040787490844636e-04
2.016806722689075571e+00 7.105986116045737155e-03 -4.656133127919348524e-04
3.025210084033613356e+00 1.577276246508985125e-02 -1.184306091930986682e-03
4.033613445378151141e+00 2.751314458997322632e-02 -2.428312132826238035e-03
5.042016806722688926e+00 4.195962246590279054e-02 -4.399565788624548723e-03
6.050420168067226712e+00 5.867203518274810570e-02 -7.311681773215839009e-03
7.058823529411764497e+00 7.715579052107024438e-02 -1.136301910033754581e-02
8.067226890756302282e+00 9.688362264212790897e-02 -1.671111777398359699e-02
9.075630252100840067e+00 1.173131904884290311e-01 -2.344885629257642545e-02
1.008403361344537785e+01 1.379043094722347540e-01 -3.158438949992958822e-02
1.109243697478991564e+01 1.581340244706874731e-01 -4.102538835953473129e-02
1.210084033613445342e+01 1.775096850460833320e-01 -5.156834092198681052e-02
1.310924369747899121e+01 1.955805449419398823e-01 -6.289413529578868900e-02
1.411764705882352899e+01 2.119455806090295713e-01 -7.456956919249713156e-02
1.512605042016806678e+01 2.262597128327115126e-01 -8.605743964925494094e-02
1.613445378151260456e+01 2.382378574411274652e-01 -9.673740653851248261e-02
1.714285714285714235e+01 2.476577340469490185e-01 -1.059417426098894222e-01
1.815126050420168013e+01 2.543601943536133447e-01 -1.130077086956147170e-01
1.915966386554621792e+01 2.582481382151433635e-01 -1.173468762893007389e-01
2.016806722689075571e+01 2.592846491496245687e-01 -1.185239692887267715e-01
2.117647058823529349e+01 2.574903927727389963e-01 -1.163266491619974197e-01
2.218487394957983128e+01 2.529401704444578236e-01 -1.108020065811000654e-01
2.319327731092436906e+01 2.457589775733715065e-01 -1.022442785026668188e-01
2.420168067226890685e+01 2.361180729309957371e-01 -9.113906500059121285e-02
2.521008403361344463e+01 2.242309887769140531e-01 -7.808549724057489705e-02
2.621848739495798242e+01 2.103489861100000802e-01 -6.371980809700350523e-02
2.722689075630252020e+01 1.947561009929028586e-01 -4.865516167570005379e-02
2.823529411764705799e+01 1.777646167714921344e-01 -3.344231837629463300e-02
2.924369747899159577e+01 1.597100159347684123e-01 -1.854770048743792366e-02
3.025210084033613356e+01 1.409457142727768009e-01 -4.344653590374281116e-03
3.126050420168067134e+01 1.218363931745386486e-01 8.886895474597089617e-03
3.226890756302520913e+01 1.027521232407240248e-01 2.095398366444978233e-02
3.327731092436974336e+01 8.406205272218347790e-02 3.174052800356252924e-02
3.428571428571428470e+01 6.612788049041784522e-02 4.119497389281800981e-02
3.529411764705882604e+01 4.929686744757832972e-02 4.931681810124477483e-02
3.630252100840336027e+01 3.389449582476888878e-02 5.614278266850980526e-02
3.731092436974789450e+01 2.021806584083196690e-02 6.173310922590025118e-02
3.831932773109243584e+01 8.531129939089998615e-03 6.615920205088388073e-02
3.932773109243697718e+01 -9.395918299002214980e-04 6.949296618021183480e-02
4.033613445378151141e+01 -8.005033556133911432e-03 7.179840386508018479e-02
4.134453781512604564e+01 -1.251327116971401310e-02 7.312557510235795366e-02
4.235294117647058698e+01 -1.435095897457805414e-02 7.350731377324370985e-02
4.336134453781512832e+01 -1.344887018278062563e-02 7.295864076417057920e-02
4.436974789915966255e+01 -9.792116454164112582e-03 7.147864547084592513e-02
4.537815126050419678e+01 -3.433107457632256221e-03 6.905436871135595123e-02
4.638655462184873812e+01 5.495970408540329366e-03 6.566638734614727024e-02
4.739495798319327946e+01 1.677616701522421927e-02 6.129550018435281356e-02
4.840336134453781369e+01 3.010391570443138320e-02 5.592999212752836069e-02
4.941176470588234793e+01 4.510356827200334706e-02 4.957275267857108592e-02
5.042016806722688926e+01 6.134743422567101589e-02 4.224793182944353021e-02
5.142857142857143060e+01 7.837908556340478228e-02 3.400681510854297596e-02
5.243697478991596483e+01 9.573660084049528951e-02 2.493238503024397534e-02
5.344537815126049907e+01 1.129731016772923535e-01 1.514235406656594396e-02
5.445378151260504040e+01 1.296739985287507224e-01 4.790099538150349723e-03
5.546218487394958174e+01 1.454695334285751596e-01 -5.936088418380669474e-03
5.647058823529411598e+01 1.600437360732318570e-01 -1.681611013894868112e-02
5.747899159663865021e+01 1.731399990792703569e-01 -2.760362078564237986e-02
5.848739495798319155e+01 1.845638439763903627e-01 -3.803433624808127966e-02
5.949579831932773288e+01 1.941829666532965959e-01 -4.783694499620938512e-02
6.050420168067226712e+01 2.019246888509051985e-01 -5.674625147029122019e-02
6.151260504201680135e+01 2.077712828273383661e-01 -6.451828032090867193e-02
6.252100840336134269e+01 2.117532315996188963e-01 -7.094604791708036817e-02
6.352941176470588402e+01 2.139409243671488436e-01 -7.587432617212674923e-02
6.453781512605041826e+01 2.144358419468908039e-01 -7.921110792439245429e-02
6.554621848739495249e+01 2.133625169786044218e-01 -8.093406699273208993e-02
6.655462184873948672e+01 2.108619453334741323e-01 -8.109070361576231623e-02
6.756302521008403517e+01 2.070863954615211888e-01 -7.979204964050923277e-02
6.857142857142856940e+01 2.021947598496052212e-01 -7.720096811067256315e-02
6.957983193277310363e+01 1.963479282356148659e-01 -7.351736047586754363e-02
7.058823529411765207e+01 1.897029813913608809e-01 -6.896235189647292874e-02
7.159663865546218631e+01 1.824062504364158954e-01 -6.376342953397728941e-02
7.260504201680672054e+01 1.745856958175946438e-01 -5.814157251716711716e-02
7.361344537815125477e+01 1.663448016011619401e-01 -5.230133236888523385e-02
7.462184873949578900e+01 1.577598429642099731e-01 -4.642388490759408182e-02
7.563025210084033745e+01 1.488821208624586667e-01 -4.066273157178768027e-02
7.663865546218487168e+01 1.397459003388072940e-01 -3.514173907455975243e-02
7.764705882352940591e+01 1.303810805047140864e-01 -2.995497703332128392e-02
7.865546218487395436e+01 1.208289890026175151e-01 -2.516835099022018962e-02
7.966386554621848859e+01 1.111581403461848749e-01 -2.082234754787792852e-02
8.067226890756302282e+01 1.014773799261512455e-01 -1.693568736008843612e-02
8.168067226890755705e+01 9.194390632429016996e-02 -1.350952097693114418e-02
8.268907563025209129e+01 8.276470690707060651e-02 -1.053204041226185605e-02
8.369747899159663973e+01 7.419074953251347804e-02 -7.983252256217876486e-03
8.470588235294117396e+01 6.650391414868694895e-02 -5.839552715530937910e-03
8.571428571428570820e+01 5.999802072909665718e-02 -4.077930305097066110e-03
8.672268907563025664e+01 5.495583605045084585e-02 -2.679523262073102430e-03
8.773109243697479087e+01 5.162535948561242094e-02 -1.632463530513938998e-03
8.873949579831932510e+01 5.019760538540873895e-02 -9.337331875454157881e-04
8.974789915966385934e+01 5.078834206706550614e-02 -5.899615994633400362e-04
9.075630252100839357e+01 5.342575542925254162e-02 -6.171287323543106496e-04
9.176470588235294201e+01 5.804547427197581655e-02 -1.039236240038654557e-03
9.277310924369747624e+01 6.449305937125382471e-02 -1.886009509377228888e-03
9.378151260504201048e+01 7.253284300244355887e-02 -3.189766959002193758e-03
9.478991596638655892e+01 8.186191294653244466e-02 -4.981635857417288094e-03
9.579831932773109315e+01 9.212871224504770584e-02 -7.287403357143062976e-03
9.680672268907562739e+01 1.029555877024496136e-01 -1.012314084063126174e-02
9.781512605042016162e+01 1.139641221667246906e-01 -1.349083165477560353e-02
9.882352941176469585e+01 1.248007807213067366e-01 -1.737424449388513814e-02
9.983193277310924429e+01 1.351596477113850003e-01 -2.173528244039579782e-02
1.008403361344537785e+02 1.447998163812125316e-01 -2.651114861162950920e-02
1.018487394957983128e+02 1.535555704382385311e-01 -3.161229669898724115e-02
1.028571428571428612e+02 1.613395542506157465e-01 -3.692161487976775014e-02
1.038655462184873954e+02 1.681389776416180037e-01 -4.229502841964483117e-02
1.048739495798319297e+02 1.740052408487438029e-01 -4.756401301399570958e-02
1.058823529411764639e+02 1.790369865090100099e-01 -5.254003865255207906e-02
1.068907563025209981e+02 1.833570075297459301e-01 -5.702116339458607186e-02
1.078991596638655466e+02 1.870840778579565544e-01 -6.080098501060759997e-02
1.089075630252100808e+02 1.903027543817867873e-01 -6.367969212438984172e-02
1.099159663865546150e+02 1.930373460209438008e-01 -6.547681008597427965e-02
1.109243697478991635e+02 1.952373917427761008e-01 -6.604414635159372438e-02
1.119327731092436977e+02 1.967788989571512825e-01 -6.527783185105184849e-02
1.129411764705882320e+02 1.974794108337682985e-01 -6.312770447294202558e-02
1.139495798319327662e+02 1.971211615984798105e-01 -5.960259674743795255e-02
1.149579831932773004e+02 1.954767506986037073e-01 -5.477049131321032327e-02
1.159663865546218489e+02 1.923338494899460294e-01 -4.875358737203816517e-02
1.169747899159663831e+02 1.875175642729469683e-01 -4.171924896107281899e-02
1.179831932773109173e+02 1.809094407903246715e-01 -3.386823433004626516e-02
1.189915966386554658e+02 1.724623870435610939e-01 -2.542167092890146307e-02
1.200000000000000000e+02 1.622108539314472964e-01 -1.660835229228208032e-02
