0.000000000000000000e+00 2.220446049250313081e-16 2.220446049250313081e-16
1.008403361344537785e+00 4.070288605634742041e-03 3.572002614951053090e-04
2.016806722689075571e+00 1.610790819364749105e-02 1.324133281445760701e-03
3.025210084033613356e+00 3.561069387669135722e-02 2.596837741505098052e-03
4.033613445378151141e+00 6.179036398768333882e-02 3.700894944864030478e-03
5.042016806722688926e+00 9.364060312065425329e-02 4.036837420133609911e-03
6.050420168067226712e+00 1.300042305717883373e-01 2.936604195470815526e-03
7.058823529411764497e+00 1.696394522567978846e-01 -2.734287373640231777e-04
8.067226890756302282e+00 2.112783450765882698e-01 -6.207917716826605314e-03
9.075630252100840067e+00 2.536759881088161972e-01 -1.536046077615682570e-02
1.008403361344537785e+01 2.956538839903570803e-01 -2.804792438422532008e-02
1.109243697478991564e+01 3.361307887390991844e-01 -4.436197484991644124e-02
1.210084033613445342e+01 3.741482559051858559e-01 -6.413006125018871906e-02
1.310924369747899121e+01 4.088901320901876524e-01 -8.688747908527405528e-02
1.411764705882352899e+01 4.396935247698390281e-01 -1.118605208594440903e-01
1.512605042016806678e+01 4.660480872800163432e-01 -1.379590727583241971e-01
1.613445378151260456e+01 4.875959860707343996e-01 -1.637919958331301995e-01
1.714285714285714235e+01 5.041279397321873912e-01 -1.877178438487423495e-01
1.815126050420168013e+01 5.155617858795737973e-01 -2.079379152180251822e-01
1.915966386554621792e+01 5.219299168520896703e-01 -2.226875463277228073e-01
2.016806722689075571e+01 5.233599007605564957e-01 -2.305245135194609052e-01
2.117647058823529349e+01 5.200546849668281624e-01 -2.306620478167689114e-01
2.218487394957983128e+01 5.122746336304988546e-01 -2.231943794306217033e-01
2.319327731092436906e+01 5.003259172066305549e-01 -2.090653697350063345e-01
2.420168067226890685e+01 4.845489689042858927e-01 -1.897923131985510548e-01
2.521008403361344463e+01 4.653099556619295640e-01 -1.671170670807260450e-01
2.621848739495798242e+01 4.429990913628931715e-01 -1.427340110916129889e-01
2.722689075630252020e+01 4.180342821768974204e-01 -1.181324225602816691e-01
2.823529411764705799e+01 3.908599455651551313e-01 -9.452176592312055980e-02
2.924369747899159577e+01 3.619478969379494870e-01 -7.281177805529503999e-02
3.025210084033613356e+01 3.318064165258163278e-01 -5.362517926370591326e-02
3.126050420168067134e+01 3.009720013295393848e-01 -3.731712012696575265e-02
3.226890756302520913e+01 2.700069980913930578e-01 -2.400831864504815449e-02
3.327731092436974336e+01 2.394941727597719172e-01 -1.362259443750546417e-02
3.428571428571428470e+01 2.100279530149575802e-01 -5.926922239282594873e-03
3.529411764705882604e+01 1.821967778876252275e-01 -5.723574845457601867e-04
3.630252100840336027e+01 1.565736637478740700e-01 2.861458829647389734e-03
3.731092436974789450e+01 1.336997234323018535e-01 4.824624521183595860e-03
3.831932773109243584e+01 1.140596164730365292e-01 5.758540836076964098e-03
3.932773109243697718e+01 9.807631197814981050e-02 6.060607336765722053e-03
4.033613445378151141e+01 8.610460798993813114e-02 6.056403053210868137e-03
4.134453781512604564e+01 7.843358033103398075e-02 5.979286428868579861e-03
4.235294117647058698e+01 7.529241124875374336e-02 5.958869247651099599e-03
4.336134453781512832e+01 7.685056960520975089e-02 6.018728962877695210e-03
4.436974789915966255e+01 8.319663423426437721e-02 6.082688580957507085e-03
4.537815126050419678e+01 9.431096137057592976e-02 5.989135126162503653e-03
4.638655462184873812e+01 1.100416489863682568e-01 5.511428757567271575e-03
4.739495798319327946e+01 1.300645435294280894e-01 4.382477903592585378e-03
4.840336134453781369e+01 1.538677587481132036e-01 2.321701545699328406e-03
4.941176470588234793e+01 1.807555657796198201e-01 -9.377823306941923676e-04
5.042016806722688926e+01 2.098755946333081823e-01 -5.623326605987521987e-03
5.142857142857143060e+01 2.402650045392542566e-01 -1.189943270572735301e-02
5.243697478991596483e+01 2.709139819923003234e-01 -1.984887702586246583e-02
5.344537815126049907e+01 3.008270285575957992e-01 -2.945782686572617770e-02
5.445378151260504040e+01 3.290773934634292353e-01 -4.060477300064735395e-02
5.546218487394958174e+01 3.548632389681891652e-01 -5.305842130770987985e-02
5.647058823529411598e+01 3.775364322431631336e-01 -6.647816601958944638e-02
5.747899159663865021e+01 3.966218657693745264e-01 -8.042202409151677500e-02
5.848739495798319155e+01 4.118262640465180091e-01 -9.436315220264912540e-02
5.949579831932773288e+01 4.230389263813352230e-01 -1.077153431972623920e-01
6.050420168067226712e+01 4.303170726576168725e-01 -1.198632224466819052e-01
6.151260504201680135e+01 4.338676780017838297e-01 -1.302049666635800573e-01
6.252100840336134269e+01 4.340198573239071322e-01 -1.382043000884136674e-01
6.352941176470588402e+01 4.311774343092782402e-01 -1.434373645097684058e-01
6.453781512605041826e+01 4.257753596454616485e-01 -1.456382523887844727e-01
6.554621848739495249e+01 4.182466719161497259e-01 -1.447308962586785208e-01
6.655462184873948672e+01 4.090050491723244974e-01 -1.408368357148083172e-01
6.756302521008403517e+01 3.984269009912093651e-01 -1.342466756152678187e-01
6.857142857142856940e+01 3.868699901373686689e-01 -1.253915192343941776e-01
6.957983193277310363e+01 3.746715882693159028e-01 -1.147904195825999452e-01
7.058823529411765207e+01 3.621366330100854736e-01 -1.029971284243295093e-01
7.159663865546218631e+01 3.495263970612234594e-01 -9.056095257414731314e-02
7.260504201680672054e+01 3.370161164365215178e-01 -7.798851872707301958e-02
7.361344537815125477e+01 3.246535144880682289e-01 -6.572097416199285114e-02
7.462184873949578900e+01 3.123295211394865323e-01 -5.412096376181341206e-02
7.563025210084033745e+01 2.997819592752724027e-01 -4.346683764936010164e-02
7.663865546218487168e+01 2.866366454297029076e-01 -3.394849712580372270e-02
7.764705882352940591e+01 2.724933822811350659e-01 -2.567437821268647724e-02
7.865546218487395436e+01 2.570194391601630102e-01 -1.867988168323120313e-02
7.966386554621848859e+01 2.400216506686869700e-01 -1.293508980176061307e-02
8.067226890756302282e+01 2.215138466817918594e-01 -8.358882410535395380e-03
8.168067226890755705e+01 2.017529363773507001e-01 -4.831269804164595172e-03
8.268907563025209129e+01 1.812512620879604963e-01 -2.206747997740565737e-03
8.369747899159663973e+01 1.607646576401398075e-01 -3.281278550175681374e-04
8.470588235294117396e+01 1.412625624834780158e-01 9.593669632452783702e-04
8.571428571428570820e+01 1.238550821803252600e-01 1.796985351397717423e-03
8.672268907563025664e+01 1.096969545250970901e-01 2.302026059938011571e-03
8.773109243697479087e+01 9.987212230549435965e-02 2.559017541232444515e-03
8.873949579831932510e+01 9.525367785418126232e-02 2.614593756989469497e-03
8.974789915966385934e+01 9.638162248798332055e-02 2.474234279225662192e-03
9.075630252100839357e+01 1.033788256983954046e-01 2.102275357400928968e-03
9.176470588235294201e+01 1.159318837258813684e-01 1.425142994074812819e-03
9.277310924369747624e+01 1.333490381720352502e-01 3.367975536103795520e-04
9.378151260504201048e+01 1.546571343494789197e-01 -1.293035937685482750e-03
9.478991596638655892e+01 1.787073381123158722e-01 -3.608601537886668709e-03
9.579831932773109315e+01 2.042706904842570559e-01 -6.756254632763303292e-03
9.680672268907562739e+01 2.301265778927814587e-01 -1.087220757641249591e-02
9.781512605042016162e+01 2.551414033889951583e-01 -1.606907365246801334e-02
9.882352941176469585e+01 2.783457607076087470e-01 -2.242311692752796404e-02
9.983193277310924429e+01 2.989985454657388964e-01 -2.996309674053221350e-02
1.008403361344537785e+02 3.166198314376447165e-01 -3.865796857557057820e-02
1.018487394957983128e+02 3.310104137706129102e-01 -4.840917809946332362e-02
1.028571428571428612e+02 3.422465321873469080e-01 -5.904466461341972838e-02
1.038655462184873954e+02 3.506556289953883798e-01 -7.031531107305855066e-02
1.048739495798319297e+02 3.567781000130940683e-01 -8.189697743660695473e-02
1.058823529411764639e+02 3.613151291486964567e-01 -9.339860043103009879e-02
1.068907563025209981e+02 3.650464555759440621e-01 -1.043748344202274358e-01
1.078991596638655466e+02 3.687201695079407315e-01 -1.143450135541232981e-01
1.089075630252100808e+02 3.729414790350367159e-01 -1.228266598956058164e-01
1.099159663865546150e+02 3.780502568258816698e-01 -1.293680502137869448e-01
1.109243697478991635e+02 3.840549579294303406e-01 -1.335893302705450925e-01
1.119327731092436977e+02 3.906386593760695636e-01 -1.352233953181527504e-01
1.129411764705882320e+02 3.972179724079270002e-01 -1.341441390615190077e-01
1.139495798319327662e+02 4.030376524786412062e-01 -1.303833608058659888e-01
1.149579831932773004e+02 4.072619576314713274e-01 -1.241300501985840299e-01
1.159663865546218489e+02 4.090619824100445445e-01 -1.157111646424402451e-01
1.169747899159663831e+02 4.076915627942439002e-01 -1.055545268394466607e-01
1.179831932773109173e+02 4.025482318485609223e-01 -9.415243603177270160e-02
1.189915966386554658e+02 3.932211814540604866e-01 -8.201992046848305407e-02
1.200000000000000000e+02 3.795263090049019183e-01 -6.965812925436343228e-02
