0.000000000000000000e+00 2.220446049250313081e-16 0.000000000000000000e+00
1.008403361344537785e+00 6.804100014567993071e-03 4.036768486473829576e-03
2.016806722689075571e+00 2.684957734679493946e-02 1.571375175402489610e-02
3.025210084033613356e+00 5.908656012298041382e-02 3.379782320272972651e-02
4.033613445378151141e+00 1.019143594467324387e-01 5.643456380868461242e-02
5.042016806722688926e+00 1.533503160560862888e-01 8.138403478635147792e-02
6.050420168067226712e+00 2.111874307962042785e-01 1.062548454314998780e-01
7.058823529411764497e+00 2.731369053050070050e-01 1.287117768071343038e-01
8.067226890756302282e+00 3.369359102223428160e-01 1.466392115378588601e-01
9.075630252100840067e+00 4.004329803840658286e-01 1.582692562177595574e-01
1.008403361344537785e+01 4.616686592356880059e-01 1.622821533264514615e-01
1.109243697478991564e+01 5.189278608892156086e-01 1.578772915981593306e-01
1.210084033613445342e+01 5.707837520562850653e-01 1.448261148042347957e-01
1.310924369747899121e+01 6.161257459378255419e-01 1.235105543865152589e-01
1.411764705882352899e+01 6.541766587998352200e-01 9.495150382387085308e-02
1.512605042016806678e+01 6.844940720408612123e-01 6.083153516195938249e-02
1.613445378151260456e+01 7.069552219956025674e-01 2.351535624515832534e-02
1.714285714285714235e+01 7.217273333843250427e-01 -1.394141742933230343e-02
1.815126050420168013e+01 7.292172971520467506e-01 -4.782806883916146390e-02
1.915966386554621792e+01 7.300107591469511270e-01 -7.399056602960751849e-02
2.016806722689075571e+01 7.247984254307819896e-01 -8.847437302676819382e-02
2.117647058823529349e+01 7.142983648938772134e-01 -8.877097274126022342e-02
2.218487394957983128e+01 6.991898130626392760e-01 -7.503722446747029817e-02
2.319327731092436906e+01 6.800591796388990584e-01 -4.999817774794623748e-02
2.420168067226890685e+01 6.573742367122608066e-01 -1.762429991929237438e-02
2.521008403361344463e+01 6.314868593199141067e-01 1.810753615836124819e-02
2.621848739495798242e+01 6.026555169014962132e-01 5.380495705838506115e-02
2.722689075630252020e+01 5.710882773631558162e-01 8.680821295954666006e-02
2.823529411764705799e+01 5.369922431622924375e-01 1.151753755756149689e-01
2.924369747899159577e+01 5.006224504940668396e-01 1.376242314753585161e-01
3.025210084033613356e+01 4.623216553276563445e-01 1.534657996290292870e-01
3.126050420168067134e+01 4.225433771024844631e-01 1.625402257363205427e-01
3.226890756302520913e+01 3.818588736079799872e-01 1.651511470769125856e-01
3.327731092436974336e+01 3.409467163312300819e-01 1.619967640336436032e-01
3.428571428571428470e+01 3.005825789062184228e-01 1.540950675570512685e-01
3.529411764705882604e+01 2.616294581767244498e-01 1.427019946613666823e-01
3.630252100840336027e+01 2.250042305171504609e-01 1.292212784019072247e-01
3.731092436974789450e+01 1.916146667442804041e-01 1.151081514192656696e-01
3.831932773109243584e+01 1.622796922596416724e-01 1.017680450643646539e-01
3.932773109243697718e+01 1.376880924770571557e-01 9.045532320793969738e-02
4.033613445378151141e+01 1.184311516912210926e-01 8.218200586521018369e-02
4.134453781512604564e+01 1.050743288719186985e-01 7.764214638736255392e-02
4.235294117647058698e+01 9.822435207652513434e-02 7.716526009550828125e-02
4.336134453781512832e+01 9.854462066665270470e-02 8.070538778957880854e-02
4.436974789915966255e+01 1.066872081039192954e-01 8.786460186482070167e-02
4.537815126050419678e+01 1.231465189017332262e-01 9.795021619408939006e-02
4.638655462184873812e+01 1.480577191732090903e-01 1.100526861640674925e-01
4.739495798319327946e+01 1.810129850082611291e-01 1.231332772670034048e-01
4.840336134453781369e+01 2.209870058948748550e-01 1.361125845897125375e-01
4.941176470588234793e+01 2.663997714369830128e-01 1.479501979657739108e-01
5.042016806722688926e+01 3.152831498866459636e-01 1.577130947482537904e-01
5.142857142857143060e+01 3.654829297514450293e-01 1.646303798775846650e-01
5.243697478991596483e+01 4.148431030820158849e-01 1.681344077714438390e-01
5.344537815126049907e+01 4.613582683247723359e-01 1.678894016182471693e-01
5.445378151260504040e+01 5.032904650240062061e-01 1.638084009914358985e-01
5.546218487394958174e+01 5.392517485824579460e-01 1.560596703958955223e-01
5.647058823529411598e+01 5.682519253063782472e-01 1.450627704600456758e-01
5.747899159663865021e+01 5.897137223115289650e-01 1.314742112542873764e-01
5.848739495798319155e+01 6.034678186735571437e-01 1.161605865829072881e-01
5.949579831932773288e+01 6.097395621713861402e-01 1.001575052614399608e-01
6.050420168067226712e+01 6.091299118739357255e-01 8.460963996525860953e-02
6.151260504201680135e+01 6.025735168840260503e-01 7.068854173026040133e-02
6.252100840336134269e+01 5.912582225246059142e-01 5.948956471599398110e-02
6.352941176470588402e+01 5.765009875100806092e-01 5.191289873970761359e-02
6.453781512605041826e+01 5.595931644487635026e-01 4.854979294385775024e-02
6.554621848739495249e+01 5.416676635995778533e-01 4.960211500843947352e-02
6.655462184873948672e+01 5.236366127892659872e-01 5.485918941267786675e-02
6.756302521008403517e+01 5.061985280662937292e-01 6.374345996808938875e-02
6.857142857142856940e+01 4.898775988104409063e-01 7.540816323687005163e-02
6.957983193277310363e+01 4.750668081694189304e-01 8.885739167165895847e-02
7.058823529411765207e+01 4.620675095857351700e-01 1.030615920556084975e-01
7.159663865546218631e+01 4.511001461026142856e-01 1.170495228371722929e-01
7.260504201680672054e+01 4.422497603767521213e-01 1.299730140502538545e-01
7.361344537815125477e+01 4.353269085086404200e-01 1.411470294606976816e-01
7.462184873949578900e+01 4.296939908826469257e-01 1.500697999006447292e-01
7.563025210084033745e+01 4.242167446904487882e-01 1.564289560809241086e-01
7.663865546218487168e+01 4.174325083221475108e-01 1.600973082187012730e-01
7.764705882352940591e+01 4.078362584580146333e-01 1.611211144737522138e-01
7.865546218487395436e+01 3.941465609300154327e-01 1.597026217715679097e-01
7.966386554621848859e+01 3.754879590942972190e-01 1.561779001218374097e-01
8.067226890756302282e+01 3.515023542849660121e-01 1.509906686362746386e-01
8.168067226890755705e+01 3.224159526044738655e-01 1.446627218301171913e-01
8.268907563025209129e+01 2.890723045202259200e-01 1.377615440150886661e-01
8.369747899159663973e+01 2.529382985305028697e-01 1.308658583647887008e-01
8.470588235294117396e+01 2.160759649927164183e-01 1.245306156202506953e-01
8.571428571428570820e+01 1.810585555037580452e-01 1.192525988890226207e-01
8.672268907563025664e+01 1.508116145610129966e-01 1.154389197118043109e-01
8.773109243697479087e+01 1.283485650867035588e-01 1.133808521205040831e-01
8.873949579831932510e+01 1.163348187720962823e-01 1.132345557246120515e-01
8.974789915966385934e+01 1.165109043782018849e-01 1.150112042042082949e-01
9.075630252100839357e+01 1.292158872741906439e-01 1.185771593031014204e-01
9.176470588235294201e+01 1.533233894411665243e-01 1.236638456474260517e-01
9.277310924369747624e+01 1.866382637343446671e-01 1.298870944974098718e-01
9.378151260504201048e+01 2.264492055229117007e-01 1.367732878166506572e-01
9.478991596638655892e+01 2.699385815824704160e-01 1.437904222748417338e-01
9.579831932773109315e+01 3.143655208248872235e-01 1.503820762871040939e-01
9.680672268907562739e+01 3.571433240588519631e-01 1.560015801490276521e-01
9.781512605042016162e+01 3.959804697052615730e-01 1.601453084247629333e-01
9.882352941176469585e+01 4.290502319787050656e-01 1.623836559271957247e-01
9.983193277310924429e+01 4.550967531719445347e-01 1.623886941578064347e-01
1.008403361344537785e+02 4.734775389503727006e-01 1.599580635078580171e-01
1.018487394957983128e+02 4.841641588169909305e-01 1.550343477603640663e-01
1.028571428571428612e+02 4.877180057193144513e-01 1.477193695153252717e-01
1.038655462184873954e+02 4.852481195874038811e-01 1.382823499055142458e-01
1.048739495798319297e+02 4.783564537904245739e-01 1.271606536924024811e-01
1.058823529411764639e+02 4.690693624770243542e-01 1.149509161567215942e-01
1.068907563025209981e+02 4.597335658230361499e-01 1.023878624262529735e-01
1.078991596638655466e+02 4.528163708095784834e-01 9.030747702501573659e-02
1.089075630252100808e+02 4.505210551062583946e-01 7.959145649553345248e-02
1.099159663865546150e+02 4.542176427567683472e-01 7.109284332560805719e-02
1.109243697478991635e+02 4.640296114444881770e-01 6.554652529830551355e-02
1.119327731092436977e+02 4.789793077086628159e-01 6.347726879843385017e-02
1.129411764705882320e+02 4.974293370875757514e-01 6.512410857731365521e-02
1.139495798319327662e+02 5.174037535471931459e-01 7.039986743630211041e-02
1.149579831932773004e+02 5.367793959588793573e-01 7.889933865958942416e-02
1.159663865546218489e+02 5.534447741375290164e-01 8.995201946695818851e-02
1.169747899159663831e+02 5.654476386508113794e-01 1.027044755373912599e-01
1.179831932773109173e+02 5.711161869014700354e-01 1.162139528264017896e-01
1.189915966386554658e+02 5.691522886163953299e-01 1.295349866984184528e-01
1.200000000000000000e+02 5.587076268832782411e-01 1.417916494040808439e-01
