0.000000000000000000e+00 0.000000000000000000e+00 0.000000000000000000e+00
1.008403361344537785e+00 5.004693127298676103e-03 2.125123582389143451e-03
2.016806722689075571e+00 1.978776536067061720e-02 8.231996585027712143e-03
3.025210084033613356e+00 4.368096128236587106e-02 1.755611233472298416e-02
4.033613445378151141e+00 7.564550463134411817e-02 2.894655314366856302e-02
5.042016806722688926e+00 1.143674819672726439e-01 4.101375953354258197e-02
6.050420168067226712e+00 1.583519478761401533e-01 5.227843925155561955e-02
7.058823529411764497e+00 2.060124976168529187e-01 6.130478060065347456e-02
8.067226890756302282e+00 2.557469590974330576e-01 6.680948690617838359e-02
9.075630252100840067e+00 3.060020137214514158e-01 6.774840306629892339e-02
1.008403361344537785e+01 3.553261295042038359e-01 6.338346470699995905e-02
1.109243697478991564e+01 4.024088866517754326e-01 5.333404140453601450e-02
1.210084033613445342e+01 4.461140796293832089e-01 3.761548749448451190e-02
1.310924369747899121e+01 4.855017937963268526e-01 1.666666219169621321e-02
1.411764705882352899e+01 5.198385718750104800e-01 -8.630190144035987387e-03
1.512605042016806678e+01 5.485973322081498793e-01 -3.693541193510752052e-02
1.613445378151260456e+01 5.714575608085683545e-01 -6.645501737694992084e-02
1.714285714285714235e+01 5.882829523203123578e-01 -9.495751478509784071e-02
1.815126050420168013e+01 5.990993005551745743e-01 -1.198529782319801562e-01
1.915966386554621792e+01 6.040675734066611735e-01 -1.384094580679636755e-01
2.016806722689075571e+01 6.034517618012933404e-01 -1.482061623541468531e-01
2.117647058823529349e+01 5.975813256354765013e-01 -1.478120034486241074e-01
2.218487394957983128e+01 5.868266715260701538e-01 -1.373448785846009823e-01
2.319327731092436906e+01 5.715778847889827485e-01 -1.184104848432938617e-01
2.420168067226890685e+01 5.522287772186489363e-01 -9.346560307990359195e-02
2.521008403361344463e+01 5.291683330419920672e-01 -6.513106203590024457e-02
2.621848739495798242e+01 5.027895245039701866e-01 -3.577782802606188639e-02
2.722689075630252020e+01 4.734939921919878447e-01 -7.354608317961419672e-03
2.823529411764705799e+01 4.417039226552552655e-01 1.865003708735857302e-02
2.924369747899159577e+01 4.078787169140656310e-01 4.119064911075365210e-02
3.025210084033613356e+01 3.725225196183585830e-01 5.963147818567793301e-02
3.126050420168067134e+01 3.361908016866874682e-01 7.370326973515806124e-02
3.226890756302520913e+01 2.994913490150497015e-01 8.345653641603312245e-02
3.327731092436974336e+01 2.630769131135570760e-01 8.921215233205348483e-02
3.428571428571428470e+01 2.276322891414754856e-01 9.150731942289946907e-02
3.529411764705882604e+01 1.938705665700113379e-01 9.103730898865691756e-02
3.630252100840336027e+01 1.625095225670212251e-01 8.859448155686022730e-02
3.731092436974789450e+01 1.342344364449787886e-01 8.500491841223811740e-02
3.831932773109243584e+01 1.096582313653982066e-01 8.106547528826590909e-02
3.932773109243697718e+01 8.930392772887474351e-02 7.748452790818660674e-02
4.033613445378151141e+01 7.362115008441361130e-02 7.482980242538328497e-02
4.134453781512604564e+01 6.302820649290619137e-02 7.348995641640043708e-02
4.235294117647058698e+01 5.794300420632614301e-02 7.365146892031504411e-02
4.336134453781512832e+01 5.877627898864501432e-02 7.529269250514303291e-02
4.436974789915966255e+01 6.589207843621658345e-02 7.820131902704541282e-02
4.537815126050419678e+01 7.951192300299003701e-02 8.200479471950083976e-02
4.638655462184873812e+01 9.959327239046644742e-02 8.621233220160329225e-02
4.739495798319327946e+01 1.257284551592634525e-01 9.026331512318175321e-02
4.840336134453781369e+01 1.571182252082785613e-01 9.357770285736433102e-02
4.941176470588234793e+01 1.926225417545168739e-01 9.560190757718634025e-02
5.042016806722688926e+01 2.308754163691730810e-01 9.585058375335253622e-02
5.142857142857143060e+01 2.704089665998665737e-01 9.394068936483379595e-02
5.243697478991596483e+01 3.097601566892584923e-01 8.961807826440293390e-02
5.344537815126049907e+01 3.475590173358416024e-01 8.277732745856702934e-02
5.445378151260504040e+01 3.826028444432920672e-01 7.347319073971436687e-02
5.546218487394958174e+01 4.138987861856131545e-01 6.192512072777012211e-02
5.647058823529411598e+01 4.406918984310013165e-01 4.851545453179184619e-02
5.747899159663865021e+01 4.624834174791954133e-01 3.377719843692095214e-02
5.848739495798319155e+01 4.790242777251894069e-01 1.837617165918437045e-02
5.949579831932773288e+01 4.903108304367438386e-01 3.079763894630938026e-03
6.050420168067226712e+01 4.965704564983017821e-01 -1.128734818230614501e-02
6.151260504201680135e+01 4.982323843863412094e-01 -2.390064479067244285e-02
6.252100840336134269e+01 4.958749959295538634e-01 -3.400307012746228708e-02
6.352941176470588402e+01 4.901687092590145678e-01 -4.098637212934808094e-02
6.453781512605041826e+01 4.817974878163884256e-01 -4.445981535356224867e-02
6.554621848739495249e+01 4.713999671365933786e-01 -4.429971390350817551e-02
6.655462184873948672e+01 4.595453370274706906e-01 -4.066392735272317260e-02
6.756302521008403517e+01 4.467233897435054502e-01 -3.395725312079278524e-02
6.857142857142856940e+01 4.333676724356982923e-01 -2.477355275185377792e-02
6.957983193277310363e+01 4.198677653421674094e-01 -1.381774264062995972e-02
7.058823529411765207e+01 4.065679078481960751e-01 -1.828665905525772573e-03
7.159663865546218631e+01 3.937476192650868345e-01 1.048407588880928554e-02
7.260504201680672054e+01 3.815846133649198890e-01 2.248078232907868568e-02
7.361344537815125477e+01 3.700683710408418925e-01 3.362827613467600507e-02
7.462184873949578900e+01 3.589411459384452829e-01 4.351404787322121770e-02
7.563025210084033745e+01 3.476993361393974080e-01 5.185059209141662517e-02
7.663865546218487168e+01 3.356593683841795350e-01 5.847644816712582738e-02
7.764705882352940591e+01 3.220966774915110520e-01 6.334767996308787730e-02
7.865546218487395436e+01 3.063888871857767260e-01 6.652681766911183736e-02
7.966386554621848859e+01 2.881310581596150389e-01 6.816883489148783948e-02
8.067226890756302282e+01 2.672163169352983481e-01 6.850330105214696985e-02
8.168067226890755705e+01 2.439027373736024629e-01 6.781492653458154329e-02
8.268907563025209129e+01 2.188238057494709121e-01 6.642236863171246952e-02
8.369747899159663973e+01 1.929848997364009833e-01 6.465589645381175643e-02
8.470588235294117396e+01 1.677221691505179635e-01 6.283546741816681269e-02
8.571428571428570820e+01 1.446119453520935405e-01 6.124825297035951799e-02
8.672268907563025664e+01 1.253434154379959864e-01 6.012929634557862002e-02
8.773109243697479087e+01 1.115419768901062536e-01 5.964586844321539960e-02
8.873949579831932510e+01 1.045536619174898263e-01 5.988566390913674375e-02
8.974789915966385934e+01 1.052254202779741021e-01 6.085035667299898421e-02
9.075630252100839357e+01 1.137500040515868616e-01 6.245714135360702635e-02
9.176470588235294201e+01 1.296385733244820315e-01 6.454421989313163799e-02
9.277310924369747624e+01 1.518352536740545933e-01 6.688345755356372990e-02
9.378151260504201048e+01 1.789044831179520401e-01 6.919677359530473915e-02
9.478991596638655892e+01 2.092079285567649549e-01 7.117517732591394086e-02
9.579831932773109315e+01 2.410309984672045491e-01 7.250033107850373248e-02
9.680672268907562739e+01 2.726862723658769472e-01 7.286631479924432497e-02
9.781512605042016162e+01 3.026288345868806129e-01 7.200038522839280475e-02
9.882352941176469585e+01 3.295709476327586263e-01 6.968301684930167106e-02
9.983193277310924429e+01 3.525688482395858969e-01 6.576545923201415622e-02
1.008403361344537785e+02 3.710592117931430511e-01 6.018557981913974508e-02
1.018487394957983128e+02 3.848753750100200044e-01 5.298002305534366130e-02
1.028571428571428612e+02 3.942335392064109101e-01 4.429287345473698068e-02
1.038655462184873954e+02 3.997000491981355097e-01 3.438079081200928755e-02
1.048739495798319297e+02 4.021516089210961375e-01 2.361170585564820179e-02
1.058823529411764639e+02 4.027128513156130740e-01 1.245721993607196154e-02
1.068907563025209981e+02 4.026689722905567592e-01 1.476260410864460582e-03
1.078991596638655466e+02 4.033278463889373722e-01 -8.712351676179563853e-03
1.089075630252100808e+02 4.058034494917479584e-01 -1.746958459775171946e-02
1.099159663865546150e+02 4.107434365870519244e-01 -2.418460731496796523e-02
1.109243697478991635e+02 4.181554356321619537e-01 -2.833822899517079996e-02
1.119327731092436977e+02 4.274631317142549847e-01 -2.956121322384275274e-02
1.129411764705882320e+02 4.377041806143129321e-01 -2.768096365838979001e-02
1.139495798319327662e+02 4.477080864857565512e-01 -2.275049084832259094e-02
1.149579831932773004e+02 4.562226227384402755e-01 -1.504206415742093128e-02
1.159663865546218489e+02 4.620169165025966862e-01 -5.014190067865076372e-03
1.169747899159663831e+02 4.639717298799999057e-01 6.738702660711082260e-03
1.179831932773109173e+02 4.611582077048690387e-01 1.954560614282430109e-02
1.189915966386554658e+02 4.528944608247575943e-01 3.272332389670873365e-02
1.200000000000000000e+02 4.387965072328476879e-01 4.562077947984743975e-02
