0.000000000000000000e+00 2.220446049250313081e-16 -1.110223024625156540e-16
1.008403361344537785e+00 -1.387202914606699977e-04 6.214011833431953846e-04
2.016806722689075571e+00 -5.515288559256870116e-04 2.473806699392233632e-03
3.025210084033613356e+00 -1.228776465241110394e-03 5.522729976721874046e-03
4.033613445378151141e+00 -2.155037702753714868e-03 9.712688902909327737e-03
5.042016806722688926e+00 -3.309533031816247473e-03 1.496926343618787403e-02
6.050420168067226712e+00 -4.665123293878026267e-03 2.119964815585873019e-02
7.058823529411764497e+00 -6.192166604107374184e-03 2.829953099906024061e-02
8.067226890756302282e+00 -7.856976373479707121e-03 3.615355142286413859e-02
9.075630252100840067e+00 -9.624358021797618790e-03 4.464011210905194371e-02
1.008403361344537785e+01 -1.145694184768797363e-02 5.363261057733603732e-02
1.109243697478991564e+01 -1.331984971673150220e-02 6.300576821298631280e-02
1.210084033613445342e+01 -1.517868432092728259e-02 7.263487438973170729e-02
1.310924369747899121e+01 -1.700259722321573186e-02 8.239985149036477274e-02
1.411764705882352899e+01 -1.876476850461361590e-02 9.218649035755843713e-02
1.512605042016806678e+01 -2.044325753412024049e-02 1.018878616325988862e-01
1.613445378151260456e+01 -2.202236652731837108e-02 1.114062597922133024e-01
1.714285714285714235e+01 -2.349173512404167941e-02 1.206527924338245406e-01
1.815126050420168013e+01 -2.484813311028211125e-02 1.295498582422597300e-01
1.915966386554621792e+01 -2.609358663612215690e-02 1.380299218119807048e-01
2.016806722689075571e+01 -2.723628775282282977e-02 1.460373737261873028e-01
2.117647058823529349e+01 -2.828879444156351397e-02 1.535275559765801878e-01
2.218487394957983128e+01 -2.926779847601412854e-02 1.604676361799661777e-01
2.319327731092436906e+01 -3.019252894595692016e-02 1.668359525565484835e-01
2.420168067226890685e+01 -3.108392843829232977e-02 1.726221615224530215e-01
2.521008403361344463e+01 -3.196285191893122324e-02 1.778263182113273277e-01
2.621848739495798242e+01 -3.284965679455231768e-02 1.824590147991499434e-01
2.722689075630252020e+01 -3.376174332630654806e-02 1.865394421644434031e-01
2.823529411764705799e+01 -3.471414354952462311e-02 1.900959326435790464e-01
2.924369747899159577e+01 -3.571654961280013030e-02 1.931628501833324574e-01
3.025210084033613356e+01 -3.677479977710129688e-02 1.957813514167284774e-01
3.126050420168067134e+01 -3.788812627261683996e-02 1.979956262481498142e-01
3.226890756302520913e+01 -3.905098276286089742e-02 1.998532390741776243e-01
3.327731092436974336e+01 -4.025157347038899047e-02 2.014017012680535679e-01
3.428571428571428470e+01 -4.147343785777368730e-02 2.026877860032569867e-01
3.529411764705882604e+01 -4.269591483616375083e-02 2.037552094742750564e-01
3.630252100840336027e+01 -4.389534080596324550e-02 2.046430692934085860e-01
3.731092436974789450e+01 -4.504697626866227544e-02 2.053846037870489249e-01
3.831932773109243584e+01 -4.612597551190245060e-02 2.060056839902254522e-01
3.932773109243697718e+01 -4.710961099695865073e-02 2.065242582161714857e-01
4.033613445378151141e+01 -4.797790219293041059e-02 2.069497333252391380e-01
4.134453781512604564e+01 -4.871505659142982836e-02 2.072828475029648843e-01
4.235294117647058698e+01 -4.930954596044712090e-02 2.075162075265017947e-01
4.336134453781512832e+01 -4.975433941651119518e-02 2.076346588512952840e-01
4.436974789915966255e+01 -5.004635194945894483e-02 2.076165053493784773e-01
4.537815126050419678e+01 -5.018589678769247442e-02 2.074346779332736368e-01
4.638655462184873812e+01 -5.017563643738232049e-02 2.070578696303165822e-01
4.739495798319327946e+01 -5.002009193958834032e-02 2.064525642786517734e-01
4.840336134453781369e+01 -4.972436867612084477e-02 2.055836517597036117e-01
4.941176470588234793e+01 -4.929428260674550977e-02 2.044169395247851240e-01
5.042016806722688926e+01 -4.873512108127120435e-02 2.029192656113079085e-01
5.142857142857143060e+01 -4.805240223932283339e-02 2.010609136592035329e-01
5.243697478991596483e+01 -4.725088822877976380e-02 1.988155198281397196e-01
5.344537815126049907e+01 -4.633554158012542779e-02 1.961618626890015982e-01
5.445378151260504040e+01 -4.531102674814024844e-02 1.930838730959539840e-01
5.546218487394958174e+01 -4.418228546677882562e-02 1.895715718792968518e-01
5.647058823529411598e+01 -4.295464982788754771e-02 1.856212056319184178e-01
5.747899159663865021e+01 -4.163382413027005846e-02 1.812355691646608813e-01
5.848739495798319155e+01 -4.022642606104254170e-02 1.764239857504446007e-01
5.949579831932773288e+01 -3.873953348179304257e-02 1.712023952446900532e-01
6.050420168067226712e+01 -3.718137222813133747e-02 1.655929647701469554e-01
6.151260504201680135e+01 -3.556071388023884783e-02 1.596241556920729998e-01
6.252100840336134269e+01 -3.388745282047778140e-02 1.533299711259690223e-01
6.352941176470588402e+01 -3.217210068943376911e-02 1.467499591889152022e-01
6.453781512605041826e+01 -3.042608498113286153e-02 1.399283395259973695e-01
6.554621848739495249e+01 -2.866141564378166251e-02 1.329136997685880228e-01
6.655462184873948672e+01 -2.689071059401393349e-02 1.257583316802707296e-01
6.756302521008403517e+01 -2.512690805790318560e-02 1.185174287282581007e-01
6.857142857142856940e+01 -2.338319615926853778e-02 1.112487557231288671e-01
6.957983193277310363e+01 -2.167262421962468100e-02 1.040114114435892745e-01
7.058823529411765207e+01 -2.000813734890272144e-02 9.686574855352569902e-02
7.159663865546218631e+01 -1.840207728812248700e-02 8.987191189082033294e-02
7.260504201680672054e+01 -1.686636434201571610e-02 8.308982399290731902e-02
7.361344537815125477e+01 -1.541195097081804466e-02 7.657778293878503284e-02
7.462184873949578900e+01 -1.404894141999857293e-02 7.039229609580022196e-02
7.563025210084033745e+01 -1.278613003583162211e-02 6.458701274439337947e-02
7.663865546218487168e+01 -1.163081543265631623e-02 5.921228120576516041e-02
7.764705882352940591e+01 -1.058863447112468048e-02 5.431450834559614638e-02
7.865546218487395436e+01 -9.663154944174467964e-03 4.993553151730045769e-02
7.966386554621848859e+01 -8.856174655840209908e-03 4.611231065436272036e-02
8.067226890756302282e+01 -8.167367342352904735e-03 4.287630898182703820e-02
8.168067226890755705e+01 -7.594952242474417581e-03 4.025338515652088223e-02
8.268907563025209129e+01 -7.135482885580968215e-03 3.826334158559718812e-02
8.369747899159663973e+01 -6.784489573352425751e-03 3.691992469942217969e-02
8.470588235294117396e+01 -6.536309602761192217e-03 3.623062078521110951e-02
8.571428571428570820e+01 -6.384364316209256707e-03 3.619674052332977343e-02
8.672268907563025664e+01 -6.321046835320531798e-03 3.681344249946072456e-02
8.773109243697479087e+01 -6.337800483925848383e-03 3.806994837532295950e-02
8.873949579831932510e+01 -6.425253399921726505e-03 3.994970204792747115e-02
8.974789915966385934e+01 -6.573570512886206529e-03 4.243077716150756018e-02
9.075630252100839357e+01 -6.772927282192364729e-03 4.548608430490441723e-02
9.176470588235294201e+01 -7.014342959896668894e-03 4.908398025379834273e-02
9.277310924369747624e+01 -7.290387274930809625e-03 5.318848621464267179e-02
9.378151260504201048e+01 -7.596291320552284176e-03 5.776003491366765719e-02
9.478991596638655892e+01 -7.930618762003183164e-03 6.275573288401992134e-02
9.579831932773109315e+01 -8.296091712809872121e-03 6.813010132511509997e-02
9.680672268907562739e+01 -8.699769371005805496e-03 7.383548257804584125e-02
9.781512605042016162e+01 -9.152930535448300375e-03 7.982259530902624522e-02
9.882352941176469585e+01 -9.670309454939851612e-03 8.604116899750680059e-02
9.983193277310924429e+01 -1.026882123883976483e-02 9.244022419063246954e-02
1.008403361344537785e+02 -1.096596833279372962e-02 9.896891666787388520e-02
1.018487394957983128e+02 -1.177796957038601544e-02 1.055765551516721912e-01
1.028571428571428612e+02 -1.271820344349205989e-02 1.122135677855866653e-01
1.038655462184873954e+02 -1.379568880248172036e-02 1.188313575578260339e-01
1.048739495798319297e+02 -1.501445093322417712e-02 1.253832272031082384e-01
1.058823529411764639e+02 -1.637300223264603893e-02 1.318242701489427127e-01
1.068907563025209981e+02 -1.786473869255478242e-02 1.381120206907457959e-01
1.078991596638655466e+02 -1.947846187805302165e-02 1.442065965394524474e-01
1.089075630252100808e+02 -2.119913590406807824e-02 1.500709316610053801e-01
1.099159663865546150e+02 -2.300897555132852546e-02 1.556712261919531715e-01
1.109243697478991635e+02 -2.488785415160199577e-02 1.609768095706026747e-01
1.119327731092436977e+02 -2.681443088055446289e-02 1.659607882826523717e-01
1.129411764705882320e+02 -2.876608908578692780e-02 1.705996970196075324e-01
1.139495798319327662e+02 -3.071990671790836291e-02 1.748741670660772796e-01
1.149579831932773004e+02 -3.265251446639039212e-02 1.787685550803209678e-01
1.159663865546218489e+02 -3.454094833607346260e-02 1.822714443466123546e-01
1.169747899159663831e+02 -3.636284126616251555e-02 1.853753994121779547e-01
1.179831932773109173e+02 -3.809727554835151686e-02 1.880771931683939968e-01
1.189915966386554658e+02 -3.972536597512488221e-02 1.903776808340097437e-01
1.200000000000000000e+02 -4.123123430189190586e-02 1.922818290479252346e-01
