0.000000000000000000e+00 2.220446049250313081e-16 -1.110223024625156540e-16
1.008403361344537785e+00 6.297656504399506971e-03 6.099853632909768564e-03
2.016806722689075571e+00 2.486551785792401326e-02 2.321069107100548479e-02
3.025210084033613356e+00 5.476990281537874594e-02 4.850781659755387665e-02
4.033613445378151141e+00 9.457928902457468645e-02 7.872092510493522433e-02
5.042016806722688926e+00 1.425090840209000120e-01 1.107465562462466302e-01
6.050420168067226712e+00 1.965596562909976974e-01 1.418175272680274324e-01
7.058823529411764497e+00 2.546443201190258243e-01 1.695443910211208438e-01
8.067226890756302282e+00 3.146880561829514811e-01 1.919358090567080399e-01
9.075630252100840067e+00 3.747059005479143057e-01 2.074278920633236822e-01
1.008403361344537785e+01 4.328779710256911439e-01 2.149228285037605435e-01
1.109243697478991564e+01 4.875984674065971802e-01 2.138219525951817745e-01
1.210084033613445342e+01 5.375161478305434670e-01 2.040567436005931157e-01
1.310924369747899121e+01 5.815597059736841157e-01 1.861151286735598376e-01
1.411764705882352899e+01 6.189532835023230373e-01 1.610637868210684776e-01
1.512605042016806678e+01 6.492172674271070587e-01 1.305680647719908993e-01
1.613445378151260456e+01 6.721553424336543792e-01 9.691080299822973920e-02
1.714285714285714235e+01 6.878281822011140800e-01 6.300156812330692802e-02
1.815126050420168013e+01 6.965108491450000550e-01 3.234379982633939221e-02
1.915966386554621792e+01 6.986432217961728863e-01 8.836704655862614999e-03
2.016806722689075571e+01 6.947686434181401527e-01 -3.820492337665903904e-03
2.117647058823529349e+01 6.854731362852242160e-01 -3.286172952072674569e-03
2.218487394957983128e+01 6.713333640792613632e-01 1.029919350968944158e-02
2.319327731092436906e+01 6.528721863060038544e-01 3.441222323203430022e-02
2.420168067226890685e+01 6.305390045067253979e-01 6.536998462893717221e-02
2.521008403361344463e+01 6.047083150652010630e-01 9.947909713077218719e-02
2.621848739495798242e+01 5.756940385496576162e-01 1.335820462339040171e-01
2.722689075630252020e+01 5.437806161605867050e-01 1.651941957582968579e-01
2.823529411764705799e+01 5.092581198142773768e-01 1.924919889010505702e-01
2.924369747899159577e+01 4.724593531068341790e-01 2.142589414996195485e-01
3.025210084033613356e+01 4.337897181871861463e-01 2.298256813133598975e-01
3.126050420168067134e+01 3.937460158951648914e-01 2.390123517220839044e-01
3.226890756302520913e+01 3.529206825202830800e-01 2.420702882280321155e-01
3.327731092436974336e+01 3.119909081626244252e-01 2.396218937516076952e-01
3.428571428571428470e+01 2.717139726740271932e-01 2.325961780402587831e-01
3.529411764705882604e+01 2.329229465490956219e-01 2.221582372193405819e-01
3.630252100840336027e+01 1.964997676590387599e-01 2.096310194563594242e-01
3.731092436974789450e+01 1.633081220562102587e-01 1.964095239625097689e-01
3.831932773109243584e+01 1.341034511286842701e-01 1.838649669476417614e-01
3.932773109243697718e+01 1.094980670502372355e-01 1.732436221217928951e-01
4.033613445378151141e+01 9.001216354612218140e-02 1.655655570726162207e-01
4.134453781512604564e+01 7.616896562429875672e-02 1.615335982593827380e-01
4.235294117647058698e+01 6.858122647199194066e-02 1.614731376680207386e-01
4.336134453781512832e+01 6.797598526202186520e-02 1.653123510880890601e-01
4.436974789915966255e+01 7.513287773232568689e-02 1.726114432914733765e-01
4.537815126050419678e+01 9.070816552833171897e-02 1.826340578845334628e-01
4.638655462184873812e+01 1.149475954443293091e-01 1.944402657278150315e-01
4.739495798319327946e+01 1.474196219312362555e-01 2.069865051364390141e-01
4.840336134453781369e+01 1.869489663694197112e-01 2.192168095619340118e-01
4.941176470588234793e+01 2.317887703184251524e-01 2.301388607828878108e-01
5.042016806722688926e+01 2.798940489617689487e-01 2.388843779387019861e-01
5.142857142857143060e+01 3.291515944552463324e-01 2.447539317243001555e-01
5.243697478991596483e+01 3.775359034320093787e-01 2.472491126624267732e-01
5.344537815126049907e+01 4.232142092330788419e-01 2.460934199317030835e-01
5.445378151260504040e+01 4.646211131680253459e-01 2.412437802818701016e-01
5.546218487394958174e+01 5.005131615467541817e-01 2.328932532866518912e-01
5.647058823529411598e+01 5.300003424958847908e-01 2.214653858022225252e-01
5.747899159663865021e+01 5.525560446046213769e-01 2.075993736658936495e-01
5.848739495798319155e+01 5.680107280527164626e-01 1.921246172484050163e-01
5.949579831932773288e+01 5.765396645365536976e-01 1.760222012115695289e-01
6.050420168067226712e+01 5.786447060223007810e-01 1.603687365926211861e-01
6.151260504201680135e+01 5.751152919443114353e-01 1.462612027513903179e-01
6.252100840336134269e+01 5.669590387073208948e-01 1.347207285361164963e-01
6.352941176470588402e+01 5.552955256223934821e-01 1.265830645354759643e-01
6.453781512605041826e+01 5.412291517014806708e-01 1.223947571668990708e-01
6.554621848739495249e+01 5.257412738398403729e-01 1.223380609163020605e-01
6.655462184873948672e+01 5.096397611299186003e-01 1.262112231787304584e-01
6.756302521008403517e+01 4.935663513419668025e-01 1.334710926755806604e-01
6.857142857142856940e+01 4.780283262071867156e-01 1.433229650880274431e-01
6.957983193277310363e+01 4.634342973901817153e-01 1.548327763258843248e-01
7.058823529411765207e+01 4.501193703200145890e-01 1.670333569189119682e-01
7.159663865546218631e+01 4.383407897886428817e-01 1.790099449997044623e-01
7.260504201680672054e+01 4.282235576389541443e-01 1.899609726033586465e-01
7.361344537815125477e+01 4.196387326849038146e-01 1.992354447185173960e-01
7.462184873949578900e+01 4.120694434517959692e-01 2.063529120170558562e-01
7.563025210084033745e+01 4.045805046102364244e-01 2.110104879412515455e-01
7.663865546218487168e+01 3.959500678288254694e-01 2.130806461912704286e-01
7.764705882352940591e+01 3.849076620399622950e-01 2.126025769062691584e-01
7.865546218487395436e+01 3.703635322443017408e-01 2.097684942583819545e-01
7.966386554621848859e+01 3.515748964493194961e-01 2.049058021350718128e-01
8.067226890756302282e+01 3.282563754426046643e-01 1.984554788781822676e-01
8.168067226890755705e+01 3.006439558398874556e-01 1.909466563717110432e-01
8.268907563025209129e+01 2.695262563486071627e-01 1.829671505449889102e-01
8.369747899159663973e+01 2.362471844188747117e-01 1.751300878314114851e-01
8.470588235294117396e+01 2.026697780144615102e-01 1.680364901307956904e-01
8.571428571428570820e+01 1.710841519421955059e-01 1.622352025397063580e-01
8.672268907563025664e+01 1.440468588009409245e-01 1.581827234839849883e-01
8.773109243697479087e+01 1.241329356881397672e-01 1.562062683650158323e-01
8.873949579831932510e+01 1.135729809829882919e-01 1.564758831678694229e-01
8.974789915966385934e+01 1.138068274480600328e-01 1.589897512699398607e-01
9.075630252100839357e+01 1.251287102421920761e-01 1.635753502533707771e-01
9.176470588235294201e+01 1.466425570680494062e-01 1.699068997389043822e-01
9.277310924369747624e+01 1.765418214462901592e-01 1.775346734123468551e-01
9.378151260504201048e+01 2.125312558083645165e-01 1.859219828674483210e-01
9.478991596638655892e+01 2.521682160527989325e-01 1.944850171485577039e-01
9.579831932773109315e+01 2.930127681352678870e-01 2.026312291191394444e-01
9.680672268907562739e+01 3.327089559405767005e-01 2.097949263212726123e-01
9.781512605042016162e+01 3.691459179970124627e-01 2.154686999229241673e-01
9.882352941176469585e+01 4.006283120846874102e-01 2.192305233776326023e-01
9.983193277310924429e+01 4.259761134138266847e-01 2.207668857564552001e-01
1.008403361344537785e+02 4.445597714262756739e-01 2.198917887556641748e-01
1.018487394957983128e+02 4.563007490941612954e-01 2.165617395690556668e-01
1.028571428571428612e+02 4.616492887422456448e-01 2.108862673593949744e-01
1.038655462184873954e+02 4.615437773142510025e-01 2.031332990474025157e-01
1.048739495798319297e+02 4.573579569405610279e-01 1.937279929897695041e-01
1.058823529411764639e+02 4.508391157893663070e-01 1.832431896949566763e-01
1.068907563025209981e+02 4.440233873135626119e-01 1.723787371304197347e-01
1.078991596638655466e+02 4.390999545686937733e-01 1.619266096561886581e-01
1.089075630252100808e+02 4.381287537357478890e-01 1.527192306771913977e-01
1.099159663865546150e+02 4.424107024314181125e-01 1.455599088011114706e-01
1.109243697478991635e+02 4.518982388865553368e-01 1.411403580719439166e-01
1.119327731092436977e+02 4.655160931933188806e-01 1.399554177363180330e-01
1.129411764705882320e+02 4.817270011002687813e-01 1.422325239113612083e-01
1.139495798319327662e+02 4.987799222661322140e-01 1.478950946076085238e-01
1.149579831932773004e+02 5.148226655640688598e-01 1.565688490230867647e-01
1.159663865546218489e+02 5.280223071017793313e-01 1.676304816413440868e-01
1.169747899159663831e+02 5.366882262018453087e-01 1.802841910359584965e-01
1.179831932773109173e+02 5.393758585715311415e-01 1.936469191859988559e-01
1.189915966386554658e+02 5.349721694391904592e-01 2.068294288072476395e-01
1.200000000000000000e+02 5.227621234008703599e-01 2.190030466574524048e-01
