0.000000000000000000e+00 0.000000000000000000e+00 0.000000000000000000e+00
1.008403361344537785e+00 5.627982424163846531e-03 2.746927952535616058e-03
2.016806722689075571e+00 2.223339801927659565e-02 1.067557319952561201e-02
3.025210084033613356e+00 4.901467468214870671e-02 2.289744311445085501e-02
4.033613445378151141e+00 8.473825048964378492e-02 3.807586959049036324e-02
5.042016806722688926e+00 1.278609287622169965e-01 5.459674619622245650e-02
6.050420168067226712e+00 1.766472522292796832e-01 7.073929472541573560e-02
7.058823529411764497e+00 2.292782994111626227e-01 8.482825767617829804e-02
8.067226890756302282e+00 2.839355743026517054e-01 9.535669134835789151e-02
9.075630252100840067e+00 3.388753886473248045e-01 1.010851295398527139e-01
1.008403361344537785e+01 3.924875065773871796e-01 1.011177686716306923e-01
1.109243697478991564e+01 4.433385756929282273e-01 9.496030029851820764e-02
1.210084033613445342e+01 4.902061202996610412e-01 8.256301466738613648e-02
1.310924369747899121e+01 5.321008537905842495e-01 6.435123242761320306e-02
1.411764705882352899e+01 5.682784373868821071e-01 4.124451044947474720e-02
1.512605042016806678e+01 5.982401645430071024e-01 1.466425903274437559e-02
1.613445378151260456e+01 6.217225328614959245e-01 -1.347509447485850664e-02
1.714285714285714235e+01 6.386760019307282654e-01 -4.080709384538971918e-02
1.815126050420168013e+01 6.492340898546551387e-01 -6.462462755692255367e-02
1.915966386554621792e+01 6.536748460035561870e-01 -8.213230042345820436e-02
2.016806722689075571e+01 6.523779411472880874e-01 -9.091470866647843874e-02
2.117647058823529349e+01 6.457816377754124204e-01 -8.957126432954876094e-02
2.218487394957983128e+01 6.343444368678665679e-01 -7.819971120568591783e-02
2.319327731092436906e+01 6.185158685139293677e-01 -5.834447579198154266e-02
2.420168067226890685e+01 5.987194828746154052e-01 -3.244194376156595006e-02
2.521008403361344463e+01 5.753486515256331923e-01 -3.174383139733505388e-03
2.621848739495798242e+01 5.487730441477263188e-01 2.697039391555322574e-02
2.722689075630252020e+01 5.193529046389055992e-01 5.591040869654473333e-02
2.823529411764705799e+01 4.874596239519641827e-01 8.203886126303205906e-02
2.924369747899159577e+01 4.534984679240103844e-01 1.042252445633542468e-01
3.025210084033613356e+01 4.179268484891942581e-01 1.217869850739699000e-01
3.126050420168067134e+01 3.812647935970632229e-01 1.344478419344463660e-01
3.226890756302520913e+01 3.440966051880538501e-01 1.422889595267942120e-01
3.327731092436974336e+01 3.070649385470236581e-01 1.456943093352645047e-01
3.428571428571428470e+01 2.708607738659671860e-01 1.452910622960996712e-01
3.529411764705882604e+01 2.362102677017263730e-01 1.418853740403906993e-01
3.630252100840336027e+01 2.038535147124829194e-01 1.363945023155572756e-01
3.731092436974789450e+01 1.745107682974620378e-01 1.297768679586197571e-01
3.831932773109243584e+01 1.488426087850762691e-01 1.229625200477064695e-01
3.932773109243697718e+01 1.274221810344575712e-01 1.167873727907380310e-01
4.033613445378151141e+01 1.107359316733880217e-01 1.119353659587389860e-01
4.134453781512604564e+01 9.921175348567190522e-02 1.088930794070994690e-01
4.235294117647058698e+01 9.325436217613214396e-02 1.079209817847550656e-01
4.336134453781512832e+01 9.326188447656524882e-02 1.090442065185615039e-01
4.436974789915966255e+01 9.960466658125899375e-02 1.120636284829790164e-01
4.537815126050419678e+01 1.125590033175332128e-01 1.165854539795578848e-01
4.638655462184873812e+01 1.322025515035463172e-01 1.220653065887331579e-01
4.739495798319327946e+01 1.582965773000712950e-01 1.278614172734529042e-01
4.840336134453781369e+01 1.901978196543383515e-01 1.332912687787466410e-01
4.941176470588234793e+01 2.268428275140443873e-01 1.376867433344466374e-01
5.042016806722688926e+01 2.668192760286522969e-01 1.404440657906176337e-01
5.142857142857143060e+01 3.084995458803843071e-01 1.410661866350617633e-01
5.243697478991596483e+01 3.501931059115566125e-01 1.391964027571952478e-01
5.344537815126049907e+01 3.902836940124707610e-01 1.346428225636702170e-01
5.445378151260504040e+01 4.273362244409684152e-01 1.273937209841302654e-01
5.546218487394958174e+01 4.601703218696158171e-01 1.176239329961896729e-01
5.647058823529411598e+01 4.879021347376275575e-01 1.056922510933973047e-01
5.747899159663865021e+01 5.099594316256703674e-01 9.212937443760527145e-02
5.848739495798319155e+01 5.260790198732232525e-01 7.761536024316528781e-02
5.949579831932773288e+01 5.362953738500109147e-01 6.294502071274732380e-02
6.050420168067226712e+01 5.409210739977523552e-01 4.897950051370636437e-02
6.151260504201680135e+01 5.405114109461695016e-01 3.658317499335750345e-02
6.252100840336134269e+01 5.358054895846120491e-01 2.654777466447066914e-02
6.352941176470588402e+01 5.276427648492523215e-01 1.951065307781596481e-02
6.453781512605041826e+01 5.168678343073103143e-01 1.588020391786093555e-02
6.554621848739495249e+01 5.042525177458845320e-01 1.578520246135139971e-02
6.655462184873948672e+01 4.904600913437933141e-01 1.906220989521978382e-02
6.756302521008403517e+01 4.760484473257400317e-01 2.528522067050165134e-02
6.857142857142856940e+01 4.614906999663443976e-01 3.382907547264268899e-02
6.957983193277310363e+01 4.471956750736136854e-01 4.394985811682328158e-02
7.058823529411765207e+01 4.335171496952998638e-01 5.486508201912632110e-02
7.159663865546218631e+01 4.207389771997005479e-01 6.582189477955335821e-02
7.260504201680672054e+01 4.090207634329408037e-01 7.614834319562779896e-02
7.361344537815125477e+01 3.983038890050853986e-01 8.528769579484940522e-02
7.462184873949578900e+01 3.882207579186507385e-01 9.281833900408131832e-02
7.563025210084033745e+01 3.780839816079559768e-01 9.846235095747912780e-02
7.663865546218487168e+01 3.669920928609629041e-01 1.020854811773768134e-01
7.764705882352940591e+01 3.540059046339492088e-01 1.036905949779722835e-01
7.865546218487395436e+01 3.383234695680532589e-01 1.034059938803921774e-01
7.966386554621848859e+01 3.194159323499186076e-01 1.014695229291044942e-01
8.067226890756302282e+01 2.971203874543095758e-01 9.820904649885608961e-02
8.168067226890755705e+01 2.716965415230740977e-01 9.401971084063442952e-02
8.268907563025209129e+01 2.438528535210062742e-01 8.933841078080084763e-02
8.369747899159663973e+01 2.147430990054250977e-01 8.461604304903080909e-02
8.470588235294117396e+01 1.859277637910605741e-01 8.028845703132925227e-02
8.571428571428570820e+01 1.592894459781095673e-01 7.674747207314347452e-02
8.672268907563025664e+01 1.368907987712106866e-01 7.431381733717268290e-02
8.773109243697479087e+01 1.207638773991014380e-01 7.321422505227004329e-02
8.873949579831932510e+01 1.126255058186195201e-01 7.356494557489934305e-02
8.974789915966385934e+01 1.135586330394715571e-01 7.536352023129255784e-02
9.075630252100839357e+01 1.237764444696164423e-01 7.848976773199323187e-02
9.176470588235294201e+01 1.425936404710546057e-01 8.271578819374747482e-02
9.277310924369747624e+01 1.686140958565136572e-01 8.772369520625500350e-02
9.378151260504201048e+01 2.000164040272676136e-01 9.312904100177266109e-02
9.478991596638655892e+01 2.348020833224715442e-01 9.850763663078021537e-02
9.579831932773109315e+01 2.709498179392380024e-01 1.034236344179737532e-01
9.680672268907562739e+01 3.065152293189394861e-01 1.074571615787580647e-01
9.781512605042016162e+01 3.397430489849413426e-01 1.102302823796617037e-01
9.882352941176469585e+01 3.691906062433538693e-01 1.114304849304588174e-01
9.983193277310924429e+01 3.938192384349099573e-01 1.108311716268080005e-01
1.008403361344537785e+02 4.130391271878086634e-01 1.083087653777932147e-01
1.018487394957983128e+02 4.267180694102228333e-01 1.038560304551403579e-01
1.028571428571428612e+02 4.351652399107899249e-01 9.759108614032907525e-02
1.038655462184873954e+02 4.390962600355774459e-01 8.976134267654645171e-02
1.048739495798319297e+02 4.395837613374926622e-01 8.074124579283992187e-02
1.058823529411764639e+02 4.379926879917108717e-01 7.102231824964655438e-02
1.068907563025209981e+02 4.358867814381197636e-01 6.119364688544215447e-02
1.078991596638655466e+02 4.348763955678833781e-01 5.191092851979917100e-02
1.089075630252100808e+02 4.363650412758000030e-01 4.385287333463705473e-02
1.099159663865546150e+02 4.412027220251784065e-01 3.766567487667971115e-02
1.109243697478991635e+02 4.494365649051272893e-01 3.389965215375290164e-02
1.119327731092436977e+02 4.603781117649290433e-01 3.294647295668107212e-02
1.129411764705882320e+02 4.728700566872445776e-01 3.498873216253750584e-02
1.139495798319327662e+02 4.855134290872316072e-01 3.997355581876549380e-02
1.149579831932773004e+02 4.968140987469404912e-01 4.761701082229474746e-02
1.159663865546218489e+02 5.052998460725086627e-01 5.743805741135021847e-02
1.169747899159663831e+02 5.096243923779073537e-01 6.881350267993280312e-02
1.179831932773109173e+02 5.086542573669006195e-01 8.104214958722222306e-02
1.189915966386554658e+02 5.015391615596918040e-01 9.340756608845190989e-02
1.200000000000000000e+02 4.877686725798753287e-01 1.052325827610176567e-01
