0.000000000000000000e+00 2.220446049250313081e-16 1.110223024625156540e-16
1.008403361344537785e+00 7.417173176758051767e-04 -3.354990849478989290e-04
2.016806722689075571e+00 2.945767570154522730e-03 -1.338968366612180994e-03
3.025210084033613356e+00 6.550927140149820360e-03 -3.001617573146320161e-03
4.033613445378151141e+00 1.145862698810740099e-02 -5.307936850972416742e-03
5.042016806722688926e+00 1.753379271629285086e-02 -8.232114637893084286e-03
6.050420168067226712e+00 2.461415953317269700e-02 -1.173834077890167915e-02
7.058823529411764497e+00 3.251363676483032261e-02 -1.577692514753958886e-02
8.067226890756302282e+00 4.102873784793459322e-02 -2.028203882991241880e-02
9.075630252100840067e+00 4.994634602499825604e-02 -2.517074103074001812e-02
1.008403361344537785e+01 5.904820380651876199e-02 -3.034054968608723701e-02
1.109243697478991564e+01 6.811875152732660421e-02 -3.567063972553097262e-02
1.210084033613445342e+01 7.694928918978338750e-02 -4.102206206715119929e-02
1.310924369747899121e+01 8.534233202932839379e-02 -4.623992764510076459e-02
1.411764705882352899e+01 9.311780611945652542e-02 -5.115936971607193406e-02
1.512605042016806678e+01 1.001145421071389929e-01 -5.560990849067948272e-02
1.613445378151260456e+01 1.061937098160574688e-01 -5.942348442497402683e-02
1.714285714285714235e+01 1.112419084979245909e-01 -6.244409646163440186e-02
1.815126050420168013e+01 1.151710770092290170e-01 -6.453563134493511821e-02
1.915966386554621792e+01 1.179204284170368711e-01 -6.559179946769500003e-02
2.016806722689075571e+01 1.194564882464174138e-01 -6.554350461422298046e-02
2.117647058823529349e+01 1.197723816533347030e-01 -6.436360624015891041e-02
2.218487394957983128e+01 1.188876480635646660e-01 -6.206959748601326154e-02
2.319327731092436906e+01 1.168463392889245167e-01 -5.872159050605663122e-02
2.420168067226890685e+01 1.137160213566505984e-01 -5.441839356125077742e-02
2.521008403361344463e+01 1.095851685569085854e-01 -4.928985430610810514e-02
2.621848739495798242e+01 1.045607661763195972e-01 -4.348819659290603656e-02
2.722689075630252020e+01 9.876665841672693791e-02 -3.717983576314642935e-02
2.823529411764705799e+01 9.233914892288275222e-02 -3.053525668824852435e-02
2.924369747899159577e+01 8.542494433265357401e-02 -2.372236971068264477e-02
3.025210084033613356e+01 7.817849513409613760e-02 -1.690082156628980314e-02
3.126050420168067134e+01 7.075708825072735131e-02 -1.021605557818217047e-02
3.226890756302520913e+01 6.331926656709008228e-02 -3.797820031305021438e-03
3.327731092436974336e+01 5.602131864619352974e-02 2.241692327784372551e-03
3.428571428571428470e+01 4.901317056505805070e-02 7.809041040936048894e-03
3.529411764705882604e+01 4.243708557955416794e-02 1.282779068201900241e-02
3.630252100840336027e+01 3.642402824889734436e-02 1.723814228697995166e-02
3.731092436974789450e+01 3.109113837623866949e-02 2.099547174352733858e-02
3.831932773109243584e+01 2.654054746005485299e-02 2.406798452471881067e-02
3.932773109243697718e+01 2.285658158563652620e-02 2.643571685066070653e-02
4.033613445378151141e+01 2.010479786608587727e-02 2.808859640981575811e-02
4.134453781512604564e+01 1.833088182270481425e-02 2.902509952448761865e-02
4.235294117647058698e+01 1.755940839267389197e-02 2.925142413980474920e-02
4.336134453781512832e+01 1.779370900927301768e-02 2.878049997892428991e-02
4.436974789915966255e+01 1.901519333437606818e-02 2.763191237047035731e-02
4.537815126050419678e+01 2.118389698757594530e-02 2.583145403268283236e-02
4.638655462184873812e+01 2.423893660111764436e-02 2.341137874813359332e-02
4.739495798319327946e+01 2.809924858267198733e-02 2.041095641199019983e-02
4.840336134453781369e+01 3.266619192019748485e-02 1.687618535952351007e-02
4.941176470588234793e+01 3.782522081538153280e-02 1.286068079961022459e-02
5.042016806722688926e+01 4.344894235896568091e-02 8.425867632747663372e-03
5.142857142857143060e+01 4.940144393039680448e-02 3.640418790273769467e-03
5.243697478991596483e+01 5.554121516836918460e-02 -1.419214859432638143e-03
5.344537815126049907e+01 6.172582786915925546e-02 -6.669835627408082779e-03
5.445378151260504040e+01 6.781632105077428641e-02 -1.202273700191647254e-02
5.546218487394958174e+01 7.368016505092167545e-02 -1.738439336651764755e-02
5.647058823529411598e+01 7.919557610935457070e-02 -2.265903459175533374e-02
5.747899159663865021e+01 8.425412085536165829e-02 -2.775067785792206809e-02
5.848739495798319155e+01 8.876252172584386813e-02 -3.256530269754798201e-02
5.949579831932773288e+01 9.264491920686568349e-02 -3.701433044095481240e-02
6.050420168067226712e+01 9.584319347226544217e-02 -4.101706191595344553e-02
6.151260504201680135e+01 9.831712568804495955e-02 -4.450344673939454765e-02
6.252100840336134269e+01 1.000441795080325713e-01 -4.741692487247639587e-02
6.352941176470588402e+01 1.010182127249794615e-01 -4.971610267990034249e-02
6.453781512605041826e+01 1.012483617522068613e-01 -5.137630684551053317e-02
6.554621848739495249e+01 1.007573215264389033e-01 -5.239013347403942422e-02
6.655462184873948672e+01 9.957975458477352770e-02 -5.276717695863430979e-02
6.756302521008403517e+01 9.776064263157935308e-02 -5.253314067476078097e-02
6.857142857142856940e+01 9.535307604029641393e-02 -5.172784671631902587e-02
6.957983193277310363e+01 9.241669040140954028e-02 -5.040323307224192639e-02
7.058823529411765207e+01 8.901540902723159565e-02 -4.862064083448613960e-02
7.159663865546218631e+01 8.521516459188904768e-02 -4.644783987556977412e-02
7.260504201680672054e+01 8.108260211688012031e-02 -4.395674571842700384e-02
7.361344537815125477e+01 7.668316016256171430e-02 -4.122051008488147872e-02
7.462184873949578900e+01 7.208043179752676721e-02 -3.831134930643276260e-02
7.563025210084033745e+01 6.733667077085869757e-02 -3.529909532159980490e-02
7.663865546218487168e+01 6.251300771636802978e-02 -3.224922950372266506e-02
7.764705882352940591e+01 5.767128502430274306e-02 -2.922215370549885449e-02
7.865546218487395436e+01 5.287602728931439788e-02 -2.627274678719782042e-02
7.966386554621848859e+01 4.819547365456100518e-02 -2.344955764226186457e-02
8.067226890756302282e+01 4.370316016403741344e-02 -2.079517455055490682e-02
8.168067226890755705e+01 3.947817722893287584e-02 -1.834640889052374657e-02
8.268907563025209129e+01 3.560387535754061528e-02 -1.613430564049200822e-02
8.369747899159663973e+01 3.216637795171006786e-02 -1.418494426774397077e-02
8.470588235294117396e+01 2.925132565232391180e-02 -1.251977045383412257e-02
8.571428571428570820e+01 2.693968756291442723e-02 -1.115593217646970725e-02
8.672268907563025664e+01 2.530370355350586298e-02 -1.010692220446485212e-02
8.773109243697479087e+01 2.440197502361329818e-02 -9.382715889156179045e-03
8.873949579831932510e+01 2.427526944869518033e-02 -8.990012541266634294e-03
8.974789915966385934e+01 2.494327467386203701e-02 -8.932375311175078103e-03
9.075630252100839357e+01 2.640209149132299871e-02 -9.210066371925562656e-03
9.176470588235294201e+01 2.862362086241587722e-02 -9.819951431630502547e-03
9.277310924369747624e+01 3.155612610849467536e-02 -1.075510320951800214e-02
9.378151260504201048e+01 3.512647896656773128e-02 -1.200446567134505482e-02
9.478991596638655892e+01 3.924367728696753765e-02 -1.355240659959766614e-02
9.579831932773109315e+01 4.380297347924311246e-02 -1.537807021741366409e-02
9.680672268907562739e+01 4.869134293281485171e-02 -1.745515199812697205e-02
9.781512605042016162e+01 5.379248030806516034e-02 -1.975134964532843096e-02
9.882352941176469585e+01 5.899169570264040097e-02 -2.222796820218542191e-02
9.983193277310924429e+01 6.418094583549471821e-02 -2.484016411509459843e-02
1.008403361344537785e+02 6.926191613771581768e-02 -2.753673750668272913e-02
1.018487394957983128e+02 7.414857544289832347e-02 -3.026057120269987077e-02
1.028571428571428612e+02 7.876871044517819165e-02 -3.294966594689918704e-02
1.038655462184873954e+02 8.306328221823255920e-02 -3.553775064564590469e-02
1.048739495798319297e+02 8.698545658248491019e-02 -3.795597365737390927e-02
1.058823529411764639e+02 9.049846623315072058e-02 -4.013481012589281693e-02
1.068907563025209981e+02 9.357237331555923188e-02 -4.200569393907016558e-02
1.078991596638655466e+02 9.618141941803204364e-02 -4.350380961802247093e-02
1.089075630252100808e+02 9.830109205568871023e-02 -4.457040029042325102e-02
1.099159663865546150e+02 9.990573377341249728e-02 -4.515494980979761763e-02
1.109243697478991635e+02 1.009677743958653506e-01 -4.521793750965941161e-02
1.119327731092436977e+02 1.014575583475902931e-01 -4.473248029658016822e-02
1.129411764705882320e+02 1.013445832911966660e-01 -4.368578631881747665e-02
1.139495798319327662e+02 1.006002519953472785e-01 -4.208026381104945646e-02
1.149579831932773004e+02 9.920092351855025470e-02 -3.993343354336409412e-02
1.159663865546218489e+02 9.713182201448389286e-02 -3.727755436883595230e-02
1.169747899159663831e+02 9.439094687412996620e-02 -3.415839313775581587e-02
1.179831932773109173e+02 9.099243382995936269e-02 -3.063347559723872404e-02
1.189915966386554658e+02 8.696944009677920473e-02 -2.677007587105550979e-02
1.200000000000000000e+02 8.237553661853846965e-02 -2.264258084653925085e-02
