0.000000000000000000e+00 2.220446049250313081e-16 -2.220446049250313081e-16
1.008403361344537785e+00 4.585353434058636601e-03 9.378143426546081685e-04
2.016806722689075571e+00 1.813732464733630589e-02 3.598844951112623036e-03
3.025210084033613356e+00 4.006484700207990635e-02 7.541398322316483771e-03
4.033613445378151141e+00 6.944505576354842447e-02 1.207872646779084569e-02
5.042016806722688926e+00 1.051057814018978576e-01 1.634733945955546552e-02
6.050420168067226712e+00 1.457069381786930684e-01 1.938835129255123135e-02
7.058823529411764497e+00 1.898193830527521442e-01 2.023473474893133783e-02
8.067226890756302282e+00 2.359928055836111316e-01 1.799655523094734200e-02
9.075630252100840067e+00 2.828131743277948473e-01 1.193930680768207075e-02
1.008403361344537785e+01 3.289517754956148288e-01 1.551723126077986237e-03
1.109243697478991564e+01 3.732002728137404635e-01 -1.339751927113153052e-02
1.210084033613445342e+01 4.145005846310310105e-01 -3.281521229072659196e-02
1.310924369747899121e+01 4.519657460998636189e-01 -5.625100147509520809e-02
1.411764705882352899e+01 4.848909072104494733e-01 -8.287543824532872527e-02
1.512605042016806678e+01 5.127513902641123167e-01 -1.114654757932650453e-01
1.613445378151260456e+01 5.352047530122829855e-01 -1.404132453994685337e-01
1.714285714285714235e+01 5.520761107429825731e-01 -1.677586732093925281e-01
1.815126050420168013e+01 5.633360185978033563e-01 -1.912788297269523152e-01
1.915966386554621792e+01 5.690806873395120036e-01 -2.087013486066011669e-01
2.016806722689075571e+01 5.695079014055757227e-01 -2.180868714476047465e-01
2.117647058823529349e+01 5.648873473707152204e-01 -2.183327491437283552e-01
2.218487394957983128e+01 5.555361710433037725e-01 -2.095499184297775486e-01
2.319327731092436906e+01 5.418068377574856154e-01 -1.930210930764757471e-01
2.420168067226890685e+01 5.240722748248383134e-01 -1.707537031637731406e-01
2.521008403361344463e+01 5.027166190140337498e-01 -1.449620473928497910e-01
2.621848739495798242e+01 4.781369407074294031e-01 -1.177141335656531895e-01
2.722689075630252020e+01 4.507523109709354880e-01 -9.076079918572554917e-02
2.823529411764705799e+01 4.210029878629657496e-01 -6.547325796255032415e-02
2.924369747899159577e+01 3.893639327218898494e-01 -4.284516966192497556e-02
3.025210084033613356e+01 3.563496225480162760e-01 -2.351519308722327395e-02
3.126050420168067134e+01 3.225149159771019125e-01 -7.801367916787649293e-03
3.226890756302520913e+01 2.884533341766926107e-01 4.257389433881542118e-03
3.327731092436974336e+01 2.547929661801222601e-01 1.285563497187180992e-02
3.428571428571428470e+01 2.221812998482157742e-01 1.837388161854036639e-02
3.529411764705882604e+01 1.912738765994257406e-01 2.132625898980711199e-02
3.630252100840336027e+01 1.627225161868195435e-01 2.230743741980600880e-02
3.731092436974789450e+01 1.371426732815987926e-01 2.194058502453199999e-02
3.831932773109243584e+01 1.150912927125544716e-01 2.082702156672411320e-02
3.932773109243697718e+01 9.705256213424007239e-02 1.950156519333057226e-02
4.033613445378151141e+01 8.343957573745230949e-02 1.839539441043513968e-02
4.134453781512604564e+01 7.460366219625758077e-02 1.780799223455242775e-02
4.235294117647058698e+01 7.085311697371665662e-02 1.789307894889669015e-02
4.336134453781512832e+01 7.244550223087031782e-02 1.865579595012722969e-02
4.436974789915966255e+01 7.955741610745303838e-02 1.996235683165759056e-02
4.537815126050419678e+01 9.224011276920729419e-02 2.156140923571259194e-02
4.638655462184873812e+01 1.103552934919189710e-01 2.311228361913286733e-02
4.739495798319327946e+01 1.335274569824866919e-01 2.421940595265437146e-02
4.840336134453781369e+01 1.611230856898782093e-01 2.446870909555332041e-02
4.941176470588234793e+01 1.922659329860509914e-01 2.346342683284596831e-02
5.042016806722688926e+01 2.258842583130717951e-01 2.085748112869678650e-02
5.142857142857143060e+01 2.607911997124143788e-01 1.638475259023319808e-02
5.243697478991596483e+01 2.957652670872650269e-01 9.882381134542539414e-03
5.344537815126049907e+01 3.296248438474624898e-01 1.308778396692744650e-03
5.445378151260504040e+01 3.612967017776618217e-01 -9.244153342523597772e-03
5.546218487394958174e+01 3.898717387483718877e-01 -2.154653700788378146e-02
5.647058823529411598e+01 4.146376393294557428e-01 -3.523178585276709462e-02
5.747899159663865021e+01 4.350964592612536208e-01 -4.980550133932137857e-02
5.848739495798319155e+01 4.509715755041465712e-01 -6.466447394622432121e-02
5.949579831932773288e+01 4.621985509163482053e-01 -7.912099942481121140e-02
6.050420168067226712e+01 4.689171800217621922e-01 -9.244425960993163383e-02
6.151260504201680135e+01 4.714466320386658804e-01 -1.039114900207624981e-01
6.252100840336134269e+01 4.702423007442371183e-01 -1.128665427193961124e-01
6.352941176470588402e+01 4.658439269430525442e-01 -1.187856782810838840e-01
6.453781512605041826e+01 4.588166193239733293e-01 -1.213376652622433216e-01
6.554621848739495249e+01 4.497000520072234053e-01 -1.204208480136779169e-01
6.655462184873948672e+01 4.389829735001760103e-01 -1.161716979871090238e-01
6.756302521008403517e+01 4.271088086113108417e-01 -1.089473108328002926e-01
6.857142857142856940e+01 4.144765639454577322e-01 -9.926650525650093648e-02
6.957983193277310363e+01 4.014519758233756619e-01 -8.774896600953174808e-02
7.058823529411765207e+01 3.883671184050119241e-01 -7.505269425055194343e-02
7.159663865546218631e+01 3.754992295232320032e-01 -6.181857711020177781e-02
7.260504201680672054e+01 3.630210546247090164e-01 -4.862728696352269786e-02
7.361344537815125477e+01 3.509510989249280399e-01 -3.597604542490562274e-02
7.462184873949578900e+01 3.391045322538364104e-01 -2.426228491406789978e-02
7.563025210084033745e+01 3.270884410181134072e-01 -1.377651615487507364e-02
7.663865546218487168e+01 3.143724404098338088e-01 -4.705779575609581045e-03
7.764705882352940591e+01 3.003867831322022397e-01 2.862826946265384365e-03
7.865546218487395436e+01 2.846433483808954445e-01 8.931097659635289787e-03
7.966386554621848859e+01 2.668390679790233477e-01 1.357659461548221813e-02
8.067226890756302282e+01 2.469279332572416052e-01 1.693829793921541871e-02
8.168067226890755705e+01 2.251643415005806226e-01 1.920048548199737581e-02
8.268907563025209129e+01 2.021286221984190945e-01 2.057492020950868472e-02
8.369747899159663973e+01 1.787164071553299927e-01 2.128422143944863620e-02
8.470588235294117396e+01 1.560908076236988684e-01 2.154528601039240598e-02
8.571428571428570820e+01 1.356127147482730777e-01 2.155381897119013068e-02
8.672268907563025664e+01 1.187198406232403691e-01 2.147100010450153640e-02
8.773109243697479087e+01 1.067771405212375457e-01 2.141268083606218120e-02
8.873949579831932510e+01 1.009040439146193791e-01 2.144201091070918608e-02
8.974789915966385934e+01 1.017989999092652198e-01 2.156566851045593758e-02
9.075630252100839357e+01 1.096216525143555165e-01 2.173370817125497290e-02
9.176470588235294201e+01 1.239728110478320877e-01 2.184354565843138474e-02
9.277310924369747624e+01 1.439752562730882701e-01 2.174741400755597631e-02
9.378151260504201048e+01 1.684122539339298896e-01 2.126293413141744360e-02
9.478991596638655892e+01 1.958737254101332592e-01 2.018628670657474089e-02
9.579831932773109315e+01 2.248700459817309927e-01 1.830712573518922248e-02
9.680672268907562739e+01 2.539303948256728116e-01 1.542482897225827543e-02
9.781512605042016162e+01 2.817016918716215290e-01 1.136493983927233664e-02
9.882352941176469585e+01 3.070457306964096134e-01 5.994718562782663795e-03
9.983193277310924429e+01 3.291085744346629038e-01 -7.612320204712919036e-04
1.008403361344537785e+02 3.473645681931425422e-01 -8.907744832008956948e-03
1.018487394957983128e+02 3.616309453038093480e-01 -1.836852081143813820e-02
1.028571428571428612e+02 3.720572185651798147e-01 -2.897682915976207418e-02
1.038655462184873954e+02 3.791033945698927266e-01 -4.047308967060025964e-02
1.048739495798319297e+02 3.834926368683806430e-01 -5.250465368082035678e-02
1.058823529411764639e+02 3.861482056593099621e-01 -6.463227109199187748e-02
1.068907563025209981e+02 3.881086319412705432e-01 -7.634645164367981351e-02
1.078991596638655466e+02 3.903927888038913885e-01 -8.709040658026201420e-02
1.089075630252100808e+02 3.938344054843514463e-01 -9.629505057949860891e-02
1.099159663865546150e+02 3.989131291439302895e-01 -1.034235481771706988e-01
1.109243697478991635e+02 4.056528931043099639e-01 -1.080214829934753595e-01
1.119327731092436977e+02 4.136351596057910029e-01 -1.097642447830424750e-01
1.129411764705882320e+02 4.221063877241424400e-01 -1.085025163814754556e-01
1.139495798319327662e+02 4.301037871535908774e-01 -1.042808936445545065e-01
1.149579831932773004e+02 4.365727542179453913e-01 -9.733292335268539652e-02
1.159663865546218489e+02 4.404701516910434211e-01 -8.805831372101557974e-02
1.169747899159663831e+02 4.408509421054251920e-01 -7.697633309085105680e-02
1.179831932773109173e+02 4.369387022939459353e-01 -6.467504294862824743e-02
1.189915966386554658e+02 4.281810560551637668e-01 -5.176289511975484814e-02
1.200000000000000000e+02 4.142948604838538884e-01 -3.882644085367958908e-02
