0.000000000000000000e+00 2.220446049250313081e-16 -1.110223024625156540e-16
1.008403361344537785e+00 5.074319621434231209e-03 3.280801060567162253e-03
2.016806722689075571e+00 2.005715663301788076e-02 1.266768700728915231e-02
3.025210084033613356e+00 4.425562082376055528e-02 2.693114812138697189e-02
4.033613445378151141e+00 7.659786061932061241e-02 4.437590734904395262e-02
5.042016806722688926e+00 1.157354290770624683e-01 6.314359304995664779e-02
6.050420168067226712e+00 1.601425669372575911e-01 8.142047059592560920e-02
7.058823529411764497e+00 2.082102909686751602e-01 9.756474071935494763e-02
8.067226890756302282e+00 2.583207070004851502e-01 1.101835359476114329e-01
9.075630252100840067e+00 3.089115457962261502e-01 1.181876668716798084e-01
1.008403361344537785e+01 3.585299806171025061e-01 1.208333719785985583e-01
1.109243697478991564e+01 4.058706688482394132e-01 1.177549292546240522e-01
1.210084033613445342e+01 4.498063487113621584e-01 1.089903634472235705e-01
1.310924369747899121e+01 4.894078560816232937e-01 9.499953348185363744e-02
1.411764705882352899e+01 5.239548914058742568e-01 7.667369028056403302e-02
1.512605042016806678e+01 5.529372488953243625e-01 5.533394814141989748e-02
1.613445378151260456e+01 5.760469628755866545e-01 3.271179789326461584e-02
1.714285714285714235e+01 5.931618253146240249e-01 1.089579858350298025e-02
1.815126050420168013e+01 6.043214271742303190e-01 -7.787359551141626035e-03
1.915966386554621792e+01 6.096975533982815776e-01 -2.100592235794063178e-02
2.016806722689075571e+01 6.095615097816162731e-01 -2.680527328718995683e-02
2.117647058823529349e+01 6.042515455294017457e-01 -2.407618266152966591e-02
2.218487394957983128e+01 5.941437464873684515e-01 -1.288614158810263977e-02
2.319327731092436906e+01 5.796294193662574479e-01 5.561397897324349415e-03
2.420168067226890685e+01 5.611009767464365527e-01 2.931712226420890577e-02
2.521008403361344463e+01 5.389464716294898317e-01 5.616792226847910907e-02
2.621848739495798242e+01 5.135513813136183270e-01 8.399955036062112246e-02
2.722689075630252020e+01 4.853058074951208667e-01 1.109962046590826645e-01
2.823529411764705799e+01 4.546165698577251391e-01 1.357230384288440339e-01
2.924369747899159577e+01 4.219215294290359353e-01 1.571437994431772456e-01
3.025210084033613356e+01 3.877010437222137007e-01 1.746062650160895569e-01
3.126050420168067134e+01 3.524838000453112130e-01 1.878115953760861601e-01
3.226890756302520913e+01 3.168463654584148248e-01 1.967745990124221134e-01
3.327731092436974336e+01 2.814073282831655032e-01 2.017777545487910995e-01
3.428571428571428470e+01 2.468185515800835894e-01 2.033202359251629066e-01
3.529411764705882604e+01 2.137541101784956599e-01 2.020627707484536906e-01
3.630252100840336027e+01 1.828926649547195638e-01 1.987692965875724749e-01
3.731092436974789450e+01 1.548890458241849455e-01 1.942467818232831434e-01
3.831932773109243584e+01 1.303402900405685738e-01 1.892852350578735354e-01
3.932773109243697718e+01 1.097619593687608752e-01 1.846006533657265081e-01
4.033613445378151141e+01 9.359021665235645049e-02 1.807843704334615165e-01
4.134453781512604564e+01 8.220956400665302422e-02 1.782627353662962211e-01
4.235294117647058698e+01 7.598839484116681753e-02 1.772709113135650938e-01
4.336134453781512832e+01 7.529872513082858099e-02 1.778435791906329833e-01
4.436974789915966255e+01 8.050144803474579280e-02 1.798234734212111885e-01
4.537815126050419678e+01 9.188668736688831995e-02 1.828863585843479855e-01
4.638655462184873812e+01 1.095707626269930568e-01 1.865789390073431253e-01
4.739495798319327946e+01 1.333727883563444738e-01 1.903648845846342974e-01
4.840336134453781369e+01 1.627193595041205310e-01 1.936739076203171095e-01
4.941176470588234793e+01 1.966289846811402064e-01 1.959495060662641563e-01
5.042016806722688926e+01 2.337907238046403879e-01 1.966920859667355970e-01
5.142857142857143060e+01 2.727025872522559347e-01 1.954954390583840684e-01
5.243697478991596483e+01 3.118186518105021676e-01 1.920755549467230150e-01
5.344537815126049907e+01 3.496719955249059097e-01 1.862914180932859765e-01
5.445378151260504040e+01 3.849642349126949359e-01 1.781577945951622333e-01
5.546218487394958174e+01 4.166239291790256871e-01 1.678500801100450968e-01
5.647058823529411598e+01 4.438384234871017853e-01 1.557011172268980559e-01
5.747899159663865021e+01 4.660645315469320593e-01 1.421895554774352810e-01
5.848739495798319155e+01 4.830252542495416801e-01 1.279189044306184853e-01
5.949579831932773288e+01 4.946989255062341773e-01 1.135860864705402484e-01
6.050420168067226712e+01 5.013010331002922815e-01 9.993835429909969648e-02
6.151260504201680135e+01 5.032532088485091037e-01 8.771837698814610729e-02
6.252100840336134269e+01 5.011340950805900363e-01 7.759975705369082100e-02
6.352941176470588402e+01 4.956123482245049505e-01 7.011916883277646839e-02
6.453781512605041826e+01 4.873725704524829450e-01 6.561575973435340714e-02
6.554621848739495249e+01 4.770556276388835393e-01 6.419085126549517462e-02
6.655462184873948672e+01 4.652305357440580380e-01 6.569852652764773815e-02
6.756302521008403517e+01 4.523951887632453595e-01 6.977004702209554932e-02
6.857142857142856940e+01 4.389899838369584195e-01 7.586558780610519470e-02
6.957983193277310363e+01 4.254101595917030298e-01 8.334045903625453278e-02
7.058823529411765207e+01 4.120071247825858318e-01 9.151235378325817127e-02
7.159663865546218631e+01 3.990690892242381160e-01 9.971995589726012632e-02
7.260504201680672054e+01 3.867721410324234110e-01 1.073683369113825892e-01
7.361344537815125477e+01 3.751062246569092373e-01 1.139606191389896939e-01
7.462184873949578900e+01 3.638103857938159713e-01 1.191175307565364161e-01
7.563025210084033745e+01 3.523703588571618361e-01 1.225872087591678428e-01
7.663865546218487168e+01 3.401017140644047032e-01 1.242474751013453727e-01
7.764705882352940591e+01 3.262869608868999016e-01 1.241023040961573010e-01
7.865546218487395436e+01 3.103160271724869634e-01 1.222736635655210513e-01
7.966386554621848859e+01 2.918003539339799612e-01 1.189894309664989436e-01
8.067226890756302282e+01 2.706538869977648254e-01 1.145676998860445384e-01
8.168067226890755705e+01 2.471431969189703537e-01 1.093975154141211270e-01
8.268907563025209129e+01 2.219094342099030559e-01 1.039159407154081061e-01
8.369747899159663973e+01 1.959619639206815478e-01 9.858143142344910625e-02
8.470588235294117396e+01 1.706390915658013707e-01 9.384388230887974469e-02
8.571428571428570820e+01 1.475279958268909120e-01 9.011247882964501521e-02
8.672268907563025664e+01 1.283372024357696262e-01 8.772362057188765050e-02
8.773109243697479087e+01 1.147184411541246618e-01 8.691233743792925459e-02
8.873949579831932510e+01 1.080422347853330356e-01 8.779123059725824074e-02
8.974789915966385934e+01 1.091622564950882612e-01 9.034048871730870900e-02
9.075630252100839357e+01 1.182479372678040264e-01 9.441075753349048583e-02
9.176470588235294201e+01 1.347633613445955447e-01 9.973815364407900841e-02
9.277310924369747624e+01 1.575973888686390545e-01 1.059685268907553102e-01
9.378151260504201048e+01 1.852695376161710428e-01 1.126870091400509200e-01
9.478991596638655892e+01 2.161195847158321470e-01 1.194490815460117483e-01
9.579831932773109315e+01 2.484357117264837100e-01 1.258103896721498582e-01
9.680672268907562739e+01 2.805458621229188765e-01 1.313537144006236002e-01
9.781512605042016162e+01 3.109211680936116995e-01 1.357124489795119571e-01
9.882352941176469585e+01 3.382871559182971666e-01 1.385904741502372861e-01
9.983193277310924429e+01 3.617059681622420975e-01 1.397785342183457402e-01
1.008403361344537785e+02 3.806181277460929380e-01 1.391672074708270035e-01
1.018487394957983128e+02 3.948524708837128916e-01 1.367563935065108094e-01
1.028571428571428612e+02 4.046133450877538174e-01 1.326610013172986324e-01
1.038655462184873954e+02 4.104506516740715760e-01 1.271122266808164536e-01
1.048739495798319297e+02 4.132168028474150212e-01 1.204534761251079278e-01
1.058823529411764639e+02 4.140114841083417652e-01 1.131296667232708497e-01
1.068907563025209981e+02 4.141065988290089095e-01 1.056684059612044146e-01
1.078991596638655466e+02 4.148286410235653143e-01 9.865163547962896295e-02
1.089075630252100808e+02 4.173510834499210009e-01 9.267702692451784685e-02
1.099159663865546150e+02 4.223769510425683382e-01 8.831006874351143843e-02
1.109243697478991635e+02 4.298948955934507321e-01 8.603053476304389768e-02
1.119327731092436977e+02 4.392578344393023304e-01 8.618032931820485132e-02
1.129411764705882320e+02 4.494476123973223380e-01 8.892202702426499350e-02
1.139495798319327662e+02 4.592736376489898742e-01 9.421716611988817380e-02
1.149579831932773004e+02 4.674867654415715279e-01 1.018295210529369665e-01
1.159663865546218489e+02 4.728681036157851292e-01 1.113524608105447289e-01
1.169747899159663831e+02 4.743111716929475641e-01 1.222538942201290002e-01
1.179831932773109173e+02 4.708936403570567197e-01 1.339296084169978585e-01
1.189915966386554658e+02 4.619368864339303826e-01 1.457564457951736614e-01
1.200000000000000000e+02 4.470540430813210175e-01 1.571394205539944355e-01
