0.000000000000000000e+00 2.220446049250313081e-16 0.000000000000000000e+00
1.008403361344537785e+00 7.726696993428094906e-03 5.371590044996765734e-03
2.016806722689075571e+00 3.045961783570949599e-02 2.093911953894289635e-02
3.025210084033613356e+00 6.692573744819496628e-02 4.514702217189880962e-02
4.033613445378151141e+00 1.152018106890475568e-01 7.566131797374442414e-02
5.042016806722688926e+00 1.729283612856535868e-01 1.096697426171764356e-01
6.050420168067226712e+00 2.375087390779491159e-01 1.441797360071159773e-01
7.058823529411764497e+00 3.062667342298204254e-01 1.762704170978122153e-01
8.067226890756302282e+00 3.765806212821254384e-01 2.032971745837055533e-01
9.075630252100840067e+00 4.459847498161559898e-01 2.230434971670647304e-01
1.008403361344537785e+01 5.122505364750913337e-01 2.338326474905418895e-01
1.109243697478991564e+01 5.734511827333494960e-01 2.346080328356880962e-01
1.210084033613445342e+01 6.280118858940986204e-01 2.249898113979651448e-01
1.310924369747899121e+01 6.747461328491215493e-01 2.053145499774715610e-01
1.411764705882352899e+01 7.128771936925359931e-01 1.766644062378288638e-01
1.512605042016806678e+01 7.420429066612355129e-01 1.408924216112753536e-01
1.613445378151260456e+01 7.622810950336977864e-01 1.006495056174476765e-01
1.714285714285714235e+01 7.739927293268056285e-01 5.941094535387514419e-02
1.815126050420168013e+01 7.778806387647585474e-01 2.146729351986809142e-02
1.915966386554621792e+01 7.748638047222544678e-01 -8.260556205822444653e-03
2.016806722689075571e+01 7.659715474226922449e-01 -2.493436730692755177e-02
2.117647058823529349e+01 7.522280291443104172e-01 -2.538239039207990100e-02
2.218487394957983128e+01 7.345437366415792368e-01 -9.774335511729681514e-03
2.319327731092436906e+01 7.136337084753119342e-01 1.848689297932515352e-02
2.420168067226890685e+01 6.899789176801665036e-01 5.456357591953586716e-02
2.521008403361344463e+01 6.638366634465688865e-01 9.375395425657095938e-02
2.621848739495798242e+01 6.352918753572558419e-01 1.321408221512833103e-01
2.722689075630252020e+01 6.043330450861370551e-01 1.667101381850630837e-01
2.823529411764705799e+01 5.709386403453584613e-01 1.952998008547592868e-01
2.924369747899159577e+01 5.351577073245108451e-01 2.165171796288734019e-01
3.025210084033613356e+01 4.971694712106986547e-01 2.296595180536824543e-01
3.126050420168067134e+01 4.573176719668321510e-01 2.346397284142400785e-01
3.226890756302520913e+01 4.161173273507388082e-01 2.319132928405331917e-01
3.327731092436974336e+01 3.742399384243868532e-01 2.224017163325100466e-01
3.428571428571428470e+01 3.324973814538063621e-01 2.074089578745894613e-01
3.529411764705882604e+01 2.918292419139336680e-01 1.885282920356416980e-01
3.630252100840336027e+01 2.532656907914052624e-01 1.675381052587292530e-01
3.731092436974789450e+01 2.178429240543742207e-01 1.462865574698809512e-01
3.831932773109243584e+01 1.864979839668405859e-01 1.265672906420327593e-01
3.932773109243697718e+01 1.600121253263346865e-01 1.099917403497185919e-01
4.033613445378151141e+01 1.390471263739252450e-01 9.786784357808286927e-02
4.134453781512604564e+01 1.242453820850509816e-01 9.109878432833595774e-02
4.235294117647058698e+01 1.163231212609543430e-01 9.011669001693412007e-02
4.336134453781512832e+01 1.160972508742786902e-01 9.486285723495302413e-02
4.436974789915966255e+01 1.244123399074538172e-01 1.048180748912055371e-01
4.537815126050419678e+01 1.419599166809222268e-01 1.190766830964665735e-01
4.638655462184873812e+01 1.690230772059617692e-01 1.364502936655055398e-01
4.739495798319327946e+01 2.052352750549737426e-01 1.555843449028444514e-01
4.840336134453781369e+01 2.494645054569057940e-01 1.750727135397833756e-01
4.941176470588234793e+01 2.998769575101860596e-01 1.935602656293828883e-01
5.042016806722688926e+01 3.541399978389483394e-01 2.098281266866033334e-01
5.142857142857143060e+01 4.096778876143809534e-01 2.228602033749551570e-01
5.243697478991596483e+01 4.639114767217176194e-01 2.318917549604109229e-01
5.344537815126049907e+01 5.144529800722847934e-01 2.364418365176779169e-01
5.445378151260504040e+01 5.592527636394790669e-01 2.363316083997180073e-01
5.546218487394958174e+01 5.967002136864087980e-01 2.316901381139493399e-01
5.647058823529411598e+01 6.256795232393039807e-01 2.229485792127081645e-01
5.747899159663865021e+01 6.455848483472426125e-01 2.108225452676342204e-01
5.848739495798319155e+01 6.563107207030529633e-01 1.962811061697882220e-01
5.949579831932773288e+01 6.582391057278336177e-01 1.804992121149660012e-01
6.050420168067226712e+01 6.522226270073943066e-01 1.647889432642022367e-01
6.151260504201680135e+01 6.395400975662546283e-01 1.505049663162325579e-01
6.252100840336134269e+01 6.218008065772251403e-01 1.389230655746601650e-01
6.352941176470588402e+01 6.007830265860585328e-01 1.310998067849914461e-01
6.453781512605041826e+01 5.782195436959243207e-01 1.277356538206201320e-01
6.554621848739495249e+01 5.556017882994284118e-01 1.290760644851169925e-01
6.655462184873948672e+01 5.340848888032367903e-01 1.348832765405333367e-01
6.756302521008403517e+01 5.144912570722097733e-01 1.444901263213633769e-01
6.857142857142856940e+01 4.973593654994281632e-01 1.569174571862261836e-01
6.957983193277310363e+01 4.830107193210522176e-01 1.710182790949725806e-01
7.058823529411765207e+01 4.716254834243984728e-01 1.856138147338679545e-01
7.159663865546218631e+01 4.632971557958223130e-01 1.996013133313365717e-01
7.260504201680672054e+01 4.580019958324861307e-01 2.120285846319935885e-01
7.361344537815125477e+01 4.554189043235301604e-01 2.221391326088819618e-01
7.462184873949578900e+01 4.546618090950937940e-01 2.293946887350553077e-01
7.563025210084033745e+01 4.541819276129757110e-01 2.334814794337602972e-01
7.663865546218487168e+01 4.520068657811839863e-01 2.343049402868004893e-01
7.764705882352940591e+01 4.461476528937731167e-01 2.319759666505483153e-01
7.865546218487395436e+01 4.349357556446942219e-01 2.267905600508584030e-01
7.966386554621848859e+01 4.172272645891252907e-01 2.192039315367690921e-01
8.067226890756302282e+01 3.925169160851231798e-01 2.097996890324997921e-01
8.168067226890755705e+01 3.610025477045795128e-01 1.992545947011503671e-01
8.268907563025209129e+01 3.236211764070275887e-01 1.882994838062097553e-01
8.369747899159663973e+01 2.820649997804860476e-01 1.776772583757384449e-01
8.470588235294117396e+01 2.387696715548441873e-01 1.680993702666733203e-01
8.571428571428570820e+01 1.968517374603586667e-01 1.602028173156644364e-01
8.672268907563025664e+01 1.599703170153279341e-01 1.545102653076526611e-01
8.773109243697479087e+01 1.320553292041899418e-01 1.513962954068668321e-01
8.873949579831932510e+01 1.167510129590995094e-01 1.510627655489424903e-01
8.974789915966385934e+01 1.165182731950983319e-01 1.535257325335539491e-01
9.075630252100839357e+01 1.317974857874886219e-01 1.586153221146313630e-01
9.176470588235294201e+01 1.609081349682321971e-01 1.659885491868040575e-01
9.277310924369747624e+01 2.007648504134991185e-01 1.751536972175240514e-01
9.378151260504201048e+01 2.477812514860067150e-01 1.855037865448543322e-01
9.478991596638655892e+01 2.984380964414727888e-01 1.963560946145852526e-01
9.579831932773109315e+01 3.494415188225197255e-01 2.069946585598818611e-01
9.680672268907562739e+01 3.977328600098060107e-01 2.167130639689951455e-01
9.781512605042016162e+01 4.406272863547586738e-01 2.248554080044182779e-01
9.882352941176469585e+01 4.760183702244313864e-01 2.308539362265515926e-01
9.983193277310924429e+01 5.024998956890991408e-01 2.342623607908398409e-01
1.008403361344537785e+02 5.194029103703234895e-01 2.347842023239652409e-01
1.018487394957983128e+02 5.267902955054066805e-01 2.322956284499722024e-01
1.028571428571428612e+02 5.254288736516377067e-01 2.268621746738275213e-01
1.038655462184873954e+02 5.167439333167618276e-01 2.187484129916701381e-01
1.048739495798319297e+02 5.027644651847982260e-01 2.084190623516806173e-01
1.058823529411764639e+02 4.860631143116356245e-01 1.965292195547667653e-01
1.068907563025209981e+02 4.696599020965166460e-01 1.839004367420782327e-01
1.078991596638655466e+02 4.568095946874202173e-01 1.714786359724911335e-01
1.089075630252100808e+02 4.505183854495460327e-01 1.602701205777492532e-01
1.099159663865546150e+02 4.527185359035474921e-01 1.512544876454218201e-01
1.109243697478991635e+02 4.636298048205831357e-01 1.452792950000008076e-01
1.119327731092436977e+02 4.819863969469835308e-01 1.429505675894375827e-01
1.129411764705882320e+02 5.056963124364364237e-01 1.445419448550580022e-01
1.139495798319327662e+02 5.322639286524464275e-01 1.499468976306963519e-01
1.149579831932773004e+02 5.589973683645810265e-01 1.586885367158661353e-01
1.159663865546218489e+02 5.832059557334843269e-01 1.699836487276755737e-01
1.169747899159663831e+02 6.023915050336099419e-01 1.828419989478275998e-01
1.179831932773109173e+02 6.143975048115084547e-01 1.961767506078149204e-01
1.189915966386554658e+02 6.175243618592147765e-01 2.089067748957658122e-01
1.200000000000000000e+02 6.106193572740874487e-01 2.200406531021950052e-01
