0.000000000000000000e+00 0.000000000000000000e+00 0.000000000000000000e+00
1.008403361344537785e+00 5.088726204880211768e-03 1.253063018728628464e-03
2.016806722689075571e+00 2.011699916792375475e-02 4.836671060422848001e-03
3.025210084033613356e+00 4.439751219988563591e-02 1.024114327910763400e-02
4.033613445378151141e+00 7.686404524104617497e-02 1.667195108714847329e-02
5.042016806722688926e+00 1.161714465556992204e-01 2.312613801940788250e-02
6.050420168067226712e+00 1.607933414409361550e-01 2.848399769540632676e-02
7.058823529411764497e+00 2.091142341396825532e-01 3.160824565803599384e-02
8.067226890756302282e+00 2.595067453541335389e-01 3.144145353858474046e-02
9.075630252100840067e+00 3.103968900027112010e-01 2.709605546808457888e-02
1.008403361344537785e+01 3.603175287996200904e-01 1.793255689187400748e-02
1.109243697478991564e+01 4.079475886188026479e-01 3.624817248284450955e-03
1.210084033613445342e+01 4.521450204688060026e-01 -1.578866204286732966e-02
1.310924369747899121e+01 4.919687559158829604e-01 -3.986688575491292852e-02
1.411764705882352899e+01 5.266888621317544761e-01 -6.773961579970211311e-02
1.512605042016806678e+01 5.557853413056415004e-01 -9.809014285144823653e-02
1.613445378151260456e+01 5.789481826445419532e-01 -1.291614968460541579e-01
1.714285714285714235e+01 5.960547940990030824e-01 -1.587829225852026571e-01
1.815126050420168013e+01 6.071461559669746322e-01 -1.844642780162941698e-01
1.915966386554621792e+01 6.123993004055130474e-01 -2.036260575620173485e-01
2.016806722689075571e+01 6.120943880817022453e-01 -2.140335001329207731e-01
2.117647058823529349e+01 6.065760389031744637e-01 -2.143952677152932695e-01
2.218487394957983128e+01 5.962271433179338054e-01 -2.048315353979457409e-01
2.319327731092436906e+01 5.814479983029938737e-01 -1.868229161634963331e-01
2.420168067226890685e+01 5.626398245052477431e-01 -1.626718277567479332e-01
2.521008403361344463e+01 5.401957193795028367e-01 -1.348896078956315359e-01
2.621848739495798242e+01 5.145093988400089025e-01 -1.057952069900230940e-01
2.722689075630252020e+01 4.859817673274988703e-01 -7.732657597806502636e-02
2.823529411764705799e+01 4.550315663147248557e-01 -5.098376762519807315e-02
2.924369747899159577e+01 4.221131083999409839e-01 -2.783532763712259772e-02
3.025210084033613356e+01 3.877251039978750757e-01 -8.546809726190041090e-03
3.126050420168067134e+01 3.524170293777268981e-01 6.578048037878536647e-03
3.226890756302520913e+01 3.167896755119439245e-01 1.755034674135669270e-02
3.327731092436974336e+01 2.814880469992437906e-01 2.464506523704468322e-02
3.428571428571428470e+01 2.471867946366890223e-01 2.834620283374267302e-02
3.529411764705882604e+01 2.145838208808064085e-01 2.928717994919294298e-02
3.630252100840336027e+01 1.843771099905815447e-01 2.819116483815853336e-02
3.731092436974789450e+01 1.572340032243992880e-01 2.581044556696521219e-02
3.831932773109243584e+01 1.337640500006294086e-01 2.286871817143398822e-02
3.932773109243697718e+01 1.144991456928614593e-01 2.000901923852671516e-02
4.033613445378151141e+01 9.989026789929544847e-02 1.774896640985623719e-02
4.134453781512604564e+01 9.032595168486479142e-02 1.644888221211449064e-02
4.235294117647058698e+01 8.615356908512217249e-02 1.629479242598974587e-02
4.336134453781512832e+01 8.766890271284444314e-02 1.729320319558391716e-02
4.436974789915966255e+01 9.509267242047170221e-02 1.928347122989881868e-02
4.537815126050419678e+01 1.085159117983705013e-01 2.196154681332318503e-02
4.638655462184873812e+01 1.278298746225934313e-01 2.491342364343362981e-02
4.739495798319327946e+01 1.526609658898168131e-01 2.765516199556650179e-02
4.840336134453781369e+01 1.823453373064085614e-01 2.967657918286858987e-02
4.941176470588234793e+01 2.159319525763041536e-01 3.048310978966584095e-02
5.042016806722688926e+01 2.522366941072500257e-01 2.963541314119932935e-02
5.142857142857143060e+01 2.899280586674488625e-01 2.678358705934114070e-02
5.243697478991596483e+01 3.276196111781894960e-01 2.169535052344584436e-02
5.344537815126049907e+01 3.639687347944056128e-01 1.427721183519814474e-02
5.445378151260504040e+01 3.977607772964462107e-01 4.588349690077375698e-03
5.546218487394958174e+01 4.279729520649699914e-01 -7.152779521026886300e-03
5.647058823529411598e+01 4.538156456028004104e-01 -2.056948857089024862e-02
5.747899159663865021e+01 4.747561959727668590e-01 -3.513784382232931769e-02
5.848739495798319155e+01 4.905185408486565368e-01 -5.020484148535153679e-02
5.949579831932773288e+01 5.010775359167194409e-01 -6.501787528171232289e-02
6.050420168067226712e+01 5.066456774476653102e-01 -7.876851723144739914e-02
6.151260504201680135e+01 5.076470170220384048e-01 -9.065255259714199987e-02
6.252100840336134269e+01 5.046620100473782067e-01 -9.993363210455996626e-02
6.352941176470588402e+01 4.983645702395449462e-01 -1.060214242820054498e-01
6.453781512605041826e+01 4.894456820884320880e-01 -1.085389882836470532e-01
6.554621848739495249e+01 4.785475211567373766e-01 -1.073657591154527635e-01
6.655462184873948672e+01 4.662407090151710065e-01 -1.026547124835199831e-01
6.756302521008403517e+01 4.530205119082240106e-01 -9.480177214470475455e-02
6.857142857142856940e+01 4.393215198685764822e-01 -8.438692458667862439e-02
6.957983193277310363e+01 4.255324588057698421e-01 -7.210087245133633971e-02
7.058823529411765207e+01 4.119990405075384388e-01 -5.867330405215720468e-02
7.159663865546218631e+01 3.990024183050449036e-01 -4.480944196926328615e-02
7.260504201680672054e+01 3.867126453194966729e-01 -3.114639254608553287e-02
7.361344537815125477e+01 3.751131364859019435e-01 -1.822229059660118722e-02
7.462184873949578900e+01 3.639334365422248752e-01 -6.459175939871109051e-03
7.563025210084033745e+01 3.526479667212156777e-01 3.841018239950644286e-03
7.663865546218487168e+01 3.405526546517425590e-01 1.249684601108347337e-02
7.764705882352940591e+01 3.269033375614081027e-01 1.943930114244674101e-02
7.865546218487395436e+01 3.110624618156756505e-01 2.469976731620948662e-02
7.966386554621848859e+01 2.926198886910955643e-01 2.839543831002577789e-02
8.067226890756302282e+01 2.714685335719280168e-01 3.071303923299706362e-02
8.168067226890755705e+01 2.478676108333461858e-01 3.188846892444496817e-02
8.268907563025209129e+01 2.224618655400789624e-01 3.218777034816122651e-02
8.369747899159663973e+01 1.962703847925806322e-01 3.188710431546271096e-02
8.470588235294117396e+01 1.706499832863555000e-01 3.125333169806765454e-02
8.571428571428570820e+01 1.472124579048155191e-01 3.052629901418746350e-02
8.672268907563025664e+01 1.276882629108764267e-01 2.990290418737218126e-02
8.773109243697479087e+01 1.137465254887362054e-01 2.952444148006172497e-02
8.873949579831932510e+01 1.067781489985883958e-01 2.946835012883552984e-02
8.974789915966385934e+01 1.076530663054686698e-01 2.974300494604409373e-02
9.075630252100839357e+01 1.165617115549995031e-01 3.028825334374318778e-02
9.176470588235294201e+01 1.329868724314939854e-01 3.097968949859253307e-02
9.277310924369747624e+01 1.558235483146921396e-01 3.163729795502234765e-02
9.378151260504201048e+01 1.835803821077912623e-01 3.203810081785052333e-02
9.478991596638655892e+01 2.145674898277611931e-01 3.193129033851160870e-02
9.579831932773109315e+01 2.470340195245364079e-01 3.105585709346847523e-02
9.680672268907562739e+01 2.792783913346901237e-01 2.915948990581984646e-02
9.781512605042016162e+01 3.097562676853651276e-01 2.601733295628538833e-02
9.882352941176469585e+01 3.371820522864417136e-01 2.145121835693530876e-02
9.983193277310924429e+01 3.606125177905386003e-01 1.534665212933949974e-02
1.008403361344537785e+02 3.794902112217828360e-01 7.668616797390281903e-03
1.018487394957983128e+02 3.936558069189863840e-01 -1.525018535922129104e-03
1.028571428571428612e+02 4.033397265173168655e-01 -1.207480840863972560e-02
1.038655462184873954e+02 4.091306925008530992e-01 -2.371475296335945337e-02
1.048739495798319297e+02 4.119230235417705721e-01 -3.607135106720282813e-02
1.058823529411764639e+02 4.128513002482492311e-01 -4.867149339747145476e-02
1.068907563025209981e+02 4.131906010867769652e-01 -6.096032391156236407e-02
1.078991596638655466e+02 4.141987760054026690e-01 -7.232494450047899370e-02
1.089075630252100808e+02 4.169175791755845850e-01 -8.213646482228764700e-02
1.099159663865546150e+02 4.219585586306067171e-01 -8.979795655132993826e-02
1.109243697478991635e+02 4.293748156254020287e-01 -9.480152340068315198e-02
1.119327731092436977e+02 4.386830530159451236e-01 -9.678798392911480697e-02
1.129411764705882320e+02 4.489897521027836902e-01 -9.559023019474788274e-02
1.139495798319327662e+02 4.591520083585496348e-01 -9.125909948152133300e-02
1.149579831932773004e+02 4.679141137843472187e-01 -8.405987343191867467e-02
1.159663865546218489e+02 4.740282892950959948e-01 -7.444103415515002098e-02
1.169747899159663831e+02 4.763592417205715357e-01 -6.298300902816134084e-02
1.179831932773109173e+02 4.739628479094242230e-01 -5.034143192804618749e-02
1.189915966386554658e+02 4.661499557913324487e-01 -3.718782579069945804e-02
1.200000000000000000e+02 4.525362711895977164e-01 -2.416172811648209517e-02
