0.000000000000000000e+00 2.220446049250313081e-16 0.000000000000000000e+00
1.008403361344537785e+00 5.264251709675260571e-03 1.841177277477568097e-03
2.016806722689075571e+00 2.080781448848700865e-02 7.135853333462671699e-03
3.025210084033613356e+00 4.591101310116196821e-02 1.522424613977824137e-02
4.033613445378151141e+00 7.945879676240541478e-02 2.509092820414293712e-02
5.042016806722688926e+00 1.200459048776308935e-01 3.547526212600660145e-02
6.050420168067226712e+00 1.660798085069417063e-01 4.499497062672541681e-02
7.058823529411764497e+00 2.158772171232861137e-01 5.226984065071293983e-02
8.067226890756302282e+00 2.677446987018723412e-01 5.603408520326236264e-02
9.075630252100840067e+00 3.200471422233657215e-01 5.523329271177424005e-02
1.008403361344537785e+01 3.712630489838133485e-01 4.910385716155474256e-02
1.109243697478991564e+01 4.200258906679346094e-01 3.723618204743273097e-02
1.210084033613445342e+01 4.651586445287188010e-01 1.962286266245483191e-02
1.310924369747899121e+01 5.056965347317716741e-01 -3.306411980706913667e-03
1.411764705882352899e+01 5.408969270163588305e-01 -3.065936071142449926e-02
1.512605042016806678e+01 5.702395937219311151e-01 -6.106381487640510919e-02
1.613445378151260456e+01 5.934251976648503568e-01 -9.266868987099230459e-02
1.714285714285714235e+01 6.103500965356465358e-01 -1.231593587798838207e-01
1.815126050420168013e+01 6.210822011053478420e-01 -1.498400930248677820e-01
1.915966386554621792e+01 6.258297052069918820e-01 -1.698588915183192327e-01
2.016806722689075571e+01 6.249043842564809825e-01 -1.806825962284530629e-01
2.117647058823529349e+01 6.186797561814383339e-01 -1.808119204384808221e-01
2.218487394957983128e+01 6.075632333755764947e-01 -1.703731077070997912e-01
2.319327731092436906e+01 5.919710155625383941e-01 -1.510562167083734364e-01
2.420168067226890685e+01 5.723115927381490220e-01 -1.254456006049406991e-01
2.521008403361344463e+01 5.489796003133418090e-01 -9.629482117520882234e-02
2.621848739495798242e+01 5.223626822949525295e-01 -6.609065982117146021e-02
2.722689075630252020e+01 4.928487394919209841e-01 -3.687224285723367245e-02
2.823529411764705799e+01 4.608455134545652587e-01 -1.019467875888779851e-02
2.924369747899159577e+01 4.268011337531896210e-01 1.285306319313206380e-02
3.025210084033613356e+01 3.912087517634117440e-01 3.161493307978102685e-02
3.126050420168067134e+01 3.546158559726249049e-01 4.582021033373395724e-02
3.226890756302520913e+01 3.176295993465270140e-01 5.553235833149994249e-02
3.327731092436974336e+01 2.809085207927477512e-01 6.109649371979908317e-02
3.428571428571428470e+01 2.451490104923554902e-01 6.308186309255003898e-02
3.529411764705882604e+01 2.110798507052009665e-01 6.221976130874562472e-02
3.630252100840336027e+01 1.794350370991792953e-01 5.933891419555470392e-02
3.731092436974789450e+01 1.509207067740583330e-01 5.529935261367135979e-02
3.831932773109243584e+01 1.261766291911934346e-01 5.092803912535637245e-02
3.932773109243697718e+01 1.057521714959878123e-01 4.695796763860782264e-02
4.033613445378151141e+01 9.011779944380193808e-02 4.397592595299282259e-02
4.134453781512604564e+01 7.970026560001697291e-02 4.238560617534936625e-02
4.235294117647058698e+01 7.490713458872066965e-02 4.238486383252371148e-02
4.336134453781512832e+01 7.612190315347411307e-02 4.396092509702342888e-02
4.436974789915966255e+01 8.366616336965304601e-02 4.690617832996846204e-02
4.537815126050419678e+01 9.771566204459924965e-02 5.084691264051044435e-02
4.638655462184873812e+01 1.181990684198550579e-01 5.528506925069343048e-02
4.739495798319327946e+01 1.447137474435535864e-01 5.964660992424497543e-02
4.840336134453781369e+01 1.764929955310083898e-01 6.333166551083513340e-02
4.941176470588234793e+01 2.124351501397663267e-01 6.576245785286261025e-02
5.042016806722688926e+01 2.511945597295786037e-01 6.642712745653733819e-02
5.142857142857143060e+01 2.912893313836477649e-01 6.491603120526567849e-02
5.243697478991596483e+01 3.312119854394623975e-01 6.095137749366075219e-02
5.344537815126049907e+01 3.695322470426567474e-01 5.440907876370104646e-02
5.445378151260504040e+01 4.049817185375066408e-01 4.533176052399778833e-02
5.546218487394958174e+01 4.365066607866787685e-01 3.393528980605631240e-02
5.647058823529411598e+01 4.633086095812382066e-01 2.060675769125630552e-02
5.747899159663865021e+01 4.848619671471716686e-01 5.893236641279830934e-03
5.848739495798319155e+01 5.009114370566685182e-01 -9.516974291445823297e-03
5.949579831932773288e+01 5.114681204973661188e-01 -2.482718634993519302e-02
6.050420168067226712e+01 5.167938446838449273e-01 -3.917884320526732189e-02
6.151260504201680135e+01 5.173665738713244533e-01 -5.170920378084686853e-02
6.252100840336134269e+01 5.138262130370794267e-01 -6.162341859375275455e-02
6.352941176470588402e+01 5.069150967431599319e-01 -6.828543140110920895e-02
6.453781512605041826e+01 4.973810333486277102e-01 -7.128291593654756397e-02
6.554621848739495249e+01 4.859171923318408304e-01 -7.048459578194443687e-02
6.655462184873948672e+01 4.731297590547913767e-01 -6.605330225672423339e-02
6.756302521008403517e+01 4.595342559839505903e-01 -5.841182620905771561e-02
6.857142857142856940e+01 4.455784547185794864e-01 -4.818056479133137060e-02
6.957983193277310363e+01 4.316618793497437601e-01 -3.609864193378675701e-02
7.058823529411765207e+01 4.181334022105567261e-01 -2.293948282573654573e-02
7.159663865546218631e+01 4.052723111423965907e-01 -9.444989960015304220e-03
7.260504201680672054e+01 3.932482262727297062e-01 3.717851186424869780e-03
7.361344537815125477e+01 3.820283272115596596e-01 1.599318101522717583e-02
7.462184873949578900e+01 3.713115088882126269e-01 2.694979794979257548e-02
7.563025210084033745e+01 3.605170457648481097e-01 3.628820035466251426e-02
7.663865546218487168e+01 3.488684945348032862e-01 4.383889890447001392e-02
7.764705882352940591e+01 3.355472294031174307e-01 4.955358323560599132e-02
7.865546218487395436e+01 3.198499376927210758e-01 5.349276140343328656e-02
7.966386554621848859e+01 3.013125365994888671e-01 5.581078896479763074e-02
8.067226890756302282e+01 2.798015250870844461e-01 5.673669879996001697e-02
8.168067226890755705e+01 2.555736411699189858e-01 5.655380973492230012e-02
8.268907563025209129e+01 2.292928674551810708e-01 5.557799502732407859e-02
8.369747899159663973e+01 2.020308509619148651e-01 5.413550662883670483e-02
8.470588235294117396e+01 1.752218087110308797e-01 5.254089656291016652e-02
8.571428571428570820e+01 1.505738282563209296e-01 5.107607582880535624e-02
8.672268907563025664e+01 1.299333480906084137e-01 4.997209517410317048e-02
8.773109243697479087e+01 1.150934022423927283e-01 4.939415296435800684e-02
8.873949579831932510e+01 1.075504135986186105e-01 4.943087579934823950e-02
8.974789915966385934e+01 1.082489558410834052e-01 5.008904887408638373e-02
9.075630252100839357e+01 1.173970757290995204e-01 5.129376589144540866e-02
9.176470588235294201e+01 1.344367634807959178e-01 5.289381439126095152e-02
9.277310924369747624e+01 1.581826678545417142e-01 5.467268967205241026e-02
9.378151260504201048e+01 1.870427281830786548e-01 5.636319621755969678e-02
9.478991596638655892e+01 2.192229091270561092e-01 5.766578345043704701e-02
9.579831932773109315e+01 2.528706283252060150e-01 5.826911567180959040e-02
9.680672268907562739e+01 2.861854270504071707e-01 5.787119687102126875e-02
9.781512605042016162e+01 3.175281500093822817e-01 5.620068745155037959e-02
9.882352941176469585e+01 3.455441070516551694e-01 5.303772477853185841e-02
9.983193277310924429e+01 3.692483764891254516e-01 4.823256099416983744e-02
1.008403361344537785e+02 3.880657849391764280e-01 4.172277702917259745e-02
1.018487394957983128e+02 4.018474881238138785e-01 3.354619355450760843e-02
1.028571428571428612e+02 4.108545724381773567e-01 2.385149725776947172e-02
1.038655462184873954e+02 4.157257759434771494e-01 1.290385445558328570e-02
1.048739495798319297e+02 4.174290005646745794e-01 1.084456446809323182e-03
1.058823529411764639e+02 4.171983623573256583e-01 -1.111735955933268460e-02
1.068907563025209981e+02 4.164321250533471463e-01 -2.312004741023110377e-02
1.078991596638655466e+02 4.165378873073790622e-01 -3.427908528757761530e-02
1.089075630252100808e+02 4.187000105758222901e-01 -4.392739413899082734e-02
1.099159663865546150e+02 4.236153581392101408e-01 -5.142856508462401166e-02
1.109243697478991635e+02 4.313303470185199107e-01 -5.624117072127221562e-02
1.119327731092436977e+02 4.412751261416936188e-01 -5.797913810321908556e-02
1.129411764705882320e+02 4.524489232944486350e-01 -5.646436713874258828e-02
1.139495798319327662e+02 4.636051599726398464e-01 -5.175393977004327795e-02
1.149579831932773004e+02 4.733911825663801309e-01 -4.413463751813639924e-02
1.159663865546218489e+02 4.804686742857882109e-01 -3.408713972630961209e-02
1.169747899159663831e+02 4.836196609402851898e-01 -2.223541246750126987e-02
1.179831932773109173e+02 4.818266198056453398e-01 -9.278860274628208948e-03
1.189915966386554658e+02 4.743370826419426312e-01 4.069118182918440851e-03
1.200000000000000000e+02 4.607187317773966395e-01 1.713137682923759897e-02
