0.000000000000000000e+00 0.000000000000000000e+00 -2.220446049250313081e-16
1.008403361344537785e+00 3.390450278715206878e-04 6.620499754362851874e-04
2.016806722689075571e+00 1.346103456655534103e-03 2.629433671299252762e-03
3.025210084033613356e+00 2.991681611411944886e-03 5.848084254020835537e-03
4.033613445378151141e+00 5.228250746052820475e-03 1.023433161070719244e-02
5.042016806722688926e+00 7.991617924791194483e-03 1.568245827845415885e-02
6.050420168067226712e+00 1.120250306453407507e-02 2.207310950368512881e-02
7.058823529411764497e+00 1.477125459018524545e-02 2.928211640240613312e-02
8.067226890756302282e+00 1.859858456725349551e-02 3.718684153206675003e-02
9.075630252100840067e+00 2.257977106641206877e-02 4.567147681527733427e-02
1.008403361344537785e+01 2.660546758435688997e-02 5.463041665150769610e-02
1.109243697478991564e+01 3.056763495017178478e-02 6.397030015026461403e-02
1.210084033613445342e+01 3.435840147529312105e-02 7.361069496428884751e-02
1.310924369747899121e+01 3.787537597444279314e-02 8.348378589170024622e-02
1.411764705882352899e+01 4.102075197689503128e-02 9.353356180041272339e-02
1.512605042016806678e+01 4.370596141185623118e-02 1.037140205963847928e-01
1.613445378151260456e+01 4.585058090630234062e-02 1.139875983149719607e-01
1.714285714285714235e+01 4.738574999678801802e-02 1.243227806940083724e-01
1.815126050420168013e+01 4.825362654669840268e-02 1.346922557099039519e-01
1.915966386554621792e+01 4.840948928449018140e-02 1.450705883570142518e-01
2.016806722689075571e+01 4.782150836670440164e-02 1.554325943728781523e-01
2.117647058823529349e+01 4.647180491576197170e-02 1.657515377377928312e-01
2.218487394957983128e+01 4.435626884199939113e-02 1.759981621585871014e-01
2.319327731092436906e+01 4.148505434940619185e-02 1.861395643661503119e-01
2.420168067226890685e+01 3.788194402697553365e-02 1.961392233132858154e-01
2.521008403361344463e+01 3.358477945834570377e-02 2.059564136633434961e-01
2.621848739495798242e+01 2.864399340371404090e-02 2.155473353485659604e-01
2.722689075630252020e+01 2.312334882494648802e-02 2.248647360782936033e-01
2.823529411764705799e+01 1.709738967026119827e-02 2.338600060639002276e-01
2.924369747899159577e+01 1.065267142964598790e-02 2.424826453038346763e-01
3.025210084033613356e+01 3.884107943621373238e-03 2.506830069126146920e-01
3.126050420168067134e+01 -3.103351516241970032e-03 2.584113739971680701e-01
3.226890756302520913e+01 -1.019925786187747541e-02 2.656209573390944101e-01
3.327731092436974336e+01 -1.728575882467431324e-02 2.722665569773530247e-01
3.428571428571428470e+01 -2.424257379490979414e-02 2.783074298941218272e-01
3.529411764705882604e+01 -3.094520931108790673e-02 2.837057069842594537e-01
3.630252100840336027e+01 -3.726990262058738068e-02 2.884288197938671416e-01
3.731092436974789450e+01 -4.309252682475206431e-02 2.924479493781202422e-01
3.831932773109243584e+01 -4.829343452873735565e-02 2.957398150211699717e-01
3.932773109243697718e+01 -5.275801642875466158e-02 2.982854204868990999e-01
4.033613445378151141e+01 -5.638202368686162647e-02 3.000711527397960099e-01
4.134453781512604564e+01 -5.907467812418198960e-02 3.010879591753254925e-01
4.235294117647058698e+01 -6.076488181908445974e-02 3.013318857205681267e-01
4.336134453781512832e+01 -6.140598278982190017e-02 3.008036061642568315e-01
4.436974789915966255e+01 -6.098116124930952342e-02 2.995086807044486932e-01
4.537815126050419678e+01 -5.950590827611801359e-02 2.974572006813804848e-01
4.638655462184873812e+01 -5.702896324229511649e-02 2.946640593825884391e-01
4.739495798319327946e+01 -5.362880843444872703e-02 2.911484497887082412e-01
4.840336134453781369e+01 -4.940947111644378165e-02 2.869343589365693781e-01
4.941176470588234793e+01 -4.449243205632158471e-02 2.820496944170379772e-01
5.042016806722688926e+01 -3.901116126193526767e-02 2.765271057372894470e-01
5.142857142857143060e+01 -3.310264827189624004e-02 2.704026015233086389e-01
5.243697478991596483e+01 -2.690412318778945266e-02 2.637166899943965692e-01
5.344537815126049907e+01 -2.054645273840183251e-02 2.565124682321586747e-01
5.445378151260504040e+01 -1.415354607905705553e-02 2.488369809288871748e-01
5.546218487394958174e+01 -7.837720537517300912e-03 2.407388942744772553e-01
5.647058823529411598e+01 -1.700810817175213430e-03 2.322699154765183183e-01
5.747899159663865021e+01 4.168930107693369358e-03 2.234822802337451675e-01
5.848739495798319155e+01 9.695049411771905490e-03 2.144300656843189934e-01
5.949579831932773288e+01 1.481475408316956788e-02 2.051667946369595263e-01
6.050420168067226712e+01 1.947710054246576394e-02 1.957465105646580827e-01
6.151260504201680135e+01 2.364377708718323756e-02 1.862218103398878277e-01
6.252100840336134269e+01 2.728754666357069425e-02 1.766446179750789103e-01
6.352941176470588402e+01 3.039219309536767000e-02 1.670648843407880335e-01
6.453781512605041826e+01 3.295128877285802282e-02 1.575310932728539726e-01
6.554621848739495249e+01 3.496771291859734898e-02 1.480896860327385323e-01
6.655462184873948672e+01 3.645261484345885261e-02 1.387854385336082519e-01
6.756302521008403517e+01 3.742482523177126374e-02 1.296614659013420878e-01
6.857142857142856940e+01 3.790968209056799765e-02 1.207596189911379625e-01
6.957983193277310363e+01 3.793843304012667339e-02 1.121208133376381255e-01
7.058823529411765207e+01 3.754664592889023211e-02 1.037854982645443069e-01
7.159663865546218631e+01 3.677373987236931541e-02 9.579401495591799431e-02
7.260504201680672054e+01 3.566109797522409863e-02 8.818708445289513698e-02
7.361344537815125477e+01 3.425210727152738777e-02 8.100590417034880808e-02
7.462184873949578900e+01 3.259045497413348702e-02 7.429251673303083336e-02
7.563025210084033745e+01 3.072104583429524638e-02 6.808939959952420296e-02
7.663865546218487168e+01 2.868882058656307965e-02 6.243953711681771157e-02
7.764705882352940591e+01 2.654041675241747278e-02 5.738534590619337461e-02
7.865546218487395436e+01 2.432327582602022975e-02 5.296830419605563778e-02
7.966386554621848859e+01 2.208734762426467491e-02 4.922720714056194602e-02
8.067226890756302282e+01 1.988388620941472507e-02 4.619734413190934585e-02
8.168067226890755705e+01 1.776641352437202670e-02 4.390831899115310577e-02
8.268907563025209129e+01 1.578877068288764285e-02 4.238301134160432637e-02
8.369747899159663973e+01 1.400492788136098454e-02 4.163548932284621973e-02
8.470588235294117396e+01 1.246633175635381008e-02 4.167023955525250845e-02
8.571428571428570820e+01 1.122067010835747780e-02 4.248087059396910004e-02
8.672268907563025664e+01 1.030903054505372118e-02 4.405012481861425577e-02
8.773109243697479087e+01 9.764221167022579806e-03 4.634988097146935937e-02
8.873949579831932510e+01 9.608489323794877635e-03 4.934215701533439802e-02
8.974789915966385934e+01 9.852296211449340646e-03 5.298037638505925795e-02
9.075630252100839357e+01 1.049322493810744827e-02 5.721110217292102451e-02
9.176470588235294201e+01 1.151596985710312548e-02 6.197602801905521819e-02
9.277310924369747624e+01 1.289260558845239935e-02 6.721390614566657984e-02
9.378151260504201048e+01 1.458403424985887931e-02 7.286258550537838552e-02
9.478991596638655892e+01 1.654121671582120534e-02 7.886066786698753273e-02
9.579831932773109315e+01 1.870776868987555908e-02 8.514909736431452991e-02
9.680672268907562739e+01 2.102142424078967675e-02 9.167233082040593395e-02
9.781512605042016162e+01 2.341718459025121657e-02 9.837925243309175727e-02
9.882352941176469585e+01 2.582833821463403901e-02 1.052238557774709538e-01
9.983193277310924429e+01 2.818957684023826182e-02 1.121654597754173643e-01
1.008403361344537785e+02 3.043720560308338374e-02 1.191689922455129169e-01
1.018487394957983128e+02 3.251181609567299624e-02 1.262045985542386006e-01
1.028571428571428612e+02 3.435768735187583189e-02 1.332476221729566035e-01
1.038655462184873954e+02 3.592482439990207777e-02 1.402777609901433298e-01
1.048739495798319297e+02 3.716783734875006573e-02 1.472788155746239669e-01
1.058823529411764639e+02 3.804733775134283569e-02 1.542375867869247852e-01
1.068907563025209981e+02 3.852871315393335827e-02 1.611434467374514012e-01
1.078991596638655466e+02 3.858298868995158060e-02 1.679871876216723070e-01
1.089075630252100808e+02 3.818588612925544190e-02 1.747604811662402113e-01
1.099159663865546150e+02 3.731833420041241745e-02 1.814548676756200241e-01
1.109243697478991635e+02 3.596604078933762771e-02 1.880612125289182757e-01
1.119327731092436977e+02 3.411990991235802628e-02 1.945689478652201654e-01
1.129411764705882320e+02 3.177612770057469671e-02 2.009656832567345841e-01
1.139495798319327662e+02 2.893674675893054271e-02 2.072367215831368847e-01
1.149579831932773004e+02 2.561012664706585618e-02 2.133649787742035731e-01
1.159663865546218489e+02 2.181183211593951121e-02 2.193307187221302801e-01
1.169747899159663831e+02 1.756509947663131843e-02 2.251118881524371007e-01
1.179831932773109173e+02 1.290201233962151584e-02 2.306839609405293423e-01
1.189915966386554658e+02 7.863561585251033215e-03 2.360207197417003577e-01
1.200000000000000000e+02 2.500967972844492238e-03 2.410940814014065348e-01
