0.000000000000000000e+00 0.000000000000000000e+00 -2.775557561562891351e-16
1.008403361344537785e+00 1.084652742932901148e-02 1.581081637102205173e-02
2.016806722689075571e+00 4.261575427707686714e-02 6.075059698277235354e-02
3.025210084033613356e+00 9.315019546870351164e-02 1.286654752885292852e-01
4.033613445378151141e+00 1.592784899118588893e-01 2.120493981205213152e-01
5.042016806722688926e+00 2.372215592937749751e-01 3.034885889801724468e-01
6.050420168067226712e+00 3.229183096315371149e-01 3.962497004152417124e-01
7.058823529411764497e+00 4.122778106238196294e-01 4.845005106331157774e-01
8.067226890756302282e+00 5.013590578459068414e-01 5.633868675493867162e-01
9.075630252100840067e+00 5.865081872540913732e-01 6.290677914711881868e-01
1.008403361344537785e+01 6.644676043166577450e-01 6.787368486519407274e-01
1.109243697478991564e+01 7.324679461547893844e-01 7.106387298851550849e-01
1.210084033613445342e+01 7.883073255356563003e-01 7.240818189280402439e-01
1.310924369747899121e+01 8.304192194328401389e-01 7.194485631316884788e-01
1.411764705882352899e+01 8.579374530338212956e-01 6.982085009799430253e-01
1.512605042016806678e+01 8.707472415556622991e-01 6.629410883527235843e-01
1.613445378151260456e+01 8.695336966133662138e-01 6.173810625250759632e-01
1.714285714285714235e+01 8.558139291094719603e-01 5.665059206120213187e-01
1.815126050420168013e+01 8.319415771302598461e-01 5.166624883569934656e-01
1.915966386554621792e+01 8.010482652539496762e-01 4.756004693125659988e-01
2.016806722689075571e+01 7.668479499727318682e-01 4.517490597719900358e-01
2.117647058823529349e+01 7.331939149452801896e-01 4.513211549158094305e-01
2.218487394957983128e+01 7.033318676503970135e-01 4.741294028985652553e-01
2.319327731092436906e+01 6.790593288688255846e-01 5.137385811674277658e-01
2.420168067226890685e+01 6.603122539179151484e-01 5.618223798936186064e-01
2.521008403361344463e+01 6.455087951610416486e-01 6.110420004398089411e-01
2.621848739495798242e+01 6.323462508516333180e-01 6.556826014501684341e-01
2.722689075630252020e+01 6.185051635637066614e-01 6.915308194233011907e-01
2.823529411764705799e+01 6.020669299955372367e-01 7.156653782152844201e-01
2.924369747899159577e+01 5.817027770812770449e-01 7.262930817028789843e-01
3.025210084033613356e+01 5.566989084325997261e-01 7.226287614769539847e-01
3.126050420168067134e+01 5.269139437474170684e-01 7.048009197147977467e-01
3.226890756302520913e+01 4.926985655972306866e-01 6.737688960706003094e-01
3.327731092436974336e+01 4.547903459021107597e-01 6.312423597483467486e-01
3.428571428571428470e+01 4.142399652870110138e-01 5.795966545428314909e-01
3.529411764705882604e+01 3.723893069770205511e-01 5.217781204935545425e-01
3.630252100840336027e+01 3.308183814896750174e-01 4.611919918096150650e-01
3.731092436974789450e+01 2.911731704446198776e-01 4.015620382718688153e-01
3.831932773109243584e+01 2.549140062902455206e-01 3.467466777961272784e-01
3.932773109243697718e+01 2.231626769218575390e-01 3.004939810847508386e-01
4.033613445378151141e+01 1.967877268351878595e-01 2.661251835796226151e-01
4.134453781512604564e+01 1.766624217723922197e-01 2.461639906471900230e-01
4.235294117647058698e+01 1.639180353273443913e-01 2.419809292698243408e-01
4.336134453781512832e+01 1.600641948879419907e-01 2.535719179037689286e-01
4.436974789915966255e+01 1.669118207711266511e-01 2.795787820943297919e-01
4.537815126050419678e+01 1.862551355723724988e-01 3.175596497638600302e-01
4.638655462184873812e+01 2.193206168803663036e-01 3.644013673405071541e-01
4.739495798319327946e+01 2.661415627711454235e-01 4.167332452523944686e-01
4.840336134453781369e+01 3.251660058732608327e-01 4.712541911018290341e-01
4.941176470588234793e+01 3.933300827609294004e-01 5.249536189692023402e-01
5.042016806722688926e+01 4.665388734044586538e-01 5.752446837730893492e-01
5.142857142857143060e+01 5.402847878327694531e-01 6.200369376018772805e-01
5.243697478991596483e+01 6.101676920683871685e-01 6.577704446137933036e-01
5.344537815126049907e+01 6.722437184384508768e-01 6.874259037921059967e-01
5.445378151260504040e+01 7.232391831054876263e-01 7.085191452023615888e-01
5.546218487394958174e+01 7.606752720440104198e-01 7.210842824486440872e-01
5.647058823529411598e+01 7.829258479316751895e-01 7.256469738933022384e-01
5.747899159663865021e+01 7.892188812360989569e-01 7.231869576196854332e-01
5.848739495798319155e+01 7.796135747711092634e-01 7.150866728543450179e-01
5.949579831932773288e+01 7.550184248396654141e-01 7.030600524461827483e-01
6.050420168067226712e+01 7.172538433493744758e-01 6.890527831689425842e-01
6.151260504201680135e+01 6.690965913235333851e-01 6.751041072507986129e-01
6.252100840336134269e+01 6.142540682337924718e-01 6.631642372231940641e-01
6.352941176470588402e+01 5.571919310190682761e-01 6.548755583683558701e-01
6.453781512605041826e+01 5.027061072116221219e-01 6.513510197471998886e-01
6.554621848739495249e+01 4.552791639314464067e-01 6.530081008522030661e-01
6.655462184873948672e+01 4.184066214673600737e-01 6.595178126766725324e-01
6.756302521008403517e+01 3.939852304457547305e-01 6.698912862517800715e-01
6.857142857142856940e+01 3.820428589190314472e-01 6.826716714455247637e-01
6.957983193277310363e+01 3.811380188076136655e-01 6.961660723468678924e-01
7.058823529411765207e+01 3.892181364621283279e-01 7.086583818648319877e-01
7.159663865546218631e+01 4.044184090375613216e-01 7.185723324808976908e-01
7.260504201680672054e+01 4.254513313122663121e-01 7.245804734239722489e-01
7.361344537815125477e+01 4.513047981894551253e-01 7.256684725363367061e-01
7.462184873949578900e+01 4.801624617858242239e-01 7.211672533796258389e-01
7.563025210084033745e+01 5.086871730557205318e-01 7.107634601086993964e-01
7.663865546218487168e+01 5.327424158781002284e-01 6.944954521365058753e-01
7.764705882352940591e+01 5.484985084851423665e-01 6.727391250622731800e-01
7.865546218487395436e+01 5.529809779644205836e-01 6.461857000355164526e-01
7.966386554621848859e+01 5.442170021660541757e-01 6.158120929246995168e-01
8.067226890756302282e+01 5.212716688055762937e-01 5.828433484884112392e-01
8.168067226890755705e+01 4.842672863642565328e-01 5.487057543630446954e-01
8.268907563025209129e+01 4.344048881964384101e-01 5.149686269831799112e-01
8.369747899159663973e+01 3.740013541930575780e-01 4.832725775508647792e-01
8.470588235294117396e+01 3.065440497823896937e-01 4.552427618834074541e-01
8.571428571428570820e+01 2.367502055975838626e-01 4.323878438825883852e-01
8.672268907563025664e+01 1.707035498032067888e-01 4.159897004312387847e-01
8.773109243697479087e+01 1.162403721520014477e-01 4.069949415618546174e-01
8.873949579831932510e+01 8.309780603427108225e-02 4.059250185228909236e-01
8.974789915966385934e+01 8.028654941556967461e-02 4.128232903971877366e-01
9.075630252100839357e+01 1.091707267089804256e-01 4.272518377144428059e-01
9.176470588235294201e+01 1.624215296496163141e-01 4.483390366228983681e-01
9.277310924369747624e+01 2.306999189643894610e-01 4.748665584899343650e-01
9.378151260504201048e+01 3.062697362354400710e-01 5.053775890262444115e-01
9.478991596638655892e+01 3.832657294748662569e-01 5.382886154492636521e-01
9.579831932773109315e+01 4.569135499454051175e-01 5.719925028867682837e-01
9.680672268907562739e+01 5.226887002032623020e-01 6.049468601451497562e-01
9.781512605042016162e+01 5.765272938864280938e-01 6.357464034322855007e-01
9.882352941176469585e+01 6.153738536328030584e-01 6.631805847726295333e-01
9.983193277310924429e+01 6.373169380137260198e-01 6.862786322281591023e-01
1.008403361344537785e+02 6.415652938627840474e-01 7.043440356007508729e-01
1.018487394957983128e+02 6.284220466022585327e-01 7.169799061115533778e-01
1.028571428571428612e+02 5.992670848394205940e-01 7.241057940908988133e-01
1.038655462184873954e+02 5.565292170187094989e-01 7.259655250201826338e-01
1.048739495798319297e+02 5.036768003667289051e-01 7.231243581074175975e-01
1.058823529411764639e+02 4.452813488130864528e-01 7.164522051098585198e-01
1.068907563025209981e+02 3.871335679148695252e-01 7.070878086615086655e-01
1.078991596638655466e+02 3.364131685508180425e-01 6.963770829166817666e-01
1.089075630252100808e+02 3.016573354430733822e-01 6.857784454109951966e-01
1.099159663865546150e+02 2.902630519639193274e-01 6.767311593662121982e-01
1.109243697478991635e+02 3.033443272317295492e-01 6.704920523993667114e-01
1.119327731092436977e+02 3.376737887825609352e-01 6.679618452666811201e-01
1.129411764705882320e+02 3.887220128092589988e-01 6.695387305936395528e-01
1.139495798319327662e+02 4.508983389292307020e-01 6.750413286706438143e-01
1.149579831932773004e+02 5.178897053492159674e-01 6.837263196620173566e-01
1.159663865546218489e+02 5.835196511383249351e-01 6.943941314220303251e-01
1.169747899159663831e+02 6.423454699979347371e-01 7.055489321233847644e-01
1.179831932773109173e+02 6.898915874376965185e-01 7.155719248124345899e-01
1.189915966386554658e+02 7.227357833961431943e-01 7.228776248335042620e-01
1.200000000000000000e+02 7.385403285229787951e-01 7.260397075960349778e-01
