0.000000000000000000e+00 0.000000000000000000e+00 -3.330669073875469621e-16
1.008403361344537785e+00 6.911224371285440427e-04 -3.515194706756874510e-04
2.016806722689075571e+00 2.744430737349534688e-03 -1.404580293955293158e-03
3.025210084033613356e+00 6.101707527805588782e-03 -3.154788097336047592e-03
4.033613445378151141e+00 1.066910051356129152e-02 -5.593411082415178370e-03
5.042016806722688926e+00 1.631733396425849580e-02 -8.702893956175405954e-03
6.050420168067226712e+00 2.289059347688027213e-02 -1.245608595094893634e-02
7.058823529411764497e+00 3.020930448481939923e-02 -1.681112952383712056e-02
8.067226890756302282e+00 3.807623229892642680e-02 -2.170794493229522004e-02
9.075630252100840067e+00 4.628365885124829937e-02 -2.706575645340680847e-02
1.008403361344537785e+01 5.461793905899359203e-02 -3.277967271634130153e-02
1.109243697478991564e+01 6.286734138631921986e-02 -3.872097605013002930e-02
1.210084033613445342e+01 7.082581639715956889e-02 -4.473636268643965685e-02
1.310924369747899121e+01 7.829796370179431531e-02 -5.065023995563133763e-02
1.411764705882352899e+01 8.510522696936284603e-02 -5.627092476056372305e-02
1.512605042016806678e+01 9.108737128760024948e-02 -6.139575297009380872e-02
1.613445378151260456e+01 9.610673538152958439e-02 -6.582144149693924806e-02
1.714285714285714235e+01 1.000511478415206934e-01 -6.935605241427800216e-02
1.815126050420168013e+01 1.028341852560898939e-01 -7.183013880177913091e-02
1.915966386554621792e+01 1.043976962634862726e-01 -7.311073329826822675e-02
2.016806722689075571e+01 1.047116359461492952e-01 -7.311161604376481549e-02
2.117647058823529349e+01 1.037738766754406905e-01 -7.180063805113190423e-02
2.218487394957983128e+01 1.016100234144083903e-01 -6.920299272125796097e-02
2.319327731092436906e+01 9.827158026293003612e-02 -6.539795830069461413e-02
2.420168067226890685e+01 9.383517657318429794e-02 -6.051245990812237352e-02
2.521008403361344463e+01 8.839950544992081216e-02 -5.470942756622798608e-02
2.621848739495798242e+01 8.208320442274530393e-02 -4.817579412533390393e-02
2.722689075630252020e+01 7.502281492170215227e-02 -4.111095534573383503e-02
2.823529411764705799e+01 6.736787837169322390e-02 -3.371418558982541835e-02
2.924369747899159577e+01 5.927909129302866287e-02 -2.617717903412541958e-02
3.025210084033613356e+01 5.092470685731842472e-02 -1.867742175069275756e-02
3.126050420168067134e+01 4.247543344251913933e-02 -1.137270158846881429e-02
3.226890756302520913e+01 3.410280647098595797e-02 -4.400502614756107711e-03
3.327731092436974336e+01 2.597454387452469149e-02 2.123563557682728309e-03
3.428571428571428470e+01 1.825069243143984110e-02 8.105493933720953059e-03
3.529411764705882604e+01 1.108201349236148658e-02 1.347029655911990975e-02
3.630252100840336027e+01 4.605491862285537863e-03 1.816120131599596732e-02
3.731092436974789450e+01 -1.057606984201098221e-03 2.213698674721054083e-02
3.831932773109243584e+01 -5.803365927740888885e-03 2.536938724701498504e-02
3.932773109243697718e+01 -9.548086069187111669e-03 2.784175794005627758e-02
4.033613445378151141e+01 -1.222878786201020418e-02 2.954670589385066659e-02
4.134453781512604564e+01 -1.380450583001613385e-02 3.048486898955127256e-02
4.235294117647058698e+01 -1.425710129515689317e-02 3.066397531940856513e-02
4.336134453781512832e+01 -1.359134716345811178e-02 3.009806055869657104e-02
4.436974789915966255e+01 -1.183549861597332775e-02 2.880757326499350235e-02
4.537815126050419678e+01 -9.040376641336944630e-03 2.681907584751208606e-02
4.638655462184873812e+01 -5.279047618258037033e-03 2.416594476121736168e-02
4.739495798319327946e+01 -6.454768364918539447e-04 2.088894298211374512e-02
4.840336134453781369e+01 4.748364787968473166e-03 1.703627706619736948e-02
4.941176470588234793e+01 1.077436592800851134e-02 1.266483173906818305e-02
5.042016806722688926e+01 1.729242547551601561e-02 7.840111831069918047e-03
5.142857142857143060e+01 2.415480536143754797e-02 2.636136998029559031e-03
5.243697478991596483e+01 3.120944326023056270e-02 -2.863993048441759726e-03
5.344537815126049907e+01 3.830552127087016867e-02 -8.569593741194592162e-03
5.445378151260504040e+01 4.529730053941494194e-02 -1.438319060853310294e-02
5.546218487394958174e+01 5.204740530332152559e-02 -2.020162452932006136e-02
5.647058823529411598e+01 5.843124626480278305e-02 -2.591906368795526827e-02
5.747899159663865021e+01 6.433892492022108556e-02 -3.142894886670399845e-02
5.848739495798319155e+01 6.967715521232231701e-02 -3.662690428788151209e-02
5.949579831932773288e+01 7.437111568148491170e-02 -4.141460399761187627e-02
6.050420168067226712e+01 7.836433703924128302e-02 -4.570256428120933467e-02
6.151260504201680135e+01 8.161882783029172916e-02 -4.941366808183389470e-02
6.252100840336134269e+01 8.411442841468919074e-02 -5.248627296047891910e-02
6.352941176470588402e+01 8.584740868983276041e-02 -5.487629808751637306e-02
6.453781512605041826e+01 8.682914258185447931e-02 -5.655902651117172830e-02
6.554621848739495249e+01 8.708413238152279412e-02 -5.752953212010369910e-02
6.655462184873948672e+01 8.664836359388949916e-02 -5.780234494046976312e-02
6.756302521008403517e+01 8.556726099787903550e-02 -5.741001657812982994e-02
6.857142857142856940e+01 8.389359418745190311e-02 -5.640070789090045889e-02
6.957983193277310363e+01 8.168595804476563860e-02 -5.483568738160171652e-02
7.058823529411765207e+01 7.900632577206667673e-02 -5.278577092366398826e-02
7.159663865546218631e+01 7.591838416003093837e-02 -5.032815431489845448e-02
7.260504201680672054e+01 7.248625568780409090e-02 -4.754361373637450150e-02
7.361344537815125477e+01 6.877258342630399035e-02 -4.451313578520699199e-02
7.462184873949578900e+01 6.483828478790720773e-02 -4.131590946588370450e-02
7.563025210084033745e+01 6.074258338519533673e-02 -3.802754955354659128e-02
7.663865546218487168e+01 5.654300807669976336e-02 -3.471816041042796730e-02
7.764705882352940591e+01 5.229707840084552029e-02 -3.145188604809234789e-02
7.865546218487395436e+01 4.806359208464516808e-02 -2.828626161575320541e-02
7.966386554621848859e+01 4.390369292567175563e-02 -2.527170494540487145e-02
8.067226890756302282e+01 3.988249367180163318e-02 -2.245207722468844924e-02
8.168067226890755705e+01 3.606916248027447480e-02 -1.986470991841593481e-02
8.268907563025209129e+01 3.253632087997793132e-02 -1.754078786743640261e-02
8.369747899159663973e+01 2.935899147152287725e-02 -1.550620252879331140e-02
8.470588235294117396e+01 2.661166368623213430e-02 -1.378177874108466039e-02
8.571428571428570820e+01 2.436523006913371425e-02 -1.238394231702155679e-02
8.672268907563025664e+01 2.268353779775900136e-02 -1.132530381973062550e-02
8.773109243697479087e+01 2.161915481890508417e-02 -1.061479937855192013e-02
8.873949579831932510e+01 2.121015751182642184e-02 -1.025811413728017207e-02
8.974789915966385934e+01 2.147714229953401333e-02 -1.025774658623934688e-02
9.075630252100839357e+01 2.242091669939805243e-02 -1.061292533962199247e-02
9.176470588235294201e+01 2.402162156957354799e-02 -1.131951405241471420e-02
9.277310924369747624e+01 2.623856044778261065e-02 -1.236960379483220684e-02
9.378151260504201048e+01 2.901157097827999909e-02 -1.375122071955814373e-02
9.478991596638655892e+01 3.226332877707371871e-02 -1.544774848006291723e-02
9.579831932773109315e+01 3.590271149011659002e-02 -1.743735657856171350e-02
9.680672268907562739e+01 3.982948888755499794e-02 -1.969266956810378222e-02
9.781512605042016162e+01 4.393886650993339416e-02 -2.218002454937384460e-02
9.882352941176469585e+01 4.812683407709261729e-02 -2.485924462492750120e-02
9.983193277310924429e+01 5.229515761253589190e-02 -2.768356046785047653e-02
1.008403361344537785e+02 5.635493895034759948e-02 -3.059924566032401483e-02
1.018487394957983128e+02 6.023003133630133732e-02 -3.354631804627339342e-02
1.028571428571428612e+02 6.385834774753618159e-02 -3.645907154109007120e-02
1.038655462184873954e+02 6.719152668617778268e-02 -3.926675584717209677e-02
1.048739495798319297e+02 7.019396148118084433e-02 -4.189556893227142087e-02
1.058823529411764639e+02 7.283974783526581120e-02 -4.427015012506163583e-02
1.068907563025209981e+02 7.510902267532171273e-02 -4.631566817800469860e-02
1.078991596638655466e+02 7.698442101587565922e-02 -4.796092393586504077e-02
1.089075630252100808e+02 7.844706230278686299e-02 -4.914064789389593901e-02
1.099159663865546150e+02 7.947374482915992022e-02 -4.979844569619584771e-02
1.109243697478991635e+02 8.003571163322120707e-02 -4.988982855386281390e-02
1.119327731092436977e+02 8.009845107998714298e-02 -4.938416080016427845e-02
1.129411764705882320e+02 7.962365780219760047e-02 -4.826674491883709006e-02
1.139495798319327662e+02 7.857259013004425086e-02 -4.653992388751138076e-02
1.149579831932773004e+02 7.691009032591411554e-02 -4.422316333256970378e-02
1.159663865546218489e+02 7.460965459886936824e-02 -4.135265918993935585e-02
1.169747899159663831e+02 7.165807982018379541e-02 -3.797975666202291212e-02
1.179831932773109173e+02 6.805973350101524044e-02 -3.416901421326956623e-02
1.189915966386554658e+02 6.383988837346066259e-02 -2.999555917991425513e-02
1.200000000000000000e+02 5.904657685300063186e-02 -2.554219141435332130e-02
