0.000000000000000000e+00 0.000000000000000000e+00 0.000000000000000000e+00
1.008403361344537785e+00 2.836177201833711692e-03 -3.318376003507150784e-04
2.016806722689075571e+00 1.123889714659953576e-02 -1.374908683233533324e-03
3.025210084033613356e+00 2.490218340980365763e-02 -3.267262240443935539e-03
4.033613445378151141e+00 4.333625509657079711e-02 -6.221933331745699292e-03
5.042016806722688926e+00 6.590573803371735373e-02 -1.050452877360275039e-02
6.050420168067226712e+00 9.186375441018035382e-02 -1.640314677759779904e-02
7.058823529411764497e+00 1.203918412482193334e-01 -2.419491979968602102e-02
8.067226890756302282e+00 1.506358458884615725e-01 -3.411061142897620080e-02
9.075630252100840067e+00 1.817381312955870243e-01 -4.629972775100088533e-02
1.008403361344537785e+01 2.128658327524259875e-01 -6.079829407789816287e-02
1.109243697478991564e+01 2.432348150667855702e-01 -7.750109006144301205e-02
1.210084033613445342e+01 2.721283696909793104e-01 -9.613933200630486731e-02
1.310924369747899121e+01 2.989114507756251982e-01 -1.162653192796683221e-01
1.411764705882352899e+01 3.230406084625345731e-01 -1.372457451526529759e-01
1.512605042016806678e+01 3.440697874956049063e-01 -1.582663439145619577e-01
1.613445378151260456e+01 3.616522451609123223e-01 -1.783524799858007270e-01
1.714285714285714235e+01 3.755394966161467174e-01 -1.964138602191320970e-01
1.815126050420168013e+01 3.855770198154784278e-01 -2.113228206512971497e-01
1.915966386554621792e+01 3.916978924244329807e-01 -2.220345599909470113e-01
2.016806722689075571e+01 3.939151883459452996e-01 -2.277428662140852378e-01
2.117647058823529349e+01 3.923137550962136899e-01 -2.280348961443172673e-01
2.218487394957983128e+01 3.870420850378164523e-01 -2.229828144323640071e-01
2.319327731092436906e+01 3.783047520554865262e-01 -2.131237239148157103e-01
2.420168067226890685e+01 3.663555295356704100e-01 -1.993365252963815726e-01
2.521008403361344463e+01 3.514916932637910385e-01 -1.826753422447959796e-01
2.621848739495798242e+01 3.340491888961618638e-01 -1.642195100707313227e-01
2.722689075630252020e+01 3.143984498261911398e-01 -1.449684740751149281e-01
2.823529411764705799e+01 2.929405918561176492e-01 -1.257816026044413782e-01
2.924369747899159577e+01 2.701035564948135459e-01 -1.073513484490140613e-01
3.025210084033613356e+01 2.463371910421952027e-01 -9.019765743050167650e-02
3.126050420168067134e+01 2.221079372423993004e-01 -7.467603488297180903e-02
3.226890756302520913e+01 1.978922064642558709e-01 -6.099343949369195883e-02
3.327731092436974336e+01 1.741686541226179497e-01 -4.922900741086899679e-02
3.428571428571428470e+01 1.514096308745664921e-01 -3.935766030929266357e-02
3.529411764705882604e+01 1.300719817634576891e-01 -3.127517968085036237e-02
3.630252100840336027e+01 1.105867612525313071e-01 -2.482337913017351738e-02
3.731092436974789450e+01 9.334901800746586709e-02 -1.981452334728373010e-02
3.831932773109243584e+01 7.870840449855553977e-02 -1.605370357558744132e-02
3.932773109243697718e+01 6.696212871386819643e-02 -1.335818854004333645e-02
4.033613445378151141e+01 5.835114412519426530e-02 -1.157294547121079376e-02
4.134453781512604564e+01 5.305876430935430044e-02 -1.058169904104366843e-02
4.235294117647058698e+01 5.120947851893431491e-02 -1.031317088420502515e-02
4.336134453781512832e+01 5.286564061869458708e-02 -1.074248938642607953e-02
4.436974789915966255e+01 5.802044146673535074e-02 -1.188801706983166895e-02
4.537815126050419678e+01 6.658762212930469104e-02 -1.380417413121848291e-02
4.638655462184873812e+01 7.839028604814157752e-02 -1.657106326194224266e-02
4.739495798319327946e+01 9.315229481411302359e-02 -2.028183054236176730e-02
4.840336134453781369e+01 1.104958195054474013e-01 -2.502875657082448413e-02
4.941176470588234793e+01 1.299478028212561753e-01 -3.088914277528131969e-02
5.042016806722688926e+01 1.509554694630614868e-01 -3.791173224933297448e-02
5.142857142857143060e+01 1.729099844103854089e-01 -4.610453295243788219e-02
5.243697478991596483e+01 1.951755746296064409e-01 -5.542468113835652410e-02
5.344537815126049907e+01 2.171208478940385156e-01 -6.577087159975225639e-02
5.445378151260504040e+01 2.381490093702283151e-01 -7.697876857571372966e-02
5.546218487394958174e+01 2.577244272859693375e-01 -8.881997670780616971e-02
5.647058823529411598e+01 2.753930671276099140e-01 -1.010047145176569128e-01
5.747899159663865021e+01 2.907963238277384566e-01 -1.131887514775530290e-01
5.848739495798319155e+01 3.036786146130261432e-01 -1.249850912349095289e-01
5.949579831932773288e+01 3.138893607366570748e-01 -1.359807409381945664e-01
6.050420168067226712e+01 3.213795440301689954e-01 -1.457586090508420362e-01
6.151260504201680135e+01 3.261925032417130055e-01 -1.539239708052237976e-01
6.252100840336134269e+01 3.284488977134014664e-01 -1.601336587415391755e-01
6.352941176470588402e+01 3.283274079402271894e-01 -1.641248450058778729e-01
6.453781512605041826e+01 3.260444029829292489e-01 -1.657391556800527077e-01
6.554621848739495249e+01 3.218366188258792171e-01 -1.649374960784093513e-01
6.655462184873948672e+01 3.159496298479347320e-01 -1.618023175445801876e-01
6.756302521008403517e+01 3.086318790107167587e-01 -1.565267238133738470e-01
6.857142857142856940e+01 3.001312340586772542e-01 -1.493927321728449886e-01
6.957983193277310363e+01 2.906906604880914458e-01 -1.407433465071790124e-01
7.058823529411765207e+01 2.805397392461339567e-01 -1.309532583027439578e-01
7.159663865546218631e+01 2.698807711379445085e-01 -1.204021116664797386e-01
7.260504201680672054e+01 2.588707154722249548e-01 -1.094526707762162321e-01
7.361344537815125477e+01 2.476034812510294891e-01 -9.843475081731534182e-02
7.462184873949578900e+01 2.360995978333113587e-01 -8.763457588135503684e-02
7.563025210084033745e+01 2.243106276331878757e-01 -7.728907901654646917e-02
7.663865546218487168e+01 2.121408593290436961e-01 -6.758411675574294009e-02
7.764705882352940591e+01 1.994828832057407020e-01 -5.865572698535514995e-02
7.865546218487395436e+01 1.862594777651418454e-01 -5.059370119571426905e-02
7.966386554621848859e+01 1.724637501956571839e-01 -4.344685806959636132e-02
8.067226890756302282e+01 1.581912507753624464e-01 -3.722943710386483751e-02
8.168067226890755705e+01 1.436601258726546426e-01 -3.192823505697939268e-02
8.268907563025209129e+01 1.292170232503460081e-01 -2.751009531571946276e-02
8.369747899159663973e+01 1.153273914015634505e-01 -2.392933360923077402e-02
8.470588235294117396e+01 1.025498736869144834e-01 -2.113480369115472435e-02
8.571428571428570820e+01 9.149583615550371807e-02 -1.907630618040134785e-02
8.672268907563025664e+01 8.277692943716197238e-02 -1.771006648932105243e-02
8.773109243697479087e+01 7.694559756966590225e-02 -1.700305328120954584e-02
8.873949579831932510e+01 7.443578654554838803e-02 -1.693598468823798164e-02
8.974789915966385934e+01 7.551217805839682828e-02 -1.750486281954066747e-02
9.075630252100839357e+01 8.023704548677967896e-02 -1.872099227739787430e-02
9.176470588235294201e+01 8.846099476602331535e-02 -2.060949227168573650e-02
9.277310924369747624e+01 9.983791522555096609e-02 -2.320637302951911174e-02
9.378151260504201048e+01 1.138585554179769588e-01 -2.655433929726735975e-02
9.478991596638655892e+01 1.298945588365674197e-01 -3.069749664974796843e-02
9.579831932773109315e+01 1.472466815351074487e-01 -3.567520476011698527e-02
9.680672268907562739e+01 1.651946256118594913e-01 -4.151536598417204793e-02
9.781512605042016162e+01 1.830470130100216863e-01 -4.822745898642710749e-02
9.882352941176469585e+01 2.001882206417195942e-01 -5.579563430313472239e-02
9.983193277310924429e+01 2.161174797733631525e-01 -6.417228489475879094e-02
1.008403361344537785e+02 2.304761273646767084e-01 -7.327243649310433149e-02
1.018487394957983128e+02 2.430612903892328536e-01 -8.296933573477516255e-02
1.028571428571428612e+02 2.538262452356705445e-01 -9.309175837026117950e-02
1.038655462184873954e+02 2.628682190687019471e-01 -1.034235471152622488e-01
1.048739495798319297e+02 2.704044175263822236e-01 -1.137059536217874811e-01
1.058823529411764639e+02 2.767366236846073857e-01 -1.236434365806633462e-01
1.068907563025209981e+02 2.822047194874865994e-01 -1.329135636415804678e-01
1.078991596638655466e+02 2.871314781976317398e-01 -1.411811992035217900e-01
1.089075630252100808e+02 2.917650404113201201e-01 -1.481170826175797206e-01
1.099159663865546150e+02 2.962300050131085882e-01 -1.534199150881665474e-01
1.109243697478991635e+02 3.004990595981142931e-01 -1.568400647394319058e-01
1.119327731092436977e+02 3.043918011533024437e-01 -1.582019422473681658e-01
1.129411764705882320e+02 3.075986779877610822e-01 -1.574215641752395589e-01
1.139495798319327662e+02 3.097214988894358978e-01 -1.545158577124176036e-01
1.149579831932773004e+02 3.103215036830673235e-01 -1.496019630314158189e-01
1.159663865546218489e+02 3.089682401764808350e-01 -1.428866687526382240e-01
1.169747899159663831e+02 3.052844751616325958e-01 -1.346480850310225463e-01
1.179831932773109173e+02 2.989841260177072968e-01 -1.252128460855359560e-01
1.189915966386554658e+02 2.899019478329409871e-01 -1.149321817152946235e-01
1.200000000000000000e+02 2.780145071686190850e-01 -1.041595874178944392e-01
