0.000000000000000000e+00 2.220446049250313081e-16 2.220446049250313081e-16
1.008403361344537785e+00 6.416042615349559775e-03 3.042487764822077168e-03
2.016806722689075571e+00 2.532650616271037158e-02 1.185277489573177689e-02
3.025210084033613356e+00 5.576371425699100381e-02 2.551626356934177942e-02
4.033613445378151141e+00 9.624904385816002161e-02 4.262517435299328916e-02
5.042016806722688926e+00 1.449469487922692146e-01 6.143014311535477390e-02
6.050420168067226712e+00 1.998093660263726701e-01 8.000888090581814716e-02
7.058823529411764497e+00 2.587071411788435249e-01 9.643477007077705387e-02
8.067226890756302282e+00 3.195312612502847482e-01 1.089258695652679521e-01
9.075630252100840067e+00 3.802709308436154068e-01 1.159714597427470295e-01
1.008403361344537785e+01 4.390882520575394299e-01 1.164364979103522657e-01
1.109243697478991564e+01 4.943675359134540592e-01 1.096398185779912104e-01
1.210084033613445342e+01 5.447547956171645556e-01 9.541274636628638284e-02
1.310924369747899121e+01 5.891828911343823805e-01 7.414154987283616549e-02
1.411764705882352899e+01 6.268865010580295660e-01 4.679661358268139004e-02
1.512605042016806678e+01 6.574022087167215034e-01 1.495129524307881042e-02
1.613445378151260456e+01 6.805554322209772522e-01 -1.921140919734887209e-02
1.714285714285714235e+01 6.964323901572306852e-01 -5.291721326829179617e-02
1.815126050420168013e+01 7.053367654476299098e-01 -8.288473771728577244e-02
1.915966386554621792e+01 7.077386475803943977e-01 -1.055854679899622672e-01
2.016806722689075571e+01 7.042100869246872286e-01 -1.178252249786857497e-01
2.117647058823529349e+01 6.953635457737732395e-01 -1.176756140345387447e-01
2.218487394957983128e+01 6.817970444860197432e-01 -1.052699344903885725e-01
2.319327731092436906e+01 6.640484215758637454e-01 -8.272728113993932375e-02
2.420168067226890685e+01 6.425758599681767880e-01 -5.327485435498791055e-02
2.521008403361344463e+01 6.177558868863686214e-01 -2.031102076615809437e-02
2.621848739495798242e+01 5.898990034202080679e-01 1.314058782064719821e-02
2.722689075630252020e+01 5.592808817535988020e-01 4.463368331105144193e-02
2.823529411764705799e+01 5.261785124714539741e-01 7.233814082510958698e-02
2.924369747899159577e+01 4.909101087742744340e-01 9.501152598590367759e-02
3.025210084033613356e+01 4.538656555139295445e-01 1.119503046851482164e-01
3.126050420168067134e+01 4.155256757855987360e-01 1.229341328516642129e-01
3.226890756302520913e+01 3.764663172460780416e-01 1.281648812870823662e-01
3.327731092436974336e+01 3.373514400309407524e-01 1.282013459825355195e-01
3.428571428571428470e+01 2.989227628660895419e-01 1.238880196557512470e-01
3.529411764705882604e+01 2.619825237621384861e-01 1.162782048942734292e-01
3.630252100840336027e+01 2.273667333841733473e-01 1.065517222876628534e-01
3.731092436974789450e+01 1.959008525475942619e-01 9.592963298462775512e-02
3.831932773109243584e+01 1.683431514194140277e-01 8.558777084596003171e-02
3.932773109243697718e+01 1.453524895721254317e-01 7.657556093619488635e-02
4.033613445378151141e+01 1.274910281130448020e-01 6.974375455497661136e-02
4.134453781512604564e+01 1.152610869934258542e-01 6.568760774183890483e-02
4.235294117647058698e+01 1.091517013760240351e-01 6.471298407284131748e-02
4.336134453781512832e+01 1.096507116497500434e-01 6.682529622068100750e-02
4.436974789915966255e+01 1.172107581715778890e-01 7.174546865830699893e-02
4.537815126050419678e+01 1.321624403576058260e-01 7.894919232501851347e-02
4.638655462184873812e+01 1.545853577880207386e-01 8.772273528881502358e-02
4.739495798319327946e+01 1.841787839952822026e-01 9.723107205097925032e-02
4.840336134453781369e+01 2.201711867681486190e-01 1.065886485721065924e-01
4.941176470588234793e+01 2.613108733955378238e-01 1.149278302337748414e-01
5.042016806722688926e+01 3.059516678893370312e-01 1.214606222019183335e-01
5.142857142857143060e+01 3.522025207557584192e-01 1.255301099898837869e-01
5.243697478991596483e+01 3.981019405232233410e-01 1.266511750093024524e-01
5.344537815126049907e+01 4.417790093881115432e-01 1.245397985866474322e-01
5.445378151260504040e+01 4.815818418005723967e-01 1.191314486586243504e-01
5.546218487394958174e+01 5.161685743004713611e-01 1.105889426764576911e-01
5.647058823529411598e+01 5.445589951626950143e-01 9.930012639321850187e-02
5.747899159663865021e+01 5.661533069861848233e-01 8.586450863719630178e-02
5.848739495798319155e+01 5.807278180141499657e-01 7.106844727465944089e-02
5.949579831932773288e+01 5.884227943888125090e-01 5.584588512747634681e-02
6.050420168067226712e+01 5.897217520820465797e-01 4.122204765232928558e-02
6.151260504201680135e+01 5.854097560473425776e-01 2.823926633932594132e-02
6.252100840336134269e+01 5.765006416946851786e-01 1.786370246168911269e-02
6.352941176470588402e+01 5.641263538615661766e-01 1.088279584120732668e-02
6.453781512605041826e+01 5.494055245756492845e-01 7.809307442200319471e-03
6.554621848739495249e+01 5.333319318559304190e-01 8.813256260042923174e-03
6.655462184873948672e+01 5.167238662527271487e-01 1.370482785425219951e-02
6.756302521008403517e+01 5.002305025705726660e-01 2.197191409134080509e-02
6.857142857142856940e+01 4.843623451371308342e-01 3.286171029534523669e-02
6.957983193277310363e+01 4.695272846895350849e-01 4.548387543090370855e-02
7.058823529411765207e+01 4.560556527527976911e-01 5.890995005137922291e-02
7.159663865546218631e+01 4.441988907773442019e-01 7.225607559764113397e-02
7.260504201680672054e+01 4.340751498446100420e-01 8.474290116469385126e-02
7.361344537815125477e+01 4.255419992550644182e-01 9.573358366167084021e-02
7.462184873949578900e+01 4.180578915739059376e-01 1.047545533254161665e-01
7.563025210084033745e+01 4.106522034029003176e-01 1.115026717085154662e-01
7.663865546218487168e+01 4.020686183432400362e-01 1.158426204466753706e-01
7.764705882352940591e+01 3.910130364265671510e-01 1.177969402270029331e-01
7.865546218487395436e+01 3.763821669913527401e-01 1.175303964019938086e-01
7.966386554621848859e+01 3.574291110308061015e-01 1.153298040630750254e-01
8.067226890756302282e+01 3.338705984502288171e-01 1.115800766232153407e-01
8.168067226890755705e+01 3.059488704973181150e-01 1.067371389395059822e-01
8.268907563025209129e+01 2.744633822478681484e-01 1.012983941171450297e-01
8.369747899159663973e+01 2.407734856192651485e-01 9.577171389760286146e-02
8.470588235294117396e+01 2.067645434022620243e-01 9.064384297681593594e-02
8.571428571428570820e+01 1.747646090220142945e-01 8.635010282193467113e-02
8.672268907563025664e+01 1.473910089690200209e-01 8.324677124923463012e-02
8.773109243697479087e+01 1.272980927284443897e-01 8.158806739376278649e-02
8.873949579831932510e+01 1.167967898714907804e-01 8.151000523113638430e-02
8.974789915966385934e+01 1.173749102213799134e-01 8.302171251480294778e-02
9.075630252100839357e+01 1.293171676734856668e-01 8.600564379927710945e-02
9.176470588235294201e+01 1.516627127562020227e-01 9.022654064370838611e-02
9.277310924369747624e+01 1.825125814249957124e-01 9.534775472792800244e-02
9.378151260504201048e+01 2.194774565669477262e-01 1.009542932888543021e-01
9.478991596638655892e+01 2.600274904991266567e-01 1.065800833812882153e-01
9.579831932773109315e+01 3.016734212469460719e-01 1.117377118753357657e-01
9.680672268907562739e+01 3.420674865066799519e-01 1.159491936728540562e-01
9.781512605042016162e+01 3.791214528286210861e-01 1.187757376886824368e-01
9.882352941176469585e+01 4.111498099803936324e-01 1.198457870617952725e-01
9.983193277310924429e+01 4.369746848137316952e-01 1.188802469899057357e-01
1.008403361344537785e+02 4.559711528549299508e-01 1.157141899189224610e-01
1.018487394957983128e+02 4.680734318224979429e-01 1.103144456473581503e-01
1.028571428571428612e+02 4.737538468420470217e-01 1.027922960335050373e-01
1.038655462184873954e+02 4.739822426057314075e-01 9.341040201714290170e-02
1.048739495798319297e+02 4.701713070282302898e-01 8.258246861481377543e-02
1.058823529411764639e+02 4.641049466666662404e-01 7.086398995754472629e-02
1.068907563025209981e+02 4.578255147711416395e-01 5.893143515208643102e-02
1.078991596638655466e+02 4.534386017969116445e-01 4.754751565712744821e-02
1.089075630252100808e+02 4.527796759510673841e-01 3.751022054622232815e-02
1.099159663865546150e+02 4.569803328443773349e-01 2.958588188584743150e-02
1.109243697478991635e+02 4.661712245947169375e-01 2.443118100229813017e-02
1.119327731092436977e+02 4.795499757863534995e-01 2.251365989205100782e-02
1.129411764705882320e+02 4.956996836950531282e-01 2.404761404461785990e-02
1.139495798319327662e+02 5.128723220816884254e-01 2.896035928095685996e-02
1.149579831932773004e+02 5.291771726853631286e-01 3.689806288696373393e-02
1.159663865546218489e+02 5.427380564281352182e-01 4.727074208698622826e-02
1.169747899159663831e+02 5.518256869786175578e-01 5.932223196059549508e-02
1.179831932773109173e+02 5.549669708922762013e-01 7.221078797011148964e-02
1.189915966386554658e+02 5.510312327528716914e-01 8.508656511974121983e-02
1.200000000000000000e+02 5.392991114661567220e-01 9.715637338966587322e-02
