0.000000000000000000e+00 0.000000000000000000e+00 2.220446049250313081e-16
1.008403361344537785e+00 6.056208223199299745e-03 2.387532982582651897e-03
2.016806722689075571e+00 2.391587365881586713e-02 9.288866571051546117e-03
3.025210084033613356e+00 5.269145077617543027e-02 1.994733993585540155e-02
4.033613445378151141e+00 9.102134636867997841e-02 3.318905510861780428e-02
5.042016806722688926e+00 1.372079905471776939e-01 4.754063427521870722e-02
6.050420168067226712e+00 1.893493382435456063e-01 6.136591332253971132e-02
7.058823529411764497e+00 2.454590492997343887e-01 7.300850411728188050e-02
8.067226890756302282e+00 3.035581996832121821e-01 8.092418457300531998e-02
9.075630252100840067e+00 3.617574291688316901e-01 8.379978954608180430e-02
1.008403361344537785e+01 4.183198638826328697e-01 8.065126146945367225e-02
1.109243697478991564e+01 4.717092050261999514e-01 7.090166277333587175e-02
1.210084033613445342e+01 5.206268909450049165e-01 5.444073809482441462e-02
1.310924369747899121e+01 5.640368882225690328e-01 3.166841922174867818e-02
1.411764705882352899e+01 6.011787807036168552e-01 3.525074504956204891e-03
1.512605042016806678e+01 6.315683607687252454e-01 -2.848953324148295607e-02
1.613445378151260456e+01 6.549854672245287723e-01 -6.231050823165196206e-02
1.714285714285714235e+01 6.714490530681247460e-01 -9.532849528201203793e-02
1.815126050420168013e+01 6.811803276973857901e-01 -1.244779291887694317e-01
1.915966386554621792e+01 6.845561279305036884e-01 -1.464868256958258286e-01
2.016806722689075571e+01 6.820563507095731559e-01 -1.584232006881098886e-01
2.117647058823529349e+01 6.742107460037991551e-01 -1.585368433475311534e-01
2.218487394957983128e+01 6.615513575840170635e-01 -1.469598760723098696e-01
2.319327731092436906e+01 6.445766810075033160e-01 -1.256408746091528528e-01
2.420168067226890685e+01 6.237318280231014533e-01 -9.755880829311380786e-02
2.521008403361344463e+01 5.994057580685843156e-01 -6.587575988290228501e-02
2.621848739495798242e+01 5.719430585703502157e-01 -3.342907368773340160e-02
2.722689075630252020e+01 5.416662738107458352e-01 -2.529950266046965268e-03
2.823529411764705799e+01 5.089052921715118138e-01 2.507841188625259399e-02
2.924369747899159577e+01 4.740280348895280493e-01 4.819896597381267966e-02
3.025210084033613356e+01 4.374652097941931217e-01 6.613662676089937520e-02
3.126050420168067134e+01 3.997250789193249609e-01 7.864569473215099471e-02
3.226890756302520913e+01 3.613967908173516541e-01 8.587232494354379853e-02
3.327731092436974336e+01 3.231440255598643230e-01 8.829223211415859751e-02
3.428571428571428470e+01 2.856938544893421472e-01 8.664329518886448867e-02
3.529411764705882604e+01 2.498219418855029961e-01 8.185316627424255032e-02
3.630252100840336027e+01 2.163271240991180289e-01 7.496286161041831875e-02
3.731092436974789450e+01 1.859906721202180258e-01 6.704829995840255741e-02
3.831932773109243584e+01 1.595301155766404300e-01 5.914286783037425721e-02
3.932773109243697718e+01 1.375696391818432840e-01 5.216512245825821736e-02
4.033613445378151141e+01 1.206432594692797844e-01 4.685645296658202952e-02
4.134453781512604564e+01 1.092253431463278135e-01 4.373361060630376329e-02
4.235294117647058698e+01 1.037637633641159685e-01 4.306024823058374196e-02
4.336134453781512832e+01 1.046877880017356155e-01 4.483993330035218605e-02
4.436974789915966255e+01 1.123734492108896532e-01 4.883076469954539256e-02
4.537815126050419678e+01 1.270651196296532781e-01 5.457923573628775671e-02
4.638655462184873812e+01 1.487686081256323067e-01 6.146893148752585745e-02
4.739495798319327946e+01 1.771456406589471122e-01 6.877847026070127434e-02
4.840336134453781369e+01 2.114463566846049858e-01 7.574293767670225996e-02
4.941176470588234793e+01 2.505085104344184632e-01 8.161375140192350663e-02
5.042016806722688926e+01 2.928295929987623225e-01 8.571310485514649358e-02
5.142857142857143060e+01 3.366924874312284821e-01 8.748043727555532278e-02
5.243697478991596483e+01 3.803123020161871537e-01 8.650958197254143833e-02
5.344537815126049907e+01 4.219761800623003101e-01 8.257611037711698465e-02
5.445378151260504040e+01 4.601594406681557281e-01 7.565488656932872757e-02
5.546218487394958174e+01 4.936101563508321632e-01 6.592799735322074639e-02
5.647058823529411598e+01 5.213997340582341433e-01 5.378304007262224573e-02
5.747899159663865021e+01 5.429427874094636675e-01 3.980126956452245679e-02
5.848739495798319155e+01 5.579962340235347096e-01 2.473438831846075381e-02
5.949579831932773288e+01 5.666487174442309538e-01 9.467977559783236075e-03
6.050420168067226712e+01 5.693012043710352632e-01 -5.030875091871944704e-03
6.151260504201680135e+01 5.666290072179240855e-01 -1.778348563719756026e-02
6.252100840336134269e+01 5.595152080102991921e-01 -2.788575420778927061e-02
6.352941176470588402e+01 5.489529435548652359e-01 -3.460328742562768234e-02
6.453781512605041826e+01 5.359307367424239743e-01 -3.746015814157765966e-02
6.554621848739495249e+01 5.213368521857648652e-01 -3.630043075628786031e-02
6.655462184873948672e+01 5.059154890877677335e-01 -3.130419896890535014e-02
6.756302521008403517e+01 4.902717297524787909e-01 -2.295244336324775425e-02
6.857142857142856940e+01 4.748986167266131542e-01 -1.195147295357656958e-02
6.957983193277310363e+01 4.602056241214920185e-01 8.617721996362348591e-04
7.058823529411765207e+01 4.465364443524291183e-01 1.461232133802092825e-02
7.159663865546218631e+01 4.341604849824853840e-01 2.846390972276235942e-02
7.260504201680672054e+01 4.232164204379431638e-01 4.167477781179584895e-02
7.361344537815125477e+01 4.136014513047014951e-01 5.363343255972319312e-02
7.462184873949578900e+01 4.048553634479161722e-01 6.387790404519688714e-02
7.563025210084033745e+01 3.961389759992437476e-01 7.210240871996242973e-02
7.663865546218487168e+01 3.863589276596148814e-01 7.815468980813533584e-02
7.764705882352940591e+01 3.743800318955614603e-01 8.202643544529419906e-02
7.865546218487395436e+01 3.592313323892690757e-01 8.383843225080944705e-02
7.966386554621848859e+01 3.402602072404083966e-01 8.382159824014290272e-02
8.067226890756302282e+01 3.172341670060632168e-01 8.229474684196480538e-02
8.168067226890755705e+01 2.904020575601611309e-01 7.963982305176586785e-02
8.268907563025209129e+01 2.605232997520645633e-01 7.627538041158077320e-02
8.369747899159663973e+01 2.288672085442318149e-01 7.262918567277076853e-02
8.470588235294117396e+01 1.971760062074379150e-01 6.911102226465293263e-02
8.571428571428570820e+01 1.675782781257053600e-01 6.608693753207584010e-02
8.672268907563025664e+01 1.424378823595788823e-01 6.385630503280204096e-02
8.773109243697479087e+01 1.241191487039300378e-01 6.263309276255646374e-02
8.873949579831932510e+01 1.146503032568699787e-01 6.253259340716543768e-02
8.974789915966385934e+01 1.153263779101776354e-01 6.356456964871526338e-02
9.075630252100839357e+01 1.264045727300573407e-01 6.563331902219493585e-02
9.176470588235294201e+01 1.470661232731320656e-01 6.854463053218839974e-02
9.277310924369747624e+01 1.756601187433357580e-01 7.201907473265034554e-02
9.378151260504201048e+01 2.100654732102731348e-01 7.571062513779125425e-02
9.478991596638655892e+01 2.479916841135154648e-01 7.922931175234859680e-02
9.579831932773109315e+01 2.871542395016499771e-01 8.216647846915980935e-02
9.680672268907562739e+01 3.253816065115193723e-01 8.412123788622949405e-02
9.781512605042016162e+01 3.607338697766477864e-01 8.472684568145916195e-02
9.882352941176469585e+01 3.916338242744779041e-01 8.367589715257195415e-02
9.983193277310924429e+01 4.169645563965840296e-01 8.074342705750670035e-02
1.008403361344537785e+02 4.361167101490228681e-01 7.580712149282309298e-02
1.018487394957983128e+02 4.489966750430991471e-01 6.886390598320968337e-02
1.028571428571428612e+02 4.560082616109106812e-01 6.004210988667657567e-02
1.038655462184873954e+02 4.580145562744344367e-01 4.960821231201850701e-02
1.048739495798319297e+02 4.562840025723211568e-01 3.796683807819878353e-02
1.058823529411764639e+02 4.524174472697992666e-01 2.565221955690444311e-02
1.068907563025209981e+02 4.482347324311748427e-01 1.330888527231244289e-02
1.078991596638655466e+02 4.455837085774609907e-01 1.659157188259374749e-03
1.089075630252100808e+02 4.460438487769757820e-01 -8.544350817139001464e-03
1.099159663865546150e+02 4.505745726566996456e-01 -1.658095051567665124e-02
1.109243697478991635e+02 4.592867226937737968e-01 -2.183448573074442400e-02
1.119327731092436977e+02 4.714897013224566003e-01 -2.386655309553986637e-02
1.129411764705882320e+02 4.859313826956892512e-01 -2.247600647524605755e-02
1.139495798319327662e+02 5.010409532813442368e-01 -1.773017027162859804e-02
1.149579831932773004e+02 5.151100639393346725e-01 -9.959220195207230120e-03
1.159663865546218489e+02 5.264417614117813393e-01 2.845625240754934282e-04
1.169747899159663831e+02 5.334773985597651702e-01 1.229179044442885171e-02
1.179831932773109173e+02 5.348975185429796220e-01 2.527059757967942133e-02
1.189915966386554658e+02 5.297013980970048941e-01 3.841825469101434187e-02
1.200000000000000000e+02 5.172705324008999295e-01 5.098203854410710001e-02
