0.000000000000000000e+00 0.000000000000000000e+00 0.000000000000000000e+00
1.008403361344537785e+00 4.147085254446736258e-05 1.311027111970952674e-04
2.016806722689075571e+00 1.630767967830681897e-04 5.237315525404850902e-04
3.025210084033613356e+00 3.566170494021525528e-04 1.175878626527238069e-03
4.033613445378151141e+00 6.086300956977819254e-04 2.084372892780850250e-03
5.042016806722688926e+00 9.010807792062536237e-04 3.245042162569156119e-03
6.050420168067226712e+00 1.211540172950220651e-03 4.653089963472911705e-03
7.058823529411764497e+00 1.514152878134833458e-03 6.303367862937836463e-03
8.067226890756302282e+00 1.780258093733944058e-03 8.190715555261851577e-03
9.075630252100840067e+00 1.979834425363202755e-03 1.030981242755668603e-02
1.008403361344537785e+01 2.081729586857705705e-03 1.265565677631819153e-02
1.109243697478991564e+01 2.054639361895649330e-03 1.522351838362157039e-02
1.210084033613445342e+01 1.867790292144011488e-03 1.800893300932293606e-02
1.310924369747899121e+01 1.493690534848934881e-03 2.100622283523212452e-02
1.411764705882352899e+01 9.066335721287233085e-04 2.420954340126946214e-02
1.512605042016806678e+01 8.368754168586178821e-05 2.761230854472473961e-02
1.613445378151260456e+01 -9.932596958234229945e-04 3.120580347530033105e-02
1.714285714285714235e+01 -2.337513068169760899e-03 3.497900466756997950e-02
1.815126050420168013e+01 -3.957484592791105094e-03 3.891840599541207535e-02
1.915966386554621792e+01 -5.856406222157439778e-03 4.300770633581085800e-02
2.016806722689075571e+01 -8.031857782022422398e-03 4.722752155223841619e-02
2.117647058823529349e+01 -1.047544262954991368e-02 5.155500440764471115e-02
2.218487394957983128e+01 -1.317242644077165625e-02 5.596366368645178113e-02
2.319327731092436906e+01 -1.610339358447421265e-02 6.042483351846916761e-02
2.420168067226890685e+01 -1.924371324526785720e-02 6.490737485128561524e-02
2.521008403361344463e+01 -2.256313601114445788e-02 6.937760723003749685e-02
2.621848739495798242e+01 -2.602667030367189493e-02 7.380016964306079785e-02
2.722689075630252020e+01 -2.959666700163987585e-02 7.813991833529621012e-02
2.823529411764705799e+01 -3.323162882227082005e-02 8.236107149210192269e-02
2.924369747899159577e+01 -3.688707875079633158e-02 8.642802361147516876e-02
3.025210084033613356e+01 -4.051750402522413808e-02 9.030692023828834625e-02
3.126050420168067134e+01 -4.407627315356665854e-02 9.396549652623809035e-02
3.226890756302520913e+01 -4.751646978744517025e-02 9.737362731895238266e-02
3.327731092436974336e+01 -5.079142750606435719e-02 1.005035070396925745e-01
3.428571428571428470e+01 -5.385686882060247704e-02 1.033310214668958782e-01
3.529411764705882604e+01 -5.667024247660013003e-02 1.058348656819624312e-01
3.630252100840336027e+01 -5.919180589659234215e-02 1.079969680281893663e-01
3.731092436974789450e+01 -6.138591815719063316e-02 1.098029772517918889e-01
3.831932773109243584e+01 -6.322151298108458217e-02 1.112420866020613630e-01
3.932773109243697718e+01 -6.467296092765828508e-02 1.123071705261998732e-01
4.033613445378151141e+01 -6.572036959778271292e-02 1.129944438204597557e-01
4.134453781512604564e+01 -6.634998262339819597e-02 1.133032583047911546e-01
4.235294117647058698e+01 -6.655534539142904382e-02 1.132364987269006695e-01
4.336134453781512832e+01 -6.633775882945314173e-02 1.128005651257404374e-01
4.436974789915966255e+01 -6.570488495181292521e-02 1.120041208994078108e-01
4.537815126050419678e+01 -6.467138669131833328e-02 1.108584865210207049e-01
4.638655462184873812e+01 -6.325914839975488313e-02 1.093778985274722615e-01
4.739495798319327946e+01 -6.149613500259010213e-02 1.075789227852769203e-01
4.840336134453781369e+01 -5.941458285392897665e-02 1.054794918165135043e-01
4.941176470588234793e+01 -5.705116459749437485e-02 1.030995591297296787e-01
5.042016806722688926e+01 -5.444573915400585662e-02 1.004607546456461886e-01
5.142857142857143060e+01 -5.163950559271213159e-02 9.758551182849994898e-02
5.243697478991596483e+01 -4.867451410094381092e-02 9.449731223452750850e-02
5.344537815126049907e+01 -4.559256744235273828e-02 9.122039074136578662e-02
5.445378151260504040e+01 -4.243440753602290005e-02 8.777954964959211459e-02
5.546218487394958174e+01 -3.923827446026628696e-02 8.419928420726874307e-02
5.647058823529411598e+01 -3.604025966973734008e-02 8.050443137779694780e-02
5.747899159663865021e+01 -3.287371486347367977e-02 7.671988998101819668e-02
5.848739495798319155e+01 -2.976839402398367973e-02 7.286987815843426475e-02
5.949579831932773288e+01 -2.675059672618584905e-02 6.897816603732309648e-02
6.050420168067226712e+01 -2.384301835609059506e-02 6.506787946438308268e-02
6.151260504201680135e+01 -2.106497655080519227e-02 6.116161764063909878e-02
6.252100840336134269e+01 -1.843257470560000222e-02 5.728125123974303623e-02
6.352941176470588402e+01 -1.595833469813634498e-02 5.344765489211733556e-02
6.453781512605041826e+01 -1.365132874955921061e-02 4.968060810498475810e-02
6.554621848739495249e+01 -1.151818817042127296e-02 4.599922562299840756e-02
6.655462184873948672e+01 -9.562966254157867496e-03 4.242176050057433478e-02
6.756302521008403517e+01 -7.787062692534152397e-03 3.896525335539002821e-02
6.857142857142856940e+01 -6.189670505250988164e-03 3.564574954432042642e-02
6.957983193277310363e+01 -4.768116703730118644e-03 3.247822549992873675e-02
7.058823529411765207e+01 -3.518208496940511409e-03 2.947665776322416775e-02
7.159663865546218631e+01 -2.434507087002213410e-03 2.665396696314825675e-02
7.260504201680672054e+01 -1.510430406093998812e-03 2.402196065907302724e-02
7.361344537815125477e+01 -7.384050560431676402e-04 2.159121428773935758e-02
7.462184873949578900e+01 -1.100734775867362458e-04 1.937089219716237043e-02
7.563025210084033745e+01 3.833398921895270206e-04 1.736899848191975071e-02
7.663865546218487168e+01 7.504466271754939299e-04 1.559266743469545080e-02
7.764705882352940591e+01 1.000602123650051745e-03 1.404729907883772722e-02
7.865546218487395436e+01 1.143778653822091762e-03 1.273657914289516579e-02
7.966386554621848859e+01 1.189685417492980513e-03 1.166315968769127132e-02
8.067226890756302282e+01 1.148087366683259170e-03 1.082827835585598031e-02
8.168067226890755705e+01 1.028666542050582500e-03 1.023176803338854413e-02
8.268907563025209129e+01 8.413285756067034882e-04 9.871889849603410205e-03
8.369747899159663973e+01 5.963068622552025744e-04 9.745315062013926166e-03
8.470588235294117396e+01 3.030604564429051351e-04 9.847598948782287920e-03
8.571428571428570820e+01 -2.982056651301689953e-05 1.017321026464335088e-02
8.672268907563025664e+01 -3.941903859877582406e-04 1.071542172556227968e-02
8.773109243697479087e+01 -7.826814594107389667e-04 1.146633235479876944e-02
8.873949579831932510e+01 -1.188734078635178548e-03 1.241679903469561363e-02
8.974789915966385934e+01 -1.607407213846556715e-03 1.355704008794833548e-02
9.075630252100839357e+01 -2.036180943244536579e-03 1.487722438245830947e-02
9.176470588235294201e+01 -2.473525405185417192e-03 1.636656287729965076e-02
9.277310924369747624e+01 -2.919128198135334529e-03 1.801356277876409173e-02
9.378151260504201048e+01 -3.374498083765331558e-03 1.980653982454172457e-02
9.478991596638655892e+01 -3.842871315601792404e-03 2.173373616334994818e-02
9.579831932773109315e+01 -4.329784822409532552e-03 2.378397515596175626e-02
9.680672268907562739e+01 -4.841833451660670917e-03 2.594605569091923414e-02
9.781512605042016162e+01 -5.386025144135775378e-03 2.820857416551902919e-02
9.882352941176469585e+01 -5.970665131676211601e-03 3.056082774102231170e-02
9.983193277310924429e+01 -6.604852067944699812e-03 3.299274316298239640e-02
1.008403361344537785e+02 -7.296961844458715873e-03 3.549418152916106184e-02
1.018487394957983128e+02 -8.055115861818062939e-03 3.805536710894297237e-02
1.028571428571428612e+02 -8.887445688183781556e-03 4.066715816356780699e-02
1.038655462184873954e+02 -9.801613113507801067e-03 4.332101019821887888e-02
1.048739495798319297e+02 -1.080472060096948628e-02 4.600909197557123687e-02
1.058823529411764639e+02 -1.190225908891617834e-02 4.872331766744553150e-02
1.068907563025209981e+02 -1.309831689801421728e-02 5.145541668970488036e-02
1.078991596638655466e+02 -1.439653362899084854e-02 5.419776987970614801e-02
1.089075630252100808e+02 -1.579968157377875659e-02 5.694291573928966788e-02
1.099159663865546150e+02 -1.730896998498987482e-02 5.968317996244087986e-02
1.109243697478991635e+02 -1.892447802302577031e-02 6.241068747069955513e-02
1.119327731092436977e+02 -2.064485230520951564e-02 6.511711656978991236e-02
1.129411764705882320e+02 -2.246747801576587378e-02 6.779396004026749800e-02
1.139495798319327662e+02 -2.438811514765437671e-02 7.043235480601595100e-02
1.149579831932773004e+02 -2.640037857579935476e-02 7.302261719444480548e-02
1.159663865546218489e+02 -2.849581209598039955e-02 7.555448874223102962e-02
1.169747899159663831e+02 -3.066384242190278719e-02 7.801746500104944637e-02
1.179831932773109173e+02 -3.289119287880271081e-02 8.040031716252127314e-02
1.189915966386554658e+02 -3.516166379632412742e-02 8.269103595599447409e-02
1.200000000000000000e+02 -3.745668068859819844e-02 8.487748876139333820e-02
