0.000000000000000000e+00 0.000000000000000000e+00 -1.110223024625156540e-16
1.008403361344537785e+00 8.694146438021910228e-04 -2.385522611122459224e-04
2.016806722689075571e+00 3.452113460044814452e-03 -9.548171172315544908e-04
3.025210084033613356e+00 7.673723328325499082e-03 -2.150450437421458361e-03
4.033613445378151141e+00 1.341450309087544035e-02 -3.826324359017529986e-03
5.042016806722688926e+00 2.051169925348050871e-02 -5.978210350761958836e-03
6.050420168067226712e+00 2.877006842395712916e-02 -8.594900903350133348e-03
7.058823529411764497e+00 3.796705216571738539e-02 -1.165293895702301796e-02
8.067226890756302282e+00 4.785977361701598820e-02 -1.511190305085108321e-02
9.075630252100840067e+00 5.819577282887877789e-02 -1.891238083346769017e-02
1.008403361344537785e+01 6.871835685335148103e-02 -2.297193458027479984e-02
1.109243697478991564e+01 7.917336444690148411e-02 -2.718337857376518230e-02
1.210084033613445342e+01 8.931741053244846018e-02 -3.141630320644051011e-02
1.310924369747899121e+01 9.892162564966389127e-02 -3.551811302317575691e-02
1.411764705882352899e+01 1.077763550599153408e-01 -3.931838408220533765e-02
1.512605042016806678e+01 1.156966424021445006e-01 -4.263689397269021519e-02
1.613445378151260456e+01 1.225236538796246055e-01 -4.529130291691974008e-02
1.714285714285714235e+01 1.281271093586591192e-01 -4.710789808572624082e-02
1.815126050420168013e+01 1.324078276666174059e-01 -4.793414111283522683e-02
1.915966386554621792e+01 1.352972934675260586e-01 -4.764905545754383187e-02
2.016806722689075571e+01 1.367581713115058051e-01 -4.617346950226597357e-02
2.117647058823529349e+01 1.367841574375490143e-01 -4.347733558875632731e-02
2.218487394957983128e+01 1.353983767160389373e-01 -3.958221523573701717e-02
2.319327731092436906e+01 1.326524852615098560e-01 -3.456044694736393197e-02
2.420168067226890685e+01 1.286243067023302711e-01 -2.852914802991679544e-02
2.521008403361344463e+01 1.234156092089623291e-01 -2.164147555129214417e-02
2.621848739495798242e+01 1.171502235390993185e-01 -1.407658018999602412e-02
2.722689075630252020e+01 1.099700571306587715e-01 -6.027366856106164406e-03
2.823529411764705799e+01 1.020325883331600902e-01 2.309469107527606369e-03
2.924369747899159577e+01 9.350833716563289322e-02 1.074184080122408957e-02
3.025210084033613356e+01 8.457595388885175147e-02 1.909061229978836760e-02
3.126050420168067134e+01 7.541964648097732038e-02 2.719378668665517473e-02
3.226890756302520913e+01 6.622632108030535036e-02 3.490907315451385884e-02
3.327731092436974336e+01 5.718051904189902501e-02 4.211643367273176786e-02
3.428571428571428470e+01 4.846199878179047182e-02 4.871726194506464935e-02
3.529411764705882604e+01 4.024292330340084600e-02 5.463303499112814876e-02
3.630252100840336027e+01 3.268344912933607294e-02 5.980445333663741980e-02
3.731092436974789450e+01 2.592976841057792470e-02 6.418864152553627189e-02
3.831932773109243584e+01 2.011176246990054040e-02 6.775672911799990317e-02
3.932773109243697718e+01 1.533986623273353445e-02 7.049211374303476774e-02
4.033613445378151141e+01 1.170371822060245481e-02 7.238801610048928303e-02
4.134453781512604564e+01 9.270300410216592013e-03 7.344587622916898262e-02
4.235294117647058698e+01 8.081954847169003919e-03 7.367424022299839947e-02
4.336134453781512832e+01 8.155262781155969698e-03 7.308772419680298338e-02
4.436974789915966255e+01 9.479417468045925332e-03 7.170687523013419273e-02
4.537815126050419678e+01 1.201545014715810211e-02 6.955803657143988517e-02
4.638655462184873812e+01 1.569612263379127626e-02 6.667361215087708182e-02
4.739495798319327946e+01 2.042606653330314437e-02 6.309300171073661812e-02
4.840336134453781369e+01 2.608412768181500585e-02 5.886292041989660273e-02
4.941176470588234793e+01 3.252650768387377322e-02 5.403810096901739968e-02
5.042016806722688926e+01 3.959046168338664629e-02 4.868231926835631107e-02
5.142857142857143060e+01 4.710031239378775769e-02 4.286824735409267007e-02
5.243697478991596483e+01 5.487332924945897972e-02 3.667750899532928877e-02
5.344537815126049907e+01 6.272520924672475573e-02 3.020073871828699019e-02
5.445378151260504040e+01 7.047672014118899764e-02 2.353614664105996290e-02
5.546218487394958174e+01 7.795899613951562390e-02 1.678811226929122213e-02
5.647058823529411598e+01 8.501755042357994618e-02 1.006561319179988256e-02
5.747899159663865021e+01 9.151650471211625337e-02 3.479213181081908246e-03
5.848739495798319155e+01 9.734111366668130039e-02 -2.861889145035934057e-03
5.949579831932773288e+01 1.023989836007763721e-01 -8.852856452716939550e-03
6.050420168067226712e+01 1.066211135872815463e-01 -1.439708014581286832e-02
6.151260504201680135e+01 1.099614926771222967e-01 -1.940956158983508928e-02
6.252100840336134269e+01 1.123958815641729059e-01 -2.381985977369516227e-02
6.352941176470588402e+01 1.139203759064509880e-01 -2.757489970973325821e-02
6.453781512605041826e+01 1.145492250958287661e-01 -3.064064579356229334e-02
6.554621848739495249e+01 1.143127454618667604e-01 -3.300289372410913913e-02
6.655462184873948672e+01 1.132551782499952031e-01 -3.466713963332024306e-02
6.756302521008403517e+01 1.114322624365764458e-01 -3.565716539345586966e-02
6.857142857142856940e+01 1.089092228969753551e-01 -3.601303608404760048e-02
6.957983193277310363e+01 1.057582523802977903e-01 -3.578828141965706422e-02
7.058823529411765207e+01 1.020556117549725750e-01 -3.504644454644523233e-02
7.159663865546218631e+01 9.787936289513465837e-02 -3.385795829786419908e-02
7.260504201680672054e+01 9.330679018481902176e-02 -3.229679849288846771e-02
7.361344537815125477e+01 8.841224276165271512e-02 -3.043724765910060803e-02
7.462184873949578900e+01 8.326670025903515349e-02 -2.835167470817789859e-02
7.563025210084033745e+01 7.793794425240618828e-02 -2.610842403586077776e-02
7.663865546218487168e+01 7.249177103760406915e-02 -2.377008618154241582e-02
7.764705882352940591e+01 6.699487498052647538e-02 -2.139290626710710352e-02
7.865546218487395436e+01 6.151758682880903439e-02 -1.902626086192549248e-02
7.966386554621848859e+01 5.613623807812506694e-02 -1.671241058246952793e-02
8.067226890756302282e+01 5.093547831703360007e-02 -1.448715313801618443e-02
8.168067226890755705e+01 4.600885237991259036e-02 -1.238035032025008864e-02
8.268907563025209129e+01 4.145759979873742118e-02 -1.041650409232985908e-02
8.369747899159663973e+01 3.738852021520078228e-02 -8.615876271947708887e-03
8.470588235294117396e+01 3.390980663623477387e-02 -6.995293081019537951e-03
8.571428571428570820e+01 3.112536715758640327e-02 -5.568805296850554143e-03
8.672268907563025664e+01 2.912900660691075672e-02 -4.348550675422169220e-03
8.773109243697479087e+01 2.799792744785745136e-02 -3.345192798823060087e-03
8.873949579831932510e+01 2.778658239526698992e-02 -2.568135857377695785e-03
8.974789915966385934e+01 2.852214847255241104e-02 -2.025690849544292682e-03
9.075630252100839357e+01 3.020125678469276487e-02 -1.724829951864625954e-03
9.176470588235294201e+01 3.278891044734810745e-02 -1.670791474726485148e-03
9.277310924369747624e+01 3.621970037548805088e-02 -1.866506079754470804e-03
9.378151260504201048e+01 4.040073793061982332e-02 -2.311747640828087924e-03
9.478991596638655892e+01 4.521672675128107777e-02 -3.002357317928305847e-03
9.579831932773109315e+01 5.053595897546392379e-02 -3.929262471375816190e-03
9.680672268907562739e+01 5.621689849509481363e-02 -5.077447629093234660e-03
9.781512605042016162e+01 6.211559494142104842e-02 -6.425319546335961363e-03
9.882352941176469585e+01 6.809204188930706447e-02 -7.943900596757647037e-03
9.983193277310924429e+01 7.401575496613888028e-02 -9.596239302842812791e-03
1.008403361344537785e+02 7.977080276704384687e-02 -1.133755942726233368e-02
1.018487394957983128e+02 8.525842416395390533e-02 -1.311528359353353324e-02
1.028571428571428612e+02 9.039812389462287268e-02 -1.486951166372518784e-02
1.038655462184873954e+02 9.512765079665341794e-02 -1.653449921673144640e-02
1.048739495798319297e+02 9.940060079160573103e-02 -1.804000008315931325e-02
1.058823529411764639e+02 1.031829179708070310e-01 -1.931316035935881636e-02
1.068907563025209981e+02 1.064489932012612217e-01 -2.028141281285300579e-02
1.078991596638655466e+02 1.091768307157219287e-01 -2.087503551284841663e-02
1.089075630252100808e+02 1.113436675157442046e-01 -2.103004299748456596e-02
1.099159663865546150e+02 1.129229864415706164e-01 -2.069161852861034490e-02
1.109243697478991635e+02 1.138825687589147817e-01 -1.981673532577210572e-02
1.119327731092436977e+02 1.141844530302444927e-01 -1.837655694882156521e-02
1.129411764705882320e+02 1.137871607579892252e-01 -1.635857199881307622e-02
1.139495798319327662e+02 1.126491151377977395e-01 -1.376747605437844690e-02
1.149579831932773004e+02 1.107333558935225115e-01 -1.062541203005662460e-02
1.159663865546218489e+02 1.080131410355569255e-01 -6.971405632067773084e-03
1.169747899159663831e+02 1.044771976976219818e-01 -2.859736318300276636e-03
1.179831932773109173e+02 1.001346951228592186e-01 1.642098606721154042e-03
1.189915966386554658e+02 9.501913319725840967e-02 6.456120941301435323e-03
1.200000000000000000e+02 8.919074545665228726e-02 1.149687028926382748e-02
