0.000000000000000000e+00 1.110223024625156540e-16 0.000000000000000000e+00
1.008403361344537785e+00 2.821479232965273809e-03 -3.339936299973089717e-04
2.016806722689075571e+00 1.118035029824127058e-02 -1.380826141332169854e-03
3.025210084033613356e+00 2.477139727197552599e-02 -3.270709413313088731e-03
4.033613445378151141e+00 4.310646080093127885e-02 -6.204409742915251158e-03
5.042016806722688926e+00 6.555285475465943978e-02 -1.043201602052379329e-02
6.050420168067226712e+00 9.136764034314459604e-02 -1.622419542686714955e-02
7.058823529411764497e+00 1.197375130685902622e-01 -2.384022413442798971e-02
8.067226890756302282e+00 1.498145390694824997e-01 -3.349401595547440991e-02
9.075630252100840067e+00 1.807480794335516450e-01 -4.532055676591051352e-02
1.008403361344537785e+01 2.117127261473212840e-01 -5.934489262604158988e-02
1.109243697478991564e+01 2.419319006831444074e-01 -7.545548306898153257e-02
1.210084033613445342e+01 2.706961939494458846e-01 -9.338299182839993051e-02
1.310924369747899121e+01 2.973773073554177859e-01 -1.126861916560788490e-01
1.411764705882352899e+01 3.214377418354104066e-01 -1.327468237131770312e-01
1.512605042016806678e+01 3.424364174311493869e-01 -1.527761709834565274e-01
1.613445378151260456e+01 3.600304927336606120e-01 -1.718377908127535214e-01
1.714285714285714235e+01 3.739742968063095585e-01 -1.888937624445763408e-01
1.815126050420168013e+01 3.841150155288859391e-01 -2.028818188009823276e-01
1.915966386554621792e+01 3.903864255798490390e-01 -2.128287627729910092e-01
2.016806722689075571e+01 3.928013919647046492e-01 -2.179914843808563596e-01
2.117647058823529349e+01 3.914437517586419890e-01 -2.179924775404070703e-01
2.218487394957983128e+01 3.864602883001488909e-01 -2.128982212241463667e-01
2.319327731092436906e+01 3.780531905092299194e-01 -2.032017194121289450e-01
2.420168067226890685e+01 3.664732048486316618e-01 -1.897162469246711503e-01
2.521008403361344463e+01 3.520139009676959141e-01 -1.734283666942539881e-01
2.621848739495798242e+01 3.350067528265752159e-01 -1.553608208625480991e-01
2.722689075630252020e+01 3.158168541872896640e-01 -1.364720986926736268e-01
2.823529411764705799e+01 2.948390602876596045e-01 -1.175956927952720443e-01
2.924369747899159577e+01 2.724940150793413451e-01 -9.941054606412924599e-02
3.025210084033613356e+01 2.492233148418832034e-01 -8.243259858318485733e-02
3.126050420168067134e+01 2.254843020356178673e-01 -6.702035190754251914e-02
3.226890756302520913e+01 2.017435728901426639e-01 -5.338873130122756550e-02
3.327731092436974336e+01 1.784694612394632784e-01 -4.162819593247424343e-02
3.428571428571428470e+01 1.561237431544868492e-01 -3.172700895921831687e-02
3.529411764705882604e+01 1.351527219988528650e-01 -2.359512760519955066e-02
3.630252100840336027e+01 1.159774285108876590e-01 -1.708832580456265404e-02
3.731092436974789450e+01 9.898411273617413464e-02 -1.203169779978652265e-02
3.831932773109243584e+01 8.451532478307632879e-02 -8.241196452689836249e-03
3.932773109243697718e+01 7.286299817757202479e-02 -5.542326705035183210e-03
4.033613445378151141e+01 6.426437616602931335e-02 -3.785210631546798155e-03
4.134453781512604564e+01 5.890029445318978318e-02 -2.855423667006862232e-03
4.235294117647058698e+01 5.689405859501395213e-02 -2.680272264082184108e-03
4.336134453781512832e+01 5.830879226307761343e-02 -3.230484731370220075e-03
4.436974789915966255e+01 6.314147955522519950e-02 -4.517524917416526620e-03
4.537815126050419678e+01 7.131374213761387804e-02 -6.587064661000230359e-03
4.638655462184873812e+01 8.266113823956833251e-02 -9.509348600319711409e-03
4.739495798319327946e+01 9.692405521892555331e-02 -1.336730825702336922e-02
4.840336134453781369e+01 1.137438946898940983e-01 -1.824340693714732176e-02
4.941176470588234793e+01 1.326673983111603672e-01 -2.420615342991627728e-02
5.042016806722688926e+01 1.531600908653518722e-01 -3.129705791842884999e-02
5.142857142857143060e+01 1.746284149062093949e-01 -3.951888611140796925e-02
5.243697478991596483e+01 1.964480906004228977e-01 -4.882584484156016202e-02
5.344537815126049907e+01 2.179953623451664768e-01 -5.911623402815546768e-02
5.445378151260504040e+01 2.386776800315733027e-01 -7.022804830187356906e-02
5.546218487394958174e+01 2.579608476091246327e-01 -8.193804738475973792e-02
5.647058823529411598e+01 2.753900109399571861e-01 -9.396443794724584908e-02
5.747899159663865021e+01 2.906040475350788466e-01 -1.059737924486610083e-01
5.848739495798319155e+01 3.033435608527779159e-01 -1.175925573406919611e-01
5.949579831932773288e+01 3.134531536018980713e-01 -1.284234192115608630e-01
6.050420168067226712e+01 3.208782070678302123e-01 -1.380664696961613203e-01
6.151260504201680135e+01 3.256558590179672308e-01 -1.461445311365381361e-01
6.252100840336134269e+01 3.279002007262277196e-01 -1.523307056268077275e-01
6.352941176470588402e+01 3.277833113746944083e-01 -1.563753300361010456e-01
6.453781512605041826e+01 3.255153029577839696e-01 -1.581283293130225642e-01
6.554621848739495249e+01 3.213273750247491733e-01 -1.575528495540275964e-01
6.655462184873948672e+01 3.154605871372528902e-01 -1.547273033743119530e-01
6.756302521008403517e+01 3.081598508277161308e-01 -1.498352395605141441e-01
6.857142857142856940e+01 2.996704655192794498e-01 -1.431452301816338313e-01
6.957983193277310363e+01 2.902335753049041234e-01 -1.349848313665561461e-01
7.058823529411765207e+01 2.800775505664232501e-01 -1.257129980615457887e-01
7.159663865546218631e+01 2.694040940570416875e-01 -1.156946147255554225e-01
7.260504201680672054e+01 2.583703094323093197e-01 -1.052794242733103847e-01
7.361344537815125477e+01 2.470710951844425907e-01 -9.478621110423601781e-02
7.462184873949578900e+01 2.355291064696292125e-01 -8.449218302661298807e-02
7.563025210084033745e+01 2.236994419916802368e-01 -7.462710658580395950e-02
7.663865546218487168e+01 2.114914068726667651e-01 -6.537123872444539074e-02
7.764705882352940591e+01 1.988037947886271972e-01 -5.685630827595944403e-02
7.865546218487395436e+01 1.855660190843240187e-01 -4.916884076477279208e-02
7.966386554621848859e+01 1.717771780991124153e-01 -4.235521068665937250e-02
8.067226890756302282e+01 1.575370539315890106e-01 -3.642785103970935801e-02
8.168067226890755705e+01 1.430655329800329945e-01 -3.137230781661948242e-02
8.268907563025209129e+01 1.287081518593793383e-01 -2.715461590242984613e-02
8.369747899159663973e+01 1.149265939458168351e-01 -2.372866491757807950e-02
8.470588235294117396e+01 1.022737595539161548e-01 -2.104322629760924102e-02
8.571428571428570820e+01 9.135427285574604372e-02 -1.904833764667701601e-02
8.672268907563025664e+01 8.277280045884694015e-02 -1.770074504289276263e-02
8.773109243697479087e+01 7.707526916313367504e-02 -1.696821967808603837e-02
8.873949579831932510e+01 7.468967184367070189e-02 -1.683252411665359105e-02
8.974789915966385934e+01 7.587528966990486623e-02 -1.729090916215092477e-02
9.075630252100839357e+01 8.068968607679005700e-02 -1.835608895903928506e-02
9.176470588235294201e+01 8.897988973320480888e-02 -2.005470322969671315e-02
9.277310924369747624e+01 1.003980705568566778e-01 -2.242435555739441533e-02
9.378151260504201048e+01 1.144359712447087229e-01 -2.550938079084508203e-02
9.478991596638655892e+01 1.304695181385069347e-01 -2.935552711602817944e-02
9.579831932773109315e+01 1.478071223090384745e-01 -3.400381476036051787e-02
9.680672268907562739e+01 1.657387498434335082e-01 -3.948385878391702519e-02
9.781512605042016162e+01 1.835842907932581092e-01 -4.580696379370596816e-02
9.882352941176469585e+01 2.007385611776666412e-01 -5.295933958646426021e-02
9.983193277310924429e+01 2.167088296079247023e-01 -6.089583669306408709e-02
1.008403361344537785e+02 2.311409279101879211e-01 -6.953448247533788873e-02
1.018487394957983128e+02 2.438325010642499180e-01 -7.875230348911355094e-02
1.028571428571428612e+02 2.547332723138944210e-01 -8.838287470036143567e-02
1.038655462184873954e+02 2.639330407472637585e-01 -9.821609471144920889e-02
1.048739495798319297e+02 2.716381867739330325e-01 -1.080007286619096840e-01
1.058823529411764639e+02 2.781370884641296559e-01 -1.174504179135539284e-01
1.068907563025209981e+02 2.837549865984996256e-01 -1.262534332911198209e-01
1.078991596638655466e+02 2.888006938393166134e-01 -1.340866156283004873e-01
1.089075630252100808e+02 2.935113061004637203e-01 -1.406333387202022278e-01
1.099159663865546150e+02 2.980052512513424734e-01 -1.456046070227844380e-01
1.109243697478991635e+02 3.022548563430966784e-01 -1.487614487549766551e-01
1.119327731092436977e+02 3.060848871206660604e-01 -1.499359681868281946e-01
1.129411764705882320e+02 3.091951792570573065e-01 -1.490476215718952169e-01
1.139495798319327662e+02 3.111995102818005954e-01 -1.461118921884724253e-01
1.149579831932773004e+02 3.116721964662225730e-01 -1.412396898631700370e-01
1.159663865546218489e+02 3.101957453734751624e-01 -1.346275837933031960e-01
1.169747899159663831e+02 3.064047705969912272e-01 -1.265407623768872725e-01
1.179831932773109173e+02 3.000232296125864284e-01 -1.172916548384398405e-01
1.189915966386554658e+02 2.908935317926646391e-01 -1.072172840477700895e-01
1.200000000000000000e+02 2.789972245890024460e-01 -9.665798412108661530e-02
