0.000000000000000000e+00 0.000000000000000000e+00 1.110223024625156540e-16
1.008403361344537785e+00 4.339927059653359009e-04 1.785974625992947651e-04
2.016806722689075571e+00 1.723610384156470943e-03 7.110344188595574266e-04
3.025210084033613356e+00 3.832833581955630287e-03 1.587485770422558673e-03
4.033613445378151141e+00 6.703725385369563305e-03 2.792620007470603127e-03
5.042016806722688926e+00 1.025752586079176076e-02 4.307423192356218955e-03
6.050420168067226712e+00 1.439746021159671319e-02 6.111288769783618235e-03
7.058823529411764497e+00 1.901397874820931477e-02 8.183478482148953681e-03
8.067226890756302282e+00 2.398606395058588969e-02 1.050609359754073324e-02
9.075630252100840067e+00 2.918539877011760986e-02 1.306572864988475580e-02
1.008403361344537785e+01 3.448038849777768089e-02 1.585466553594028216e-02
1.109243697478991564e+01 3.973913078007695887e-02 1.887187829218239798e-02
1.210084033613445342e+01 4.483334298023855524e-02 2.212279575340725390e-02
1.310924369747899121e+01 4.963909545523104150e-02 2.561985625424623159e-02
1.411764705882352899e+01 5.404251516445179870e-02 2.937958004113871979e-02
1.512605042016806678e+01 5.793844547654392052e-02 3.342266429741258538e-02
1.613445378151260456e+01 6.123569190759381442e-02 3.776975596479104080e-02
1.714285714285714235e+01 6.385553680076005989e-02 4.244056512547178528e-02
1.815126050420168013e+01 6.573529775259967511e-02 4.744972912304123991e-02
1.915966386554621792e+01 6.682760903406936848e-02 5.280520892474038774e-02
2.016806722689075571e+01 6.710171735875780641e-02 5.850555707800475513e-02
2.117647058823529349e+01 6.654349304388418318e-02 6.453848830667396896e-02
2.218487394957983128e+01 6.515541698638138701e-02 7.087975937252921632e-02
2.319327731092436906e+01 6.295612590119370466e-02 7.749326383263854812e-02
2.420168067226890685e+01 5.998024035916604824e-02 8.433111318171149229e-02
2.521008403361344463e+01 5.627685352030797894e-02 9.133563053732984827e-02
2.621848739495798242e+01 5.190942398330555818e-02 9.844030328112374217e-02
2.722689075630252020e+01 4.695370562041789597e-02 1.055727301453908140e-01
2.823529411764705799e+01 4.149684107672457767e-02 1.126565449111945894e-01
2.924369747899159577e+01 3.563604187118241118e-02 1.196136241657014265e-01
3.025210084033613356e+01 2.947586420384096240e-02 1.263671015360853245e-01
3.126050420168067134e+01 2.312829800695082039e-02 1.328418862292380931e-01
3.226890756302520913e+01 1.670829727634914885e-02 1.389682359809654155e-01
3.327731092436974336e+01 1.033486539893513356e-02 1.446807737687466622e-01
3.428571428571428470e+01 4.125838282136307100e-03 1.499217377107467941e-01
3.529411764705882604e+01 -1.801209658380598100e-03 1.546394540857208844e-01
3.630252100840336027e+01 -7.333439460297519474e-03 1.587903305066218351e-01
3.731092436974789450e+01 -1.236332124417360845e-02 1.623378647803813690e-01
3.831932773109243584e+01 -1.679145313686047913e-02 1.652530020557535506e-01
3.932773109243697718e+01 -2.052892915451476341e-02 1.675140006552688909e-01
4.033613445378151141e+01 -2.349907330894640545e-02 1.691057775403818075e-01
4.134453781512604564e+01 -2.564067122140922805e-02 1.700201265789499372e-01
4.235294117647058698e+01 -2.690952984253303093e-02 1.702549393132132272e-01
4.336134453781512832e+01 -2.728130079291912757e-02 1.698143070317249537e-01
4.436974789915966255e+01 -2.675279979303457623e-02 1.687080898604185197e-01
4.537815126050419678e+01 -2.534322591614901476e-02 1.669518244925410899e-01
4.638655462184873812e+01 -2.309398068612400490e-02 1.645664804229655109e-01
4.739495798319327946e+01 -2.006790783882150819e-02 1.615785507518222586e-01
4.840336134453781369e+01 -1.634634777912757908e-02 1.580194377372317049e-01
4.941176470588234793e+01 -1.202705259343161970e-02 1.539260679134962784e-01
5.042016806722688926e+01 -7.218746853342006276e-03 1.493395667496628665e-01
5.142857142857143060e+01 -2.038836096395879594e-03 1.443063195744469507e-01
5.243697478991596483e+01 3.392866369442582020e-03 1.388760667820888584e-01
5.344537815126049907e+01 8.956049423576972757e-03 1.331028558522490135e-01
5.445378151260504040e+01 1.453501157348913164e-02 1.270431724003776575e-01
5.546218487394958174e+01 2.002048035243997326e-02 1.207559747578708098e-01
5.647058823529411598e+01 2.531226709904010885e-02 1.143015681504214731e-01
5.747899159663865021e+01 3.032127326476097284e-02 1.077403430988080890e-01
5.848739495798319155e+01 3.496988617475449423e-02 1.011324688800655514e-01
5.949579831932773288e+01 3.919374983440937488e-02 9.453579690015601056e-02
6.050420168067226712e+01 4.294085328653418632e-02 8.800602007404967342e-02
6.151260504201680135e+01 4.617253559699685539e-02 8.159450894840369894e-02
6.252100840336134269e+01 4.886216491849437737e-02 7.534854550228797798e-02
6.352941176470588402e+01 5.099516446362439837e-02 6.930982026627685588e-02
6.453781512605041826e+01 5.256778710061826843e-02 6.351453926234507108e-02
6.554621848739495249e+01 5.358653641826272018e-02 5.799289120281680976e-02
6.655462184873948672e+01 5.406695007572914768e-02 5.276920076477176202e-02
6.756302521008403517e+01 5.403298590445493321e-02 4.786210244771105238e-02
6.857142857142856940e+01 5.351539967054885771e-02 4.328507362616551557e-02
6.957983193277310363e+01 5.255129285822035534e-02 3.904688890439189652e-02
7.058823529411765207e+01 5.118198373847149263e-02 3.515256809421685169e-02
7.159663865546218631e+01 4.945260476445845210e-02 3.160386235916778919e-02
7.260504201680672054e+01 4.741009609243884704e-02 2.840028575141817502e-02
7.361344537815125477e+01 4.510272712883345303e-02 2.553965266977986648e-02
7.462184873949578900e+01 4.257928256872811623e-02 2.301867291394177339e-02
7.563025210084033745e+01 3.988855583779671310e-02 2.083364490673511593e-02
7.663865546218487168e+01 3.708012218810019522e-02 1.898034142905125066e-02
7.764705882352940591e+01 3.420387441702132936e-02 1.745478017266133275e-02
7.865546218487395436e+01 3.131171605938187774e-02 1.625249096723768716e-02
7.966386554621848859e+01 2.845685803182562701e-02 1.536917245153990308e-02
8.067226890756302282e+01 2.569517167657386914e-02 1.479970347051540180e-02
8.168067226890755705e+01 2.308398706143566237e-02 1.453844816185134725e-02
8.268907563025209129e+01 2.068196823453116728e-02 1.457849688312518044e-02
8.369747899159663973e+01 1.854746955023989230e-02 1.491148626770910646e-02
8.470588235294117396e+01 1.673659815604988665e-02 1.552737440007323499e-02
8.571428571428570820e+01 1.530128230083360741e-02 1.641397805151723066e-02
8.672268907563025664e+01 1.428623861622613234e-02 1.755723962718525044e-02
8.773109243697479087e+01 1.372710948968669520e-02 1.894083071160568288e-02
8.873949579831932510e+01 1.364759635909584823e-02 2.054674327308958492e-02
8.974789915966385934e+01 1.405825131988946985e-02 2.235522600326855791e-02
9.075630252100839357e+01 1.495498388516336430e-02 2.434550800087753597e-02
9.176470588235294201e+01 1.631910076345999272e-02 2.649613988454579960e-02
9.277310924369747624e+01 1.811762339761413543e-02 2.878574268218492271e-02
9.378151260504201048e+01 2.030491316224014575e-02 3.119357371828790360e-02
9.478991596638655892e+01 2.282426903780376826e-02 3.370031320077182535e-02
9.579831932773109315e+01 2.561092825181343624e-02 3.628854381455648426e-02
9.680672268907562739e+01 2.859401754640999993e-02 3.894356401266241274e-02
9.781512605042016162e+01 3.170012650156683875e-02 4.165356985633228426e-02
9.882352941176469585e+01 3.485496656262931925e-02 4.441034475171778961e-02
9.983193277310924429e+01 3.798640048134416247e-02 4.720914976881418479e-02
1.008403361344537785e+02 4.102573634184070173e-02 5.004897844719791156e-02
1.018487394957983128e+02 4.390922460659241189e-02 5.293236395645439796e-02
1.028571428571428612e+02 4.657915445884130978e-02 5.586490975289781780e-02
1.038655462184873954e+02 4.898363456081655798e-02 5.885513990789548178e-02
1.048739495798319297e+02 5.107745244671491047e-02 6.191331379508857591e-02
1.058823529411764639e+02 5.282068985016319385e-02 6.505128248320468654e-02
1.068907563025209981e+02 5.417929489543049648e-02 6.828086448285819454e-02
1.078991596638655466e+02 5.512343647802064872e-02 7.161356910574767642e-02
1.089075630252100808e+02 5.562779709781051629e-02 7.505900431704903841e-02
1.099159663865546150e+02 5.567059295845688816e-02 7.862433117803602212e-02
1.109243697478991635e+02 5.523372168802931359e-02 8.231315327231514267e-02
1.119327731092436977e+02 5.430292195748209760e-02 8.612479982867304873e-02
1.129411764705882320e+02 5.286814889479840573e-02 9.005380236661308935e-02
1.139495798319327662e+02 5.092466053022259853e-02 9.408939194741139378e-02
1.149579831932773004e+02 4.847389782711009065e-02 9.821543386099984563e-02
1.159663865546218489e+02 4.552493592285045132e-02 1.024104502322890076e-01
1.169747899159663831e+02 4.209572907696768063e-02 1.066478806355960485e-01
1.179831932773109173e+02 3.821432231216204123e-02 1.108966353975644470e-01
1.189915966386554658e+02 3.391983331004866375e-02 1.151217058682241223e-01
1.200000000000000000e+02 2.926319086250761536e-02 1.192848786365322544e-01
