0.000000000000000000e+00 2.220446049250313081e-16 -1.110223024625156540e-16
1.008403361344537785e+00 8.136872833455210952e-04 -4.706624341849208193e-04
2.016806722689075571e+00 3.231249716821427143e-03 -1.879864315346924108e-03
3.025210084033613356e+00 7.184483622637460876e-03 -4.219464468399269919e-03
4.033613445378151141e+00 1.256327764912013034e-02 -7.474358803370551030e-03
5.042016806722688926e+00 1.921676498731739180e-02 -1.161791828179215003e-02
6.050420168067226712e+00 2.696335955294215658e-02 -1.661133776366785497e-02
7.058823529411764497e+00 3.559455278747314377e-02 -2.239827595517818182e-02
8.067226890756302282e+00 4.488163272107670299e-02 -2.890080405364581217e-02
9.075630252100840067e+00 5.458529198004424821e-02 -3.601767721592097349e-02
1.008403361344537785e+01 6.446020096881233119e-02 -4.362003096755162623e-02
1.109243697478991564e+01 7.426333884892977188e-02 -5.155120284522052287e-02
1.210084033613445342e+01 8.376032347820827617e-02 -5.962732752949695403e-02
1.310924369747899121e+01 9.272919936867307644e-02 -6.763837424057461689e-02
1.411764705882352899e+01 1.009675079486100913e-01 -7.535507016268527813e-02
1.512605042016806678e+01 1.082955242266970819e-01 -8.253610767403363191e-02
1.613445378151260456e+01 1.145584792563816290e-01 -8.893772922568721206e-02
1.714285714285714235e+01 1.196310056308640402e-01 -9.432880661117826193e-02
1.815126050420168013e+01 1.234176863876101926e-01 -9.850457112016086647e-02
1.915966386554621792e+01 1.258538532248267838e-01 -1.013013788887116018e-01
2.016806722689075571e+01 1.269069470068959760e-01 -1.026111334901136374e-01
2.117647058823529349e+01 1.265752312803498647e-01 -1.023895292467347229e-01
2.218487394957983128e+01 1.248873980492166691e-01 -1.006601131679001337e-01
2.319327731092436906e+01 1.219009649882748514e-01 -9.751126797143649938e-02
2.420168067226890685e+01 1.177000008580887380e-01 -9.308700052687124415e-02
2.521008403361344463e+01 1.123936050093393701e-01 -8.757482164453755935e-02
2.621848739495798242e+01 1.061118716463400613e-01 -8.118955339107358782e-02
2.722689075630252020e+01 9.900322885834977882e-02 -7.415903360516307163e-02
2.823529411764705799e+01 9.123182525327766523e-02 -6.671185404877544300e-02
2.924369747899159577e+01 8.297198367570657318e-02 -5.906522414679959976e-02
3.025210084033613356e+01 7.440556198177972203e-02 -5.141860933840158854e-02
3.126050420168067134e+01 6.571851110044923949e-02 -4.394935314399428528e-02
3.226890756302520913e+01 5.709502459273663177e-02 -3.680870274359815397e-02
3.327731092436974336e+01 4.871524348994893394e-02 -3.012266844750777217e-02
3.428571428571428470e+01 4.075158760609420838e-02 -2.399295263293388381e-02
3.529411764705882604e+01 3.336383904823958524e-02 -1.849779745273139042e-02
3.630252100840336027e+01 2.669748273318439669e-02 -1.369564843987747249e-02
3.731092436974789450e+01 2.088061089320847330e-02 -9.627688145492419025e-03
3.831932773109243584e+01 1.602086959331228133e-02 -6.320137852651619426e-03
3.932773109243697718e+01 1.220463973946273040e-02 -3.787555777616802288e-03
4.033613445378151141e+01 9.495193987601013852e-03 -2.034724996166747957e-03
4.134453781512604564e+01 7.931787974484572068e-03 -1.058402099346933412e-03
4.235294117647058698e+01 7.529556711557749971e-03 -8.487810658697192423e-04
4.336134453781512832e+01 8.279033837047977684e-03 -1.389941201984767893e-03
4.436974789915966255e+01 1.014691355679464557e-02 -2.660381823433421999e-03
4.537815126050419678e+01 1.307641720152274978e-02 -4.632608117096315148e-03
4.638655462184873812e+01 1.698824730131365257e-02 -7.272501657732854952e-03
4.739495798319327946e+01 2.178286623862435434e-02 -1.053902891930302843e-02
4.840336134453781369e+01 2.734189880266191253e-02 -1.438285570240527278e-02
4.941176470588234793e+01 3.353111661317320635e-02 -1.874566293447588183e-02
5.042016806722688926e+01 4.020444426156810636e-02 -2.355994473500544473e-02
5.142857142857143060e+01 4.720688359203206730e-02 -2.874791617280314515e-02
5.243697478991596483e+01 5.437928785075352156e-02 -3.422188581260643403e-02
5.344537815126049907e+01 6.156321235025197236e-02 -3.988507159913734501e-02
5.445378151260504040e+01 6.860441826828356238e-02 -4.563192310660824091e-02
5.546218487394958174e+01 7.535769876774556231e-02 -5.135030857805911175e-02
5.647058823529411598e+01 8.169068576858073971e-02 -5.692392082483843652e-02
5.747899159663865021e+01 8.748627640997941324e-02 -6.223458795301284319e-02
5.848739495798319155e+01 9.264562350984395511e-02 -6.716628139771807504e-02
5.949579831932773288e+01 9.708956265828327936e-02 -7.160888466054560197e-02
6.050420168067226712e+01 1.007590563796200156e-01 -7.546193237190723657e-02
6.151260504201680135e+01 1.036155772652457285e-01 -7.863909805227531358e-02
6.252100840336134269e+01 1.056401275294187592e-01 -8.107167811922211254e-02
6.352941176470588402e+01 1.068319537677129283e-01 -8.271156904763821149e-02
6.453781512605041826e+01 1.072068968888282292e-01 -8.353351736904890412e-02
6.554621848739495249e+01 1.067952210153361170e-01 -8.353578814814655029e-02
6.655462184873948672e+01 1.056397685641242701e-01 -8.273994101760007158e-02
6.756302521008403517e+01 1.037935314246886120e-01 -8.118906159410532730e-02
6.857142857142856940e+01 1.013174142499631003e-01 -7.894498134171679116e-02
6.957983193277310363e+01 9.827834481834762936e-02 -7.608512700176039978e-02
7.058823529411765207e+01 9.474648962337228753e-02 -7.269824043117500967e-02
7.159663865546218631e+01 9.079323094183433529e-02 -6.888047805273034285e-02
7.260504201680672054e+01 8.648958590160227278e-02 -6.473193426218948332e-02
7.361344537815125477e+01 8.190413246711381046e-02 -6.035269301397439001e-02
7.462184873949578900e+01 7.710260099894161723e-02 -5.584019591457423104e-02
7.563025210084033745e+01 7.214828089725233706e-02 -5.128722561831189353e-02
7.663865546218487168e+01 6.710241304051522970e-02 -4.677964392920697101e-02
7.764705882352940591e+01 6.202631765071497938e-02 -4.239560095124272898e-02
7.865546218487395436e+01 5.698371079539976680e-02 -3.820507162239650256e-02
7.966386554621848859e+01 5.204224259348533277e-02 -3.426912520039504528e-02
8.067226890756302282e+01 4.727550407158120915e-02 -3.064040339511775457e-02
8.168067226890755705e+01 4.276381527982286990e-02 -2.736355817601354712e-02
8.268907563025209129e+01 3.859314898035837160e-02 -2.447539473410442756e-02
8.369747899159663973e+01 3.485361465808500814e-02 -2.200583375111975215e-02
8.470588235294117396e+01 3.163627448756123339e-02 -1.997857024287796879e-02
8.571428571428570820e+01 2.902844061819742638e-02 -1.841147091499018007e-02
8.672268907563025664e+01 2.710919092489494364e-02 -1.731739746686011827e-02
8.773109243697479087e+01 2.594426414074235687e-02 -1.670460738008450186e-02
8.873949579831932510e+01 2.558109854942569594e-02 -1.657698591065226434e-02
8.974789915966385934e+01 2.604526821087993493e-02 -1.693436122584857095e-02
9.075630252100839357e+01 2.733757797676283907e-02 -1.777242364288655896e-02
9.176470588235294201e+01 2.943272088121196006e-02 -1.908261931370625053e-02
9.277310924369747624e+01 3.227961092590858616e-02 -2.085186528296800734e-02
9.378151260504201048e+01 3.580296750174971621e-02 -2.306203622584113155e-02
9.478991596638655892e+01 3.990684489169160631e-02 -2.568960665962105594e-02
9.579831932773109315e+01 4.447906291065450990e-02 -2.870494996302763724e-02
9.680672268907562739e+01 4.939672362706293285e-02 -3.207170539094417183e-02
9.781512605042016162e+01 5.453285214781755652e-02 -3.574649506904048479e-02
9.882352941176469585e+01 5.976232422973715153e-02 -3.967823908233869545e-02
9.983193277310924429e+01 6.496778439137529393e-02 -4.380793641060187760e-02
1.008403361344537785e+02 7.004484166832281034e-02 -4.806896544234584567e-02
1.018487394957983128e+02 7.490492594899378354e-02 -5.238703100338315544e-02
1.028571428571428612e+02 7.947707648567736705e-02 -5.668101239195055818e-02
1.038655462184873954e+02 8.370791417348188990e-02 -6.086440790230585041e-02
1.048739495798319297e+02 8.755922667755866584e-02 -6.484653724301336908e-02
1.058823529411764639e+02 9.100476175245342247e-02 -6.853495409947085726e-02
1.068907563025209981e+02 9.402592441421209202e-02 -7.183829057398916085e-02
1.078991596638655466e+02 9.660667368528030874e-02 -7.466886142604955978e-02
1.089075630252100808e+02 9.872925392621123564e-02 -7.694634606066275140e-02
1.099159663865546150e+02 1.003707778883549118e-01 -7.860128344300731928e-02
1.109243697478991635e+02 1.015010281336178322e-01 -7.957799298948842193e-02
1.119327731092436977e+02 1.020826478516640989e-01 -7.983779369841470519e-02
1.129411764705882320e+02 1.020730755957455216e-01 -7.936109988449024932e-02
1.139495798319327662e+02 1.014279514783155145e-01 -7.814851511783027505e-02
1.149579831932773004e+02 1.001062950887388059e-01 -7.622132217651444996e-02
1.159663865546218489e+02 9.807599444226977603e-02 -7.362047975406427192e-02
1.169747899159663831e+02 9.531933582599905197e-02 -7.040486112470878410e-02
1.179831932773109173e+02 9.183818104368468571e-02 -6.664868485180508451e-02
1.189915966386554658e+02 8.765765721964369206e-02 -6.243819902127345500e-02
1.200000000000000000e+02 8.282873567894832867e-02 -5.786848449996917498e-02
