0.000000000000000000e+00 2.220446049250313081e-16 1.110223024625156540e-16
1.008403361344537785e+00 1.584911850033732250e-03 6.331728751406417999e-04
2.016806722689075571e+00 6.286707691235959850e-03 2.465125296527537202e-03
3.025210084033613356e+00 1.395285478506991250e-02 5.305560757358551704e-03
4.033613445378151141e+00 2.433640347934884485e-02 8.872811271388725274e-03
5.042016806722688926e+00 3.711229698674800570e-02 1.283590889471430962e-02
6.050420168067226712e+00 5.189307151379363159e-02 1.685634618680720287e-02
7.058823529411764497e+00 6.824495673645969429e-02 2.062380727481960552e-02
8.067226890756302282e+00 8.570755242815675246e-02 2.388317899341485528e-02
9.075630252100840067e+00 1.038086518430765270e-01 2.645371902423676591e-02
1.008403361344537785e+01 1.220787073401277123e-01 2.824132944963075875e-02
1.109243697478991564e+01 1.400638314854572020e-01 2.924487506542483573e-02
1.210084033613445342e+01 1.573373592203939353e-01 2.955692603204995716e-02
1.310924369747899121e+01 1.735079988864336453e-01 2.935980861869513792e-02
1.411764705882352899e+01 1.882266151981648594e-01 2.891619912951115534e-02
1.512605042016806678e+01 2.011914349402157409e-01 2.855373972488595147e-02
1.613445378151260456e+01 2.121521506252741496e-01 2.864289724503488177e-02
1.714285714285714235e+01 2.209110460693992639e-01 2.956941098383514266e-02
1.815126050420168013e+01 2.273235076474131588e-01 3.170117728479049379e-02
1.915966386554621792e+01 2.312975755011650314e-01 3.535239839876347379e-02
2.016806722689075571e+01 2.327926530852759690e-01 4.074955399129387423e-02
2.117647058823529349e+01 2.318168034899292795e-01 4.800567378596642953e-02
2.218487394957983128e+01 2.284240360364815370e-01 5.710730751372594671e-02
2.319327731092436906e+01 2.227113793919603957e-01 6.791730054441513786e-02
2.420168067226890685e+01 2.148151023886692990e-01 8.019302494392155367e-02
2.521008403361344463e+01 2.049069839758657086e-01 9.361480613073647206e-02
2.621848739495798242e+01 1.931906620487651161e-01 1.078184298607482994e-01
2.722689075630252020e+01 1.798980339845615006e-01 1.224262479933297953e-01
2.823529411764705799e+01 1.652845358016765687e-01 1.370740189964076983e-01
2.924369747899159577e+01 1.496252618442008853e-01 1.514302313144937351e-01
3.025210084033613356e+01 1.332109898307245466e-01 1.652085802746793286e-01
3.126050420168067134e+01 1.163440962507111820e-01 1.781743726192709376e-01
3.226890756302520913e+01 9.933323503975710622e-02 1.901465565209312647e-01
3.327731092436974336e+01 8.248895076377804614e-02 2.009952289153890126e-01
3.428571428571428470e+01 6.611913387470902403e-02 2.106364766807607980e-01
3.529411764705882604e+01 5.052413088269724906e-02 2.190255472448651153e-01
3.630252100840336027e+01 3.599098723374161146e-02 2.261493140013522973e-01
3.731092436974789450e+01 2.278877301470938477e-02 2.320180626151183700e-01
3.831932773109243584e+01 1.116505819510638098e-02 2.366575987141273929e-01
3.932773109243697718e+01 1.344002598099303114e-03 2.401022487298559716e-01
4.033613445378151141e+01 -6.473903722133744765e-03 2.423890439683221709e-01
4.134453781512604564e+01 -1.211104600260848319e-02 2.435531557465518970e-01
4.235294117647058698e+01 -1.541369850672458242e-02 2.436249286855698415e-01
4.336134453781512832e+01 -1.625783467569585916e-02 2.426285875108086243e-01
4.436974789915966255e+01 -1.456117835365322577e-02 2.405824294531228036e-01
4.537815126050419678e+01 -1.030065289202652945e-02 2.375002959040731776e-01
4.638655462184873812e+01 -3.531884258247797170e-03 2.333943006489976879e-01
4.739495798319327946e+01 5.595851271397278559e-03 2.282784012614035296e-01
4.840336134453781369e+01 1.683598912562811467e-02 2.221724082983020931e-01
4.941176470588234793e+01 2.985541798198476648e-02 2.151060163210712917e-01
5.042016806722688926e+01 4.425624523815141487e-02 2.071228940090020787e-01
5.142857142857143060e+01 5.960324497309277270e-02 1.982841987187958788e-01
5.243697478991596483e+01 7.545103763724925194e-02 1.886712303092044074e-01
5.344537815126049907e+01 9.136754341131503310e-02 1.783868229516979431e-01
5.445378151260504040e+01 1.069511936873169811e-01 1.675558149812713671e-01
5.546218487394958174e+01 1.218431677288883686e-01 1.563239345635980548e-01
5.647058823529411598e+01 1.357352691795883359e-01 1.448550759748057359e-01
5.747899159663865021e+01 1.483745907508779993e-01 1.333267493430754236e-01
5.848739495798319155e+01 1.595647445041930013e-01 1.219243459697956222e-01
5.949579831932773288e+01 1.691652323705197247e-01 1.108338492745919446e-01
6.050420168067226712e+01 1.770889838501681357e-01 1.002334680725612825e-01
6.151260504201680135e+01 1.832982079322373892e-01 9.028464997361218547e-02
6.252100840336134269e+01 1.877984031515775865e-01 8.112359764821375219e-02
6.352941176470588402e+01 1.906316064810991140e-01 7.285374534345356867e-02
6.453781512605041826e+01 1.918695547613629149e-01 6.554018713399012430e-02
6.554621848739495249e+01 1.916073373928570689e-01 5.920687985079542415e-02
6.655462184873948672e+01 1.899582587037922377e-01 5.383707762703782151e-02
6.756302521008403517e+01 1.870497214048723045e-01 4.937685148039561156e-02
6.857142857142856940e+01 1.830194105189923981e-01 4.574130899906914127e-02
6.957983193277310363e+01 1.780105845409705179e-01 4.282293565139660974e-02
7.058823529411765207e+01 1.721666534567665163e-01 4.050086670856234417e-02
7.159663865546218631e+01 1.656248201564831657e-01 3.865023301696068891e-02
7.260504201680672054e+01 1.585095361966655236e-01 3.715083787457273967e-02
7.361344537815125477e+01 1.509268809060158034e-01 3.589478443199278779e-02
7.462184873949578900e+01 1.429623576497673909e-01 3.479240632146296530e-02
7.563025210084033745e+01 1.346831987185987956e-01 3.377646125736755156e-02
7.663865546218487168e+01 1.261453608336666754e-01 3.280460694499698349e-02
7.764705882352940591e+01 1.174039109742063269e-01 3.186027867663931978e-02
7.865546218487395436e+01 1.085251724817530850e-01 3.095184534957007294e-02
7.966386554621848859e+01 9.959824925051286026e-02 3.011020059862012932e-02
8.067226890756302282e+01 9.074388619922491017e-02 2.938497772498205318e-02
8.168067226890755705e+01 8.211918808188789498e-02 2.883953650286319448e-02
8.268907563025209129e+01 7.391753534130307557e-02 2.854485947460971840e-02
8.369747899159663973e+01 6.636343555160850727e-02 2.857268242862986973e-02
8.470588235294117396e+01 5.970209094995693189e-02 2.898837353102856618e-02
8.571428571428570820e+01 5.418421875914780639e-02 2.984411652740470711e-02
8.672268907563025664e+01 5.004747354299399209e-02 3.117303861400377851e-02
8.773109243697479087e+01 4.749661460526000134e-02 3.298490569297773956e-02
8.873949579831932510e+01 4.668432790977772306e-02 3.526392987729465300e-02
8.974789915966385934e+01 4.769536408803320970e-02 3.796892365965154337e-02
9.075630252100839357e+01 5.053646303683534402e-02 4.103573405525773321e-02
9.176470588235294201e+01 5.513357378006100706e-02 4.438157185860613918e-02
9.277310924369747624e+01 6.133610096934649647e-02 4.791072387780226371e-02
9.378151260504201048e+01 6.892716792426756278e-02 5.152102095905386481e-02
9.478991596638655892e+01 7.763839635053582100e-02 5.511046534165930932e-02
9.579831932773109315e+01 8.716714137463499323e-02 5.858355565800210663e-02
9.680672268907562739e+01 9.719504974339310266e-02 6.185700207182198707e-02
9.781512605042016162e+01 1.074069010589302486e-01 6.486461730452897090e-02
9.882352941176469585e+01 1.175087335955175005e-01 6.756117953456319825e-02
9.983193277310924429e+01 1.272429633984617503e-01 6.992530609670100095e-02
1.008403361344537785e+02 1.363997996598484974e-01 7.196123887172689582e-02
1.018487394957983128e+02 1.448241970412922353e-01 7.369950332261809844e-02
1.028571428571428612e+02 1.524183574433810584e-01 7.519621884464944284e-02
1.038655462184873954e+02 1.591392317121851363e-01 7.653127883961730049e-02
1.048739495798319297e+02 1.649916629896801545e-01 7.780519576208766441e-02
1.058823529411764639e+02 1.700169973936640488e-01 7.913462432214146691e-02
1.068907563025209981e+02 1.742770831195525894e-01 8.064639922563643371e-02
1.078991596638655466e+02 1.778338396011140965e-01 8.247064418993843571e-02
1.089075630252100808e+02 1.807267439427697742e-01 8.473301676320443843e-02
1.099159663865546150e+02 1.829529740079212097e-01 8.754657054271830496e-02
1.109243697478991635e+02 1.844565965444744382e-01 9.100369933235341602e-02
1.119327731092436977e+02 1.851303266065045250e-01 9.516924637639112561e-02
1.129411764705882320e+02 1.848282289926066468e-01 1.000752658926814531e-01
1.139495798319327662e+02 1.833842059368886446e-01 1.057180057857664002e-01
1.149579831932773004e+02 1.806317044055649745e-01 1.120574476557419930e-01
1.159663865546218489e+02 1.764217515042403317e-01 1.190195817564900782e-01
1.169747899159663831e+02 1.706385848989937504e-01 1.265009277481295991e-01
1.179831932773109173e+02 1.632128362601499294e-01 1.343747172481792873e-01
1.189915966386554658e+02 1.541320625195230498e-01 1.424981595722594196e-01
1.200000000000000000e+02 1.434482792319782263e-01 1.507200663081222913e-01
